repport_data/power_optimized_bf_sys_change/data_36_000.csv

Channel              :,CH1,CH2
Frequency            :,  ?,  ?
Period               :,  ?,  ?
PK-PK                :,424.0mV,80.00mV
Probe attenuation    :,1X,1X
Voltage per ADC value:,0.250000mV,2.500000mV
Time interval        :,200.00000uS,200.00000uS

index,CH1_Voltage(mV),CH2_Voltage(mV)
1,-104.000000,2960.000000
2,-104.000000,2960.000000
3,-100.000000,2960.000000
4,-96.000000,2960.000000
5,-104.000000,2960.000000
6,-100.000000,3000.000000
7,-100.000000,2960.000000
8,-100.000000,2960.000000
9,-96.000000,2960.000000
10,-100.000000,2960.000000
11,-100.000000,2960.000000
12,-96.000000,2960.000000
13,-96.000000,3000.000000
14,-100.000000,2960.000000
15,-96.000000,3000.000000
16,-96.000000,3000.000000
17,-100.000000,2960.000000
18,-100.000000,3000.000000
19,-104.000000,2960.000000
20,-100.000000,2960.000000
21,-96.000000,3000.000000
22,-96.000000,3000.000000
23,-104.000000,2960.000000
24,-104.000000,2960.000000
25,-100.000000,2960.000000
26,-100.000000,2960.000000
27,-100.000000,3000.000000
28,-96.000000,2960.000000
29,-100.000000,3000.000000
30,-104.000000,3000.000000
31,-92.000000,2960.000000
32,-100.000000,3000.000000
33,-100.000000,2960.000000
34,-96.000000,2960.000000
35,-100.000000,2960.000000
36,-96.000000,2960.000000
37,-100.000000,2960.000000
38,-100.000000,2960.000000
39,-104.000000,3000.000000
40,-100.000000,2960.000000
41,-96.000000,2960.000000
42,-96.000000,2960.000000
43,-100.000000,3000.000000
44,-96.000000,2960.000000
45,-100.000000,2960.000000
46,-100.000000,3000.000000
47,-100.000000,2960.000000
48,-100.000000,2960.000000
49,-96.000000,2960.000000
50,-100.000000,3000.000000
51,-96.000000,2960.000000
52,-100.000000,2960.000000
53,-100.000000,2960.000000
54,-100.000000,2960.000000
55,-96.000000,2960.000000
56,-100.000000,2960.000000
57,-100.000000,2960.000000
58,-100.000000,2960.000000
59,-104.000000,3000.000000
60,-104.000000,2960.000000
61,-96.000000,2960.000000
62,-100.000000,3000.000000
63,-92.000000,2960.000000
64,-100.000000,2960.000000
65,-96.000000,2960.000000
66,-100.000000,2960.000000
67,-100.000000,2960.000000
68,-100.000000,2960.000000
69,-100.000000,3000.000000
70,-104.000000,2960.000000
71,-104.000000,2960.000000
72,-104.000000,2960.000000
73,-100.000000,2960.000000
74,-100.000000,2960.000000
75,-96.000000,2960.000000
76,-96.000000,2960.000000
77,-100.000000,2960.000000
78,-96.000000,3000.000000
79,-100.000000,2960.000000
80,-100.000000,2960.000000
81,-92.000000,3000.000000
82,-100.000000,2960.000000
83,-104.000000,2960.000000
84,-100.000000,2960.000000
85,-100.000000,3000.000000
86,-96.000000,2960.000000
87,-96.000000,2960.000000
88,-100.000000,3000.000000
89,-100.000000,3000.000000
90,-100.000000,2960.000000
91,-96.000000,2960.000000
92,-100.000000,3000.000000
93,-96.000000,3000.000000
94,-96.000000,3000.000000
95,-96.000000,2960.000000
96,-96.000000,2960.000000
97,-96.000000,3000.000000
98,-104.000000,2960.000000
99,-100.000000,2960.000000
100,-104.000000,3000.000000
101,-100.000000,3000.000000
102,-100.000000,2960.000000
103,-100.000000,3000.000000
104,-104.000000,2960.000000
105,-100.000000,2960.000000
106,-100.000000,2960.000000
107,-96.000000,2960.000000
108,-100.000000,2960.000000
109,-96.000000,2960.000000
110,-100.000000,3000.000000
111,-96.000000,2960.000000
112,-96.000000,2960.000000
113,-96.000000,2960.000000
114,-100.000000,2960.000000
115,-100.000000,3000.000000
116,-96.000000,3000.000000
117,-104.000000,2960.000000
118,-96.000000,3000.000000
119,-100.000000,3000.000000
120,-96.000000,2960.000000
121,-100.000000,2960.000000
122,-96.000000,2960.000000
123,-100.000000,2960.000000
124,-100.000000,3000.000000
125,-100.000000,2960.000000
126,-104.000000,2960.000000
127,-100.000000,2960.000000
128,-96.000000,3000.000000
129,-96.000000,2960.000000
130,-76.000000,2960.000000
131,16.000000,2960.000000
132,80.000000,2960.000000
133,148.000000,2960.000000
134,188.000000,2960.000000
135,208.000000,2960.000000
136,224.000000,3000.000000
137,228.000000,3000.000000
138,164.000000,2960.000000
139,112.000000,2960.000000
140,68.000000,2960.000000
141,36.000000,2960.000000
142,8.000000,2960.000000
143,-16.000000,3000.000000
144,-32.000000,2960.000000
145,-44.000000,2960.000000
146,-52.000000,3000.000000
147,-64.000000,2960.000000
148,-72.000000,2960.000000
149,-72.000000,3000.000000
150,-84.000000,3000.000000
151,-84.000000,2960.000000
152,-84.000000,2960.000000
153,-88.000000,2960.000000
154,-88.000000,2960.000000
155,-92.000000,3000.000000
156,-92.000000,2960.000000
157,-96.000000,2960.000000
158,-92.000000,2960.000000
159,-100.000000,2960.000000
160,-100.000000,3000.000000
161,-96.000000,2960.000000
162,-96.000000,3000.000000
163,-96.000000,2960.000000
164,-100.000000,2960.000000
165,-104.000000,2960.000000
166,-100.000000,2960.000000
167,-96.000000,3000.000000
168,-96.000000,3000.000000
169,-100.000000,3000.000000
170,-104.000000,3000.000000
171,-100.000000,2960.000000
172,-96.000000,2960.000000
173,-96.000000,3000.000000
174,-104.000000,2960.000000
175,-100.000000,3000.000000
176,-104.000000,2960.000000
177,-100.000000,3000.000000
178,-96.000000,2960.000000
179,-104.000000,2960.000000
180,-96.000000,2960.000000
181,-96.000000,2960.000000
182,-104.000000,3000.000000
183,-100.000000,3000.000000
184,-96.000000,3000.000000
185,-96.000000,2960.000000
186,-96.000000,2960.000000
187,-100.000000,2960.000000
188,-100.000000,3000.000000
189,-100.000000,2960.000000
190,-100.000000,3000.000000
191,-100.000000,3000.000000
192,-100.000000,2960.000000
193,-96.000000,2960.000000
194,-96.000000,3000.000000
195,-100.000000,3000.000000
196,-96.000000,2960.000000
197,-100.000000,2960.000000
198,-96.000000,3000.000000
199,-100.000000,2960.000000
200,-96.000000,2960.000000
201,-96.000000,2960.000000
202,-104.000000,3000.000000
203,-100.000000,2960.000000
204,-100.000000,3000.000000
205,-100.000000,3000.000000
206,-96.000000,3000.000000
207,-104.000000,3000.000000
208,-96.000000,3000.000000
209,-100.000000,2960.000000
210,-100.000000,2960.000000
211,-96.000000,3000.000000
212,-100.000000,3000.000000
213,-100.000000,2960.000000
214,-100.000000,2960.000000
215,-104.000000,2960.000000
216,-100.000000,2960.000000
217,-96.000000,2960.000000
218,-100.000000,3000.000000
219,-100.000000,2960.000000
220,-100.000000,2960.000000
221,-96.000000,3000.000000
222,-100.000000,3000.000000
223,-100.000000,2960.000000
224,-96.000000,2960.000000
225,-104.000000,3000.000000
226,-100.000000,2960.000000
227,-100.000000,2960.000000
228,-104.000000,3000.000000
229,-100.000000,2960.000000
230,-100.000000,3000.000000
231,-96.000000,2960.000000
232,-96.000000,2960.000000
233,-96.000000,3000.000000
234,-100.000000,2960.000000
235,-96.000000,2960.000000
236,-100.000000,2960.000000
237,-96.000000,2960.000000
238,-100.000000,3000.000000
239,-100.000000,3000.000000
240,-100.000000,3000.000000
241,-100.000000,2960.000000
242,-96.000000,3000.000000
243,-100.000000,2960.000000
244,-92.000000,2960.000000
245,-96.000000,2960.000000
246,-100.000000,2960.000000
247,-96.000000,2960.000000
248,-104.000000,3000.000000
249,-96.000000,2960.000000
250,-100.000000,2960.000000
251,-96.000000,3000.000000
252,-100.000000,3000.000000
253,-100.000000,3000.000000
254,-100.000000,2960.000000
255,-100.000000,2960.000000
256,-104.000000,2960.000000
257,-96.000000,2960.000000
258,-100.000000,2960.000000
259,-100.000000,2960.000000
260,-96.000000,2960.000000
261,-104.000000,2960.000000
262,-104.000000,3000.000000
263,-100.000000,2960.000000
264,-100.000000,2960.000000
265,-96.000000,3000.000000
266,-96.000000,2960.000000
267,-100.000000,2960.000000
268,-104.000000,3000.000000
269,-100.000000,3000.000000
270,-96.000000,2960.000000
271,-96.000000,2960.000000
272,-96.000000,3000.000000
273,-104.000000,2960.000000
274,-104.000000,2960.000000
275,-100.000000,2960.000000
276,-104.000000,2960.000000
277,-100.000000,2960.000000
278,-96.000000,3000.000000
279,-100.000000,3000.000000
280,-100.000000,3000.000000
281,-96.000000,2960.000000
282,-100.000000,3000.000000
283,-96.000000,2960.000000
284,-100.000000,3000.000000
285,-96.000000,3000.000000
286,-100.000000,3000.000000
287,-100.000000,2960.000000
288,-96.000000,3000.000000
289,-96.000000,2960.000000
290,-96.000000,2960.000000
291,-100.000000,2960.000000
292,-100.000000,3000.000000
293,-100.000000,3000.000000
294,-100.000000,2960.000000
295,-100.000000,2960.000000
296,-100.000000,3000.000000
297,-100.000000,3000.000000
298,-96.000000,2960.000000
299,-96.000000,3000.000000
300,-104.000000,3000.000000
301,-92.000000,2960.000000
302,-96.000000,3000.000000
303,-96.000000,3000.000000
304,-100.000000,3000.000000
305,-104.000000,2960.000000
306,-96.000000,2960.000000
307,-96.000000,3000.000000
308,-96.000000,3000.000000
309,-96.000000,2960.000000
310,-100.000000,2960.000000
311,-100.000000,2960.000000
312,-100.000000,2960.000000
313,-100.000000,2960.000000
314,-100.000000,2960.000000
315,-100.000000,2960.000000
316,-96.000000,3000.000000
317,-100.000000,2960.000000
318,-104.000000,3000.000000
319,-100.000000,3000.000000
320,-100.000000,2960.000000
321,-100.000000,2960.000000
322,-96.000000,2960.000000
323,-100.000000,2960.000000
324,-96.000000,2960.000000
325,-96.000000,3000.000000
326,-100.000000,2960.000000
327,-100.000000,3000.000000
328,-100.000000,2960.000000
329,-96.000000,2960.000000
330,-100.000000,2960.000000
331,-104.000000,2960.000000
332,-100.000000,3000.000000
333,-104.000000,3000.000000
334,-100.000000,3000.000000
335,-92.000000,3000.000000
336,-100.000000,3000.000000
337,-104.000000,2960.000000
338,-104.000000,3000.000000
339,-100.000000,3000.000000
340,-96.000000,3000.000000
341,-104.000000,2960.000000
342,-104.000000,2960.000000
343,-104.000000,3000.000000
344,-100.000000,2960.000000
345,-100.000000,3000.000000
346,-100.000000,2960.000000
347,-96.000000,2960.000000
348,-92.000000,2920.000000
349,-96.000000,3000.000000
350,-100.000000,2960.000000
351,-100.000000,2960.000000
352,-100.000000,2960.000000
353,-104.000000,2960.000000
354,-100.000000,3000.000000
355,-100.000000,2960.000000
356,-96.000000,2960.000000
357,-100.000000,3000.000000
358,-104.000000,2960.000000
359,-104.000000,3000.000000
360,-96.000000,2960.000000
361,-100.000000,2960.000000
362,-100.000000,3000.000000
363,-96.000000,3000.000000
364,-100.000000,3000.000000
365,-100.000000,2960.000000
366,-104.000000,3000.000000
367,-96.000000,3000.000000
368,-100.000000,3000.000000
369,-100.000000,2960.000000
370,-104.000000,2960.000000
371,-100.000000,3000.000000
372,-104.000000,2960.000000
373,-100.000000,2960.000000
374,-96.000000,3000.000000
375,-96.000000,2960.000000
376,-104.000000,3000.000000
377,-92.000000,2960.000000
378,-100.000000,2960.000000
379,-100.000000,2960.000000
380,-108.000000,2960.000000
381,-44.000000,2960.000000
382,32.000000,2960.000000
383,100.000000,3000.000000
384,144.000000,2960.000000
385,196.000000,2960.000000
386,216.000000,3000.000000
387,232.000000,2960.000000
388,212.000000,3000.000000
389,140.000000,3000.000000
390,100.000000,3000.000000
391,56.000000,2960.000000
392,28.000000,3000.000000
393,-4.000000,2960.000000
394,-16.000000,2960.000000
395,-40.000000,2960.000000
396,-44.000000,2960.000000
397,-64.000000,3000.000000
398,-64.000000,3000.000000
399,-76.000000,2960.000000
400,-76.000000,2960.000000
401,-76.000000,2960.000000
402,-84.000000,3000.000000
403,-88.000000,2960.000000
404,-92.000000,2960.000000
405,-92.000000,3000.000000
406,-92.000000,2960.000000
407,-96.000000,2960.000000
408,-96.000000,2960.000000
409,-92.000000,2960.000000
410,-96.000000,3000.000000
411,-92.000000,3000.000000
412,-100.000000,2960.000000
413,-92.000000,3000.000000
414,-96.000000,2960.000000
415,-96.000000,3000.000000
416,-100.000000,2960.000000
417,-96.000000,2960.000000
418,-100.000000,2960.000000
419,-96.000000,2960.000000
420,-100.000000,2960.000000
421,-100.000000,3000.000000
422,-100.000000,3000.000000
423,-100.000000,2960.000000
424,-96.000000,2960.000000
425,-100.000000,3000.000000
426,-100.000000,2960.000000
427,-96.000000,3000.000000
428,-104.000000,2960.000000
429,-100.000000,2960.000000
430,-100.000000,2960.000000
431,-100.000000,3000.000000
432,-96.000000,3000.000000
433,-104.000000,2960.000000
434,-96.000000,2960.000000
435,-96.000000,2960.000000
436,-100.000000,3000.000000
437,-100.000000,2960.000000
438,-100.000000,3000.000000
439,-96.000000,3000.000000
440,-100.000000,2960.000000
441,-96.000000,3000.000000
442,-100.000000,2960.000000
443,-104.000000,2960.000000
444,-100.000000,2960.000000
445,-104.000000,3000.000000
446,-100.000000,2960.000000
447,-100.000000,2960.000000
448,-100.000000,2960.000000
449,-100.000000,2960.000000
450,-96.000000,2960.000000
451,-100.000000,3000.000000
452,-96.000000,2960.000000
453,-96.000000,2960.000000
454,-100.000000,2960.000000
455,-96.000000,2960.000000
456,-96.000000,3000.000000
457,-100.000000,2960.000000
458,-96.000000,2960.000000
459,-100.000000,2960.000000
460,-100.000000,2960.000000
461,-104.000000,2960.000000
462,-96.000000,2960.000000
463,-108.000000,3000.000000
464,-100.000000,3000.000000
465,-104.000000,3000.000000
466,-100.000000,3000.000000
467,-96.000000,2960.000000
468,-96.000000,3000.000000
469,-100.000000,2960.000000
470,-100.000000,2960.000000
471,-100.000000,2960.000000
472,-104.000000,3000.000000
473,-100.000000,2960.000000
474,-96.000000,2960.000000
475,-104.000000,2960.000000
476,-104.000000,2960.000000
477,-96.000000,3000.000000
478,-96.000000,3000.000000
479,-96.000000,2960.000000
480,-104.000000,3000.000000
481,-96.000000,2960.000000
482,-100.000000,2960.000000
483,-96.000000,2960.000000
484,-100.000000,2960.000000
485,-92.000000,3000.000000
486,-96.000000,2960.000000
487,-96.000000,2960.000000
488,-96.000000,2960.000000
489,-96.000000,2960.000000
490,-100.000000,3000.000000
491,-96.000000,2960.000000
492,-100.000000,3000.000000
493,-96.000000,2960.000000
494,-104.000000,3000.000000
495,-100.000000,3000.000000
496,-104.000000,2960.000000
497,-100.000000,2960.000000
498,-100.000000,3000.000000
499,-100.000000,2960.000000
500,-104.000000,2960.000000
501,-100.000000,2960.000000
502,-100.000000,2960.000000
503,-104.000000,3000.000000
504,-96.000000,3000.000000
505,-100.000000,3000.000000
506,-96.000000,3000.000000
507,-100.000000,2960.000000
508,-100.000000,3000.000000
509,-96.000000,2960.000000
510,-100.000000,2960.000000
511,-100.000000,2960.000000
512,-96.000000,3000.000000
513,-96.000000,2960.000000
514,-96.000000,2960.000000
515,-96.000000,2960.000000
516,-96.000000,2960.000000
517,-96.000000,2960.000000
518,-96.000000,3000.000000
519,-100.000000,2960.000000
520,-100.000000,3000.000000
521,-100.000000,3000.000000
522,-100.000000,2960.000000
523,-100.000000,2960.000000
524,-104.000000,3000.000000
525,-92.000000,2960.000000
526,-96.000000,2960.000000
527,-96.000000,2960.000000
528,-100.000000,3000.000000
529,-96.000000,2960.000000
530,-104.000000,2960.000000
531,-104.000000,3000.000000
532,-104.000000,2960.000000
533,-100.000000,2960.000000
534,-100.000000,2960.000000
535,-100.000000,3000.000000
536,-96.000000,2960.000000
537,-96.000000,3000.000000
538,-100.000000,2960.000000
539,-104.000000,2960.000000
540,-92.000000,3000.000000
541,-100.000000,3000.000000
542,-96.000000,2960.000000
543,-100.000000,2960.000000
544,-100.000000,2960.000000
545,-104.000000,2960.000000
546,-96.000000,3000.000000
547,-100.000000,3000.000000
548,-96.000000,3000.000000
549,-96.000000,3000.000000
550,-100.000000,2960.000000
551,-96.000000,3000.000000
552,-100.000000,2960.000000
553,-96.000000,2960.000000
554,-100.000000,2960.000000
555,-100.000000,2960.000000
556,-96.000000,2960.000000
557,-96.000000,3000.000000
558,-96.000000,2960.000000
559,-100.000000,2960.000000
560,-100.000000,2960.000000
561,-104.000000,2960.000000
562,-100.000000,2960.000000
563,-100.000000,3000.000000
564,-100.000000,3000.000000
565,-100.000000,3000.000000
566,-100.000000,2960.000000
567,-96.000000,2960.000000
568,-96.000000,2960.000000
569,-100.000000,2960.000000
570,-96.000000,3000.000000
571,-100.000000,2960.000000
572,-104.000000,2960.000000
573,-96.000000,2960.000000
574,-96.000000,3000.000000
575,-100.000000,3000.000000
576,-100.000000,2960.000000
577,-100.000000,2960.000000
578,-100.000000,2960.000000
579,-100.000000,3000.000000
580,-96.000000,3000.000000
581,-100.000000,3000.000000
582,-92.000000,2960.000000
583,-96.000000,2960.000000
584,-96.000000,2960.000000
585,-100.000000,3000.000000
586,-100.000000,3000.000000
587,-104.000000,3000.000000
588,-104.000000,2960.000000
589,-104.000000,3000.000000
590,-96.000000,3000.000000
591,-96.000000,2960.000000
592,-96.000000,2960.000000
593,-96.000000,2960.000000
594,-96.000000,2960.000000
595,-96.000000,3000.000000
596,-100.000000,2960.000000
597,-100.000000,3000.000000
598,-96.000000,3000.000000
599,-100.000000,3000.000000
600,-100.000000,2960.000000
601,-96.000000,2960.000000
602,-100.000000,2960.000000
603,-92.000000,2960.000000
604,-100.000000,2960.000000
605,-96.000000,2960.000000
606,-96.000000,3000.000000
607,-100.000000,2960.000000
608,-104.000000,3000.000000
609,-104.000000,2960.000000
610,-96.000000,3000.000000
611,-96.000000,3000.000000
612,-100.000000,3000.000000
613,-96.000000,3000.000000
614,-96.000000,3000.000000
615,-96.000000,2960.000000
616,-96.000000,2960.000000
617,-100.000000,2960.000000
618,-100.000000,2960.000000
619,-96.000000,3000.000000
620,-100.000000,3000.000000
621,-104.000000,3000.000000
622,-96.000000,2960.000000
623,-100.000000,3000.000000
624,-104.000000,2960.000000
625,-104.000000,2960.000000
626,-96.000000,3000.000000
627,-100.000000,2960.000000
628,-108.000000,2960.000000
629,-104.000000,3000.000000
630,-96.000000,2960.000000
631,-92.000000,3000.000000
632,-16.000000,3000.000000
633,48.000000,3000.000000
634,116.000000,2960.000000
635,156.000000,2960.000000
636,204.000000,3000.000000
637,216.000000,3000.000000
638,240.000000,2960.000000
639,204.000000,3000.000000
640,140.000000,3000.000000
641,88.000000,3000.000000
642,52.000000,2960.000000
643,20.000000,3000.000000
644,0.000000,3000.000000
645,-24.000000,3000.000000
646,-36.000000,2960.000000
647,-52.000000,2960.000000
648,-56.000000,2960.000000
649,-64.000000,3000.000000
650,-72.000000,2960.000000
651,-80.000000,2960.000000
652,-80.000000,2960.000000
653,-84.000000,2960.000000
654,-88.000000,2960.000000
655,-92.000000,2960.000000
656,-92.000000,2960.000000
657,-96.000000,2960.000000
658,-92.000000,2960.000000
659,-100.000000,3000.000000
660,-92.000000,3000.000000
661,-96.000000,2960.000000
662,-96.000000,2960.000000
663,-92.000000,2960.000000
664,-92.000000,2960.000000
665,-100.000000,2960.000000
666,-96.000000,2960.000000
667,-100.000000,3000.000000
668,-104.000000,3000.000000
669,-96.000000,2960.000000
670,-96.000000,2960.000000
671,-96.000000,2960.000000
672,-100.000000,3000.000000
673,-104.000000,2960.000000
674,-96.000000,3000.000000
675,-100.000000,3000.000000
676,-104.000000,2960.000000
677,-104.000000,3000.000000
678,-100.000000,2960.000000
679,-92.000000,2960.000000
680,-96.000000,3000.000000
681,-96.000000,2960.000000
682,-96.000000,3000.000000
683,-96.000000,2960.000000
684,-100.000000,3000.000000
685,-96.000000,2960.000000
686,-96.000000,2960.000000
687,-100.000000,3000.000000
688,-100.000000,2960.000000
689,-100.000000,3000.000000
690,-96.000000,3000.000000
691,-100.000000,2960.000000
692,-100.000000,2960.000000
693,-96.000000,2960.000000
694,-100.000000,3000.000000
695,-100.000000,2960.000000
696,-96.000000,2960.000000
697,-100.000000,2960.000000
698,-104.000000,2960.000000
699,-100.000000,3000.000000
700,-100.000000,3000.000000
701,-100.000000,2960.000000
702,-96.000000,3000.000000
703,-92.000000,2960.000000
704,-104.000000,2960.000000
705,-104.000000,2960.000000
706,-96.000000,2960.000000
707,-100.000000,2960.000000
708,-100.000000,3000.000000
709,-96.000000,3000.000000
710,-100.000000,2960.000000
711,-100.000000,2960.000000
712,-100.000000,2960.000000
713,-100.000000,3000.000000
714,-96.000000,2960.000000
715,-100.000000,2960.000000
716,-96.000000,2960.000000
717,-100.000000,2960.000000
718,-96.000000,3000.000000
719,-100.000000,3000.000000
