repport_data/pow_reoptimization_7_test_zone/data_64_004_no_touch_commit.csv

Channel              :,CH1,CH2
Frequency            :,  ?,  ?
Period               :,  ?,  ?
PK-PK                :,1.040V,1.024V
Probe attenuation    :,1X,1X
Voltage per ADC value:,2.500000mV,0.500000mV
Time interval        :,200.00000uS,200.00000uS

index,CH1_Voltage(mV),CH2_Voltage(mV)
1,-2840.000000,-312.000000
2,-2840.000000,-312.000000
3,-2840.000000,-312.000000
4,-2840.000000,-312.000000
5,-2840.000000,-312.000000
6,-2840.000000,-312.000000
7,-2840.000000,-312.000000
8,-2800.000000,-304.000000
9,-2840.000000,-312.000000
10,-2800.000000,-312.000000
11,-2840.000000,-312.000000
12,-2840.000000,-304.000000
13,-2840.000000,-304.000000
14,-2840.000000,-312.000000
15,-2840.000000,-312.000000
16,-2840.000000,-304.000000
17,-2840.000000,-312.000000
18,-2800.000000,-312.000000
19,-2840.000000,-304.000000
20,-2800.000000,-304.000000
21,-2840.000000,-312.000000
22,-2840.000000,-304.000000
23,-2800.000000,-312.000000
24,-2840.000000,-312.000000
25,-2840.000000,-312.000000
26,-2840.000000,-312.000000
27,-2840.000000,-312.000000
28,-2840.000000,-312.000000
29,-2840.000000,-312.000000
30,-2840.000000,-312.000000
31,-2840.000000,-304.000000
32,-2840.000000,-304.000000
33,-2840.000000,-304.000000
34,-2840.000000,-304.000000
35,-2840.000000,-312.000000
36,-2840.000000,-312.000000
37,-2840.000000,-312.000000
38,-2840.000000,-312.000000
39,-2840.000000,-312.000000
40,-2840.000000,-312.000000
41,-2840.000000,-312.000000
42,-2840.000000,-312.000000
43,-2840.000000,-312.000000
44,-2840.000000,-312.000000
45,-2840.000000,-312.000000
46,-2800.000000,-304.000000
47,-2840.000000,-312.000000
48,-2800.000000,-312.000000
49,-2800.000000,-312.000000
50,-2840.000000,-312.000000
51,-2800.000000,-312.000000
52,-2800.000000,-312.000000
53,-2840.000000,-312.000000
54,-2840.000000,-320.000000
55,-2840.000000,-312.000000
56,-2840.000000,-312.000000
57,-2840.000000,-312.000000
58,-2840.000000,-304.000000
59,-2840.000000,-312.000000
60,-2840.000000,-312.000000
61,-2840.000000,-312.000000
62,-2840.000000,-312.000000
63,-2840.000000,-312.000000
64,-2800.000000,-312.000000
65,-2840.000000,-312.000000
66,-2800.000000,-312.000000
67,-2840.000000,-312.000000
68,-2840.000000,-312.000000
69,-2840.000000,-312.000000
70,-2840.000000,-312.000000
71,-2840.000000,-312.000000
72,-2840.000000,-312.000000
73,-2840.000000,-312.000000
74,-2840.000000,-312.000000
75,-2840.000000,-312.000000
76,-2840.000000,-312.000000
77,-2840.000000,-312.000000
78,-2840.000000,-312.000000
79,-2800.000000,-304.000000
80,-2840.000000,-312.000000
81,-2840.000000,-312.000000
82,-2800.000000,-312.000000
83,-2840.000000,-312.000000
84,-2800.000000,-312.000000
85,-2840.000000,-312.000000
86,-2840.000000,-312.000000
87,-2840.000000,-312.000000
88,-2840.000000,-312.000000
89,-2840.000000,-312.000000
90,-2840.000000,-312.000000
91,-2840.000000,-312.000000
92,-2840.000000,-312.000000
93,-2840.000000,-312.000000
94,-2840.000000,-312.000000
95,-2840.000000,-320.000000
96,-2800.000000,-312.000000
97,-2840.000000,-312.000000
98,-2840.000000,-312.000000
99,-2840.000000,-312.000000
100,-2840.000000,-312.000000
101,-2840.000000,-312.000000
102,-2840.000000,-312.000000
103,-2840.000000,-312.000000
104,-2840.000000,-312.000000
105,-2840.000000,-312.000000
106,-2840.000000,-312.000000
107,-2840.000000,-312.000000
108,-2840.000000,-312.000000
109,-2840.000000,-312.000000
110,-2840.000000,-312.000000
111,-2840.000000,-312.000000
112,-2840.000000,-312.000000
113,-2800.000000,-312.000000
114,-2840.000000,-312.000000
115,-2840.000000,-312.000000
116,-2840.000000,-312.000000
117,-2840.000000,-312.000000
118,-2840.000000,-312.000000
119,-2840.000000,-312.000000
120,-2840.000000,-312.000000
121,-2840.000000,-312.000000
122,-2840.000000,-304.000000
123,-2840.000000,-304.000000
124,-2840.000000,-312.000000
125,-2840.000000,-312.000000
126,-2840.000000,-312.000000
127,-2840.000000,-312.000000
128,-2840.000000,-304.000000
129,-2840.000000,-312.000000
130,-2840.000000,-312.000000
131,-2840.000000,-312.000000
132,-2840.000000,-312.000000
133,-2840.000000,-312.000000
134,-2840.000000,-304.000000
135,-2840.000000,-304.000000
136,-2840.000000,-312.000000
137,-2840.000000,-312.000000
138,-2840.000000,-304.000000
139,-2800.000000,-312.000000
140,-2840.000000,-312.000000
141,-2800.000000,-312.000000
142,-2840.000000,-312.000000
143,-2840.000000,-312.000000
144,-2840.000000,-312.000000
145,-2840.000000,-312.000000
146,-2840.000000,-312.000000
147,-2800.000000,-312.000000
148,-2840.000000,-312.000000
149,-2840.000000,-304.000000
150,-2840.000000,-312.000000
151,-2840.000000,-312.000000
152,-2800.000000,-312.000000
153,-2840.000000,-312.000000
154,-2840.000000,-312.000000
155,-2840.000000,-312.000000
156,-2800.000000,-312.000000
157,-2800.000000,-312.000000
158,-2840.000000,-312.000000
159,-2840.000000,-312.000000
160,-2800.000000,-312.000000
161,-2840.000000,-304.000000
162,-2840.000000,-304.000000
163,-2840.000000,-312.000000
164,-2840.000000,-304.000000
165,-2840.000000,-320.000000
166,-2840.000000,-320.000000
167,-2840.000000,-312.000000
168,-2840.000000,-312.000000
169,-2800.000000,-312.000000
170,-2840.000000,-312.000000
171,-2800.000000,-304.000000
172,-2840.000000,-312.000000
173,-2840.000000,-312.000000
174,-2840.000000,-312.000000
175,-2840.000000,-312.000000
176,-2840.000000,-304.000000
177,-2840.000000,-312.000000
178,-2840.000000,-312.000000
179,-2840.000000,-312.000000
180,-2840.000000,-312.000000
181,-2840.000000,-304.000000
182,-2840.000000,-312.000000
183,-2840.000000,-312.000000
184,-2840.000000,-304.000000
185,-2840.000000,-312.000000
186,-2840.000000,-312.000000
187,-2840.000000,-312.000000
188,-2840.000000,-312.000000
189,-2840.000000,-312.000000
190,-2840.000000,-312.000000
191,-2840.000000,-304.000000
192,-2840.000000,-312.000000
193,-2840.000000,-304.000000
194,-2840.000000,-304.000000
195,-2800.000000,-304.000000
196,-2840.000000,-304.000000
197,-2840.000000,-312.000000
198,-2800.000000,-304.000000
199,-2840.000000,-304.000000
200,-2840.000000,-304.000000
201,-2840.000000,-312.000000
202,-2840.000000,-304.000000
203,-2840.000000,-304.000000
204,-2840.000000,-304.000000
205,-2840.000000,-304.000000
206,-2840.000000,-304.000000
207,-2840.000000,-304.000000
208,-2840.000000,-304.000000
209,-2840.000000,-304.000000
210,-2840.000000,-304.000000
211,-2800.000000,-288.000000
212,-2840.000000,-288.000000
213,-2840.000000,-280.000000
214,-2840.000000,-280.000000
215,-2840.000000,-280.000000
216,-2840.000000,-280.000000
217,-2840.000000,-280.000000
218,-2800.000000,-280.000000
219,-2800.000000,-280.000000
220,-2840.000000,-280.000000
221,-2800.000000,-280.000000
222,-2800.000000,-272.000000
223,-2840.000000,-272.000000
224,-2840.000000,-272.000000
225,-2800.000000,-272.000000
226,-2840.000000,-272.000000
227,-2840.000000,-272.000000
228,-2800.000000,-280.000000
229,-2800.000000,-272.000000
230,-2840.000000,-272.000000
231,-2800.000000,-272.000000
232,-2840.000000,-272.000000
233,-2800.000000,-280.000000
234,-2840.000000,-264.000000
235,-2800.000000,-272.000000
236,-2840.000000,-272.000000
237,-2800.000000,-272.000000
238,-2800.000000,-272.000000
239,-2840.000000,-264.000000
240,-2840.000000,-240.000000
241,-2800.000000,-224.000000
242,-2800.000000,-200.000000
243,-2800.000000,-184.000000
244,-2800.000000,-168.000000
245,-2800.000000,-152.000000
246,-2800.000000,-144.000000
247,-2800.000000,-136.000000
248,-2800.000000,-120.000000
249,-2800.000000,-112.000000
250,-2760.000000,-104.000000
251,-2800.000000,-88.000000
252,-2800.000000,-88.000000
253,-2800.000000,-80.000000
254,-2800.000000,-80.000000
255,-2800.000000,-72.000000
256,-2800.000000,-64.000000
257,-2800.000000,-56.000000
258,-2800.000000,-56.000000
259,-2800.000000,-48.000000
260,-2800.000000,-48.000000
261,-2800.000000,-40.000000
262,-2800.000000,-40.000000
263,-2800.000000,-32.000000
264,-2800.000000,-32.000000
265,-2800.000000,-24.000000
266,-2760.000000,-24.000000
267,-2800.000000,-24.000000
268,-2800.000000,-24.000000
269,-2760.000000,-24.000000
270,-2760.000000,-16.000000
271,-2760.000000,-16.000000
272,-2720.000000,-16.000000
273,-2720.000000,-16.000000
274,-2720.000000,-8.000000
275,-2680.000000,-8.000000
276,-2680.000000,-8.000000
277,-2680.000000,-8.000000
278,-2640.000000,-8.000000
279,-2640.000000,-8.000000
280,-2640.000000,-8.000000
281,-2600.000000,-8.000000
282,-2640.000000,0.000000
283,-2600.000000,-8.000000
284,-2600.000000,0.000000
285,-2600.000000,0.000000
286,-2560.000000,0.000000
287,-2600.000000,0.000000
288,-2600.000000,0.000000
289,-2600.000000,0.000000
290,-2560.000000,0.000000
291,-2600.000000,0.000000
292,-2560.000000,0.000000
293,-2560.000000,8.000000
294,-2600.000000,0.000000
295,-2560.000000,8.000000
296,-2560.000000,0.000000
297,-2520.000000,8.000000
298,-2560.000000,0.000000
299,-2560.000000,8.000000
300,-2520.000000,8.000000
301,-2520.000000,24.000000
302,-2520.000000,56.000000
303,-2520.000000,80.000000
304,-2520.000000,112.000000
305,-2520.000000,136.000000
306,-2560.000000,168.000000
307,-2560.000000,184.000000
308,-2560.000000,200.000000
309,-2520.000000,216.000000
310,-2520.000000,240.000000
311,-2520.000000,256.000000
312,-2520.000000,280.000000
313,-2520.000000,288.000000
314,-2520.000000,304.000000
315,-2520.000000,328.000000
316,-2520.000000,328.000000
317,-2520.000000,352.000000
318,-2520.000000,360.000000
319,-2520.000000,376.000000
320,-2520.000000,392.000000
321,-2520.000000,392.000000
322,-2520.000000,408.000000
323,-2520.000000,408.000000
324,-2520.000000,424.000000
325,-2520.000000,432.000000
326,-2520.000000,440.000000
327,-2520.000000,448.000000
328,-2520.000000,456.000000
329,-2520.000000,464.000000
330,-2560.000000,472.000000
331,-2520.000000,472.000000
332,-2520.000000,472.000000
333,-2480.000000,488.000000
334,-2440.000000,488.000000
335,-2400.000000,496.000000
336,-2400.000000,504.000000
337,-2360.000000,512.000000
338,-2360.000000,512.000000
339,-2320.000000,520.000000
340,-2320.000000,520.000000
341,-2320.000000,528.000000
342,-2280.000000,528.000000
343,-2240.000000,536.000000
344,-2240.000000,536.000000
345,-2200.000000,544.000000
346,-2200.000000,544.000000
347,-2200.000000,552.000000
348,-2160.000000,552.000000
349,-2160.000000,552.000000
350,-2160.000000,560.000000
351,-2120.000000,552.000000
352,-2120.000000,560.000000
353,-2120.000000,560.000000
354,-2120.000000,568.000000
355,-2120.000000,568.000000
356,-2080.000000,568.000000
357,-2120.000000,576.000000
358,-2080.000000,576.000000
359,-2080.000000,584.000000
360,-2080.000000,584.000000
361,-2080.000000,584.000000
362,-2040.000000,592.000000
363,-2080.000000,584.000000
364,-2040.000000,584.000000
365,-2040.000000,576.000000
366,-2040.000000,592.000000
367,-2040.000000,608.000000
368,-2040.000000,584.000000
369,-2000.000000,592.000000
370,-2040.000000,592.000000
371,-2000.000000,608.000000
372,-2000.000000,592.000000
373,-2000.000000,592.000000
374,-2000.000000,592.000000
375,-1960.000000,592.000000
376,-1960.000000,600.000000
377,-1960.000000,600.000000
378,-1960.000000,600.000000
379,-1960.000000,600.000000
380,-1960.000000,608.000000
381,-1960.000000,608.000000
382,-1960.000000,608.000000
383,-1960.000000,608.000000
384,-1960.000000,616.000000
385,-1960.000000,616.000000
386,-1960.000000,616.000000
387,-1960.000000,616.000000
388,-1960.000000,616.000000
389,-1960.000000,624.000000
390,-1960.000000,624.000000
391,-1960.000000,624.000000
392,-1960.000000,632.000000
393,-1960.000000,624.000000
394,-1960.000000,632.000000
395,-1960.000000,624.000000
396,-1960.000000,632.000000
397,-1920.000000,624.000000
398,-1920.000000,632.000000
399,-1960.000000,640.000000
400,-1920.000000,632.000000
401,-1960.000000,640.000000
402,-1920.000000,640.000000
403,-1920.000000,640.000000
404,-1920.000000,640.000000
405,-1920.000000,640.000000
406,-1960.000000,640.000000
407,-1920.000000,648.000000
408,-1920.000000,648.000000
409,-1920.000000,640.000000
410,-1880.000000,640.000000
411,-1920.000000,648.000000
412,-1920.000000,640.000000
413,-1920.000000,648.000000
414,-1920.000000,656.000000
415,-1920.000000,648.000000
416,-1920.000000,656.000000
417,-1920.000000,656.000000
418,-1960.000000,648.000000
419,-1920.000000,656.000000
420,-1920.000000,656.000000
421,-1920.000000,656.000000
422,-1920.000000,656.000000
423,-1920.000000,656.000000
424,-1880.000000,656.000000
425,-1920.000000,656.000000
426,-1920.000000,656.000000
427,-1880.000000,656.000000
428,-1880.000000,656.000000
429,-1880.000000,656.000000
430,-1880.000000,656.000000
431,-1880.000000,656.000000
432,-1880.000000,656.000000
433,-1880.000000,656.000000
434,-1920.000000,656.000000
435,-1880.000000,656.000000
436,-1880.000000,656.000000
437,-1880.000000,656.000000
438,-1880.000000,656.000000
439,-1880.000000,648.000000
440,-1880.000000,648.000000
441,-1880.000000,648.000000
442,-1880.000000,648.000000
443,-1880.000000,648.000000
444,-1880.000000,648.000000
445,-1880.000000,648.000000
446,-1880.000000,648.000000
447,-1880.000000,648.000000
448,-1840.000000,640.000000
449,-1880.000000,640.000000
450,-1880.000000,640.000000
451,-1880.000000,640.000000
452,-1880.000000,640.000000
453,-1880.000000,640.000000
454,-1880.000000,640.000000
455,-1880.000000,640.000000
456,-1880.000000,640.000000
457,-1840.000000,640.000000
458,-1880.000000,640.000000
459,-1880.000000,640.000000
460,-1880.000000,640.000000
461,-1880.000000,648.000000
462,-1880.000000,648.000000
463,-1880.000000,640.000000
464,-1880.000000,640.000000
465,-1880.000000,648.000000
466,-1880.000000,640.000000
467,-1880.000000,648.000000
468,-1880.000000,648.000000
469,-1880.000000,648.000000
470,-1880.000000,648.000000
471,-1880.000000,648.000000
472,-1880.000000,648.000000
473,-1880.000000,648.000000
474,-1880.000000,648.000000
475,-1920.000000,648.000000
476,-1880.000000,648.000000
477,-1880.000000,648.000000
478,-1880.000000,648.000000
479,-1880.000000,648.000000
480,-1880.000000,656.000000
481,-1880.000000,648.000000
482,-1880.000000,656.000000
483,-1880.000000,656.000000
484,-1880.000000,648.000000
485,-1880.000000,656.000000
486,-1880.000000,656.000000
487,-1880.000000,656.000000
488,-1880.000000,664.000000
489,-1880.000000,656.000000
490,-1880.000000,656.000000
491,-1920.000000,656.000000
492,-1880.000000,656.000000
493,-1880.000000,648.000000
494,-1880.000000,648.000000
495,-1880.000000,656.000000
496,-1880.000000,656.000000
497,-1880.000000,656.000000
498,-1880.000000,656.000000
499,-1880.000000,656.000000
500,-1880.000000,656.000000
501,-1880.000000,656.000000
502,-1880.000000,656.000000
503,-1880.000000,656.000000
504,-1880.000000,656.000000
505,-1880.000000,656.000000
506,-1880.000000,656.000000
507,-1880.000000,656.000000
508,-1880.000000,656.000000
509,-1880.000000,656.000000
510,-1880.000000,656.000000
511,-1880.000000,648.000000
512,-1880.000000,656.000000
513,-1840.000000,656.000000
514,-1880.000000,656.000000
515,-1880.000000,664.000000
516,-1880.000000,656.000000
517,-1880.000000,648.000000
518,-1880.000000,656.000000
519,-1840.000000,656.000000
520,-1880.000000,648.000000
521,-1880.000000,648.000000
522,-1880.000000,648.000000
523,-1840.000000,648.000000
524,-1880.000000,648.000000
525,-1880.000000,648.000000
526,-1880.000000,648.000000
527,-1880.000000,640.000000
528,-1840.000000,640.000000
529,-1840.000000,640.000000
530,-1840.000000,640.000000
531,-1880.000000,640.000000
532,-1880.000000,640.000000
533,-1880.000000,640.000000
534,-1840.000000,640.000000
535,-1840.000000,640.000000
536,-1880.000000,640.000000
537,-1880.000000,640.000000
538,-1880.000000,640.000000
539,-1880.000000,640.000000
540,-1880.000000,640.000000
541,-1880.000000,640.000000
542,-1880.000000,648.000000
543,-1880.000000,648.000000
544,-1840.000000,648.000000
545,-1880.000000,648.000000
546,-1880.000000,648.000000
547,-1880.000000,648.000000
548,-1880.000000,648.000000
549,-1880.000000,648.000000
550,-1880.000000,648.000000
551,-1880.000000,656.000000
552,-1880.000000,648.000000
553,-1880.000000,656.000000
554,-1880.000000,648.000000
555,-1920.000000,648.000000
556,-1880.000000,648.000000
557,-1880.000000,656.000000
558,-1880.000000,648.000000
559,-1880.000000,648.000000
560,-1880.000000,656.000000
561,-1880.000000,688.000000
562,-1880.000000,648.000000
563,-1880.000000,656.000000
564,-1880.000000,656.000000
565,-1880.000000,680.000000
566,-1880.000000,656.000000
567,-1880.000000,656.000000
568,-1880.000000,648.000000
569,-1880.000000,648.000000
570,-1880.000000,648.000000
571,-1880.000000,648.000000
572,-1880.000000,648.000000
573,-1880.000000,656.000000
574,-1880.000000,656.000000
575,-1880.000000,656.000000
576,-1920.000000,656.000000
577,-1880.000000,648.000000
578,-1880.000000,656.000000
579,-1880.000000,656.000000
580,-1880.000000,656.000000
581,-1880.000000,656.000000
582,-1880.000000,656.000000
583,-1880.000000,656.000000
584,-1880.000000,656.000000
585,-1880.000000,656.000000
586,-1880.000000,656.000000
587,-1880.000000,656.000000
588,-1880.000000,656.000000
589,-1880.000000,656.000000
590,-1880.000000,656.000000
591,-1880.000000,648.000000
592,-1880.000000,648.000000
593,-1880.000000,648.000000
594,-1880.000000,648.000000
595,-1880.000000,648.000000
596,-1880.000000,640.000000
597,-1880.000000,640.000000
598,-1880.000000,648.000000
599,-1880.000000,640.000000
600,-1840.000000,640.000000
601,-1880.000000,632.000000
602,-1880.000000,640.000000
603,-1840.000000,640.000000
604,-1880.000000,640.000000
605,-1880.000000,640.000000
606,-1880.000000,640.000000
607,-1880.000000,640.000000
608,-1880.000000,640.000000
609,-1880.000000,640.000000
610,-1880.000000,640.000000
611,-1880.000000,640.000000
612,-1880.000000,640.000000
613,-1880.000000,632.000000
614,-1880.000000,640.000000
615,-1880.000000,640.000000
616,-1840.000000,640.000000
617,-1880.000000,608.000000
618,-1880.000000,640.000000
619,-1840.000000,648.000000
620,-1880.000000,648.000000
621,-1880.000000,648.000000
622,-1880.000000,648.000000
623,-1880.000000,648.000000
624,-1880.000000,656.000000
625,-1880.000000,648.000000
626,-1880.000000,648.000000
627,-1880.000000,648.000000
628,-1880.000000,648.000000
629,-1880.000000,648.000000
630,-1880.000000,648.000000
631,-1880.000000,656.000000
632,-1880.000000,672.000000
633,-1880.000000,648.000000
634,-1880.000000,656.000000
635,-1880.000000,656.000000
636,-1880.000000,648.000000
637,-1880.000000,656.000000
638,-1880.000000,656.000000
639,-1880.000000,656.000000
640,-1880.000000,656.000000
641,-1880.000000,656.000000
642,-1880.000000,656.000000
643,-1880.000000,648.000000
644,-1880.000000,648.000000
645,-1880.000000,656.000000
646,-1880.000000,656.000000
647,-1880.000000,656.000000
648,-1880.000000,656.000000
649,-1880.000000,656.000000
650,-1880.000000,656.000000
651,-1880.000000,656.000000
652,-1880.000000,656.000000
653,-1880.000000,656.000000
654,-1880.000000,656.000000
655,-1880.000000,656.000000
656,-1880.000000,656.000000
657,-1880.000000,664.000000
658,-1880.000000,656.000000
659,-1880.000000,656.000000
660,-1880.000000,656.000000
661,-1880.000000,656.000000
662,-1880.000000,656.000000
663,-1880.000000,656.000000
664,-1880.000000,656.000000
665,-1880.000000,664.000000
666,-1880.000000,656.000000
667,-1880.000000,648.000000
668,-1880.000000,648.000000
669,-1880.000000,648.000000
670,-1880.000000,640.000000
671,-1880.000000,648.000000
672,-1840.000000,648.000000
673,-1880.000000,640.000000
674,-1880.000000,640.000000
675,-1880.000000,640.000000
676,-1880.000000,640.000000
677,-1880.000000,640.000000
678,-1880.000000,640.000000
679,-1880.000000,640.000000
680,-1880.000000,640.000000
681,-1880.000000,632.000000
682,-1880.000000,640.000000
683,-1880.000000,640.000000
684,-1880.000000,640.000000
685,-1880.000000,632.000000
686,-1880.000000,632.000000
687,-1880.000000,632.000000
688,-1840.000000,632.000000
689,-1880.000000,632.000000
690,-1880.000000,640.000000
691,-1880.000000,640.000000
692,-1880.000000,640.000000
693,-1880.000000,640.000000
694,-1840.000000,640.000000
695,-1880.000000,640.000000
696,-1880.000000,640.000000
697,-1880.000000,648.000000
698,-1880.000000,640.000000
699,-1880.000000,640.000000
700,-1880.000000,648.000000
