repport_data/pow_reoptimization_7_test_zone/data_64_005.csv

Channel              :,CH1,CH2
Frequency            :,  ?,  ?
Period               :,  ?,  ?
PK-PK                :,1.040V,1.056V
Probe attenuation    :,1X,1X
Voltage per ADC value:,2.500000mV,0.500000mV
Time interval        :,200.00000uS,200.00000uS

index,CH1_Voltage(mV),CH2_Voltage(mV)
1,-2840.000000,-328.000000
2,-2840.000000,-328.000000
3,-2840.000000,-328.000000
4,-2840.000000,-328.000000
5,-2840.000000,-328.000000
6,-2880.000000,-328.000000
7,-2840.000000,-328.000000
8,-2840.000000,-328.000000
9,-2840.000000,-328.000000
10,-2840.000000,-328.000000
11,-2840.000000,-328.000000
12,-2840.000000,-328.000000
13,-2880.000000,-328.000000
14,-2840.000000,-328.000000
15,-2840.000000,-328.000000
16,-2840.000000,-336.000000
17,-2840.000000,-328.000000
18,-2840.000000,-328.000000
19,-2840.000000,-336.000000
20,-2840.000000,-328.000000
21,-2840.000000,-328.000000
22,-2840.000000,-336.000000
23,-2840.000000,-328.000000
24,-2840.000000,-328.000000
25,-2880.000000,-328.000000
26,-2840.000000,-328.000000
27,-2840.000000,-328.000000
28,-2840.000000,-328.000000
29,-2880.000000,-328.000000
30,-2840.000000,-328.000000
31,-2840.000000,-328.000000
32,-2840.000000,-328.000000
33,-2840.000000,-328.000000
34,-2840.000000,-328.000000
35,-2840.000000,-328.000000
36,-2880.000000,-328.000000
37,-2840.000000,-328.000000
38,-2840.000000,-328.000000
39,-2840.000000,-328.000000
40,-2880.000000,-328.000000
41,-2840.000000,-328.000000
42,-2840.000000,-328.000000
43,-2840.000000,-328.000000
44,-2840.000000,-328.000000
45,-2840.000000,-328.000000
46,-2840.000000,-328.000000
47,-2840.000000,-328.000000
48,-2840.000000,-328.000000
49,-2840.000000,-328.000000
50,-2840.000000,-328.000000
51,-2840.000000,-328.000000
52,-2840.000000,-328.000000
53,-2840.000000,-328.000000
54,-2840.000000,-320.000000
55,-2840.000000,-328.000000
56,-2880.000000,-328.000000
57,-2840.000000,-328.000000
58,-2880.000000,-328.000000
59,-2840.000000,-328.000000
60,-2840.000000,-328.000000
61,-2840.000000,-328.000000
62,-2840.000000,-328.000000
63,-2840.000000,-328.000000
64,-2880.000000,-328.000000
65,-2840.000000,-320.000000
66,-2840.000000,-320.000000
67,-2840.000000,-328.000000
68,-2840.000000,-328.000000
69,-2840.000000,-328.000000
70,-2840.000000,-328.000000
71,-2840.000000,-320.000000
72,-2840.000000,-320.000000
73,-2840.000000,-328.000000
74,-2880.000000,-320.000000
75,-2840.000000,-320.000000
76,-2840.000000,-328.000000
77,-2880.000000,-328.000000
78,-2840.000000,-320.000000
79,-2880.000000,-328.000000
80,-2840.000000,-328.000000
81,-2840.000000,-328.000000
82,-2840.000000,-328.000000
83,-2840.000000,-328.000000
84,-2840.000000,-328.000000
85,-2840.000000,-328.000000
86,-2840.000000,-328.000000
87,-2840.000000,-328.000000
88,-2840.000000,-328.000000
89,-2840.000000,-328.000000
90,-2840.000000,-328.000000
91,-2840.000000,-328.000000
92,-2840.000000,-320.000000
93,-2840.000000,-328.000000
94,-2840.000000,-328.000000
95,-2840.000000,-328.000000
96,-2840.000000,-328.000000
97,-2840.000000,-328.000000
98,-2880.000000,-328.000000
99,-2840.000000,-328.000000
100,-2880.000000,-328.000000
101,-2840.000000,-328.000000
102,-2840.000000,-328.000000
103,-2840.000000,-328.000000
104,-2840.000000,-320.000000
105,-2840.000000,-328.000000
106,-2840.000000,-328.000000
107,-2840.000000,-328.000000
108,-2880.000000,-328.000000
109,-2840.000000,-328.000000
110,-2880.000000,-328.000000
111,-2840.000000,-328.000000
112,-2840.000000,-328.000000
113,-2840.000000,-320.000000
114,-2840.000000,-328.000000
115,-2840.000000,-328.000000
116,-2840.000000,-328.000000
117,-2840.000000,-320.000000
118,-2840.000000,-320.000000
119,-2880.000000,-328.000000
120,-2840.000000,-296.000000
121,-2840.000000,-328.000000
122,-2840.000000,-336.000000
123,-2840.000000,-328.000000
124,-2840.000000,-328.000000
125,-2840.000000,-328.000000
126,-2840.000000,-320.000000
127,-2840.000000,-328.000000
128,-2840.000000,-328.000000
129,-2840.000000,-328.000000
130,-2840.000000,-328.000000
131,-2840.000000,-328.000000
132,-2840.000000,-328.000000
133,-2840.000000,-328.000000
134,-2800.000000,-328.000000
135,-2840.000000,-328.000000
136,-2840.000000,-328.000000
137,-2840.000000,-328.000000
138,-2840.000000,-328.000000
139,-2840.000000,-328.000000
140,-2880.000000,-328.000000
141,-2840.000000,-328.000000
142,-2840.000000,-328.000000
143,-2880.000000,-328.000000
144,-2840.000000,-328.000000
145,-2840.000000,-328.000000
146,-2840.000000,-328.000000
147,-2840.000000,-328.000000
148,-2880.000000,-328.000000
149,-2880.000000,-328.000000
150,-2840.000000,-328.000000
151,-2840.000000,-328.000000
152,-2840.000000,-328.000000
153,-2840.000000,-328.000000
154,-2840.000000,-328.000000
155,-2840.000000,-328.000000
156,-2840.000000,-328.000000
157,-2840.000000,-320.000000
158,-2840.000000,-328.000000
159,-2840.000000,-328.000000
160,-2840.000000,-328.000000
161,-2880.000000,-328.000000
162,-2840.000000,-328.000000
163,-2840.000000,-328.000000
164,-2840.000000,-328.000000
165,-2840.000000,-328.000000
166,-2840.000000,-328.000000
167,-2840.000000,-328.000000
168,-2840.000000,-320.000000
169,-2840.000000,-312.000000
170,-2840.000000,-320.000000
171,-2840.000000,-328.000000
172,-2840.000000,-320.000000
173,-2840.000000,-328.000000
174,-2840.000000,-328.000000
175,-2880.000000,-320.000000
176,-2840.000000,-328.000000
177,-2880.000000,-328.000000
178,-2840.000000,-320.000000
179,-2840.000000,-328.000000
180,-2840.000000,-328.000000
181,-2840.000000,-328.000000
182,-2840.000000,-328.000000
183,-2840.000000,-328.000000
184,-2840.000000,-328.000000
185,-2840.000000,-328.000000
186,-2840.000000,-328.000000
187,-2840.000000,-328.000000
188,-2840.000000,-328.000000
189,-2840.000000,-328.000000
190,-2800.000000,-328.000000
191,-2840.000000,-328.000000
192,-2840.000000,-328.000000
193,-2880.000000,-328.000000
194,-2840.000000,-328.000000
195,-2840.000000,-328.000000
196,-2840.000000,-328.000000
197,-2840.000000,-328.000000
198,-2840.000000,-320.000000
199,-2880.000000,-328.000000
200,-2840.000000,-328.000000
201,-2840.000000,-328.000000
202,-2840.000000,-328.000000
203,-2840.000000,-328.000000
204,-2840.000000,-328.000000
205,-2880.000000,-328.000000
206,-2840.000000,-328.000000
207,-2880.000000,-328.000000
208,-2840.000000,-328.000000
209,-2840.000000,-328.000000
210,-2880.000000,-328.000000
211,-2880.000000,-328.000000
212,-2840.000000,-328.000000
213,-2840.000000,-328.000000
214,-2840.000000,-328.000000
215,-2840.000000,-328.000000
216,-2840.000000,-328.000000
217,-2840.000000,-328.000000
218,-2880.000000,-328.000000
219,-2840.000000,-328.000000
220,-2840.000000,-336.000000
221,-2840.000000,-328.000000
222,-2840.000000,-328.000000
223,-2840.000000,-336.000000
224,-2880.000000,-328.000000
225,-2840.000000,-328.000000
226,-2840.000000,-328.000000
227,-2840.000000,-328.000000
228,-2840.000000,-328.000000
229,-2840.000000,-328.000000
230,-2840.000000,-328.000000
231,-2840.000000,-328.000000
232,-2840.000000,-328.000000
233,-2840.000000,-328.000000
234,-2840.000000,-328.000000
235,-2880.000000,-328.000000
236,-2840.000000,-328.000000
237,-2840.000000,-328.000000
238,-2840.000000,-328.000000
239,-2840.000000,-328.000000
240,-2840.000000,-328.000000
241,-2840.000000,-328.000000
242,-2840.000000,-328.000000
243,-2880.000000,-328.000000
244,-2880.000000,-328.000000
245,-2840.000000,-328.000000
246,-2840.000000,-328.000000
247,-2840.000000,-328.000000
248,-2880.000000,-320.000000
249,-2840.000000,-328.000000
250,-2840.000000,-320.000000
251,-2840.000000,-320.000000
252,-2840.000000,-312.000000
253,-2840.000000,-312.000000
254,-2840.000000,-320.000000
255,-2840.000000,-320.000000
256,-2840.000000,-312.000000
257,-2880.000000,-312.000000
258,-2840.000000,-312.000000
259,-2840.000000,-320.000000
260,-2840.000000,-312.000000
261,-2840.000000,-312.000000
262,-2840.000000,-312.000000
263,-2840.000000,-304.000000
264,-2840.000000,-312.000000
265,-2840.000000,-304.000000
266,-2840.000000,-304.000000
267,-2880.000000,-304.000000
268,-2800.000000,-304.000000
269,-2840.000000,-312.000000
270,-2840.000000,-304.000000
271,-2840.000000,-304.000000
272,-2840.000000,-304.000000
273,-2840.000000,-304.000000
274,-2840.000000,-304.000000
275,-2840.000000,-304.000000
276,-2840.000000,-304.000000
277,-2840.000000,-304.000000
278,-2840.000000,-304.000000
279,-2840.000000,-312.000000
280,-2840.000000,-304.000000
281,-2840.000000,-304.000000
282,-2840.000000,-304.000000
283,-2840.000000,-304.000000
284,-2800.000000,-304.000000
285,-2840.000000,-304.000000
286,-2840.000000,-304.000000
287,-2840.000000,-304.000000
288,-2840.000000,-304.000000
289,-2800.000000,-304.000000
290,-2840.000000,-304.000000
291,-2800.000000,-312.000000
292,-2840.000000,-304.000000
293,-2840.000000,-304.000000
294,-2840.000000,-304.000000
295,-2800.000000,-304.000000
296,-2800.000000,-304.000000
297,-2800.000000,-304.000000
298,-2840.000000,-304.000000
299,-2840.000000,-304.000000
300,-2800.000000,-304.000000
301,-2800.000000,-304.000000
302,-2800.000000,-304.000000
303,-2840.000000,-304.000000
304,-2840.000000,-304.000000
305,-2800.000000,-304.000000
306,-2840.000000,-304.000000
307,-2800.000000,-304.000000
308,-2840.000000,-304.000000
309,-2840.000000,-304.000000
310,-2840.000000,-304.000000
311,-2840.000000,-304.000000
312,-2840.000000,-296.000000
313,-2800.000000,-304.000000
314,-2800.000000,-304.000000
315,-2840.000000,-304.000000
316,-2840.000000,-360.000000
317,-2800.000000,-312.000000
318,-2840.000000,-312.000000
319,-2800.000000,-312.000000
320,-2800.000000,-304.000000
321,-2800.000000,-312.000000
322,-2840.000000,-304.000000
323,-2840.000000,-304.000000
324,-2840.000000,-304.000000
325,-2840.000000,-304.000000
326,-2800.000000,-312.000000
327,-2840.000000,-312.000000
328,-2840.000000,-304.000000
329,-2840.000000,-312.000000
330,-2840.000000,-304.000000
331,-2800.000000,-304.000000
332,-2800.000000,-304.000000
333,-2800.000000,-304.000000
334,-2840.000000,-304.000000
335,-2840.000000,-304.000000
336,-2840.000000,-304.000000
337,-2840.000000,-304.000000
338,-2840.000000,-304.000000
339,-2840.000000,-304.000000
340,-2800.000000,-304.000000
341,-2800.000000,-304.000000
342,-2840.000000,-312.000000
343,-2800.000000,-304.000000
344,-2840.000000,-304.000000
345,-2840.000000,-304.000000
346,-2840.000000,-304.000000
347,-2840.000000,-304.000000
348,-2840.000000,-304.000000
349,-2840.000000,-304.000000
350,-2840.000000,-304.000000
351,-2840.000000,-304.000000
352,-2800.000000,-304.000000
353,-2800.000000,-312.000000
354,-2840.000000,-312.000000
355,-2800.000000,-304.000000
356,-2840.000000,-304.000000
357,-2840.000000,-304.000000
358,-2800.000000,-304.000000
359,-2840.000000,-304.000000
360,-2840.000000,-304.000000
361,-2800.000000,-304.000000
362,-2840.000000,-304.000000
363,-2800.000000,-312.000000
364,-2800.000000,-304.000000
365,-2840.000000,-304.000000
366,-2840.000000,-312.000000
367,-2800.000000,-304.000000
368,-2800.000000,-280.000000
369,-2800.000000,-312.000000
370,-2840.000000,-304.000000
371,-2840.000000,-304.000000
372,-2800.000000,-304.000000
373,-2840.000000,-304.000000
374,-2840.000000,-304.000000
375,-2840.000000,-304.000000
376,-2800.000000,-304.000000
377,-2840.000000,-304.000000
378,-2840.000000,-304.000000
379,-2840.000000,-304.000000
380,-2840.000000,-304.000000
381,-2800.000000,-304.000000
382,-2800.000000,-304.000000
383,-2840.000000,-304.000000
384,-2840.000000,-304.000000
385,-2840.000000,-312.000000
386,-2800.000000,-304.000000
387,-2840.000000,-304.000000
388,-2840.000000,-304.000000
389,-2800.000000,-312.000000
390,-2840.000000,-304.000000
391,-2840.000000,-312.000000
392,-2840.000000,-304.000000
393,-2800.000000,-304.000000
394,-2800.000000,-304.000000
395,-2800.000000,-304.000000
396,-2840.000000,-304.000000
397,-2840.000000,-304.000000
398,-2840.000000,-304.000000
399,-2840.000000,-304.000000
400,-2800.000000,-304.000000
401,-2840.000000,-304.000000
402,-2800.000000,-304.000000
403,-2800.000000,-304.000000
404,-2840.000000,-304.000000
405,-2840.000000,-304.000000
406,-2840.000000,-312.000000
407,-2840.000000,-304.000000
408,-2800.000000,-304.000000
409,-2840.000000,-304.000000
410,-2840.000000,-304.000000
411,-2840.000000,-304.000000
412,-2840.000000,-304.000000
413,-2800.000000,-296.000000
414,-2840.000000,-312.000000
415,-2800.000000,-304.000000
416,-2840.000000,-304.000000
417,-2800.000000,-304.000000
418,-2840.000000,-304.000000
419,-2880.000000,-312.000000
420,-2840.000000,-312.000000
421,-2840.000000,-312.000000
422,-2800.000000,-312.000000
423,-2840.000000,-304.000000
424,-2840.000000,-304.000000
425,-2800.000000,-304.000000
426,-2840.000000,-304.000000
427,-2840.000000,-304.000000
428,-2840.000000,-312.000000
429,-2840.000000,-304.000000
430,-2800.000000,-304.000000
431,-2840.000000,-312.000000
432,-2800.000000,-304.000000
433,-2800.000000,-304.000000
434,-2800.000000,-304.000000
435,-2840.000000,-304.000000
436,-2840.000000,-312.000000
437,-2840.000000,-304.000000
438,-2800.000000,-304.000000
439,-2840.000000,-304.000000
440,-2840.000000,-304.000000
441,-2840.000000,-304.000000
442,-2840.000000,-304.000000
443,-2800.000000,-304.000000
444,-2840.000000,-304.000000
445,-2800.000000,-304.000000
446,-2840.000000,-304.000000
447,-2840.000000,-304.000000
448,-2840.000000,-304.000000
449,-2840.000000,-304.000000
450,-2840.000000,-304.000000
451,-2840.000000,-304.000000
452,-2840.000000,-304.000000
453,-2840.000000,-304.000000
454,-2840.000000,-304.000000
455,-2840.000000,-304.000000
456,-2800.000000,-304.000000
457,-2800.000000,-304.000000
458,-2840.000000,-304.000000
459,-2840.000000,-304.000000
460,-2840.000000,-304.000000
461,-2840.000000,-304.000000
462,-2800.000000,-312.000000
463,-2800.000000,-304.000000
464,-2840.000000,-304.000000
465,-2840.000000,-304.000000
466,-2800.000000,-304.000000
467,-2840.000000,-304.000000
468,-2800.000000,-304.000000
469,-2840.000000,-304.000000
470,-2840.000000,-304.000000
471,-2800.000000,-304.000000
472,-2840.000000,-304.000000
473,-2800.000000,-304.000000
474,-2800.000000,-304.000000
475,-2840.000000,-304.000000
476,-2840.000000,-304.000000
477,-2800.000000,-304.000000
478,-2800.000000,-304.000000
479,-2840.000000,-304.000000
480,-2840.000000,-304.000000
481,-2800.000000,-304.000000
482,-2840.000000,-304.000000
483,-2800.000000,-304.000000
484,-2840.000000,-304.000000
485,-2840.000000,-304.000000
486,-2800.000000,-304.000000
487,-2840.000000,-304.000000
488,-2840.000000,-304.000000
489,-2800.000000,-304.000000
490,-2800.000000,-304.000000
491,-2840.000000,-304.000000
492,-2840.000000,-304.000000
493,-2840.000000,-312.000000
494,-2800.000000,-304.000000
495,-2800.000000,-304.000000
496,-2800.000000,-304.000000
497,-2840.000000,-304.000000
498,-2800.000000,-304.000000
499,-2800.000000,-304.000000
500,-2800.000000,-304.000000
501,-2840.000000,-304.000000
502,-2840.000000,-304.000000
503,-2840.000000,-304.000000
504,-2800.000000,-304.000000
505,-2800.000000,-304.000000
506,-2800.000000,-304.000000
507,-2800.000000,-304.000000
508,-2840.000000,-304.000000
509,-2800.000000,-304.000000
510,-2800.000000,-304.000000
511,-2800.000000,-304.000000
512,-2800.000000,-304.000000
513,-2840.000000,-312.000000
514,-2840.000000,-312.000000
515,-2840.000000,-312.000000
516,-2840.000000,-320.000000
517,-2840.000000,-312.000000
518,-2800.000000,-312.000000
519,-2840.000000,-312.000000
520,-2840.000000,-312.000000
521,-2800.000000,-312.000000
522,-2840.000000,-312.000000
523,-2800.000000,-312.000000
524,-2840.000000,-312.000000
525,-2840.000000,-312.000000
526,-2800.000000,-312.000000
527,-2840.000000,-312.000000
528,-2840.000000,-312.000000
529,-2840.000000,-320.000000
530,-2800.000000,-312.000000
531,-2800.000000,-312.000000
532,-2840.000000,-312.000000
533,-2800.000000,-312.000000
534,-2800.000000,-312.000000
535,-2800.000000,-312.000000
536,-2800.000000,-320.000000
537,-2840.000000,-312.000000
538,-2840.000000,-312.000000
539,-2840.000000,-312.000000
540,-2800.000000,-312.000000
541,-2800.000000,-320.000000
542,-2800.000000,-312.000000
543,-2840.000000,-312.000000
544,-2800.000000,-312.000000
545,-2800.000000,-312.000000
546,-2840.000000,-312.000000
547,-2840.000000,-312.000000
548,-2840.000000,-312.000000
549,-2840.000000,-312.000000
550,-2840.000000,-312.000000
551,-2800.000000,-320.000000
552,-2840.000000,-312.000000
553,-2840.000000,-312.000000
554,-2840.000000,-312.000000
555,-2800.000000,-312.000000
556,-2840.000000,-312.000000
557,-2840.000000,-304.000000
558,-2840.000000,-312.000000
559,-2840.000000,-312.000000
560,-2840.000000,-312.000000
561,-2840.000000,-312.000000
562,-2840.000000,-312.000000
563,-2840.000000,-320.000000
564,-2800.000000,-312.000000
565,-2840.000000,-304.000000
566,-2840.000000,-320.000000
567,-2840.000000,-304.000000
568,-2840.000000,-296.000000
569,-2840.000000,-304.000000
570,-2840.000000,-304.000000
571,-2800.000000,-312.000000
572,-2840.000000,-312.000000
573,-2840.000000,-312.000000
574,-2840.000000,-312.000000
575,-2800.000000,-328.000000
576,-2840.000000,-312.000000
577,-2840.000000,-312.000000
578,-2840.000000,-312.000000
579,-2800.000000,-312.000000
580,-2840.000000,-312.000000
581,-2840.000000,-312.000000
582,-2840.000000,-312.000000
583,-2840.000000,-320.000000
584,-2840.000000,-312.000000
585,-2840.000000,-312.000000
586,-2840.000000,-320.000000
587,-2840.000000,-312.000000
588,-2840.000000,-312.000000
589,-2840.000000,-312.000000
590,-2840.000000,-312.000000
591,-2840.000000,-312.000000
592,-2800.000000,-312.000000
593,-2840.000000,-312.000000
594,-2840.000000,-312.000000
595,-2800.000000,-312.000000
596,-2840.000000,-312.000000
597,-2800.000000,-312.000000
598,-2840.000000,-312.000000
599,-2840.000000,-312.000000
600,-2840.000000,-312.000000
601,-2800.000000,-312.000000
602,-2840.000000,-312.000000
603,-2840.000000,-312.000000
604,-2840.000000,-312.000000
605,-2840.000000,-312.000000
606,-2840.000000,-312.000000
607,-2840.000000,-312.000000
608,-2840.000000,-312.000000
609,-2840.000000,-312.000000
610,-2840.000000,-312.000000
611,-2840.000000,-312.000000
612,-2840.000000,-312.000000
613,-2840.000000,-312.000000
614,-2840.000000,-312.000000
615,-2840.000000,-312.000000
616,-2840.000000,-312.000000
617,-2840.000000,-320.000000
618,-2840.000000,-312.000000
619,-2840.000000,-320.000000
620,-2840.000000,-312.000000
621,-2840.000000,-320.000000
622,-2840.000000,-312.000000
623,-2800.000000,-320.000000
624,-2800.000000,-312.000000
625,-2840.000000,-312.000000
626,-2840.000000,-312.000000
627,-2840.000000,-312.000000
628,-2840.000000,-312.000000
629,-2840.000000,-312.000000
630,-2840.000000,-312.000000
631,-2800.000000,-312.000000
632,-2840.000000,-312.000000
633,-2840.000000,-312.000000
634,-2840.000000,-304.000000
635,-2840.000000,-312.000000
636,-2840.000000,-312.000000
637,-2840.000000,-312.000000
638,-2840.000000,-312.000000
639,-2840.000000,-312.000000
640,-2840.000000,-312.000000
641,-2840.000000,-312.000000
642,-2840.000000,-312.000000
643,-2840.000000,-312.000000
644,-2840.000000,-312.000000
645,-2840.000000,-312.000000
646,-2840.000000,-312.000000
647,-2840.000000,-312.000000
648,-2840.000000,-312.000000
649,-2840.000000,-312.000000
650,-2840.000000,-312.000000
651,-2840.000000,-312.000000
652,-2840.000000,-312.000000
653,-2840.000000,-312.000000
654,-2840.000000,-312.000000
655,-2840.000000,-312.000000
656,-2840.000000,-312.000000
657,-2800.000000,-304.000000
658,-2840.000000,-312.000000
659,-2840.000000,-304.000000
660,-2840.000000,-312.000000
661,-2840.000000,-304.000000
662,-2840.000000,-312.000000
663,-2840.000000,-304.000000
664,-2840.000000,-312.000000
665,-2840.000000,-304.000000
666,-2840.000000,-304.000000
667,-2840.000000,-304.000000
668,-2840.000000,-304.000000
669,-2840.000000,-304.000000
670,-2800.000000,-312.000000
671,-2840.000000,-304.000000
672,-2800.000000,-312.000000
673,-2840.000000,-312.000000
674,-2800.000000,-304.000000
675,-2840.000000,-312.000000
676,-2800.000000,-304.000000
677,-2840.000000,-312.000000
678,-2840.000000,-312.000000
679,-2840.000000,-304.000000
680,-2840.000000,-304.000000
681,-2840.000000,-304.000000
682,-2840.000000,-312.000000
683,-2840.000000,-312.000000
