repport_data/pow_reoptimization_3/data_53_001.csv

Channel              :,CH1,CH2
Frequency            :,  ?,  ?
Period               :,  ?,  ?
PK-PK                :,848.0mV,120.0mV
Probe attenuation    :,1X,1X
Voltage per ADC value:,0.500000mV,2.500000mV
Time interval        :,200.00000uS,200.00000uS

index,CH1_Voltage(mV),CH2_Voltage(mV)
1,-56.000000,3200.000000
2,-56.000000,3200.000000
3,-56.000000,3200.000000
4,-56.000000,3200.000000
5,-56.000000,3200.000000
6,-48.000000,3200.000000
7,-48.000000,3200.000000
8,-48.000000,3200.000000
9,-48.000000,3160.000000
10,-40.000000,3200.000000
11,-40.000000,3200.000000
12,0.000000,3200.000000
13,24.000000,3160.000000
14,16.000000,3160.000000
15,8.000000,3200.000000
16,-8.000000,3200.000000
17,-16.000000,3200.000000
18,-24.000000,3160.000000
19,-32.000000,3200.000000
20,-48.000000,3200.000000
21,-56.000000,3200.000000
22,-56.000000,3200.000000
23,-64.000000,3200.000000
24,-56.000000,3200.000000
25,-56.000000,3200.000000
26,-56.000000,3200.000000
27,-48.000000,3200.000000
28,-48.000000,3160.000000
29,-48.000000,3200.000000
30,-56.000000,3200.000000
31,-48.000000,3200.000000
32,-40.000000,3200.000000
33,-40.000000,3200.000000
34,0.000000,3200.000000
35,24.000000,3200.000000
36,16.000000,3200.000000
37,8.000000,3200.000000
38,0.000000,3200.000000
39,-16.000000,3200.000000
40,-24.000000,3200.000000
41,-40.000000,3200.000000
42,-40.000000,3200.000000
43,-56.000000,3160.000000
44,-56.000000,3200.000000
45,-64.000000,3160.000000
46,-56.000000,3200.000000
47,-56.000000,3200.000000
48,-56.000000,3160.000000
49,-48.000000,3200.000000
50,-48.000000,3200.000000
51,-48.000000,3160.000000
52,-48.000000,3200.000000
53,-48.000000,3200.000000
54,-40.000000,3200.000000
55,-40.000000,3200.000000
56,-8.000000,3200.000000
57,24.000000,3200.000000
58,16.000000,3200.000000
59,8.000000,3200.000000
60,0.000000,3200.000000
61,-16.000000,3200.000000
62,-24.000000,3200.000000
63,-40.000000,3200.000000
64,-40.000000,3200.000000
65,-48.000000,3200.000000
66,-56.000000,3160.000000
67,-64.000000,3200.000000
68,-56.000000,3200.000000
69,-56.000000,3200.000000
70,-56.000000,3200.000000
71,-24.000000,3200.000000
72,-48.000000,3200.000000
73,-56.000000,3160.000000
74,-48.000000,3200.000000
75,-48.000000,3200.000000
76,-40.000000,3200.000000
77,-40.000000,3200.000000
78,-16.000000,3200.000000
79,16.000000,3200.000000
80,24.000000,3200.000000
81,8.000000,3200.000000
82,-8.000000,3200.000000
83,-16.000000,3200.000000
84,-24.000000,3200.000000
85,-32.000000,3200.000000
86,-48.000000,3200.000000
87,-56.000000,3200.000000
88,-56.000000,3200.000000
89,-64.000000,3160.000000
90,-56.000000,3200.000000
91,-56.000000,3200.000000
92,-56.000000,3200.000000
93,-56.000000,3200.000000
94,-48.000000,3200.000000
95,-48.000000,3200.000000
96,-48.000000,3200.000000
97,-48.000000,3200.000000
98,-48.000000,3200.000000
99,-48.000000,3200.000000
100,-16.000000,3160.000000
101,24.000000,3200.000000
102,16.000000,3160.000000
103,8.000000,3200.000000
104,0.000000,3200.000000
105,-8.000000,3200.000000
106,-24.000000,3200.000000
107,-32.000000,3200.000000
108,-48.000000,3200.000000
109,-48.000000,3200.000000
110,-64.000000,3200.000000
111,-64.000000,3200.000000
112,-56.000000,3200.000000
113,-56.000000,3200.000000
114,-48.000000,3200.000000
115,-48.000000,3200.000000
116,-48.000000,3200.000000
117,-48.000000,3200.000000
118,-48.000000,3200.000000
119,-48.000000,3200.000000
120,-40.000000,3200.000000
121,-40.000000,3200.000000
122,-16.000000,3200.000000
123,24.000000,3200.000000
124,24.000000,3200.000000
125,8.000000,3200.000000
126,8.000000,3200.000000
127,-8.000000,3200.000000
128,-24.000000,3200.000000
129,-24.000000,3200.000000
130,-24.000000,3200.000000
131,-48.000000,3200.000000
132,-64.000000,3200.000000
133,-56.000000,3200.000000
134,-56.000000,3200.000000
135,-64.000000,3160.000000
136,-48.000000,3200.000000
137,-56.000000,3200.000000
138,-48.000000,3200.000000
139,-48.000000,3200.000000
140,-48.000000,3200.000000
141,-48.000000,3200.000000
142,-48.000000,3160.000000
143,-40.000000,3200.000000
144,-24.000000,3200.000000
145,16.000000,3200.000000
146,16.000000,3200.000000
147,16.000000,3200.000000
148,0.000000,3200.000000
149,-8.000000,3200.000000
150,-24.000000,3200.000000
151,-32.000000,3160.000000
152,-40.000000,3160.000000
153,-48.000000,3200.000000
154,-56.000000,3160.000000
155,-64.000000,3200.000000
156,-56.000000,3200.000000
157,-56.000000,3200.000000
158,-48.000000,3200.000000
159,-48.000000,3200.000000
160,-48.000000,3200.000000
161,-48.000000,3200.000000
162,-48.000000,3200.000000
163,-48.000000,3200.000000
164,-48.000000,3200.000000
165,-40.000000,3200.000000
166,-16.000000,3200.000000
167,24.000000,3200.000000
168,24.000000,3200.000000
169,8.000000,3200.000000
170,0.000000,3200.000000
171,-8.000000,3200.000000
172,-16.000000,3200.000000
173,-32.000000,3200.000000
174,-40.000000,3200.000000
175,-40.000000,3200.000000
176,-56.000000,3200.000000
177,-56.000000,3200.000000
178,-56.000000,3200.000000
179,-56.000000,3160.000000
180,-48.000000,3200.000000
181,-48.000000,3200.000000
182,-56.000000,3200.000000
183,-40.000000,3200.000000
184,-48.000000,3200.000000
185,-40.000000,3200.000000
186,-40.000000,3200.000000
187,-32.000000,3200.000000
188,-24.000000,3200.000000
189,24.000000,3200.000000
190,24.000000,3200.000000
191,24.000000,3200.000000
192,8.000000,3200.000000
193,-8.000000,3200.000000
194,-16.000000,3200.000000
195,-24.000000,3200.000000
196,-32.000000,3200.000000
197,-40.000000,3200.000000
198,-48.000000,3200.000000
199,-56.000000,3200.000000
200,-56.000000,3200.000000
201,-56.000000,3200.000000
202,-48.000000,3200.000000
203,-48.000000,3200.000000
204,-40.000000,3200.000000
205,-40.000000,3200.000000
206,-48.000000,3200.000000
207,-40.000000,3200.000000
208,-40.000000,3200.000000
209,-40.000000,3200.000000
210,-24.000000,3200.000000
211,16.000000,3200.000000
212,24.000000,3200.000000
213,16.000000,3200.000000
214,8.000000,3200.000000
215,-8.000000,3200.000000
216,-16.000000,3200.000000
217,-32.000000,3200.000000
218,-32.000000,3200.000000
219,-40.000000,3200.000000
220,-48.000000,3200.000000
221,-48.000000,3200.000000
222,-56.000000,3200.000000
223,-56.000000,3200.000000
224,-48.000000,3160.000000
225,-48.000000,3200.000000
226,-48.000000,3200.000000
227,-48.000000,3200.000000
228,-40.000000,3200.000000
229,-40.000000,3200.000000
230,-32.000000,3200.000000
231,-40.000000,3200.000000
232,-24.000000,3200.000000
233,16.000000,3200.000000
234,24.000000,3200.000000
235,16.000000,3200.000000
236,0.000000,3200.000000
237,0.000000,3200.000000
238,-16.000000,3200.000000
239,-24.000000,3200.000000
240,-32.000000,3200.000000
241,-40.000000,3200.000000
242,-56.000000,3200.000000
243,-56.000000,3200.000000
244,-56.000000,3200.000000
245,-56.000000,3200.000000
246,-48.000000,3200.000000
247,-48.000000,3200.000000
248,-48.000000,3200.000000
249,-40.000000,3200.000000
250,-40.000000,3200.000000
251,-40.000000,3200.000000
252,-32.000000,3200.000000
253,-32.000000,3160.000000
254,-32.000000,3200.000000
255,24.000000,3200.000000
256,24.000000,3200.000000
257,24.000000,3200.000000
258,8.000000,3200.000000
259,0.000000,3200.000000
260,-16.000000,3200.000000
261,-24.000000,3200.000000
262,-32.000000,3200.000000
263,-32.000000,3200.000000
264,-56.000000,3200.000000
265,-56.000000,3200.000000
266,-56.000000,3200.000000
267,-48.000000,3200.000000
268,-48.000000,3200.000000
269,-48.000000,3200.000000
270,-48.000000,3200.000000
271,-40.000000,3200.000000
272,-40.000000,3200.000000
273,-40.000000,3200.000000
274,-40.000000,3200.000000
275,-32.000000,3200.000000
276,-32.000000,3200.000000
277,16.000000,3200.000000
278,24.000000,3200.000000
279,24.000000,3200.000000
280,8.000000,3200.000000
281,0.000000,3200.000000
282,-8.000000,3200.000000
283,0.000000,3200.000000
284,-32.000000,3200.000000
285,-40.000000,3200.000000
286,-48.000000,3200.000000
287,-56.000000,3200.000000
288,-56.000000,3200.000000
289,-56.000000,3200.000000
290,-48.000000,3200.000000
291,-48.000000,3200.000000
292,-48.000000,3200.000000
293,-48.000000,3200.000000
294,-40.000000,3200.000000
295,-40.000000,3160.000000
296,-40.000000,3200.000000
297,-40.000000,3200.000000
298,-32.000000,3200.000000
299,8.000000,3200.000000
300,24.000000,3200.000000
301,24.000000,3200.000000
302,8.000000,3200.000000
303,0.000000,3200.000000
304,-8.000000,3200.000000
305,-24.000000,3200.000000
306,-32.000000,3200.000000
307,-40.000000,3200.000000
308,-48.000000,3200.000000
309,-56.000000,3200.000000
310,-56.000000,3200.000000
311,-48.000000,3200.000000
312,-48.000000,3200.000000
313,-48.000000,3200.000000
314,-48.000000,3200.000000
315,-40.000000,3200.000000
316,-40.000000,3200.000000
317,-40.000000,3200.000000
318,-40.000000,3200.000000
319,-40.000000,3200.000000
320,-40.000000,3200.000000
321,8.000000,3200.000000
322,24.000000,3200.000000
323,16.000000,3200.000000
324,8.000000,3200.000000
325,0.000000,3200.000000
326,-8.000000,3200.000000
327,-24.000000,3200.000000
328,-32.000000,3200.000000
329,-32.000000,3200.000000
330,-48.000000,3200.000000
331,-48.000000,3200.000000
332,-56.000000,3200.000000
333,-48.000000,3240.000000
334,-48.000000,3200.000000
335,-40.000000,3200.000000
336,-48.000000,3200.000000
337,-40.000000,3200.000000
338,-40.000000,3200.000000
339,-40.000000,3200.000000
340,-40.000000,3200.000000
341,-32.000000,3200.000000
342,-32.000000,3200.000000
343,8.000000,3200.000000
344,32.000000,3200.000000
345,24.000000,3160.000000
346,16.000000,3200.000000
347,0.000000,3200.000000
348,-8.000000,3200.000000
349,-16.000000,3200.000000
350,-24.000000,3200.000000
351,-40.000000,3200.000000
352,-48.000000,3160.000000
353,-48.000000,3200.000000
354,-56.000000,3200.000000
355,-48.000000,3200.000000
356,-48.000000,3160.000000
357,-48.000000,3200.000000
358,-48.000000,3200.000000
359,-40.000000,3200.000000
360,-40.000000,3200.000000
361,-40.000000,3200.000000
362,-32.000000,3200.000000
363,-32.000000,3200.000000
364,-32.000000,3200.000000
365,0.000000,3200.000000
366,32.000000,3200.000000
367,24.000000,3200.000000
368,16.000000,3200.000000
369,8.000000,3200.000000
370,-8.000000,3200.000000
371,-16.000000,3200.000000
372,-24.000000,3200.000000
373,-32.000000,3200.000000
374,-48.000000,3200.000000
375,-48.000000,3200.000000
376,-56.000000,3200.000000
377,-48.000000,3200.000000
378,-48.000000,3200.000000
379,-48.000000,3200.000000
380,-40.000000,3200.000000
381,-40.000000,3200.000000
382,-40.000000,3200.000000
383,-40.000000,3160.000000
384,-40.000000,3200.000000
385,-32.000000,3200.000000
386,-32.000000,3200.000000
387,0.000000,3200.000000
388,24.000000,3200.000000
389,24.000000,3200.000000
390,16.000000,3200.000000
391,8.000000,3200.000000
392,-8.000000,3200.000000
393,-16.000000,3200.000000
394,-24.000000,3200.000000
395,-32.000000,3200.000000
396,-48.000000,3200.000000
397,-48.000000,3200.000000
398,-56.000000,3200.000000
399,-56.000000,3200.000000
400,-48.000000,3200.000000
401,-48.000000,3200.000000
402,-48.000000,3200.000000
403,-48.000000,3200.000000
404,-40.000000,3200.000000
405,-40.000000,3200.000000
406,-40.000000,3200.000000
407,-40.000000,3200.000000
408,-40.000000,3200.000000
409,-8.000000,3200.000000
410,32.000000,3200.000000
411,24.000000,3200.000000
412,16.000000,3200.000000
413,8.000000,3200.000000
414,-8.000000,3200.000000
415,-16.000000,3200.000000
416,-24.000000,3200.000000
417,-40.000000,3200.000000
418,-48.000000,3200.000000
419,-56.000000,3200.000000
420,-48.000000,3200.000000
421,-48.000000,3200.000000
422,-48.000000,3200.000000
423,-48.000000,3200.000000
424,-48.000000,3200.000000
425,-40.000000,3200.000000
426,-40.000000,3200.000000
427,-40.000000,3200.000000
428,-40.000000,3200.000000
429,-32.000000,3200.000000
430,-32.000000,3200.000000
431,-8.000000,3200.000000
432,24.000000,3200.000000
433,16.000000,3200.000000
434,16.000000,3200.000000
435,8.000000,3200.000000
436,-8.000000,3200.000000
437,-16.000000,3200.000000
438,-24.000000,3200.000000
439,-40.000000,3200.000000
440,-40.000000,3200.000000
441,-48.000000,3200.000000
442,-56.000000,3160.000000
443,-56.000000,3200.000000
444,-48.000000,3200.000000
445,-48.000000,3200.000000
446,-40.000000,3200.000000
447,-40.000000,3200.000000
448,-48.000000,3160.000000
449,-40.000000,3200.000000
450,-40.000000,3160.000000
451,-32.000000,3200.000000
452,-40.000000,3200.000000
453,-16.000000,3200.000000
454,24.000000,3200.000000
455,24.000000,3200.000000
456,16.000000,3200.000000
457,8.000000,3200.000000
458,-8.000000,3200.000000
459,-16.000000,3200.000000
460,-24.000000,3200.000000
461,-32.000000,3200.000000
462,-48.000000,3200.000000
463,-48.000000,3200.000000
464,-48.000000,3200.000000
465,-48.000000,3200.000000
466,-48.000000,3200.000000
467,-48.000000,3200.000000
468,-48.000000,3200.000000
469,-40.000000,3200.000000
470,-40.000000,3200.000000
471,-40.000000,3200.000000
472,-32.000000,3200.000000
473,-32.000000,3200.000000
474,-32.000000,3200.000000
475,-16.000000,3200.000000
476,24.000000,3200.000000
477,24.000000,3160.000000
478,16.000000,3200.000000
479,8.000000,3200.000000
480,0.000000,3200.000000
481,-24.000000,3200.000000
482,-24.000000,3200.000000
483,-32.000000,3200.000000
484,-40.000000,3200.000000
485,-32.000000,3200.000000
486,-48.000000,3200.000000
487,-48.000000,3160.000000
488,-48.000000,3200.000000
489,-56.000000,3200.000000
490,-48.000000,3200.000000
491,-48.000000,3200.000000
492,-40.000000,3200.000000
493,-40.000000,3200.000000
494,-40.000000,3200.000000
495,-40.000000,3200.000000
496,-32.000000,3200.000000
497,-24.000000,3200.000000
498,24.000000,3200.000000
499,24.000000,3200.000000
500,16.000000,3200.000000
501,16.000000,3200.000000
502,-8.000000,3200.000000
503,-16.000000,3200.000000
504,-24.000000,3200.000000
505,-32.000000,3200.000000
506,-40.000000,3200.000000
507,-48.000000,3200.000000
508,-48.000000,3200.000000
509,-48.000000,3200.000000
510,-56.000000,3160.000000
511,-48.000000,3200.000000
512,-48.000000,3200.000000
513,-40.000000,3200.000000
514,-40.000000,3200.000000
515,-40.000000,3200.000000
516,-40.000000,3200.000000
517,-32.000000,3200.000000
518,-32.000000,3200.000000
519,-24.000000,3200.000000
520,24.000000,3200.000000
521,24.000000,3200.000000
522,16.000000,3200.000000
523,8.000000,3200.000000
524,0.000000,3200.000000
525,-8.000000,3200.000000
526,-24.000000,3200.000000
527,-32.000000,3200.000000
528,-32.000000,3200.000000
529,-48.000000,3200.000000
530,-56.000000,3200.000000
531,-56.000000,3200.000000
532,-48.000000,3200.000000
533,-40.000000,3200.000000
534,-40.000000,3200.000000
535,-48.000000,3200.000000
536,-40.000000,3200.000000
537,-40.000000,3200.000000
538,-40.000000,3200.000000
539,-40.000000,3200.000000
540,-40.000000,3200.000000
541,-24.000000,3200.000000
542,24.000000,3160.000000
543,24.000000,3200.000000
544,16.000000,3160.000000
545,8.000000,3200.000000
546,0.000000,3200.000000
547,-16.000000,3200.000000
548,-16.000000,3200.000000
549,-32.000000,3200.000000
550,-40.000000,3200.000000
551,-48.000000,3200.000000
552,-48.000000,3200.000000
553,-56.000000,3200.000000
554,-56.000000,3200.000000
555,-48.000000,3200.000000
556,-48.000000,3200.000000
557,-40.000000,3200.000000
558,-40.000000,3200.000000
559,-32.000000,3200.000000
560,-40.000000,3200.000000
561,-40.000000,3200.000000
562,-32.000000,3200.000000
563,-32.000000,3200.000000
564,16.000000,3200.000000
565,24.000000,3200.000000
566,24.000000,3200.000000
567,8.000000,3200.000000
568,0.000000,3200.000000
569,-8.000000,3200.000000
570,-24.000000,3200.000000
571,-32.000000,3200.000000
572,-48.000000,3200.000000
573,-48.000000,3200.000000
574,-48.000000,3200.000000
575,-48.000000,3200.000000
576,-56.000000,3200.000000
577,-48.000000,3200.000000
578,-48.000000,3200.000000
579,-40.000000,3200.000000
580,-48.000000,3200.000000
581,-40.000000,3200.000000
582,-40.000000,3200.000000
583,-32.000000,3200.000000
584,-32.000000,3200.000000
585,-32.000000,3200.000000
586,24.000000,3200.000000
587,32.000000,3200.000000
588,24.000000,3200.000000
589,8.000000,3200.000000
590,0.000000,3200.000000
591,-8.000000,3200.000000
592,-24.000000,3200.000000
593,-40.000000,3200.000000
594,-40.000000,3200.000000
595,-48.000000,3160.000000
596,-56.000000,3200.000000
597,-56.000000,3200.000000
598,-48.000000,3200.000000
599,-48.000000,3200.000000
600,-48.000000,3200.000000
601,-48.000000,3200.000000
602,-40.000000,3160.000000
603,-40.000000,3200.000000
604,-40.000000,3200.000000
605,-40.000000,3200.000000
606,-40.000000,3200.000000
607,-32.000000,3200.000000
608,8.000000,3200.000000
609,32.000000,3200.000000
610,24.000000,3200.000000
611,16.000000,3200.000000
612,0.000000,3200.000000
613,-8.000000,3200.000000
614,-24.000000,3200.000000
615,-32.000000,3200.000000
616,-40.000000,3200.000000
617,-48.000000,3200.000000
618,-48.000000,3200.000000
619,-56.000000,3200.000000
620,-48.000000,3160.000000
621,-56.000000,3200.000000
622,-40.000000,3160.000000
623,-48.000000,3200.000000
624,-48.000000,3200.000000
625,-40.000000,3200.000000
626,-32.000000,3200.000000
627,-40.000000,3200.000000
628,-40.000000,3200.000000
629,-24.000000,3200.000000
630,8.000000,3200.000000
631,24.000000,3200.000000
632,32.000000,3200.000000
633,16.000000,3200.000000
634,0.000000,3200.000000
635,-24.000000,3200.000000
636,-24.000000,3200.000000
637,-24.000000,3200.000000
638,-48.000000,3200.000000
639,-48.000000,3200.000000
640,-48.000000,3200.000000
641,-56.000000,3200.000000
642,-56.000000,3200.000000
643,-48.000000,3160.000000
644,-48.000000,3200.000000
645,-48.000000,3200.000000
646,-48.000000,3200.000000
647,-40.000000,3200.000000
648,-40.000000,3200.000000
649,-40.000000,3200.000000
650,-40.000000,3200.000000
651,-32.000000,3200.000000
652,0.000000,3200.000000
653,32.000000,3200.000000
654,24.000000,3200.000000
655,16.000000,3200.000000
656,0.000000,3200.000000
657,-8.000000,3240.000000
658,-24.000000,3200.000000
659,-32.000000,3200.000000
660,-40.000000,3200.000000
661,-48.000000,3160.000000
662,-48.000000,3200.000000
663,-56.000000,3200.000000
664,-48.000000,3200.000000
665,-48.000000,3200.000000
666,-48.000000,3200.000000
667,-48.000000,3200.000000
668,0.000000,3200.000000
669,40.000000,3200.000000
670,80.000000,3200.000000
671,120.000000,3200.000000
672,152.000000,3200.000000
673,184.000000,3200.000000
674,216.000000,3160.000000
675,240.000000,3200.000000
676,256.000000,3160.000000
677,272.000000,3200.000000
678,280.000000,3200.000000
679,272.000000,3200.000000
680,264.000000,3200.000000
681,272.000000,3200.000000
682,264.000000,3200.000000
683,264.000000,3200.000000
684,272.000000,3200.000000
685,272.000000,3160.000000
686,280.000000,3200.000000
687,288.000000,3200.000000
688,304.000000,3200.000000
689,312.000000,3200.000000
690,336.000000,3200.000000
691,328.000000,3200.000000
692,328.000000,3200.000000
693,336.000000,3200.000000
694,344.000000,3200.000000
695,352.000000,3200.000000
696,352.000000,3160.000000
697,352.000000,3200.000000
698,360.000000,3160.000000
699,352.000000,3200.000000
700,352.000000,3200.000000
701,352.000000,3200.000000
702,352.000000,3200.000000
703,336.000000,3200.000000
704,344.000000,3200.000000
705,336.000000,3200.000000
706,328.000000,3200.000000
707,328.000000,3200.000000
708,328.000000,3200.000000
709,336.000000,3200.000000
710,336.000000,3200.000000
711,336.000000,3200.000000
712,344.000000,3200.000000
713,352.000000,3200.000000
714,352.000000,3200.000000
715,360.000000,3200.000000
716,368.000000,3200.000000
717,360.000000,3200.000000
718,368.000000,3200.000000
719,376.000000,3200.000000
720,376.000000,3200.000000
721,376.000000,3200.000000
722,376.000000,3200.000000
723,368.000000,3200.000000
724,368.000000,3200.000000
725,360.000000,3200.000000
726,352.000000,3200.000000
727,368.000000,3200.000000
728,344.000000,3200.000000
729,344.000000,3200.000000
730,336.000000,3160.000000
731,344.000000,3200.000000
732,336.000000,3200.000000
733,328.000000,3200.000000
734,336.000000,3200.000000
735,344.000000,3160.000000
736,344.000000,3200.000000
737,344.000000,3200.000000
738,352.000000,3200.000000
739,360.000000,3200.000000
740,368.000000,3200.000000
741,368.000000,3200.000000
742,368.000000,3200.000000
