repport_data/pow_reoptimization_3/data_53_000.csv

Channel              :,CH1,CH2
Frequency            :,  ?,  ?
Period               :,  ?,  ?
PK-PK                :,896.0mV,160.0mV
Probe attenuation    :,1X,1X
Voltage per ADC value:,0.500000mV,2.500000mV
Time interval        :,200.00000uS,200.00000uS

index,CH1_Voltage(mV),CH2_Voltage(mV)
1,-24.000000,3160.000000
2,-24.000000,3160.000000
3,-32.000000,3200.000000
4,-48.000000,3200.000000
5,-48.000000,3200.000000
6,-56.000000,3200.000000
7,-48.000000,3200.000000
8,-48.000000,3160.000000
9,-48.000000,3160.000000
10,-40.000000,3200.000000
11,-48.000000,3200.000000
12,-40.000000,3200.000000
13,-32.000000,3200.000000
14,-32.000000,3200.000000
15,-32.000000,3160.000000
16,-32.000000,3200.000000
17,8.000000,3200.000000
18,32.000000,3160.000000
19,24.000000,3200.000000
20,16.000000,3200.000000
21,0.000000,3200.000000
22,-8.000000,3160.000000
23,-24.000000,3200.000000
24,-32.000000,3200.000000
25,-40.000000,3200.000000
26,-48.000000,3200.000000
27,-48.000000,3200.000000
28,-56.000000,3200.000000
29,-48.000000,3200.000000
30,-48.000000,3200.000000
31,-40.000000,3160.000000
32,-48.000000,3200.000000
33,-40.000000,3200.000000
34,-40.000000,3200.000000
35,-40.000000,3200.000000
36,-40.000000,3200.000000
37,-32.000000,3200.000000
38,-32.000000,3200.000000
39,8.000000,3200.000000
40,32.000000,3200.000000
41,24.000000,3200.000000
42,16.000000,3200.000000
43,0.000000,3160.000000
44,-8.000000,3200.000000
45,-16.000000,3200.000000
46,-24.000000,3200.000000
47,-32.000000,3200.000000
48,-40.000000,3200.000000
49,-48.000000,3200.000000
50,-48.000000,3200.000000
51,-48.000000,3200.000000
52,-48.000000,3200.000000
53,-48.000000,3200.000000
54,-48.000000,3200.000000
55,-40.000000,3200.000000
56,-40.000000,3200.000000
57,-40.000000,3200.000000
58,-40.000000,3200.000000
59,-32.000000,3200.000000
60,-32.000000,3200.000000
61,0.000000,3160.000000
62,32.000000,3200.000000
63,24.000000,3200.000000
64,16.000000,3200.000000
65,0.000000,3200.000000
66,-8.000000,3200.000000
67,-16.000000,3200.000000
68,-32.000000,3200.000000
69,-32.000000,3200.000000
70,-40.000000,3200.000000
71,-48.000000,3200.000000
72,-56.000000,3200.000000
73,-48.000000,3200.000000
74,-40.000000,3200.000000
75,-40.000000,3200.000000
76,-48.000000,3200.000000
77,-40.000000,3200.000000
78,-48.000000,3200.000000
79,-40.000000,3200.000000
80,-40.000000,3200.000000
81,-32.000000,3200.000000
82,-32.000000,3200.000000
83,0.000000,3200.000000
84,24.000000,3200.000000
85,24.000000,3200.000000
86,24.000000,3200.000000
87,0.000000,3200.000000
88,0.000000,3200.000000
89,-16.000000,3200.000000
90,-24.000000,3200.000000
91,-32.000000,3200.000000
92,-48.000000,3200.000000
93,-40.000000,3200.000000
94,-48.000000,3200.000000
95,-48.000000,3200.000000
96,-48.000000,3200.000000
97,-48.000000,3200.000000
98,-48.000000,3200.000000
99,-48.000000,3200.000000
100,-48.000000,3200.000000
101,-40.000000,3200.000000
102,-40.000000,3200.000000
103,-32.000000,3200.000000
104,-32.000000,3200.000000
105,-16.000000,3200.000000
106,24.000000,3200.000000
107,24.000000,3200.000000
108,16.000000,3200.000000
109,8.000000,3200.000000
110,-8.000000,3200.000000
111,-8.000000,3200.000000
112,-24.000000,3200.000000
113,-32.000000,3200.000000
114,-40.000000,3200.000000
115,-48.000000,3200.000000
116,-56.000000,3200.000000
117,-40.000000,3200.000000
118,-48.000000,3200.000000
119,-48.000000,3160.000000
120,-48.000000,3200.000000
121,-40.000000,3200.000000
122,-40.000000,3200.000000
123,-40.000000,3200.000000
124,-40.000000,3200.000000
125,-40.000000,3200.000000
126,-32.000000,3200.000000
127,-16.000000,3200.000000
128,24.000000,3200.000000
129,24.000000,3200.000000
130,24.000000,3200.000000
131,8.000000,3200.000000
132,0.000000,3200.000000
133,-16.000000,3200.000000
134,-24.000000,3200.000000
135,-32.000000,3200.000000
136,-40.000000,3200.000000
137,-48.000000,3200.000000
138,-48.000000,3160.000000
139,-56.000000,3200.000000
140,-48.000000,3200.000000
141,-48.000000,3200.000000
142,-48.000000,3200.000000
143,-40.000000,3200.000000
144,-40.000000,3200.000000
145,-40.000000,3200.000000
146,-40.000000,3200.000000
147,-40.000000,3200.000000
148,-32.000000,3200.000000
149,-24.000000,3200.000000
150,24.000000,3160.000000
151,32.000000,3200.000000
152,24.000000,3200.000000
153,8.000000,3200.000000
154,0.000000,3200.000000
155,-8.000000,3200.000000
156,-24.000000,3200.000000
157,-32.000000,3200.000000
158,-40.000000,3200.000000
159,-48.000000,3200.000000
160,-48.000000,3200.000000
161,-48.000000,3240.000000
162,-48.000000,3200.000000
163,-48.000000,3200.000000
164,-48.000000,3200.000000
165,-40.000000,3200.000000
166,-40.000000,3200.000000
167,-40.000000,3200.000000
168,-40.000000,3200.000000
169,-48.000000,3200.000000
170,-40.000000,3200.000000
171,-32.000000,3200.000000
172,24.000000,3200.000000
173,32.000000,3200.000000
174,24.000000,3200.000000
175,8.000000,3200.000000
176,0.000000,3200.000000
177,-16.000000,3160.000000
178,-32.000000,3200.000000
179,-32.000000,3200.000000
180,-40.000000,3200.000000
181,-48.000000,3200.000000
182,-56.000000,3200.000000
183,-56.000000,3160.000000
184,-48.000000,3200.000000
185,-48.000000,3200.000000
186,-40.000000,3200.000000
187,-40.000000,3200.000000
188,-40.000000,3200.000000
189,-40.000000,3200.000000
190,-32.000000,3200.000000
191,-40.000000,3160.000000
192,-40.000000,3200.000000
193,-24.000000,3200.000000
194,16.000000,3200.000000
195,32.000000,3200.000000
196,16.000000,3200.000000
197,8.000000,3200.000000
198,0.000000,3160.000000
199,-16.000000,3200.000000
200,-24.000000,3200.000000
201,-24.000000,3200.000000
202,-40.000000,3200.000000
203,-48.000000,3200.000000
204,-56.000000,3200.000000
205,-56.000000,3200.000000
206,-48.000000,3200.000000
207,-48.000000,3200.000000
208,-48.000000,3200.000000
209,-48.000000,3200.000000
210,-40.000000,3200.000000
211,-40.000000,3200.000000
212,-40.000000,3200.000000
213,-32.000000,3200.000000
214,-32.000000,3200.000000
215,-32.000000,3200.000000
216,16.000000,3200.000000
217,24.000000,3200.000000
218,24.000000,3200.000000
219,8.000000,3200.000000
220,0.000000,3200.000000
221,-8.000000,3200.000000
222,-24.000000,3200.000000
223,-32.000000,3200.000000
224,-32.000000,3200.000000
225,-48.000000,3200.000000
226,-56.000000,3200.000000
227,-40.000000,3200.000000
228,-48.000000,3200.000000
229,-40.000000,3200.000000
230,-40.000000,3200.000000
231,-48.000000,3200.000000
232,-40.000000,3200.000000
233,-8.000000,3200.000000
234,-48.000000,3240.000000
235,-40.000000,3200.000000
236,-40.000000,3200.000000
237,-32.000000,3200.000000
238,8.000000,3200.000000
239,24.000000,3200.000000
240,24.000000,3200.000000
241,8.000000,3160.000000
242,8.000000,3200.000000
243,-16.000000,3200.000000
244,-24.000000,3200.000000
245,-32.000000,3200.000000
246,-40.000000,3200.000000
247,-48.000000,3200.000000
248,-48.000000,3200.000000
249,-48.000000,3200.000000
250,-48.000000,3200.000000
251,-48.000000,3200.000000
252,-48.000000,3200.000000
253,-48.000000,3200.000000
254,-40.000000,3200.000000
255,-40.000000,3200.000000
256,-48.000000,3200.000000
257,-40.000000,3200.000000
258,-40.000000,3160.000000
259,-32.000000,3200.000000
260,0.000000,3200.000000
261,24.000000,3200.000000
262,24.000000,3200.000000
263,8.000000,3200.000000
264,0.000000,3200.000000
265,-8.000000,3200.000000
266,-8.000000,3200.000000
267,-32.000000,3200.000000
268,-40.000000,3200.000000
269,-48.000000,3200.000000
270,-48.000000,3160.000000
271,-56.000000,3200.000000
272,-48.000000,3200.000000
273,-48.000000,3200.000000
274,-48.000000,3200.000000
275,-48.000000,3200.000000
276,-48.000000,3200.000000
277,-40.000000,3200.000000
278,-40.000000,3200.000000
279,-40.000000,3200.000000
280,-32.000000,3200.000000
281,-32.000000,3200.000000
282,0.000000,3200.000000
283,24.000000,3200.000000
284,24.000000,3160.000000
285,8.000000,3200.000000
286,8.000000,3160.000000
287,-8.000000,3200.000000
288,-24.000000,3200.000000
289,-24.000000,3200.000000
290,-40.000000,3200.000000
291,-40.000000,3200.000000
292,-56.000000,3200.000000
293,-48.000000,3200.000000
294,-48.000000,3200.000000
295,-48.000000,3200.000000
296,-48.000000,3200.000000
297,-48.000000,3200.000000
298,-48.000000,3200.000000
299,-40.000000,3200.000000
300,-40.000000,3200.000000
301,-40.000000,3200.000000
302,-40.000000,3200.000000
303,-32.000000,3160.000000
304,-8.000000,3200.000000
305,24.000000,3200.000000
306,24.000000,3200.000000
307,16.000000,3200.000000
308,0.000000,3160.000000
309,-16.000000,3200.000000
310,-16.000000,3160.000000
311,-32.000000,3200.000000
312,-32.000000,3200.000000
313,-40.000000,3200.000000
314,-48.000000,3200.000000
315,-48.000000,3160.000000
316,-48.000000,3200.000000
317,-48.000000,3200.000000
318,-48.000000,3200.000000
319,-48.000000,3200.000000
320,-40.000000,3200.000000
321,-40.000000,3200.000000
322,-40.000000,3200.000000
323,-40.000000,3200.000000
324,-32.000000,3200.000000
325,-32.000000,3200.000000
326,-8.000000,3200.000000
327,24.000000,3200.000000
328,24.000000,3200.000000
329,16.000000,3200.000000
330,0.000000,3200.000000
331,-8.000000,3200.000000
332,-16.000000,3200.000000
333,-32.000000,3200.000000
334,-40.000000,3200.000000
335,-40.000000,3200.000000
336,-56.000000,3200.000000
337,-48.000000,3200.000000
338,-48.000000,3160.000000
339,-48.000000,3200.000000
340,-48.000000,3200.000000
341,-48.000000,3200.000000
342,-48.000000,3200.000000
343,-48.000000,3200.000000
344,-40.000000,3200.000000
345,-40.000000,3200.000000
346,-40.000000,3200.000000
347,-32.000000,3200.000000
348,-16.000000,3160.000000
349,24.000000,3200.000000
350,24.000000,3200.000000
351,16.000000,3160.000000
352,0.000000,3200.000000
353,-8.000000,3200.000000
354,-16.000000,3200.000000
355,-24.000000,3200.000000
356,-40.000000,3200.000000
357,-40.000000,3200.000000
358,-48.000000,3200.000000
359,-48.000000,3200.000000
360,-56.000000,3200.000000
361,-48.000000,3200.000000
362,-48.000000,3200.000000
363,-48.000000,3200.000000
364,-40.000000,3200.000000
365,-40.000000,3200.000000
366,-40.000000,3200.000000
367,-40.000000,3200.000000
368,-40.000000,3200.000000
369,-40.000000,3200.000000
370,-24.000000,3200.000000
371,32.000000,3200.000000
372,24.000000,3200.000000
373,8.000000,3200.000000
374,8.000000,3200.000000
375,0.000000,3160.000000
376,-24.000000,3200.000000
377,-24.000000,3200.000000
378,-24.000000,3200.000000
379,-40.000000,3200.000000
380,-48.000000,3200.000000
381,-56.000000,3200.000000
382,-48.000000,3200.000000
383,-48.000000,3200.000000
384,-40.000000,3200.000000
385,-48.000000,3200.000000
386,-48.000000,3200.000000
387,-40.000000,3200.000000
388,-40.000000,3200.000000
389,-40.000000,3200.000000
390,-32.000000,3200.000000
391,-32.000000,3200.000000
392,-24.000000,3200.000000
393,24.000000,3200.000000
394,24.000000,3200.000000
395,16.000000,3200.000000
396,8.000000,3200.000000
397,-8.000000,3200.000000
398,-16.000000,3200.000000
399,-24.000000,3200.000000
400,-32.000000,3200.000000
401,-48.000000,3200.000000
402,-56.000000,3200.000000
403,-56.000000,3160.000000
404,-56.000000,3160.000000
405,-48.000000,3200.000000
406,-48.000000,3200.000000
407,-48.000000,3200.000000
408,-40.000000,3200.000000
409,-48.000000,3200.000000
410,-40.000000,3200.000000
411,-40.000000,3200.000000
412,-40.000000,3200.000000
413,-40.000000,3160.000000
414,-32.000000,3200.000000
415,16.000000,3200.000000
416,24.000000,3200.000000
417,16.000000,3160.000000
418,8.000000,3200.000000
419,0.000000,3200.000000
420,-16.000000,3200.000000
421,-24.000000,3200.000000
422,-24.000000,3200.000000
423,-40.000000,3200.000000
424,-48.000000,3200.000000
425,-56.000000,3200.000000
426,-48.000000,3200.000000
427,-56.000000,3160.000000
428,-40.000000,3160.000000
429,-48.000000,3200.000000
430,-64.000000,3200.000000
431,-48.000000,3160.000000
432,-40.000000,3200.000000
433,-40.000000,3200.000000
434,-56.000000,3200.000000
435,-40.000000,3160.000000
436,-32.000000,3200.000000
437,24.000000,3200.000000
438,24.000000,3200.000000
439,24.000000,3200.000000
440,8.000000,3200.000000
441,0.000000,3200.000000
442,-16.000000,3200.000000
443,-24.000000,3200.000000
444,-40.000000,3200.000000
445,-40.000000,3200.000000
446,-56.000000,3200.000000
447,-56.000000,3200.000000
448,-56.000000,3200.000000
449,-48.000000,3200.000000
450,-48.000000,3200.000000
451,-48.000000,3200.000000
452,-48.000000,3200.000000
453,-40.000000,3200.000000
454,-40.000000,3200.000000
455,-40.000000,3200.000000
456,-40.000000,3200.000000
457,-32.000000,3200.000000
458,-32.000000,3200.000000
459,16.000000,3200.000000
460,24.000000,3200.000000
461,16.000000,3200.000000
462,8.000000,3200.000000
463,0.000000,3200.000000
464,-8.000000,3200.000000
465,-24.000000,3200.000000
466,-32.000000,3200.000000
467,-40.000000,3200.000000
468,-48.000000,3200.000000
469,-48.000000,3200.000000
470,-56.000000,3200.000000
471,-48.000000,3200.000000
472,-48.000000,3200.000000
473,-48.000000,3200.000000
474,-40.000000,3200.000000
475,-48.000000,3200.000000
476,-48.000000,3200.000000
477,-32.000000,3200.000000
478,-40.000000,3200.000000
479,-40.000000,3200.000000
480,-32.000000,3200.000000
481,16.000000,3200.000000
482,24.000000,3200.000000
483,16.000000,3200.000000
484,8.000000,3200.000000
485,0.000000,3200.000000
486,0.000000,3200.000000
487,-24.000000,3200.000000
488,-32.000000,3200.000000
489,-40.000000,3200.000000
490,-48.000000,3200.000000
491,-56.000000,3200.000000
492,-56.000000,3200.000000
493,-56.000000,3200.000000
494,-56.000000,3200.000000
495,-48.000000,3200.000000
496,-48.000000,3200.000000
497,-40.000000,3200.000000
498,-40.000000,3200.000000
499,-40.000000,3200.000000
500,-40.000000,3200.000000
501,-40.000000,3200.000000
502,-32.000000,3200.000000
503,8.000000,3200.000000
504,24.000000,3200.000000
505,24.000000,3200.000000
506,8.000000,3200.000000
507,0.000000,3200.000000
508,-8.000000,3200.000000
509,-16.000000,3200.000000
510,-32.000000,3200.000000
511,-40.000000,3200.000000
512,-48.000000,3200.000000
513,-56.000000,3200.000000
514,-64.000000,3160.000000
515,-56.000000,3200.000000
516,-56.000000,3200.000000
517,-48.000000,3200.000000
518,-48.000000,3200.000000
519,-40.000000,3200.000000
520,-40.000000,3160.000000
521,-40.000000,3200.000000
522,-40.000000,3200.000000
523,-40.000000,3200.000000
524,-40.000000,3200.000000
525,-8.000000,3200.000000
526,24.000000,3200.000000
527,16.000000,3200.000000
528,8.000000,3200.000000
529,8.000000,3200.000000
530,0.000000,3200.000000
531,-16.000000,3200.000000
532,-32.000000,3200.000000
533,-32.000000,3200.000000
534,-48.000000,3200.000000
535,-48.000000,3200.000000
536,-56.000000,3200.000000
537,-56.000000,3200.000000
538,-48.000000,3200.000000
539,-48.000000,3200.000000
540,-56.000000,3200.000000
541,-48.000000,3200.000000
542,-40.000000,3200.000000
543,-40.000000,3200.000000
544,-40.000000,3200.000000
545,-32.000000,3200.000000
546,-32.000000,3200.000000
547,-8.000000,3200.000000
548,24.000000,3200.000000
549,24.000000,3200.000000
550,16.000000,3200.000000
551,0.000000,3200.000000
552,0.000000,3200.000000
553,-24.000000,3200.000000
554,-32.000000,3200.000000
555,-32.000000,3200.000000
556,-48.000000,3200.000000
557,-48.000000,3200.000000
558,-56.000000,3200.000000
559,-48.000000,3200.000000
560,-48.000000,3200.000000
561,-48.000000,3200.000000
562,-48.000000,3200.000000
563,-40.000000,3200.000000
564,-40.000000,3200.000000
565,-40.000000,3200.000000
566,-40.000000,3200.000000
567,-40.000000,3200.000000
568,-40.000000,3200.000000
569,-16.000000,3200.000000
570,24.000000,3200.000000
571,24.000000,3200.000000
572,16.000000,3200.000000
573,0.000000,3200.000000
574,-8.000000,3200.000000
575,-16.000000,3200.000000
576,-32.000000,3200.000000
577,-40.000000,3200.000000
578,-48.000000,3200.000000
579,-64.000000,3200.000000
580,-56.000000,3160.000000
581,-48.000000,3200.000000
582,-56.000000,3200.000000
583,-40.000000,3160.000000
584,-48.000000,3200.000000
585,-48.000000,3200.000000
586,-48.000000,3200.000000
587,-40.000000,3200.000000
588,-40.000000,3160.000000
589,-40.000000,3200.000000
590,-40.000000,3200.000000
591,-24.000000,3200.000000
592,24.000000,3200.000000
593,24.000000,3200.000000
594,16.000000,3200.000000
595,8.000000,3200.000000
596,-8.000000,3200.000000
597,-16.000000,3200.000000
598,-24.000000,3200.000000
599,-32.000000,3200.000000
600,-40.000000,3200.000000
601,-48.000000,3200.000000
602,-48.000000,3200.000000
603,-56.000000,3200.000000
604,-48.000000,3200.000000
605,-48.000000,3200.000000
606,-48.000000,3200.000000
607,-48.000000,3200.000000
608,-40.000000,3200.000000
609,-48.000000,3200.000000
610,-40.000000,3200.000000
611,-40.000000,3200.000000
612,-40.000000,3200.000000
613,-24.000000,3200.000000
614,24.000000,3200.000000
615,24.000000,3200.000000
616,16.000000,3200.000000
617,0.000000,3200.000000
618,-8.000000,3200.000000
619,-16.000000,3200.000000
620,-24.000000,3200.000000
621,-32.000000,3200.000000
622,-48.000000,3200.000000
623,-48.000000,3200.000000
624,-56.000000,3200.000000
625,-56.000000,3200.000000
626,-48.000000,3200.000000
627,-48.000000,3200.000000
628,-40.000000,3200.000000
629,-48.000000,3200.000000
630,-48.000000,3200.000000
631,-40.000000,3200.000000
632,-40.000000,3200.000000
633,-40.000000,3200.000000
634,-40.000000,3200.000000
635,-32.000000,3200.000000
636,24.000000,3200.000000
637,24.000000,3200.000000
638,16.000000,3200.000000
639,8.000000,3200.000000
640,-8.000000,3200.000000
641,-16.000000,3200.000000
642,-24.000000,3200.000000
643,-32.000000,3200.000000
644,-40.000000,3200.000000
645,-56.000000,3160.000000
646,-56.000000,3200.000000
647,-56.000000,3200.000000
648,-56.000000,3200.000000
649,-48.000000,3200.000000
650,-48.000000,3200.000000
651,-40.000000,3200.000000
652,-48.000000,3200.000000
653,-48.000000,3200.000000
654,-40.000000,3200.000000
655,-40.000000,3200.000000
656,-40.000000,3200.000000
657,-32.000000,3200.000000
658,16.000000,3200.000000
659,24.000000,3200.000000
660,16.000000,3200.000000
661,8.000000,3200.000000
662,0.000000,3200.000000
663,-8.000000,3200.000000
664,-32.000000,3200.000000
665,-32.000000,3200.000000
666,-40.000000,3200.000000
667,-48.000000,3160.000000
668,-56.000000,3200.000000
669,-56.000000,3200.000000
670,-48.000000,3200.000000
671,-56.000000,3200.000000
672,-48.000000,3200.000000
673,-48.000000,3200.000000
674,-48.000000,3200.000000
675,-40.000000,3200.000000
676,-48.000000,3200.000000
677,-32.000000,3200.000000
678,-48.000000,3200.000000
679,-32.000000,3200.000000
680,16.000000,3200.000000
681,32.000000,3200.000000
682,8.000000,3200.000000
683,0.000000,3200.000000
684,-8.000000,3160.000000
685,-16.000000,3200.000000
686,-24.000000,3200.000000
687,-40.000000,3160.000000
688,-40.000000,3200.000000
689,-48.000000,3200.000000
690,-56.000000,3200.000000
691,-56.000000,3200.000000
692,-48.000000,3200.000000
693,-48.000000,3200.000000
694,-48.000000,3200.000000
695,-48.000000,3200.000000
696,-40.000000,3200.000000
697,-40.000000,3200.000000
698,-40.000000,3200.000000
699,-40.000000,3200.000000
700,-40.000000,3200.000000
701,-32.000000,3200.000000
702,8.000000,3200.000000
703,24.000000,3200.000000
704,16.000000,3200.000000
705,8.000000,3200.000000
706,0.000000,3160.000000
707,-16.000000,3200.000000
708,-24.000000,3200.000000
709,-32.000000,3200.000000
710,-40.000000,3200.000000
711,-48.000000,3200.000000
712,-56.000000,3200.000000
713,-56.000000,3200.000000
714,-56.000000,3200.000000
715,-48.000000,3200.000000
716,-48.000000,3200.000000
717,-48.000000,3200.000000
718,-40.000000,3200.000000
719,-40.000000,3200.000000
720,-40.000000,3200.000000
721,-40.000000,3200.000000
722,-40.000000,3160.000000
723,-32.000000,3200.000000
724,8.000000,3200.000000
725,24.000000,3200.000000
726,16.000000,3200.000000
727,0.000000,3200.000000
728,-8.000000,3160.000000
729,-16.000000,3200.000000
730,-16.000000,3200.000000
731,-32.000000,3200.000000
732,-48.000000,3160.000000
733,-48.000000,3200.000000
734,-56.000000,3200.000000
735,-56.000000,3200.000000
736,-64.000000,3200.000000
737,-56.000000,3200.000000
738,-48.000000,3200.000000
739,-48.000000,3200.000000
740,-40.000000,3200.000000
741,-48.000000,3200.000000
742,-40.000000,3200.000000
743,-40.000000,3200.000000
