repport_data/pow_reoptimization_3/data_53_003.csv

Channel              :,CH1,CH2
Frequency            :,  ?,  ?
Period               :,  ?,  ?
PK-PK                :,768.0mV,80.00mV
Probe attenuation    :,1X,1X
Voltage per ADC value:,0.500000mV,2.500000mV
Time interval        :,200.00000uS,200.00000uS

index,CH1_Voltage(mV),CH2_Voltage(mV)
1,-544.000000,3200.000000
2,-544.000000,3200.000000
3,-544.000000,3200.000000
4,-544.000000,3200.000000
5,-544.000000,3200.000000
6,-544.000000,3200.000000
7,-536.000000,3160.000000
8,-536.000000,3200.000000
9,-544.000000,3200.000000
10,-544.000000,3200.000000
11,-544.000000,3200.000000
12,-544.000000,3200.000000
13,-544.000000,3200.000000
14,-544.000000,3200.000000
15,-544.000000,3200.000000
16,-544.000000,3200.000000
17,-544.000000,3200.000000
18,-544.000000,3240.000000
19,-552.000000,3200.000000
20,-544.000000,3200.000000
21,-544.000000,3200.000000
22,-544.000000,3200.000000
23,-544.000000,3200.000000
24,-552.000000,3200.000000
25,-552.000000,3200.000000
26,-552.000000,3200.000000
27,-552.000000,3200.000000
28,-544.000000,3200.000000
29,-552.000000,3200.000000
30,-552.000000,3200.000000
31,-552.000000,3200.000000
32,-544.000000,3200.000000
33,-544.000000,3200.000000
34,-552.000000,3200.000000
35,-536.000000,3200.000000
36,-552.000000,3200.000000
37,-544.000000,3200.000000
38,-552.000000,3200.000000
39,-544.000000,3200.000000
40,-544.000000,3200.000000
41,-544.000000,3200.000000
42,-552.000000,3200.000000
43,-552.000000,3200.000000
44,-544.000000,3200.000000
45,-544.000000,3200.000000
46,-544.000000,3200.000000
47,-544.000000,3200.000000
48,-544.000000,3200.000000
49,-552.000000,3200.000000
50,-552.000000,3200.000000
51,-544.000000,3200.000000
52,-544.000000,3200.000000
53,-544.000000,3200.000000
54,-544.000000,3200.000000
55,-544.000000,3200.000000
56,-544.000000,3200.000000
57,-544.000000,3200.000000
58,-552.000000,3200.000000
59,-544.000000,3200.000000
60,-544.000000,3200.000000
61,-552.000000,3200.000000
62,-552.000000,3200.000000
63,-552.000000,3200.000000
64,-552.000000,3200.000000
65,-544.000000,3200.000000
66,-544.000000,3200.000000
67,-544.000000,3200.000000
68,-552.000000,3200.000000
69,-552.000000,3200.000000
70,-544.000000,3200.000000
71,-544.000000,3200.000000
72,-544.000000,3200.000000
73,-544.000000,3200.000000
74,-536.000000,3200.000000
75,-544.000000,3200.000000
76,-544.000000,3200.000000
77,-544.000000,3200.000000
78,-536.000000,3200.000000
79,-544.000000,3200.000000
80,-544.000000,3200.000000
81,-544.000000,3200.000000
82,-536.000000,3200.000000
83,-544.000000,3200.000000
84,-536.000000,3200.000000
85,-536.000000,3200.000000
86,-544.000000,3200.000000
87,-544.000000,3200.000000
88,-544.000000,3200.000000
89,-536.000000,3200.000000
90,-544.000000,3200.000000
91,-544.000000,3200.000000
92,-544.000000,3200.000000
93,-544.000000,3200.000000
94,-544.000000,3200.000000
95,-544.000000,3200.000000
96,-544.000000,3200.000000
97,-544.000000,3200.000000
98,-544.000000,3200.000000
99,-552.000000,3200.000000
100,-544.000000,3200.000000
101,-552.000000,3200.000000
102,-552.000000,3200.000000
103,-544.000000,3200.000000
104,-544.000000,3200.000000
105,-552.000000,3200.000000
106,-544.000000,3200.000000
107,-544.000000,3200.000000
108,-544.000000,3240.000000
109,-544.000000,3200.000000
110,-544.000000,3200.000000
111,-544.000000,3200.000000
112,-552.000000,3200.000000
113,-544.000000,3240.000000
114,-552.000000,3200.000000
115,-544.000000,3200.000000
116,-552.000000,3200.000000
117,-544.000000,3200.000000
118,-552.000000,3200.000000
119,-544.000000,3200.000000
120,-544.000000,3200.000000
121,-552.000000,3200.000000
122,-544.000000,3200.000000
123,-544.000000,3200.000000
124,-552.000000,3200.000000
125,-552.000000,3200.000000
126,-544.000000,3200.000000
127,-544.000000,3200.000000
128,-544.000000,3200.000000
129,-544.000000,3200.000000
130,-552.000000,3200.000000
131,-552.000000,3200.000000
132,-544.000000,3200.000000
133,-552.000000,3200.000000
134,-544.000000,3200.000000
135,-544.000000,3200.000000
136,-544.000000,3200.000000
137,-552.000000,3200.000000
138,-544.000000,3200.000000
139,-552.000000,3200.000000
140,-544.000000,3200.000000
141,-544.000000,3200.000000
142,-552.000000,3200.000000
143,-544.000000,3200.000000
144,-544.000000,3200.000000
145,-552.000000,3200.000000
146,-544.000000,3200.000000
147,-544.000000,3200.000000
148,-544.000000,3200.000000
149,-544.000000,3200.000000
150,-544.000000,3200.000000
151,-536.000000,3200.000000
152,-536.000000,3200.000000
153,-544.000000,3200.000000
154,-544.000000,3240.000000
155,-536.000000,3200.000000
156,-544.000000,3200.000000
157,-544.000000,3200.000000
158,-544.000000,3200.000000
159,-544.000000,3200.000000
160,-544.000000,3200.000000
161,-544.000000,3200.000000
162,-544.000000,3200.000000
163,-544.000000,3200.000000
164,-552.000000,3200.000000
165,-544.000000,3200.000000
166,-544.000000,3200.000000
167,-552.000000,3240.000000
168,-544.000000,3200.000000
169,-552.000000,3200.000000
170,-544.000000,3200.000000
171,-552.000000,3200.000000
172,-552.000000,3200.000000
173,-552.000000,3240.000000
174,-544.000000,3200.000000
175,-544.000000,3200.000000
176,-544.000000,3200.000000
177,-544.000000,3200.000000
178,-552.000000,3200.000000
179,-552.000000,3200.000000
180,-552.000000,3200.000000
181,-552.000000,3200.000000
182,-552.000000,3200.000000
183,-552.000000,3200.000000
184,-552.000000,3200.000000
185,-544.000000,3200.000000
186,-544.000000,3200.000000
187,-544.000000,3200.000000
188,-544.000000,3200.000000
189,-544.000000,3200.000000
190,-528.000000,3200.000000
191,-552.000000,3200.000000
192,-544.000000,3200.000000
193,-544.000000,3200.000000
194,-536.000000,3200.000000
195,-544.000000,3200.000000
196,-552.000000,3200.000000
197,-544.000000,3200.000000
198,-544.000000,3200.000000
199,-544.000000,3200.000000
200,-544.000000,3200.000000
201,-544.000000,3200.000000
202,-552.000000,3200.000000
203,-544.000000,3200.000000
204,-544.000000,3200.000000
205,-544.000000,3200.000000
206,-552.000000,3200.000000
207,-544.000000,3200.000000
208,-552.000000,3200.000000
209,-552.000000,3200.000000
210,-552.000000,3200.000000
211,-544.000000,3200.000000
212,-552.000000,3200.000000
213,-552.000000,3200.000000
214,-544.000000,3200.000000
215,-544.000000,3200.000000
216,-544.000000,3200.000000
217,-544.000000,3200.000000
218,-552.000000,3200.000000
219,-544.000000,3200.000000
220,-552.000000,3200.000000
221,-544.000000,3200.000000
222,-544.000000,3200.000000
223,-544.000000,3200.000000
224,-544.000000,3200.000000
225,-544.000000,3200.000000
226,-544.000000,3200.000000
227,-544.000000,3200.000000
228,-544.000000,3200.000000
229,-544.000000,3200.000000
230,-544.000000,3200.000000
231,-544.000000,3200.000000
232,-536.000000,3200.000000
233,-536.000000,3200.000000
234,-536.000000,3200.000000
235,-552.000000,3200.000000
236,-536.000000,3200.000000
237,-544.000000,3200.000000
238,-544.000000,3200.000000
239,-544.000000,3200.000000
240,-544.000000,3200.000000
241,-544.000000,3200.000000
242,-552.000000,3200.000000
243,-544.000000,3200.000000
244,-552.000000,3200.000000
245,-552.000000,3200.000000
246,-544.000000,3200.000000
247,-552.000000,3200.000000
248,-544.000000,3200.000000
249,-552.000000,3200.000000
250,-552.000000,3200.000000
251,-544.000000,3200.000000
252,-552.000000,3200.000000
253,-544.000000,3200.000000
254,-552.000000,3200.000000
255,-552.000000,3200.000000
256,-544.000000,3200.000000
257,-552.000000,3200.000000
258,-544.000000,3200.000000
259,-552.000000,3200.000000
260,-544.000000,3200.000000
261,-544.000000,3200.000000
262,-552.000000,3200.000000
263,-552.000000,3200.000000
264,-552.000000,3200.000000
265,-552.000000,3200.000000
266,-544.000000,3200.000000
267,-552.000000,3200.000000
268,-544.000000,3200.000000
269,-544.000000,3200.000000
270,-552.000000,3200.000000
271,-552.000000,3200.000000
272,-552.000000,3200.000000
273,-544.000000,3200.000000
274,-544.000000,3200.000000
275,-552.000000,3200.000000
276,-552.000000,3200.000000
277,-552.000000,3200.000000
278,-552.000000,3200.000000
279,-552.000000,3200.000000
280,-544.000000,3200.000000
281,-552.000000,3200.000000
282,-544.000000,3200.000000
283,-544.000000,3200.000000
284,-552.000000,3200.000000
285,-552.000000,3200.000000
286,-552.000000,3200.000000
287,-552.000000,3200.000000
288,-536.000000,3200.000000
289,-552.000000,3200.000000
290,-552.000000,3200.000000
291,-544.000000,3200.000000
292,-552.000000,3200.000000
293,-552.000000,3200.000000
294,-552.000000,3200.000000
295,-552.000000,3200.000000
296,-544.000000,3200.000000
297,-552.000000,3200.000000
298,-552.000000,3200.000000
299,-544.000000,3200.000000
300,-552.000000,3200.000000
301,-544.000000,3200.000000
302,-552.000000,3200.000000
303,-552.000000,3200.000000
304,-552.000000,3200.000000
305,-552.000000,3200.000000
306,-544.000000,3200.000000
307,-544.000000,3200.000000
308,-544.000000,3160.000000
309,-552.000000,3200.000000
310,-552.000000,3200.000000
311,-544.000000,3200.000000
312,-552.000000,3200.000000
313,-544.000000,3200.000000
314,-544.000000,3200.000000
315,-552.000000,3200.000000
316,-544.000000,3200.000000
317,-552.000000,3200.000000
318,-552.000000,3200.000000
319,-544.000000,3200.000000
320,-544.000000,3200.000000
321,-544.000000,3200.000000
322,-552.000000,3200.000000
323,-544.000000,3200.000000
324,-552.000000,3200.000000
325,-552.000000,3200.000000
326,-544.000000,3200.000000
327,-552.000000,3200.000000
328,-544.000000,3200.000000
329,-544.000000,3200.000000
330,-544.000000,3200.000000
331,-552.000000,3200.000000
332,-552.000000,3200.000000
333,-544.000000,3200.000000
334,-544.000000,3200.000000
335,-544.000000,3200.000000
336,-576.000000,3200.000000
337,-560.000000,3200.000000
338,-544.000000,3200.000000
339,-544.000000,3200.000000
340,-552.000000,3200.000000
341,-552.000000,3200.000000
342,-544.000000,3200.000000
343,-544.000000,3200.000000
344,-544.000000,3200.000000
345,-544.000000,3200.000000
346,-552.000000,3200.000000
347,-544.000000,3200.000000
348,-552.000000,3200.000000
349,-544.000000,3200.000000
350,-552.000000,3200.000000
351,-552.000000,3200.000000
352,-552.000000,3200.000000
353,-552.000000,3200.000000
354,-544.000000,3200.000000
355,-552.000000,3200.000000
356,-552.000000,3200.000000
357,-544.000000,3200.000000
358,-552.000000,3200.000000
359,-552.000000,3200.000000
360,-552.000000,3200.000000
361,-552.000000,3200.000000
362,-544.000000,3200.000000
363,-552.000000,3200.000000
364,-552.000000,3200.000000
365,-544.000000,3200.000000
366,-544.000000,3200.000000
367,-552.000000,3200.000000
368,-552.000000,3200.000000
369,-552.000000,3200.000000
370,-544.000000,3200.000000
371,-552.000000,3200.000000
372,-544.000000,3200.000000
373,-552.000000,3200.000000
374,-544.000000,3200.000000
375,-544.000000,3200.000000
376,-552.000000,3200.000000
377,-544.000000,3200.000000
378,-552.000000,3200.000000
379,-552.000000,3200.000000
380,-552.000000,3200.000000
381,-552.000000,3200.000000
382,-552.000000,3200.000000
383,-552.000000,3200.000000
384,-544.000000,3200.000000
385,-544.000000,3200.000000
386,-544.000000,3200.000000
387,-552.000000,3200.000000
388,-552.000000,3200.000000
389,-552.000000,3200.000000
390,-552.000000,3200.000000
391,-552.000000,3200.000000
392,-544.000000,3200.000000
393,-544.000000,3200.000000
394,-552.000000,3200.000000
395,-552.000000,3200.000000
396,-552.000000,3200.000000
397,-552.000000,3200.000000
398,-552.000000,3200.000000
399,-544.000000,3200.000000
400,-544.000000,3200.000000
401,-552.000000,3200.000000
402,-552.000000,3200.000000
403,-544.000000,3200.000000
404,-544.000000,3200.000000
405,-552.000000,3200.000000
406,-544.000000,3200.000000
407,-544.000000,3200.000000
408,-544.000000,3200.000000
409,-552.000000,3200.000000
410,-544.000000,3200.000000
411,-544.000000,3200.000000
412,-544.000000,3200.000000
413,-544.000000,3200.000000
414,-544.000000,3200.000000
415,-544.000000,3200.000000
416,-544.000000,3200.000000
417,-544.000000,3200.000000
418,-552.000000,3200.000000
419,-552.000000,3200.000000
420,-544.000000,3200.000000
421,-552.000000,3200.000000
422,-544.000000,3200.000000
423,-552.000000,3200.000000
424,-552.000000,3200.000000
425,-544.000000,3200.000000
426,-544.000000,3200.000000
427,-544.000000,3200.000000
428,-552.000000,3200.000000
429,-552.000000,3200.000000
430,-552.000000,3200.000000
431,-544.000000,3200.000000
432,-536.000000,3200.000000
433,-544.000000,3200.000000
434,-552.000000,3200.000000
435,-544.000000,3200.000000
436,-544.000000,3200.000000
437,-552.000000,3200.000000
438,-552.000000,3200.000000
439,-544.000000,3200.000000
440,-544.000000,3200.000000
441,-552.000000,3200.000000
442,-552.000000,3200.000000
443,-544.000000,3200.000000
444,-544.000000,3200.000000
445,-544.000000,3200.000000
446,-552.000000,3200.000000
447,-552.000000,3200.000000
448,-544.000000,3200.000000
449,-552.000000,3200.000000
450,-544.000000,3200.000000
451,-544.000000,3200.000000
452,-552.000000,3200.000000
453,-552.000000,3200.000000
454,-552.000000,3200.000000
455,-544.000000,3200.000000
456,-552.000000,3200.000000
457,-544.000000,3200.000000
458,-544.000000,3200.000000
459,-552.000000,3200.000000
460,-552.000000,3200.000000
461,-544.000000,3200.000000
462,-552.000000,3200.000000
463,-544.000000,3160.000000
464,-552.000000,3200.000000
465,-552.000000,3200.000000
466,-544.000000,3200.000000
467,-544.000000,3200.000000
468,-544.000000,3200.000000
469,-544.000000,3200.000000
470,-544.000000,3200.000000
471,-536.000000,3200.000000
472,-528.000000,3200.000000
473,-528.000000,3200.000000
474,-520.000000,3200.000000
475,-520.000000,3200.000000
476,-520.000000,3200.000000
477,-520.000000,3200.000000
478,-512.000000,3200.000000
479,-520.000000,3200.000000
480,-512.000000,3200.000000
481,-512.000000,3200.000000
482,-512.000000,3200.000000
483,-512.000000,3200.000000
484,-512.000000,3200.000000
485,-512.000000,3200.000000
486,-520.000000,3200.000000
487,-504.000000,3200.000000
488,-504.000000,3200.000000
489,-504.000000,3200.000000
490,-512.000000,3200.000000
491,-512.000000,3200.000000
492,-504.000000,3200.000000
493,-512.000000,3200.000000
494,-512.000000,3200.000000
495,-512.000000,3200.000000
496,-512.000000,3200.000000
497,-512.000000,3200.000000
498,-512.000000,3200.000000
499,-512.000000,3200.000000
500,-512.000000,3200.000000
501,-480.000000,3200.000000
502,-456.000000,3200.000000
503,-440.000000,3200.000000
504,-416.000000,3200.000000
505,-408.000000,3200.000000
506,-392.000000,3200.000000
507,-384.000000,3200.000000
508,-376.000000,3200.000000
509,-360.000000,3200.000000
510,-360.000000,3200.000000
511,-344.000000,3200.000000
512,-344.000000,3200.000000
513,-328.000000,3200.000000
514,-328.000000,3200.000000
515,-320.000000,3200.000000
516,-312.000000,3200.000000
517,-312.000000,3200.000000
518,-304.000000,3200.000000
519,-304.000000,3200.000000
520,-304.000000,3200.000000
521,-296.000000,3200.000000
522,-288.000000,3200.000000
523,-288.000000,3200.000000
524,-288.000000,3200.000000
525,-288.000000,3200.000000
526,-280.000000,3200.000000
527,-280.000000,3200.000000
528,-280.000000,3200.000000
529,-280.000000,3200.000000
530,-280.000000,3200.000000
531,-280.000000,3200.000000
532,-272.000000,3200.000000
533,-272.000000,3200.000000
534,-272.000000,3200.000000
535,-272.000000,3200.000000
536,-272.000000,3160.000000
537,-264.000000,3200.000000
538,-272.000000,3200.000000
539,-272.000000,3200.000000
540,-264.000000,3200.000000
541,-264.000000,3200.000000
542,-280.000000,3200.000000
543,-264.000000,3200.000000
544,-264.000000,3200.000000
545,-264.000000,3200.000000
546,-264.000000,3200.000000
547,-256.000000,3200.000000
548,-256.000000,3200.000000
549,-264.000000,3200.000000
550,-264.000000,3200.000000
551,-264.000000,3200.000000
552,-240.000000,3200.000000
553,-264.000000,3200.000000
554,-264.000000,3200.000000
555,-264.000000,3160.000000
556,-264.000000,3200.000000
557,-264.000000,3200.000000
558,-264.000000,3200.000000
559,-264.000000,3200.000000
560,-264.000000,3200.000000
561,-256.000000,3200.000000
562,-232.000000,3200.000000
563,-208.000000,3200.000000
564,-176.000000,3200.000000
565,-160.000000,3200.000000
566,-144.000000,3200.000000
567,-120.000000,3160.000000
568,-104.000000,3200.000000
569,-88.000000,3200.000000
570,-72.000000,3200.000000
571,-64.000000,3200.000000
572,-56.000000,3200.000000
573,-40.000000,3200.000000
574,-32.000000,3200.000000
575,-16.000000,3200.000000
576,-16.000000,3200.000000
577,-8.000000,3200.000000
578,8.000000,3200.000000
579,24.000000,3200.000000
580,24.000000,3200.000000
581,24.000000,3200.000000
582,32.000000,3200.000000
583,40.000000,3200.000000
584,40.000000,3200.000000
585,48.000000,3200.000000
586,56.000000,3200.000000
587,56.000000,3200.000000
588,64.000000,3200.000000
589,64.000000,3200.000000
590,56.000000,3200.000000
591,72.000000,3200.000000
592,72.000000,3200.000000
593,72.000000,3200.000000
594,72.000000,3200.000000
595,80.000000,3200.000000
596,80.000000,3200.000000
597,80.000000,3160.000000
598,80.000000,3200.000000
599,88.000000,3200.000000
600,88.000000,3200.000000
601,88.000000,3200.000000
602,88.000000,3200.000000
603,88.000000,3200.000000
604,96.000000,3200.000000
605,96.000000,3200.000000
606,96.000000,3200.000000
607,96.000000,3200.000000
608,96.000000,3200.000000
609,96.000000,3200.000000
610,104.000000,3200.000000
611,96.000000,3200.000000
612,104.000000,3200.000000
613,104.000000,3200.000000
614,104.000000,3200.000000
615,104.000000,3200.000000
616,104.000000,3200.000000
617,104.000000,3200.000000
618,104.000000,3200.000000
619,104.000000,3200.000000
620,104.000000,3200.000000
621,104.000000,3200.000000
622,104.000000,3200.000000
623,104.000000,3200.000000
624,104.000000,3200.000000
625,104.000000,3200.000000
626,104.000000,3200.000000
627,104.000000,3200.000000
628,104.000000,3200.000000
629,104.000000,3200.000000
630,112.000000,3200.000000
631,104.000000,3200.000000
632,104.000000,3200.000000
633,104.000000,3200.000000
634,112.000000,3200.000000
635,104.000000,3200.000000
636,104.000000,3200.000000
637,104.000000,3200.000000
638,112.000000,3200.000000
639,112.000000,3200.000000
640,104.000000,3200.000000
641,112.000000,3200.000000
642,112.000000,3200.000000
643,112.000000,3200.000000
644,112.000000,3200.000000
645,120.000000,3200.000000
646,112.000000,3200.000000
647,120.000000,3200.000000
648,120.000000,3200.000000
649,120.000000,3200.000000
650,120.000000,3200.000000
651,120.000000,3200.000000
652,120.000000,3200.000000
653,120.000000,3200.000000
654,128.000000,3200.000000
655,120.000000,3200.000000
656,128.000000,3200.000000
657,128.000000,3200.000000
658,128.000000,3200.000000
659,128.000000,3200.000000
660,128.000000,3160.000000
661,128.000000,3200.000000
662,128.000000,3200.000000
663,128.000000,3200.000000
664,128.000000,3200.000000
665,128.000000,3200.000000
666,128.000000,3240.000000
667,128.000000,3200.000000
668,128.000000,3200.000000
669,128.000000,3200.000000
670,128.000000,3200.000000
671,128.000000,3200.000000
672,128.000000,3200.000000
673,128.000000,3200.000000
674,128.000000,3200.000000
675,128.000000,3200.000000
676,128.000000,3200.000000
677,128.000000,3200.000000
678,128.000000,3200.000000
679,136.000000,3200.000000
680,128.000000,3200.000000
681,128.000000,3200.000000
682,128.000000,3200.000000
683,128.000000,3200.000000
684,128.000000,3200.000000
685,136.000000,3200.000000
686,128.000000,3200.000000
687,128.000000,3200.000000
688,136.000000,3200.000000
689,152.000000,3160.000000
690,120.000000,3200.000000
691,128.000000,3200.000000
692,136.000000,3200.000000
693,136.000000,3200.000000
694,136.000000,3200.000000
695,128.000000,3200.000000
696,128.000000,3200.000000
697,128.000000,3200.000000
698,128.000000,3200.000000
699,136.000000,3200.000000
700,128.000000,3200.000000
701,128.000000,3200.000000
702,128.000000,3200.000000
703,128.000000,3200.000000
704,128.000000,3200.000000
705,128.000000,3200.000000
706,128.000000,3200.000000
707,136.000000,3200.000000
708,128.000000,3200.000000
709,128.000000,3160.000000
710,128.000000,3200.000000
711,128.000000,3200.000000
712,136.000000,3200.000000
713,128.000000,3200.000000
714,136.000000,3200.000000
