repport_data/pow_reoptimization_3/data_53_007.csv

Channel              :,CH1,CH2
Frequency            :,  ?,  ?
Period               :,  ?,  ?
PK-PK                :,840.0mV,120.0mV
Probe attenuation    :,1X,1X
Voltage per ADC value:,0.500000mV,2.500000mV
Time interval        :,200.00000uS,200.00000uS

index,CH1_Voltage(mV),CH2_Voltage(mV)
1,200.000000,2920.000000
2,200.000000,2920.000000
3,200.000000,2920.000000
4,200.000000,2920.000000
5,200.000000,2920.000000
6,200.000000,2960.000000
7,200.000000,2920.000000
8,200.000000,2960.000000
9,200.000000,2960.000000
10,200.000000,2920.000000
11,200.000000,2960.000000
12,200.000000,2960.000000
13,200.000000,2920.000000
14,200.000000,2960.000000
15,200.000000,2960.000000
16,192.000000,2920.000000
17,200.000000,2920.000000
18,200.000000,2920.000000
19,200.000000,2920.000000
20,208.000000,2960.000000
21,208.000000,2920.000000
22,200.000000,2960.000000
23,208.000000,2960.000000
24,200.000000,2920.000000
25,200.000000,2920.000000
26,200.000000,2960.000000
27,200.000000,2960.000000
28,200.000000,2920.000000
29,200.000000,2960.000000
30,192.000000,2960.000000
31,192.000000,2920.000000
32,200.000000,2920.000000
33,192.000000,2920.000000
34,200.000000,2960.000000
35,200.000000,2960.000000
36,200.000000,2960.000000
37,200.000000,2960.000000
38,200.000000,2960.000000
39,200.000000,2960.000000
40,200.000000,2920.000000
41,200.000000,2920.000000
42,200.000000,2920.000000
43,200.000000,2960.000000
44,200.000000,2920.000000
45,200.000000,2920.000000
46,200.000000,2960.000000
47,200.000000,2920.000000
48,200.000000,2920.000000
49,192.000000,2960.000000
50,200.000000,2960.000000
51,200.000000,2960.000000
52,200.000000,2920.000000
53,200.000000,2920.000000
54,200.000000,2960.000000
55,200.000000,2960.000000
56,200.000000,2960.000000
57,200.000000,2960.000000
58,200.000000,2960.000000
59,200.000000,2920.000000
60,200.000000,2920.000000
61,200.000000,2960.000000
62,200.000000,2960.000000
63,200.000000,2920.000000
64,200.000000,2920.000000
65,200.000000,2920.000000
66,200.000000,2920.000000
67,200.000000,2920.000000
68,200.000000,2920.000000
69,200.000000,2960.000000
70,200.000000,2960.000000
71,200.000000,2960.000000
72,200.000000,2920.000000
73,200.000000,2960.000000
74,200.000000,2920.000000
75,216.000000,2960.000000
76,200.000000,2960.000000
77,200.000000,2960.000000
78,200.000000,2920.000000
79,200.000000,2920.000000
80,192.000000,2920.000000
81,200.000000,2960.000000
82,200.000000,2960.000000
83,200.000000,2920.000000
84,200.000000,2960.000000
85,192.000000,2960.000000
86,200.000000,2920.000000
87,200.000000,2920.000000
88,200.000000,2960.000000
89,200.000000,2920.000000
90,200.000000,2960.000000
91,200.000000,2960.000000
92,200.000000,2920.000000
93,200.000000,2960.000000
94,200.000000,2960.000000
95,200.000000,2960.000000
96,200.000000,2920.000000
97,200.000000,2920.000000
98,208.000000,2960.000000
99,200.000000,2960.000000
100,200.000000,2960.000000
101,200.000000,2920.000000
102,200.000000,2920.000000
103,200.000000,2920.000000
104,192.000000,2920.000000
105,200.000000,2920.000000
106,192.000000,2920.000000
107,192.000000,2920.000000
108,192.000000,2960.000000
109,192.000000,2920.000000
110,192.000000,2920.000000
111,192.000000,2920.000000
112,192.000000,2920.000000
113,184.000000,2920.000000
114,192.000000,2960.000000
115,184.000000,2920.000000
116,184.000000,2960.000000
117,184.000000,2920.000000
118,184.000000,2920.000000
119,184.000000,2960.000000
120,192.000000,2960.000000
121,176.000000,2920.000000
122,160.000000,2920.000000
123,184.000000,2960.000000
124,184.000000,2960.000000
125,168.000000,2920.000000
126,176.000000,2960.000000
127,184.000000,2960.000000
128,176.000000,2920.000000
129,184.000000,2920.000000
130,184.000000,2920.000000
131,184.000000,2920.000000
132,184.000000,2920.000000
133,192.000000,2920.000000
134,184.000000,2960.000000
135,192.000000,2920.000000
136,184.000000,2920.000000
137,192.000000,2960.000000
138,192.000000,2960.000000
139,192.000000,2920.000000
140,192.000000,2920.000000
141,192.000000,2920.000000
142,192.000000,2960.000000
143,192.000000,2920.000000
144,192.000000,2920.000000
145,192.000000,2960.000000
146,192.000000,2920.000000
147,192.000000,2960.000000
148,200.000000,2920.000000
149,192.000000,2960.000000
150,192.000000,2920.000000
151,200.000000,2960.000000
152,192.000000,2920.000000
153,200.000000,2960.000000
154,200.000000,2960.000000
155,200.000000,2960.000000
156,192.000000,2920.000000
157,192.000000,2960.000000
158,192.000000,2960.000000
159,200.000000,2920.000000
160,192.000000,2920.000000
161,192.000000,2960.000000
162,192.000000,3000.000000
163,200.000000,2960.000000
164,192.000000,2960.000000
165,200.000000,2920.000000
166,192.000000,2920.000000
167,192.000000,2960.000000
168,200.000000,2920.000000
169,200.000000,2960.000000
170,192.000000,2960.000000
171,192.000000,2960.000000
172,200.000000,2960.000000
173,192.000000,2960.000000
174,200.000000,2920.000000
175,200.000000,2920.000000
176,200.000000,2920.000000
177,184.000000,2960.000000
178,200.000000,2960.000000
179,192.000000,2960.000000
180,200.000000,2920.000000
181,192.000000,2920.000000
182,192.000000,2960.000000
183,192.000000,2960.000000
184,200.000000,2920.000000
185,192.000000,2960.000000
186,192.000000,2960.000000
187,248.000000,2960.000000
188,192.000000,2960.000000
189,192.000000,2960.000000
190,192.000000,2960.000000
191,192.000000,2920.000000
192,192.000000,2920.000000
193,200.000000,2920.000000
194,192.000000,2960.000000
195,192.000000,2920.000000
196,192.000000,2920.000000
197,192.000000,2920.000000
198,192.000000,2960.000000
199,200.000000,2920.000000
200,200.000000,2960.000000
201,192.000000,2960.000000
202,200.000000,2960.000000
203,192.000000,2960.000000
204,200.000000,2960.000000
205,200.000000,2920.000000
206,200.000000,2960.000000
207,200.000000,2960.000000
208,192.000000,2920.000000
209,200.000000,2960.000000
210,200.000000,2960.000000
211,200.000000,2960.000000
212,200.000000,2960.000000
213,200.000000,2920.000000
214,192.000000,2960.000000
215,200.000000,2960.000000
216,200.000000,2920.000000
217,200.000000,2920.000000
218,200.000000,2960.000000
219,192.000000,2960.000000
220,200.000000,2960.000000
221,200.000000,2960.000000
222,200.000000,2960.000000
223,200.000000,2920.000000
224,200.000000,2960.000000
225,200.000000,2920.000000
226,200.000000,2960.000000
227,200.000000,2920.000000
228,192.000000,2960.000000
229,200.000000,2920.000000
230,200.000000,2960.000000
231,200.000000,2960.000000
232,200.000000,2960.000000
233,192.000000,2960.000000
234,200.000000,2920.000000
235,200.000000,2960.000000
236,200.000000,2960.000000
237,200.000000,2920.000000
238,200.000000,2960.000000
239,200.000000,2960.000000
240,200.000000,2960.000000
241,200.000000,2920.000000
242,200.000000,2960.000000
243,200.000000,2960.000000
244,200.000000,2960.000000
245,200.000000,2920.000000
246,192.000000,2960.000000
247,200.000000,2960.000000
248,192.000000,2920.000000
249,200.000000,2920.000000
250,200.000000,2920.000000
251,200.000000,2960.000000
252,200.000000,2920.000000
253,200.000000,2920.000000
254,200.000000,2920.000000
255,200.000000,2960.000000
256,192.000000,2960.000000
257,192.000000,2960.000000
258,192.000000,2920.000000
259,184.000000,2960.000000
260,184.000000,2960.000000
261,192.000000,2920.000000
262,184.000000,2920.000000
263,184.000000,2960.000000
264,184.000000,2960.000000
265,176.000000,2960.000000
266,184.000000,2920.000000
267,184.000000,2960.000000
268,184.000000,2960.000000
269,184.000000,2960.000000
270,176.000000,2960.000000
271,184.000000,2960.000000
272,176.000000,2960.000000
273,176.000000,2920.000000
274,184.000000,2920.000000
275,184.000000,2920.000000
276,176.000000,2920.000000
277,176.000000,2960.000000
278,176.000000,2960.000000
279,176.000000,2920.000000
280,176.000000,2920.000000
281,176.000000,2960.000000
282,176.000000,2920.000000
283,184.000000,2920.000000
284,184.000000,2920.000000
285,184.000000,2920.000000
286,184.000000,2920.000000
287,184.000000,2920.000000
288,184.000000,2920.000000
289,192.000000,2920.000000
290,192.000000,2920.000000
291,192.000000,2960.000000
292,184.000000,2960.000000
293,192.000000,2920.000000
294,184.000000,2920.000000
295,192.000000,2960.000000
296,192.000000,2960.000000
297,184.000000,2960.000000
298,192.000000,2920.000000
299,192.000000,2920.000000
300,192.000000,2960.000000
301,192.000000,2960.000000
302,200.000000,2920.000000
303,192.000000,2960.000000
304,192.000000,2920.000000
305,200.000000,2960.000000
306,192.000000,2960.000000
307,192.000000,2920.000000
308,200.000000,2960.000000
309,192.000000,2960.000000
310,192.000000,2960.000000
311,192.000000,2960.000000
312,200.000000,2960.000000
313,192.000000,2960.000000
314,200.000000,2960.000000
315,200.000000,2960.000000
316,200.000000,2920.000000
317,200.000000,2960.000000
318,200.000000,2920.000000
319,200.000000,2920.000000
320,192.000000,2920.000000
321,200.000000,2920.000000
322,200.000000,2960.000000
323,176.000000,2960.000000
324,176.000000,2960.000000
325,200.000000,2960.000000
326,200.000000,2960.000000
327,200.000000,2920.000000
328,192.000000,2960.000000
329,200.000000,2960.000000
330,200.000000,2920.000000
331,192.000000,2920.000000
332,200.000000,2920.000000
333,200.000000,2960.000000
334,200.000000,2960.000000
335,192.000000,2960.000000
336,192.000000,2960.000000
337,192.000000,2920.000000
338,192.000000,2920.000000
339,192.000000,2920.000000
340,200.000000,2960.000000
341,192.000000,2920.000000
342,200.000000,2960.000000
343,200.000000,2960.000000
344,200.000000,2960.000000
345,200.000000,2960.000000
346,200.000000,2960.000000
347,200.000000,2960.000000
348,192.000000,2960.000000
349,200.000000,2960.000000
350,192.000000,2960.000000
351,200.000000,2920.000000
352,192.000000,2920.000000
353,200.000000,2920.000000
354,192.000000,2960.000000
355,192.000000,2960.000000
356,192.000000,2960.000000
357,192.000000,2960.000000
358,192.000000,2960.000000
359,192.000000,2960.000000
360,192.000000,2960.000000
361,192.000000,2960.000000
362,192.000000,2960.000000
363,192.000000,2960.000000
364,192.000000,2960.000000
365,192.000000,2920.000000
366,192.000000,2960.000000
367,192.000000,2920.000000
368,192.000000,2960.000000
369,192.000000,2960.000000
370,192.000000,2960.000000
371,192.000000,2960.000000
372,208.000000,2920.000000
373,192.000000,2920.000000
374,192.000000,2920.000000
375,192.000000,2920.000000
376,192.000000,2960.000000
377,192.000000,2960.000000
378,192.000000,2960.000000
379,192.000000,2920.000000
380,200.000000,2960.000000
381,192.000000,2920.000000
382,192.000000,2960.000000
383,200.000000,2920.000000
384,192.000000,2960.000000
385,200.000000,2920.000000
386,200.000000,2920.000000
387,200.000000,2960.000000
388,192.000000,2960.000000
389,200.000000,2960.000000
390,192.000000,2920.000000
391,200.000000,2920.000000
392,192.000000,2920.000000
393,192.000000,2960.000000
394,200.000000,2960.000000
395,200.000000,2960.000000
396,200.000000,2920.000000
397,200.000000,2960.000000
398,192.000000,2920.000000
399,200.000000,2920.000000
400,192.000000,2960.000000
401,200.000000,2960.000000
402,200.000000,2960.000000
403,200.000000,2960.000000
404,200.000000,2920.000000
405,200.000000,2920.000000
406,200.000000,2960.000000
407,200.000000,2920.000000
408,192.000000,2920.000000
409,200.000000,2960.000000
410,192.000000,2960.000000
411,192.000000,2960.000000
412,192.000000,2960.000000
413,192.000000,2920.000000
414,192.000000,2960.000000
415,192.000000,2960.000000
416,192.000000,2960.000000
417,184.000000,2960.000000
418,184.000000,2960.000000
419,184.000000,2920.000000
420,184.000000,2920.000000
421,176.000000,2960.000000
422,184.000000,2960.000000
423,184.000000,2960.000000
424,184.000000,2960.000000
425,176.000000,2920.000000
426,184.000000,2960.000000
427,176.000000,2960.000000
428,176.000000,2920.000000
429,176.000000,2960.000000
430,176.000000,2960.000000
431,176.000000,2960.000000
432,176.000000,2920.000000
433,176.000000,2960.000000
434,176.000000,2920.000000
435,176.000000,2960.000000
436,184.000000,2920.000000
437,184.000000,2960.000000
438,184.000000,2920.000000
439,184.000000,2920.000000
440,184.000000,2960.000000
441,184.000000,2960.000000
442,184.000000,2920.000000
443,184.000000,2960.000000
444,192.000000,2960.000000
445,192.000000,2960.000000
446,192.000000,2960.000000
447,192.000000,2960.000000
448,184.000000,2960.000000
449,192.000000,2960.000000
450,192.000000,2920.000000
451,192.000000,2920.000000
452,192.000000,2920.000000
453,192.000000,2920.000000
454,192.000000,2920.000000
455,200.000000,2920.000000
456,192.000000,2960.000000
457,192.000000,2960.000000
458,192.000000,2960.000000
459,192.000000,2960.000000
460,192.000000,2960.000000
461,192.000000,2960.000000
462,192.000000,2960.000000
463,192.000000,2960.000000
464,192.000000,2960.000000
465,200.000000,2920.000000
466,192.000000,2960.000000
467,192.000000,2960.000000
468,192.000000,2960.000000
469,192.000000,2920.000000
470,192.000000,2920.000000
471,200.000000,2960.000000
472,192.000000,2960.000000
473,200.000000,2920.000000
474,200.000000,2960.000000
475,192.000000,2920.000000
476,168.000000,2960.000000
477,192.000000,2960.000000
478,200.000000,2920.000000
479,192.000000,2960.000000
480,200.000000,2960.000000
481,200.000000,2920.000000
482,200.000000,2960.000000
483,200.000000,2960.000000
484,192.000000,2960.000000
485,200.000000,2960.000000
486,192.000000,2920.000000
487,192.000000,2960.000000
488,192.000000,2960.000000
489,192.000000,2920.000000
490,192.000000,2960.000000
491,192.000000,2960.000000
492,192.000000,2920.000000
493,192.000000,2880.000000
494,184.000000,2960.000000
495,184.000000,2960.000000
496,184.000000,2920.000000
497,184.000000,2920.000000
498,184.000000,2960.000000
499,184.000000,2960.000000
500,176.000000,2960.000000
501,184.000000,2920.000000
502,184.000000,2960.000000
503,184.000000,2920.000000
504,184.000000,2920.000000
505,176.000000,2920.000000
506,176.000000,2960.000000
507,176.000000,2960.000000
508,176.000000,2920.000000
509,176.000000,2920.000000
510,176.000000,2920.000000
511,176.000000,2960.000000
512,184.000000,2960.000000
513,184.000000,2920.000000
514,176.000000,2960.000000
515,184.000000,2960.000000
516,192.000000,2960.000000
517,184.000000,2960.000000
518,184.000000,2960.000000
519,184.000000,2960.000000
520,184.000000,2960.000000
521,192.000000,2960.000000
522,192.000000,2920.000000
523,192.000000,2960.000000
524,192.000000,2920.000000
525,192.000000,2960.000000
526,192.000000,2960.000000
527,192.000000,2960.000000
528,192.000000,2920.000000
529,192.000000,2960.000000
530,192.000000,2960.000000
531,208.000000,2920.000000
532,192.000000,2920.000000
533,192.000000,2960.000000
534,192.000000,2920.000000
535,184.000000,2920.000000
536,184.000000,2960.000000
537,184.000000,2960.000000
538,184.000000,2960.000000
539,184.000000,2920.000000
540,184.000000,2960.000000
541,184.000000,2960.000000
542,184.000000,2920.000000
543,184.000000,2920.000000
544,176.000000,2960.000000
545,176.000000,2960.000000
546,184.000000,2960.000000
547,176.000000,2920.000000
548,176.000000,2960.000000
549,176.000000,2960.000000
550,176.000000,2960.000000
551,176.000000,2920.000000
552,176.000000,2960.000000
553,176.000000,2960.000000
554,176.000000,2920.000000
555,176.000000,2920.000000
556,176.000000,2960.000000
557,176.000000,2960.000000
558,136.000000,2920.000000
559,80.000000,2920.000000
560,32.000000,2960.000000
561,-16.000000,2920.000000
562,-48.000000,2920.000000
563,-88.000000,2920.000000
564,-120.000000,2960.000000
565,-160.000000,2960.000000
566,-192.000000,2920.000000
567,-224.000000,2920.000000
568,-256.000000,2920.000000
569,-288.000000,2960.000000
570,-312.000000,2920.000000
571,-336.000000,2960.000000
572,-360.000000,2920.000000
573,-368.000000,2920.000000
574,-384.000000,2920.000000
575,-408.000000,2920.000000
576,-424.000000,2920.000000
577,-424.000000,2960.000000
578,-448.000000,2920.000000
579,-456.000000,2960.000000
580,-464.000000,2920.000000
581,-472.000000,2960.000000
582,-488.000000,2960.000000
583,-496.000000,2960.000000
584,-504.000000,2960.000000
585,-504.000000,2960.000000
586,-520.000000,2960.000000
587,-520.000000,2960.000000
588,-528.000000,2920.000000
589,-536.000000,2960.000000
590,-536.000000,2960.000000
591,-544.000000,2960.000000
592,-544.000000,2960.000000
593,-552.000000,2960.000000
594,-552.000000,2960.000000
595,-552.000000,2960.000000
596,-560.000000,2960.000000
597,-560.000000,2920.000000
598,-560.000000,2920.000000
599,-568.000000,2920.000000
600,-568.000000,2920.000000
601,-568.000000,2920.000000
602,-568.000000,2960.000000
603,-568.000000,2960.000000
604,-568.000000,2920.000000
605,-568.000000,2960.000000
606,-568.000000,2960.000000
607,-576.000000,2960.000000
608,-576.000000,2960.000000
609,-568.000000,2920.000000
610,-576.000000,2960.000000
611,-576.000000,2920.000000
612,-576.000000,2920.000000
613,-576.000000,2960.000000
614,-576.000000,2920.000000
615,-576.000000,2920.000000
616,-584.000000,2920.000000
617,-576.000000,2960.000000
618,-576.000000,2960.000000
619,-576.000000,2920.000000
620,-584.000000,2920.000000
621,-584.000000,2960.000000
622,-584.000000,2920.000000
623,-576.000000,2960.000000
624,-584.000000,2960.000000
625,-584.000000,2920.000000
626,-584.000000,2920.000000
627,-584.000000,2920.000000
628,-576.000000,2920.000000
629,-584.000000,2960.000000
630,-584.000000,2960.000000
631,-584.000000,2960.000000
632,-584.000000,2920.000000
633,-584.000000,2960.000000
634,-584.000000,2960.000000
635,-584.000000,2920.000000
636,-584.000000,2960.000000
637,-584.000000,2920.000000
638,-584.000000,2960.000000
639,-576.000000,2960.000000
640,-584.000000,2920.000000
641,-576.000000,2960.000000
642,-584.000000,2960.000000
643,-584.000000,2960.000000
644,-584.000000,2960.000000
645,-584.000000,2960.000000
646,-584.000000,2960.000000
647,-584.000000,2960.000000
648,-584.000000,2960.000000
649,-584.000000,2960.000000
650,-584.000000,2960.000000
651,-584.000000,2960.000000
652,-584.000000,2960.000000
653,-584.000000,2920.000000
654,-584.000000,2960.000000
655,-584.000000,2920.000000
656,-584.000000,2920.000000
657,-584.000000,2960.000000
658,-584.000000,2920.000000
659,-584.000000,2920.000000
660,-584.000000,2920.000000
661,-584.000000,2920.000000
662,-584.000000,2920.000000
663,-584.000000,2960.000000
664,-584.000000,2960.000000
665,-584.000000,2960.000000
666,-576.000000,2960.000000
667,-576.000000,2960.000000
668,-584.000000,2960.000000
669,-584.000000,2960.000000
670,-584.000000,2960.000000
671,-584.000000,2960.000000
672,-584.000000,2920.000000
673,-584.000000,2920.000000
674,-584.000000,2960.000000
675,-584.000000,2960.000000
676,-592.000000,2920.000000
677,-584.000000,2920.000000
678,-584.000000,2920.000000
679,-584.000000,2960.000000
680,-592.000000,2920.000000
681,-584.000000,2960.000000
682,-584.000000,2960.000000
683,-584.000000,2960.000000
684,-584.000000,2960.000000
685,-584.000000,2960.000000
686,-584.000000,2920.000000
687,-584.000000,2920.000000
688,-584.000000,2920.000000
689,-584.000000,2920.000000
690,-584.000000,2960.000000
691,-584.000000,2920.000000
692,-584.000000,2960.000000
693,-584.000000,2960.000000
694,-584.000000,2920.000000
695,-584.000000,2960.000000
696,-584.000000,2960.000000
697,-584.000000,3000.000000
698,-584.000000,2920.000000
699,-584.000000,2920.000000
700,-584.000000,2960.000000
701,-584.000000,2920.000000
702,-584.000000,2960.000000
703,-584.000000,2920.000000
704,-576.000000,2920.000000
705,-584.000000,2920.000000
706,-576.000000,2960.000000
707,-584.000000,2960.000000
708,-576.000000,2960.000000
709,-584.000000,2960.000000
710,-584.000000,2920.000000
711,-584.000000,2960.000000
712,-576.000000,2920.000000
713,-576.000000,2920.000000
714,-584.000000,2960.000000
715,-584.000000,2920.000000
716,-584.000000,2960.000000
717,-576.000000,2960.000000
718,-576.000000,2960.000000
719,-576.000000,2920.000000
720,-576.000000,2920.000000
721,-576.000000,2960.000000
722,-584.000000,2960.000000
723,-584.000000,2960.000000
724,-584.000000,2960.000000
725,-576.000000,2960.000000
726,-584.000000,2960.000000
727,-584.000000,2960.000000
