repport_data/pow_reoptimization_3/data_53_005.csv

Channel              :,CH1,CH2
Frequency            :,  ?,  ?
Period               :,  ?,  ?
PK-PK                :,840.0mV,80.00mV
Probe attenuation    :,1X,1X
Voltage per ADC value:,0.500000mV,2.500000mV
Time interval        :,200.00000uS,200.00000uS

index,CH1_Voltage(mV),CH2_Voltage(mV)
1,-560.000000,2880.000000
2,-560.000000,2880.000000
3,-560.000000,2880.000000
4,-560.000000,2920.000000
5,-560.000000,2880.000000
6,-560.000000,2920.000000
7,-560.000000,2920.000000
8,-560.000000,2920.000000
9,-560.000000,2920.000000
10,-560.000000,2920.000000
11,-560.000000,2880.000000
12,-560.000000,2920.000000
13,-560.000000,2920.000000
14,-552.000000,2920.000000
15,-560.000000,2920.000000
16,-552.000000,2920.000000
17,-560.000000,2920.000000
18,-560.000000,2920.000000
19,-552.000000,2920.000000
20,-552.000000,2920.000000
21,-560.000000,2920.000000
22,-560.000000,2920.000000
23,-552.000000,2920.000000
24,-560.000000,2920.000000
25,-560.000000,2920.000000
26,-560.000000,2920.000000
27,-560.000000,2920.000000
28,-560.000000,2920.000000
29,-560.000000,2920.000000
30,-560.000000,2920.000000
31,-560.000000,2920.000000
32,-560.000000,2920.000000
33,-560.000000,2920.000000
34,-560.000000,2920.000000
35,-560.000000,2920.000000
36,-560.000000,2920.000000
37,-560.000000,2920.000000
38,-560.000000,2920.000000
39,-560.000000,2960.000000
40,-560.000000,2920.000000
41,-560.000000,2920.000000
42,-560.000000,2920.000000
43,-560.000000,2920.000000
44,-560.000000,2920.000000
45,-560.000000,2920.000000
46,-560.000000,2920.000000
47,-560.000000,2920.000000
48,-560.000000,2920.000000
49,-560.000000,2920.000000
50,-560.000000,2920.000000
51,-560.000000,2920.000000
52,-560.000000,2920.000000
53,-560.000000,2920.000000
54,-560.000000,2880.000000
55,-560.000000,2920.000000
56,-560.000000,2920.000000
57,-560.000000,2920.000000
58,-560.000000,2920.000000
59,-560.000000,2920.000000
60,-552.000000,2920.000000
61,-560.000000,2920.000000
62,-560.000000,2920.000000
63,-560.000000,2920.000000
64,-552.000000,2920.000000
65,-560.000000,2920.000000
66,-552.000000,2920.000000
67,-560.000000,2920.000000
68,-560.000000,2920.000000
69,-560.000000,2920.000000
70,-560.000000,2920.000000
71,-560.000000,2960.000000
72,-560.000000,2920.000000
73,-560.000000,2920.000000
74,-560.000000,2920.000000
75,-560.000000,2920.000000
76,-560.000000,2920.000000
77,-560.000000,2920.000000
78,-560.000000,2920.000000
79,-560.000000,2920.000000
80,-560.000000,2920.000000
81,-560.000000,2920.000000
82,-560.000000,2920.000000
83,-560.000000,2920.000000
84,-552.000000,2920.000000
85,-560.000000,2960.000000
86,-560.000000,2920.000000
87,-560.000000,2920.000000
88,-552.000000,2920.000000
89,-560.000000,2920.000000
90,-552.000000,2920.000000
91,-560.000000,2920.000000
92,-552.000000,2920.000000
93,-560.000000,2920.000000
94,-552.000000,2960.000000
95,-552.000000,2920.000000
96,-552.000000,2920.000000
97,-552.000000,2920.000000
98,-552.000000,2920.000000
99,-552.000000,2920.000000
100,-552.000000,2920.000000
101,-552.000000,2920.000000
102,-560.000000,2920.000000
103,-560.000000,2920.000000
104,-552.000000,2920.000000
105,-560.000000,2920.000000
106,-560.000000,2920.000000
107,-560.000000,2920.000000
108,-560.000000,2920.000000
109,-560.000000,2920.000000
110,-560.000000,2920.000000
111,-560.000000,2920.000000
112,-560.000000,2920.000000
113,-560.000000,2920.000000
114,-560.000000,2920.000000
115,-568.000000,2920.000000
116,-560.000000,2920.000000
117,-560.000000,2920.000000
118,-560.000000,2920.000000
119,-560.000000,2920.000000
120,-560.000000,2920.000000
121,-560.000000,2920.000000
122,-560.000000,2920.000000
123,-560.000000,2920.000000
124,-560.000000,2920.000000
125,-560.000000,2880.000000
126,-560.000000,2920.000000
127,-560.000000,2920.000000
128,-560.000000,2880.000000
129,-552.000000,2920.000000
130,-560.000000,2920.000000
131,-560.000000,2920.000000
132,-560.000000,2920.000000
133,-560.000000,2920.000000
134,-560.000000,2880.000000
135,-552.000000,2960.000000
136,-560.000000,2960.000000
137,-560.000000,2920.000000
138,-560.000000,2920.000000
139,-560.000000,2920.000000
140,-552.000000,2920.000000
141,-560.000000,2920.000000
142,-560.000000,2920.000000
143,-552.000000,2920.000000
144,-560.000000,2920.000000
145,-560.000000,2920.000000
146,-560.000000,2920.000000
147,-560.000000,2920.000000
148,-560.000000,2920.000000
149,-560.000000,2920.000000
150,-552.000000,2920.000000
151,-560.000000,2920.000000
152,-560.000000,2920.000000
153,-560.000000,2920.000000
154,-560.000000,2920.000000
155,-560.000000,2920.000000
156,-560.000000,2920.000000
157,-560.000000,2920.000000
158,-560.000000,2920.000000
159,-560.000000,2920.000000
160,-560.000000,2920.000000
161,-560.000000,2920.000000
162,-560.000000,2920.000000
163,-560.000000,2920.000000
164,-560.000000,2920.000000
165,-552.000000,2920.000000
166,-552.000000,2920.000000
167,-552.000000,2920.000000
168,-552.000000,2920.000000
169,-552.000000,2920.000000
170,-552.000000,2920.000000
171,-552.000000,2920.000000
172,-552.000000,2880.000000
173,-560.000000,2920.000000
174,-552.000000,2960.000000
175,-552.000000,2920.000000
176,-552.000000,2920.000000
177,-552.000000,2920.000000
178,-552.000000,2920.000000
179,-560.000000,2920.000000
180,-560.000000,2920.000000
181,-552.000000,2920.000000
182,-560.000000,2920.000000
183,-560.000000,2920.000000
184,-560.000000,2920.000000
185,-560.000000,2920.000000
186,-560.000000,2920.000000
187,-560.000000,2920.000000
188,-560.000000,2920.000000
189,-560.000000,2920.000000
190,-560.000000,2920.000000
191,-560.000000,2920.000000
192,-560.000000,2880.000000
193,-560.000000,2920.000000
194,-560.000000,2920.000000
195,-536.000000,2920.000000
196,-560.000000,2920.000000
197,-560.000000,2920.000000
198,-552.000000,2920.000000
199,-560.000000,2960.000000
200,-560.000000,2920.000000
201,-560.000000,2920.000000
202,-560.000000,2920.000000
203,-560.000000,2960.000000
204,-560.000000,2920.000000
205,-560.000000,2920.000000
206,-560.000000,2920.000000
207,-568.000000,2920.000000
208,-552.000000,2920.000000
209,-560.000000,2920.000000
210,-560.000000,2920.000000
211,-560.000000,2920.000000
212,-560.000000,2880.000000
213,-560.000000,2920.000000
214,-560.000000,2920.000000
215,-560.000000,2920.000000
216,-560.000000,2920.000000
217,-560.000000,2920.000000
218,-560.000000,2920.000000
219,-560.000000,2920.000000
220,-560.000000,2920.000000
221,-560.000000,2920.000000
222,-560.000000,2920.000000
223,-560.000000,2920.000000
224,-560.000000,2960.000000
225,-560.000000,2920.000000
226,-560.000000,2920.000000
227,-568.000000,2920.000000
228,-560.000000,2920.000000
229,-560.000000,2920.000000
230,-560.000000,2920.000000
231,-560.000000,2920.000000
232,-560.000000,2920.000000
233,-560.000000,2920.000000
234,-552.000000,2920.000000
235,-560.000000,2920.000000
236,-560.000000,2920.000000
237,-552.000000,2920.000000
238,-560.000000,2920.000000
239,-560.000000,2920.000000
240,-560.000000,2920.000000
241,-560.000000,2920.000000
242,-552.000000,2920.000000
243,-560.000000,2920.000000
244,-560.000000,2920.000000
245,-552.000000,2920.000000
246,-560.000000,2920.000000
247,-552.000000,2880.000000
248,-560.000000,2920.000000
249,-552.000000,2920.000000
250,-552.000000,2920.000000
251,-560.000000,2920.000000
252,-560.000000,2920.000000
253,-560.000000,2920.000000
254,-560.000000,2920.000000
255,-560.000000,2960.000000
256,-560.000000,2920.000000
257,-560.000000,2920.000000
258,-560.000000,2920.000000
259,-552.000000,2920.000000
260,-560.000000,2920.000000
261,-560.000000,2920.000000
262,-560.000000,2920.000000
263,-560.000000,2920.000000
264,-560.000000,2920.000000
265,-560.000000,2920.000000
266,-560.000000,2920.000000
267,-560.000000,2920.000000
268,-560.000000,2920.000000
269,-560.000000,2920.000000
270,-560.000000,2920.000000
271,-560.000000,2880.000000
272,-560.000000,2920.000000
273,-560.000000,2920.000000
274,-560.000000,2920.000000
275,-560.000000,2960.000000
276,-560.000000,2920.000000
277,-560.000000,2920.000000
278,-560.000000,2920.000000
279,-560.000000,2920.000000
280,-560.000000,2920.000000
281,-560.000000,2920.000000
282,-560.000000,2920.000000
283,-560.000000,2920.000000
284,-560.000000,2920.000000
285,-560.000000,2920.000000
286,-560.000000,2920.000000
287,-560.000000,2920.000000
288,-560.000000,2920.000000
289,-560.000000,2920.000000
290,-560.000000,2920.000000
291,-560.000000,2920.000000
292,-568.000000,2920.000000
293,-560.000000,2920.000000
294,-560.000000,2920.000000
295,-560.000000,2880.000000
296,-560.000000,2920.000000
297,-560.000000,2920.000000
298,-560.000000,2920.000000
299,-560.000000,2920.000000
300,-560.000000,2920.000000
301,-560.000000,2920.000000
302,-560.000000,2920.000000
303,-560.000000,2920.000000
304,-560.000000,2920.000000
305,-560.000000,2920.000000
306,-560.000000,2920.000000
307,-560.000000,2920.000000
308,-560.000000,2920.000000
309,-560.000000,2920.000000
310,-560.000000,2920.000000
311,-560.000000,2920.000000
312,-560.000000,2920.000000
313,-560.000000,2880.000000
314,-560.000000,2920.000000
315,-560.000000,2920.000000
316,-560.000000,2920.000000
317,-560.000000,2920.000000
318,-568.000000,2920.000000
319,-560.000000,2880.000000
320,-560.000000,2920.000000
321,-560.000000,2920.000000
322,-552.000000,2920.000000
323,-560.000000,2920.000000
324,-560.000000,2920.000000
325,-560.000000,2920.000000
326,-560.000000,2920.000000
327,-560.000000,2920.000000
328,-560.000000,2920.000000
329,-560.000000,2920.000000
330,-560.000000,2920.000000
331,-560.000000,2920.000000
332,-560.000000,2920.000000
333,-552.000000,2920.000000
334,-560.000000,2920.000000
335,-568.000000,2920.000000
336,-560.000000,2920.000000
337,-560.000000,2920.000000
338,-560.000000,2920.000000
339,-560.000000,2920.000000
340,-568.000000,2920.000000
341,-560.000000,2920.000000
342,-560.000000,2920.000000
343,-560.000000,2920.000000
344,-552.000000,2920.000000
345,-568.000000,2920.000000
346,-560.000000,2920.000000
347,-552.000000,2920.000000
348,-560.000000,2920.000000
349,-560.000000,2920.000000
350,-560.000000,2920.000000
351,-560.000000,2920.000000
352,-560.000000,2920.000000
353,-560.000000,2880.000000
354,-560.000000,2920.000000
355,-560.000000,2920.000000
356,-568.000000,2920.000000
357,-560.000000,2920.000000
358,-560.000000,2920.000000
359,-560.000000,2920.000000
360,-560.000000,2920.000000
361,-560.000000,2920.000000
362,-560.000000,2880.000000
363,-560.000000,2920.000000
364,-560.000000,2920.000000
365,-560.000000,2920.000000
366,-560.000000,2920.000000
367,-560.000000,2920.000000
368,-560.000000,2920.000000
369,-560.000000,2920.000000
370,-560.000000,2920.000000
371,-560.000000,2920.000000
372,-560.000000,2880.000000
373,-552.000000,2920.000000
374,-560.000000,2920.000000
375,-560.000000,2920.000000
376,-560.000000,2920.000000
377,-560.000000,2920.000000
378,-560.000000,2920.000000
379,-560.000000,2920.000000
380,-560.000000,2920.000000
381,-560.000000,2960.000000
382,-560.000000,2920.000000
383,-560.000000,2880.000000
384,-560.000000,2920.000000
385,-560.000000,2920.000000
386,-560.000000,2920.000000
387,-568.000000,2920.000000
388,-560.000000,2920.000000
389,-560.000000,2920.000000
390,-560.000000,2920.000000
391,-560.000000,2920.000000
392,-560.000000,2920.000000
393,-560.000000,2920.000000
394,-560.000000,2960.000000
395,-560.000000,2920.000000
396,-560.000000,2920.000000
397,-560.000000,2920.000000
398,-560.000000,2920.000000
399,-560.000000,2920.000000
400,-560.000000,2920.000000
401,-560.000000,2920.000000
402,-560.000000,2920.000000
403,-560.000000,2920.000000
404,-600.000000,2920.000000
405,-560.000000,2920.000000
406,-560.000000,2920.000000
407,-560.000000,2920.000000
408,-560.000000,2920.000000
409,-552.000000,2920.000000
410,-560.000000,2920.000000
411,-560.000000,2920.000000
412,-560.000000,2920.000000
413,-560.000000,2920.000000
414,-560.000000,2920.000000
415,-560.000000,2920.000000
416,-560.000000,2920.000000
417,-560.000000,2920.000000
418,-560.000000,2920.000000
419,-560.000000,2920.000000
420,-560.000000,2920.000000
421,-568.000000,2920.000000
422,-560.000000,2920.000000
423,-560.000000,2920.000000
424,-560.000000,2920.000000
425,-560.000000,2920.000000
426,-560.000000,2920.000000
427,-560.000000,2920.000000
428,-560.000000,2920.000000
429,-560.000000,2920.000000
430,-560.000000,2920.000000
431,-560.000000,2920.000000
432,-560.000000,2920.000000
433,-560.000000,2920.000000
434,-560.000000,2920.000000
435,-560.000000,2920.000000
436,-560.000000,2920.000000
437,-560.000000,2920.000000
438,-568.000000,2920.000000
439,-560.000000,2880.000000
440,-560.000000,2920.000000
441,-560.000000,2920.000000
442,-560.000000,2920.000000
443,-560.000000,2920.000000
444,-560.000000,2920.000000
445,-560.000000,2920.000000
446,-560.000000,2920.000000
447,-560.000000,2920.000000
448,-560.000000,2920.000000
449,-560.000000,2920.000000
450,-560.000000,2920.000000
451,-560.000000,2920.000000
452,-560.000000,2920.000000
453,-560.000000,2920.000000
454,-560.000000,2920.000000
455,-560.000000,2920.000000
456,-560.000000,2920.000000
457,-560.000000,2920.000000
458,-560.000000,2920.000000
459,-560.000000,2920.000000
460,-560.000000,2920.000000
461,-560.000000,2920.000000
462,-560.000000,2920.000000
463,-560.000000,2920.000000
464,-560.000000,2960.000000
465,-560.000000,2920.000000
466,-560.000000,2920.000000
467,-560.000000,2920.000000
468,-560.000000,2920.000000
469,-560.000000,2920.000000
470,-552.000000,2960.000000
471,-560.000000,2960.000000
472,-560.000000,2880.000000
473,-560.000000,2920.000000
474,-560.000000,2920.000000
475,-552.000000,2920.000000
476,-560.000000,2920.000000
477,-560.000000,2880.000000
478,-568.000000,2920.000000
479,-560.000000,2920.000000
480,-560.000000,2920.000000
481,-560.000000,2920.000000
482,-560.000000,2920.000000
483,-560.000000,2920.000000
484,-560.000000,2920.000000
485,-560.000000,2920.000000
486,-560.000000,2920.000000
487,-536.000000,2920.000000
488,-536.000000,2920.000000
489,-536.000000,2920.000000
490,-536.000000,2920.000000
491,-536.000000,2920.000000
492,-536.000000,2920.000000
493,-568.000000,2920.000000
494,-528.000000,2920.000000
495,-528.000000,2920.000000
496,-528.000000,2920.000000
497,-528.000000,2920.000000
498,-528.000000,2920.000000
499,-528.000000,2920.000000
500,-528.000000,2960.000000
501,-528.000000,2920.000000
502,-528.000000,2920.000000
503,-520.000000,2920.000000
504,-528.000000,2920.000000
505,-528.000000,2920.000000
506,-520.000000,2920.000000
507,-520.000000,2920.000000
508,-528.000000,2920.000000
509,-528.000000,2920.000000
510,-520.000000,2920.000000
511,-520.000000,2920.000000
512,-520.000000,2920.000000
513,-520.000000,2880.000000
514,-520.000000,2920.000000
515,-504.000000,2920.000000
516,-480.000000,2920.000000
517,-456.000000,2920.000000
518,-448.000000,2920.000000
519,-424.000000,2920.000000
520,-416.000000,2920.000000
521,-400.000000,2920.000000
522,-392.000000,2920.000000
523,-376.000000,2920.000000
524,-368.000000,2920.000000
525,-368.000000,2920.000000
526,-352.000000,2920.000000
527,-344.000000,2920.000000
528,-336.000000,2880.000000
529,-328.000000,2920.000000
530,-328.000000,2920.000000
531,-312.000000,2920.000000
532,-320.000000,2920.000000
533,-312.000000,2920.000000
534,-304.000000,2880.000000
535,-304.000000,2880.000000
536,-304.000000,2920.000000
537,-296.000000,2920.000000
538,-296.000000,2920.000000
539,-288.000000,2920.000000
540,-296.000000,2920.000000
541,-296.000000,2960.000000
542,-288.000000,2920.000000
543,-280.000000,2920.000000
544,-288.000000,2960.000000
545,-288.000000,2920.000000
546,-280.000000,2920.000000
547,-280.000000,2920.000000
548,-296.000000,2880.000000
549,-272.000000,2920.000000
550,-272.000000,2880.000000
551,-272.000000,2920.000000
552,-272.000000,2920.000000
553,-272.000000,2880.000000
554,-272.000000,2920.000000
555,-272.000000,2920.000000
556,-280.000000,2920.000000
557,-272.000000,2920.000000
558,-272.000000,2920.000000
559,-272.000000,2920.000000
560,-272.000000,2960.000000
561,-272.000000,2920.000000
562,-264.000000,2920.000000
563,-272.000000,2920.000000
564,-264.000000,2920.000000
565,-272.000000,2920.000000
566,-264.000000,2920.000000
567,-272.000000,2920.000000
568,-272.000000,2920.000000
569,-264.000000,2920.000000
570,-264.000000,2920.000000
571,-272.000000,2920.000000
572,-264.000000,2920.000000
573,-272.000000,2960.000000
574,-272.000000,2920.000000
575,-272.000000,2920.000000
576,-256.000000,2920.000000
577,-224.000000,2920.000000
578,-192.000000,2920.000000
579,-176.000000,2920.000000
580,-144.000000,2920.000000
581,-128.000000,2920.000000
582,-112.000000,2920.000000
583,-88.000000,2920.000000
584,-72.000000,2920.000000
585,-56.000000,2880.000000
586,-40.000000,2920.000000
587,-24.000000,2920.000000
588,-16.000000,2920.000000
589,8.000000,2880.000000
590,8.000000,2920.000000
591,16.000000,2920.000000
592,24.000000,2920.000000
593,40.000000,2920.000000
594,40.000000,2920.000000
595,56.000000,2920.000000
596,64.000000,2920.000000
597,64.000000,2920.000000
598,72.000000,2920.000000
599,72.000000,2920.000000
600,80.000000,2920.000000
601,88.000000,2880.000000
602,88.000000,2920.000000
603,96.000000,2920.000000
604,104.000000,2880.000000
605,104.000000,2920.000000
606,112.000000,2920.000000
607,120.000000,2920.000000
608,112.000000,2960.000000
609,120.000000,2920.000000
610,120.000000,2920.000000
611,128.000000,2920.000000
612,128.000000,2920.000000
613,128.000000,2920.000000
614,136.000000,2920.000000
615,136.000000,2920.000000
616,136.000000,2920.000000
617,136.000000,2920.000000
618,144.000000,2920.000000
619,144.000000,2920.000000
620,152.000000,2920.000000
621,144.000000,2920.000000
622,152.000000,2920.000000
623,152.000000,2920.000000
624,152.000000,2920.000000
625,152.000000,2920.000000
626,160.000000,2920.000000
627,160.000000,2920.000000
628,160.000000,2920.000000
629,160.000000,2920.000000
630,160.000000,2920.000000
631,160.000000,2920.000000
632,160.000000,2920.000000
633,160.000000,2920.000000
634,160.000000,2920.000000
635,160.000000,2960.000000
636,168.000000,2920.000000
637,168.000000,2920.000000
638,160.000000,2920.000000
639,168.000000,2920.000000
640,168.000000,2920.000000
641,168.000000,2920.000000
642,168.000000,2920.000000
643,168.000000,2920.000000
644,168.000000,2920.000000
645,168.000000,2920.000000
646,168.000000,2920.000000
647,168.000000,2920.000000
648,176.000000,2920.000000
649,168.000000,2920.000000
650,168.000000,2920.000000
651,168.000000,2920.000000
652,168.000000,2920.000000
653,176.000000,2920.000000
654,168.000000,2920.000000
655,168.000000,2920.000000
656,168.000000,2920.000000
657,168.000000,2920.000000
658,176.000000,2920.000000
659,176.000000,2920.000000
660,176.000000,2920.000000
661,184.000000,2920.000000
662,176.000000,2920.000000
663,184.000000,2920.000000
664,184.000000,2920.000000
665,184.000000,2920.000000
666,184.000000,2920.000000
667,192.000000,2920.000000
668,184.000000,2920.000000
669,184.000000,2920.000000
670,184.000000,2920.000000
671,192.000000,2920.000000
672,192.000000,2920.000000
673,184.000000,2960.000000
674,192.000000,2880.000000
675,192.000000,2920.000000
676,192.000000,2920.000000
677,192.000000,2920.000000
678,192.000000,2920.000000
679,192.000000,2920.000000
680,192.000000,2920.000000
681,200.000000,2920.000000
682,200.000000,2920.000000
683,192.000000,2920.000000
684,200.000000,2920.000000
685,192.000000,2960.000000
686,200.000000,2920.000000
687,192.000000,2920.000000
688,208.000000,2920.000000
689,216.000000,2920.000000
690,200.000000,2920.000000
691,200.000000,2920.000000
692,200.000000,2920.000000
693,192.000000,2920.000000
694,208.000000,2880.000000
695,200.000000,2920.000000
696,200.000000,2920.000000
697,200.000000,2920.000000
698,200.000000,2920.000000
699,200.000000,2920.000000
700,208.000000,2960.000000
701,200.000000,2920.000000
702,200.000000,2920.000000
703,200.000000,2920.000000
704,200.000000,2920.000000
705,200.000000,2920.000000
706,200.000000,2920.000000
707,200.000000,2920.000000
708,200.000000,2920.000000
709,200.000000,2920.000000
710,200.000000,2920.000000
711,200.000000,2920.000000
712,200.000000,2880.000000
713,200.000000,2920.000000
