repport_data/pow_reoptimization_4_telecom_2_db_step/data_54_003.csv

Channel              :,CH1,CH2
Frequency            :,  ?,  ?
Period               :,  ?,  ?
PK-PK                :,664.0mV,80.00mV
Probe attenuation    :,1X,1X
Voltage per ADC value:,0.500000mV,2.500000mV
Time interval        :,200.00000uS,200.00000uS

index,CH1_Voltage(mV),CH2_Voltage(mV)
1,-592.000000,2920.000000
2,-592.000000,2920.000000
3,-544.000000,2920.000000
4,-584.000000,2880.000000
5,-592.000000,2920.000000
6,-584.000000,2920.000000
7,-624.000000,2880.000000
8,-592.000000,2880.000000
9,-584.000000,2920.000000
10,-592.000000,2920.000000
11,-584.000000,2880.000000
12,-584.000000,2920.000000
13,-584.000000,2920.000000
14,-584.000000,2920.000000
15,-584.000000,2920.000000
16,-592.000000,2920.000000
17,-592.000000,2920.000000
18,-592.000000,2920.000000
19,-584.000000,2920.000000
20,-592.000000,2920.000000
21,-592.000000,2920.000000
22,-592.000000,2920.000000
23,-592.000000,2920.000000
24,-592.000000,2920.000000
25,-592.000000,2920.000000
26,-592.000000,2920.000000
27,-592.000000,2920.000000
28,-584.000000,2920.000000
29,-592.000000,2920.000000
30,-584.000000,2880.000000
31,-592.000000,2920.000000
32,-592.000000,2920.000000
33,-584.000000,2880.000000
34,-584.000000,2920.000000
35,-592.000000,2920.000000
36,-584.000000,2920.000000
37,-584.000000,2920.000000
38,-592.000000,2920.000000
39,-592.000000,2920.000000
40,-592.000000,2920.000000
41,-592.000000,2920.000000
42,-592.000000,2920.000000
43,-584.000000,2920.000000
44,-592.000000,2920.000000
45,-584.000000,2920.000000
46,-592.000000,2920.000000
47,-584.000000,2880.000000
48,-592.000000,2920.000000
49,-584.000000,2920.000000
50,-584.000000,2920.000000
51,-592.000000,2920.000000
52,-584.000000,2920.000000
53,-592.000000,2920.000000
54,-592.000000,2920.000000
55,-592.000000,2920.000000
56,-592.000000,2880.000000
57,-592.000000,2920.000000
58,-592.000000,2920.000000
59,-584.000000,2880.000000
60,-592.000000,2920.000000
61,-584.000000,2920.000000
62,-584.000000,2920.000000
63,-592.000000,2920.000000
64,-592.000000,2920.000000
65,-592.000000,2920.000000
66,-584.000000,2920.000000
67,-584.000000,2920.000000
68,-592.000000,2920.000000
69,-584.000000,2920.000000
70,-584.000000,2920.000000
71,-584.000000,2920.000000
72,-592.000000,2920.000000
73,-592.000000,2920.000000
74,-592.000000,2920.000000
75,-584.000000,2920.000000
76,-584.000000,2920.000000
77,-592.000000,2920.000000
78,-600.000000,2920.000000
79,-584.000000,2920.000000
80,-592.000000,2920.000000
81,-584.000000,2920.000000
82,-592.000000,2920.000000
83,-584.000000,2920.000000
84,-592.000000,2920.000000
85,-592.000000,2920.000000
86,-592.000000,2920.000000
87,-600.000000,2920.000000
88,-592.000000,2920.000000
89,-592.000000,2920.000000
90,-592.000000,2920.000000
91,-592.000000,2880.000000
92,-592.000000,2880.000000
93,-592.000000,2960.000000
94,-584.000000,2920.000000
95,-592.000000,2920.000000
96,-584.000000,2920.000000
97,-592.000000,2920.000000
98,-584.000000,2880.000000
99,-592.000000,2920.000000
100,-592.000000,2920.000000
101,-592.000000,2920.000000
102,-584.000000,2880.000000
103,-584.000000,2920.000000
104,-592.000000,2920.000000
105,-592.000000,2920.000000
106,-592.000000,2920.000000
107,-592.000000,2920.000000
108,-584.000000,2920.000000
109,-592.000000,2920.000000
110,-592.000000,2920.000000
111,-592.000000,2920.000000
112,-592.000000,2920.000000
113,-592.000000,2920.000000
114,-592.000000,2920.000000
115,-584.000000,2880.000000
116,-584.000000,2920.000000
117,-592.000000,2920.000000
118,-584.000000,2920.000000
119,-584.000000,2920.000000
120,-592.000000,2920.000000
121,-584.000000,2920.000000
122,-592.000000,2920.000000
123,-592.000000,2920.000000
124,-584.000000,2920.000000
125,-592.000000,2920.000000
126,-584.000000,2920.000000
127,-592.000000,2920.000000
128,-584.000000,2920.000000
129,-584.000000,2920.000000
130,-584.000000,2920.000000
131,-584.000000,2920.000000
132,-584.000000,2920.000000
133,-584.000000,2920.000000
134,-592.000000,2880.000000
135,-592.000000,2920.000000
136,-592.000000,2920.000000
137,-592.000000,2920.000000
138,-584.000000,2920.000000
139,-592.000000,2920.000000
140,-592.000000,2880.000000
141,-584.000000,2920.000000
142,-592.000000,2920.000000
143,-584.000000,2920.000000
144,-576.000000,2920.000000
145,-584.000000,2920.000000
146,-592.000000,2920.000000
147,-592.000000,2920.000000
148,-592.000000,2920.000000
149,-592.000000,2920.000000
150,-592.000000,2920.000000
151,-592.000000,2920.000000
152,-592.000000,2920.000000
153,-592.000000,2880.000000
154,-592.000000,2920.000000
155,-584.000000,2920.000000
156,-584.000000,2920.000000
157,-592.000000,2920.000000
158,-592.000000,2920.000000
159,-584.000000,2920.000000
160,-584.000000,2920.000000
161,-592.000000,2920.000000
162,-592.000000,2920.000000
163,-592.000000,2920.000000
164,-584.000000,2920.000000
165,-592.000000,2880.000000
166,-592.000000,2920.000000
167,-584.000000,2920.000000
168,-592.000000,2920.000000
169,-592.000000,2920.000000
170,-592.000000,2880.000000
171,-584.000000,2920.000000
172,-592.000000,2920.000000
173,-592.000000,2920.000000
174,-584.000000,2880.000000
175,-584.000000,2920.000000
176,-584.000000,2920.000000
177,-576.000000,2920.000000
178,-584.000000,2880.000000
179,-576.000000,2920.000000
180,-576.000000,2920.000000
181,-576.000000,2880.000000
182,-568.000000,2920.000000
183,-576.000000,2920.000000
184,-576.000000,2920.000000
185,-576.000000,2920.000000
186,-576.000000,2880.000000
187,-576.000000,2920.000000
188,-576.000000,2920.000000
189,-568.000000,2880.000000
190,-568.000000,2920.000000
191,-568.000000,2920.000000
192,-568.000000,2920.000000
193,-576.000000,2920.000000
194,-568.000000,2920.000000
195,-568.000000,2920.000000
196,-576.000000,2920.000000
197,-576.000000,2880.000000
198,-576.000000,2920.000000
199,-568.000000,2920.000000
200,-576.000000,2920.000000
201,-576.000000,2920.000000
202,-560.000000,2920.000000
203,-568.000000,2920.000000
204,-560.000000,2880.000000
205,-576.000000,2920.000000
206,-568.000000,2920.000000
207,-568.000000,2920.000000
208,-568.000000,2920.000000
209,-568.000000,2920.000000
210,-568.000000,2920.000000
211,-568.000000,2920.000000
212,-568.000000,2920.000000
213,-568.000000,2920.000000
214,-568.000000,2920.000000
215,-568.000000,2920.000000
216,-568.000000,2920.000000
217,-568.000000,2880.000000
218,-568.000000,2920.000000
219,-568.000000,2920.000000
220,-568.000000,2920.000000
221,-568.000000,2920.000000
222,-568.000000,2920.000000
223,-568.000000,2920.000000
224,-568.000000,2920.000000
225,-568.000000,2920.000000
226,-568.000000,2880.000000
227,-560.000000,2920.000000
228,-568.000000,2920.000000
229,-560.000000,2880.000000
230,-568.000000,2920.000000
231,-568.000000,2920.000000
232,-568.000000,2920.000000
233,-568.000000,2920.000000
234,-568.000000,2920.000000
235,-568.000000,2920.000000
236,-568.000000,2920.000000
237,-568.000000,2920.000000
238,-568.000000,2880.000000
239,-568.000000,2920.000000
240,-568.000000,2920.000000
241,-568.000000,2920.000000
242,-568.000000,2880.000000
243,-568.000000,2920.000000
244,-568.000000,2920.000000
245,-568.000000,2880.000000
246,-568.000000,2880.000000
247,-560.000000,2920.000000
248,-568.000000,2880.000000
249,-568.000000,2920.000000
250,-568.000000,2920.000000
251,-568.000000,2920.000000
252,-568.000000,2880.000000
253,-568.000000,2920.000000
254,-568.000000,2920.000000
255,-568.000000,2920.000000
256,-568.000000,2880.000000
257,-568.000000,2920.000000
258,-568.000000,2880.000000
259,-568.000000,2920.000000
260,-592.000000,2880.000000
261,-568.000000,2920.000000
262,-568.000000,2920.000000
263,-568.000000,2880.000000
264,-568.000000,2880.000000
265,-568.000000,2880.000000
266,-568.000000,2920.000000
267,-568.000000,2920.000000
268,-568.000000,2920.000000
269,-568.000000,2920.000000
270,-568.000000,2960.000000
271,-568.000000,2920.000000
272,-560.000000,2920.000000
273,-568.000000,2920.000000
274,-568.000000,2920.000000
275,-568.000000,2920.000000
276,-568.000000,2920.000000
277,-568.000000,2880.000000
278,-568.000000,2880.000000
279,-568.000000,2920.000000
280,-568.000000,2920.000000
281,-568.000000,2920.000000
282,-568.000000,2920.000000
283,-568.000000,2920.000000
284,-568.000000,2920.000000
285,-568.000000,2920.000000
286,-568.000000,2920.000000
287,-568.000000,2920.000000
288,-568.000000,2920.000000
289,-568.000000,2920.000000
290,-576.000000,2920.000000
291,-568.000000,2920.000000
292,-560.000000,2880.000000
293,-568.000000,2920.000000
294,-560.000000,2920.000000
295,-568.000000,2880.000000
296,-568.000000,2880.000000
297,-568.000000,2920.000000
298,-568.000000,2920.000000
299,-568.000000,2920.000000
300,-568.000000,2920.000000
301,-568.000000,2920.000000
302,-576.000000,2920.000000
303,-560.000000,2880.000000
304,-568.000000,2920.000000
305,-568.000000,2880.000000
306,-568.000000,2920.000000
307,-568.000000,2920.000000
308,-568.000000,2920.000000
309,-568.000000,2920.000000
310,-560.000000,2920.000000
311,-568.000000,2920.000000
312,-568.000000,2920.000000
313,-568.000000,2920.000000
314,-568.000000,2920.000000
315,-568.000000,2920.000000
316,-568.000000,2880.000000
317,-568.000000,2880.000000
318,-568.000000,2920.000000
319,-568.000000,2920.000000
320,-568.000000,2920.000000
321,-568.000000,2920.000000
322,-568.000000,2920.000000
323,-568.000000,2920.000000
324,-568.000000,2920.000000
325,-568.000000,2880.000000
326,-568.000000,2920.000000
327,-568.000000,2920.000000
328,-568.000000,2920.000000
329,-560.000000,2880.000000
330,-560.000000,2920.000000
331,-568.000000,2920.000000
332,-568.000000,2920.000000
333,-568.000000,2920.000000
334,-568.000000,2920.000000
335,-568.000000,2880.000000
336,-568.000000,2920.000000
337,-568.000000,2920.000000
338,-568.000000,2920.000000
339,-560.000000,2920.000000
340,-560.000000,2920.000000
341,-568.000000,2880.000000
342,-560.000000,2920.000000
343,-568.000000,2880.000000
344,-568.000000,2920.000000
345,-568.000000,2920.000000
346,-568.000000,2920.000000
347,-568.000000,2920.000000
348,-568.000000,2920.000000
349,-568.000000,2920.000000
350,-568.000000,2920.000000
351,-568.000000,2920.000000
352,-568.000000,2920.000000
353,-568.000000,2920.000000
354,-568.000000,2880.000000
355,-568.000000,2920.000000
356,-560.000000,2920.000000
357,-568.000000,2920.000000
358,-568.000000,2920.000000
359,-568.000000,2920.000000
360,-568.000000,2920.000000
361,-568.000000,2920.000000
362,-568.000000,2920.000000
363,-560.000000,2920.000000
364,-568.000000,2920.000000
365,-568.000000,2920.000000
366,-560.000000,2920.000000
367,-560.000000,2880.000000
368,-568.000000,2880.000000
369,-568.000000,2920.000000
370,-568.000000,2920.000000
371,-568.000000,2920.000000
372,-568.000000,2920.000000
373,-568.000000,2920.000000
374,-568.000000,2920.000000
375,-568.000000,2920.000000
376,-568.000000,2880.000000
377,-568.000000,2920.000000
378,-568.000000,2920.000000
379,-568.000000,2920.000000
380,-568.000000,2920.000000
381,-568.000000,2920.000000
382,-568.000000,2920.000000
383,-568.000000,2920.000000
384,-568.000000,2920.000000
385,-568.000000,2920.000000
386,-568.000000,2920.000000
387,-568.000000,2920.000000
388,-568.000000,2920.000000
389,-568.000000,2920.000000
390,-568.000000,2920.000000
391,-576.000000,2920.000000
392,-568.000000,2920.000000
393,-568.000000,2880.000000
394,-568.000000,2920.000000
395,-576.000000,2920.000000
396,-568.000000,2920.000000
397,-560.000000,2920.000000
398,-552.000000,2920.000000
399,-568.000000,2920.000000
400,-560.000000,2880.000000
401,-568.000000,2920.000000
402,-560.000000,2920.000000
403,-568.000000,2920.000000
404,-560.000000,2920.000000
405,-568.000000,2920.000000
406,-568.000000,2920.000000
407,-568.000000,2880.000000
408,-568.000000,2920.000000
409,-560.000000,2920.000000
410,-568.000000,2920.000000
411,-568.000000,2920.000000
412,-568.000000,2920.000000
413,-568.000000,2920.000000
414,-568.000000,2920.000000
415,-568.000000,2920.000000
416,-560.000000,2920.000000
417,-568.000000,2880.000000
418,-568.000000,2880.000000
419,-560.000000,2920.000000
420,-568.000000,2880.000000
421,-568.000000,2920.000000
422,-568.000000,2920.000000
423,-568.000000,2920.000000
424,-568.000000,2920.000000
425,-568.000000,2920.000000
426,-568.000000,2920.000000
427,-568.000000,2920.000000
428,-568.000000,2920.000000
429,-568.000000,2920.000000
430,-568.000000,2920.000000
431,-568.000000,2920.000000
432,-568.000000,2920.000000
433,-568.000000,2920.000000
434,-560.000000,2920.000000
435,-568.000000,2920.000000
436,-568.000000,2920.000000
437,-568.000000,2920.000000
438,-568.000000,2920.000000
439,-568.000000,2920.000000
440,-568.000000,2920.000000
441,-568.000000,2920.000000
442,-568.000000,2920.000000
443,-568.000000,2920.000000
444,-568.000000,2920.000000
445,-568.000000,2920.000000
446,-568.000000,2920.000000
447,-576.000000,2880.000000
448,-568.000000,2920.000000
449,-576.000000,2880.000000
450,-568.000000,2920.000000
451,-568.000000,2920.000000
452,-576.000000,2920.000000
453,-568.000000,2880.000000
454,-576.000000,2920.000000
455,-576.000000,2920.000000
456,-576.000000,2920.000000
457,-584.000000,2920.000000
458,-568.000000,2920.000000
459,-568.000000,2920.000000
460,-568.000000,2920.000000
461,-576.000000,2920.000000
462,-576.000000,2920.000000
463,-568.000000,2920.000000
464,-568.000000,2920.000000
465,-576.000000,2920.000000
466,-576.000000,2880.000000
467,-568.000000,2920.000000
468,-568.000000,2920.000000
469,-576.000000,2920.000000
470,-576.000000,2920.000000
471,-568.000000,2920.000000
472,-568.000000,2880.000000
473,-576.000000,2920.000000
474,-568.000000,2920.000000
475,-576.000000,2920.000000
476,-576.000000,2920.000000
477,-576.000000,2920.000000
478,-576.000000,2920.000000
479,-568.000000,2920.000000
480,-576.000000,2920.000000
481,-576.000000,2920.000000
482,-568.000000,2880.000000
483,-568.000000,2880.000000
484,-576.000000,2920.000000
485,-568.000000,2920.000000
486,-576.000000,2920.000000
487,-576.000000,2920.000000
488,-568.000000,2880.000000
489,-568.000000,2920.000000
490,-568.000000,2920.000000
491,-576.000000,2920.000000
492,-568.000000,2920.000000
493,-568.000000,2920.000000
494,-568.000000,2920.000000
495,-576.000000,2920.000000
496,-584.000000,2920.000000
497,-576.000000,2920.000000
498,-576.000000,2920.000000
499,-568.000000,2880.000000
500,-576.000000,2920.000000
501,-576.000000,2920.000000
502,-568.000000,2920.000000
503,-576.000000,2920.000000
504,-568.000000,2880.000000
505,-576.000000,2920.000000
506,-568.000000,2920.000000
507,-568.000000,2920.000000
508,-576.000000,2920.000000
509,-568.000000,2920.000000
510,-568.000000,2920.000000
511,-576.000000,2920.000000
512,-568.000000,2920.000000
513,-568.000000,2920.000000
514,-576.000000,2920.000000
515,-576.000000,2920.000000
516,-568.000000,2920.000000
517,-568.000000,2920.000000
518,-576.000000,2880.000000
519,-568.000000,2920.000000
520,-576.000000,2920.000000
521,-576.000000,2920.000000
522,-568.000000,2920.000000
523,-576.000000,2920.000000
524,-568.000000,2920.000000
525,-576.000000,2880.000000
526,-576.000000,2920.000000
527,-576.000000,2920.000000
528,-568.000000,2920.000000
529,-568.000000,2920.000000
530,-576.000000,2920.000000
531,-576.000000,2920.000000
532,-576.000000,2920.000000
533,-576.000000,2920.000000
534,-576.000000,2920.000000
535,-568.000000,2920.000000
536,-568.000000,2920.000000
537,-576.000000,2920.000000
538,-568.000000,2920.000000
539,-576.000000,2880.000000
540,-576.000000,2920.000000
541,-576.000000,2880.000000
542,-568.000000,2920.000000
543,-568.000000,2880.000000
544,-576.000000,2920.000000
545,-576.000000,2880.000000
546,-568.000000,2880.000000
547,-576.000000,2920.000000
548,-576.000000,2920.000000
549,-576.000000,2920.000000
550,-576.000000,2920.000000
551,-576.000000,2920.000000
552,-576.000000,2920.000000
553,-568.000000,2880.000000
554,-568.000000,2920.000000
555,-568.000000,2920.000000
556,-568.000000,2920.000000
557,-576.000000,2920.000000
558,-568.000000,2920.000000
559,-576.000000,2920.000000
560,-568.000000,2920.000000
561,-576.000000,2920.000000
562,-568.000000,2920.000000
563,-576.000000,2920.000000
564,-568.000000,2880.000000
565,-568.000000,2920.000000
566,-568.000000,2920.000000
567,-568.000000,2920.000000
568,-576.000000,2920.000000
569,-568.000000,2920.000000
570,-568.000000,2880.000000
571,-568.000000,2920.000000
572,-568.000000,2920.000000
573,-568.000000,2920.000000
574,-568.000000,2920.000000
575,-568.000000,2880.000000
576,-576.000000,2920.000000
577,-568.000000,2920.000000
578,-568.000000,2880.000000
579,-568.000000,2920.000000
580,-568.000000,2920.000000
581,-568.000000,2920.000000
582,-576.000000,2920.000000
583,-576.000000,2920.000000
584,-568.000000,2920.000000
585,-568.000000,2880.000000
586,-568.000000,2920.000000
587,-568.000000,2920.000000
588,-568.000000,2920.000000
589,-576.000000,2920.000000
590,-568.000000,2920.000000
591,-568.000000,2920.000000
592,-568.000000,2920.000000
593,-568.000000,2920.000000
594,-568.000000,2920.000000
595,-576.000000,2920.000000
596,-568.000000,2880.000000
597,-560.000000,2880.000000
598,-552.000000,2920.000000
599,-568.000000,2880.000000
600,-568.000000,2920.000000
601,-568.000000,2920.000000
602,-576.000000,2920.000000
603,-568.000000,2920.000000
604,-568.000000,2920.000000
605,-568.000000,2880.000000
606,-568.000000,2920.000000
607,-568.000000,2920.000000
608,-568.000000,2880.000000
609,-568.000000,2920.000000
610,-568.000000,2920.000000
611,-576.000000,2920.000000
612,-576.000000,2920.000000
613,-568.000000,2920.000000
614,-576.000000,2920.000000
615,-568.000000,2920.000000
616,-568.000000,2920.000000
617,-568.000000,2920.000000
618,-568.000000,2880.000000
619,-568.000000,2920.000000
620,-568.000000,2920.000000
621,-568.000000,2880.000000
622,-568.000000,2920.000000
623,-568.000000,2920.000000
624,-568.000000,2880.000000
625,-568.000000,2920.000000
626,-568.000000,2920.000000
627,-568.000000,2920.000000
628,-568.000000,2920.000000
629,-568.000000,2920.000000
630,-568.000000,2920.000000
631,-568.000000,2920.000000
632,-568.000000,2920.000000
633,-568.000000,2880.000000
634,-576.000000,2920.000000
635,-568.000000,2920.000000
636,-568.000000,2920.000000
637,-568.000000,2920.000000
638,-568.000000,2920.000000
639,-568.000000,2920.000000
640,-568.000000,2960.000000
641,-576.000000,2920.000000
642,-568.000000,2920.000000
643,-560.000000,2920.000000
644,-576.000000,2920.000000
645,-568.000000,2880.000000
646,-568.000000,2920.000000
647,-560.000000,2920.000000
648,-568.000000,2960.000000
649,-568.000000,2920.000000
650,-568.000000,2920.000000
651,-576.000000,2920.000000
652,-568.000000,2880.000000
653,-568.000000,2880.000000
654,-568.000000,2880.000000
655,-568.000000,2920.000000
656,-568.000000,2920.000000
657,-576.000000,2920.000000
658,-568.000000,2920.000000
659,-568.000000,2920.000000
660,-576.000000,2920.000000
661,-568.000000,2920.000000
662,-568.000000,2920.000000
663,-568.000000,2920.000000
664,-576.000000,2920.000000
665,-576.000000,2920.000000
666,-568.000000,2920.000000
667,-568.000000,2920.000000
668,-576.000000,2920.000000
669,-576.000000,2920.000000
670,-568.000000,2920.000000
671,-576.000000,2920.000000
672,-576.000000,2920.000000
673,-568.000000,2920.000000
674,-568.000000,2920.000000
675,-576.000000,2920.000000
676,-576.000000,2920.000000
677,-568.000000,2920.000000
678,-576.000000,2920.000000
679,-576.000000,2920.000000
680,-576.000000,2880.000000
681,-576.000000,2920.000000
682,-568.000000,2920.000000
683,-568.000000,2920.000000
684,-568.000000,2920.000000
685,-568.000000,2920.000000
686,-568.000000,2920.000000
687,-568.000000,2920.000000
688,-576.000000,2880.000000
689,-568.000000,2880.000000
690,-568.000000,2920.000000
691,-568.000000,2920.000000
692,-568.000000,2920.000000
693,-568.000000,2880.000000
694,-568.000000,2920.000000
695,-576.000000,2920.000000
696,-568.000000,2880.000000
697,-568.000000,2920.000000
698,-568.000000,2920.000000
699,-568.000000,2880.000000
700,-568.000000,2920.000000
701,-568.000000,2920.000000
702,-568.000000,2920.000000
703,-568.000000,2920.000000
704,-568.000000,2920.000000
705,-568.000000,2920.000000
706,-568.000000,2880.000000
707,-568.000000,2920.000000
