repport_data/pow_reoptimization_4_telecom_2_db_step/data_54_017.csv

Channel              :,CH1,CH2
Frequency            :,  ?,  ?
Period               :,  ?,  ?
PK-PK                :,1.640V?,160.0mV
Probe attenuation    :,1X,1X
Voltage per ADC value:,0.500000mV,2.500000mV
Time interval        :,200.00000uS,200.00000uS

index,CH1_Voltage(mV),CH2_Voltage(mV)
1,-240.000000,2880.000000
2,-240.000000,2880.000000
3,-232.000000,2880.000000
4,-240.000000,2880.000000
5,-240.000000,2880.000000
6,-240.000000,2880.000000
7,-240.000000,2880.000000
8,-240.000000,2880.000000
9,-240.000000,2880.000000
10,-248.000000,2880.000000
11,-248.000000,2880.000000
12,-248.000000,2880.000000
13,-248.000000,2880.000000
14,-256.000000,2880.000000
15,-256.000000,2880.000000
16,-248.000000,2880.000000
17,-256.000000,2880.000000
18,-256.000000,2880.000000
19,-280.000000,2880.000000
20,-264.000000,2880.000000
21,-264.000000,2880.000000
22,-264.000000,2840.000000
23,-272.000000,2880.000000
24,-280.000000,2880.000000
25,-288.000000,2880.000000
26,-296.000000,2880.000000
27,-304.000000,2880.000000
28,-320.000000,2880.000000
29,-320.000000,2880.000000
30,-328.000000,2880.000000
31,-336.000000,2880.000000
32,-336.000000,2880.000000
33,-344.000000,2880.000000
34,-352.000000,2880.000000
35,-344.000000,2880.000000
36,-352.000000,2880.000000
37,-352.000000,2880.000000
38,-360.000000,2880.000000
39,-360.000000,2880.000000
40,-360.000000,2880.000000
41,-360.000000,2880.000000
42,-352.000000,2880.000000
43,-352.000000,2880.000000
44,-352.000000,2880.000000
45,-352.000000,2880.000000
46,-352.000000,2880.000000
47,-352.000000,2880.000000
48,-352.000000,2880.000000
49,-352.000000,2880.000000
50,-352.000000,2880.000000
51,-352.000000,2880.000000
52,-352.000000,2880.000000
53,-352.000000,2880.000000
54,-360.000000,2880.000000
55,-360.000000,2880.000000
56,-352.000000,2880.000000
57,-360.000000,2880.000000
58,-360.000000,2880.000000
59,-360.000000,2880.000000
60,-360.000000,2880.000000
61,-360.000000,2880.000000
62,-360.000000,2880.000000
63,-360.000000,2880.000000
64,-360.000000,2880.000000
65,-360.000000,2880.000000
66,-360.000000,2880.000000
67,-360.000000,2880.000000
68,-368.000000,2880.000000
69,-360.000000,2880.000000
70,-368.000000,2880.000000
71,-368.000000,2880.000000
72,-360.000000,2880.000000
73,-368.000000,2880.000000
74,-368.000000,2880.000000
75,-368.000000,2880.000000
76,-368.000000,2880.000000
77,-368.000000,2880.000000
78,-368.000000,2880.000000
79,-376.000000,2880.000000
80,-368.000000,2880.000000
81,-376.000000,2880.000000
82,-368.000000,2880.000000
83,-376.000000,2880.000000
84,-376.000000,2880.000000
85,-376.000000,2880.000000
86,-376.000000,2880.000000
87,-376.000000,2880.000000
88,-384.000000,2880.000000
89,-376.000000,2880.000000
90,-384.000000,2880.000000
91,-384.000000,2880.000000
92,-384.000000,2880.000000
93,-376.000000,2880.000000
94,-384.000000,2880.000000
95,-384.000000,2880.000000
96,-384.000000,2880.000000
97,-384.000000,2880.000000
98,-384.000000,2880.000000
99,-384.000000,2880.000000
100,-392.000000,2880.000000
101,-384.000000,2880.000000
102,-392.000000,2880.000000
103,-392.000000,2880.000000
104,-392.000000,2880.000000
105,-392.000000,2880.000000
106,-392.000000,2880.000000
107,-392.000000,2880.000000
108,-392.000000,2880.000000
109,-392.000000,2880.000000
110,-392.000000,2880.000000
111,-400.000000,2880.000000
112,-400.000000,2880.000000
113,-400.000000,2880.000000
114,-408.000000,2880.000000
115,-408.000000,2880.000000
116,-416.000000,2880.000000
117,-432.000000,2880.000000
118,-424.000000,2880.000000
119,-432.000000,2880.000000
120,-440.000000,2880.000000
121,-440.000000,2840.000000
122,-448.000000,2880.000000
123,-448.000000,2880.000000
124,-448.000000,2880.000000
125,-456.000000,2880.000000
126,-456.000000,2880.000000
127,-456.000000,2880.000000
128,-464.000000,2880.000000
129,-464.000000,2880.000000
130,-464.000000,2880.000000
131,-464.000000,2840.000000
132,-472.000000,2880.000000
133,-464.000000,2880.000000
134,-472.000000,2880.000000
135,-472.000000,2880.000000
136,-472.000000,2880.000000
137,-472.000000,2880.000000
138,-480.000000,2880.000000
139,-480.000000,2880.000000
140,-480.000000,2880.000000
141,-480.000000,2880.000000
142,-480.000000,2880.000000
143,-480.000000,2880.000000
144,-480.000000,2880.000000
145,-488.000000,2880.000000
146,-488.000000,2880.000000
147,-488.000000,2840.000000
148,-488.000000,2920.000000
149,-488.000000,2880.000000
150,-488.000000,2920.000000
151,-488.000000,2880.000000
152,-496.000000,2880.000000
153,-488.000000,2840.000000
154,-488.000000,2880.000000
155,-488.000000,2880.000000
156,-488.000000,2880.000000
157,-488.000000,2880.000000
158,-496.000000,2880.000000
159,-488.000000,2880.000000
160,-496.000000,2920.000000
161,-496.000000,2840.000000
162,-496.000000,2880.000000
163,-496.000000,2880.000000
164,-496.000000,2880.000000
165,-488.000000,2880.000000
166,-496.000000,2880.000000
167,-480.000000,2880.000000
168,-504.000000,2880.000000
169,-504.000000,2880.000000
170,-496.000000,2880.000000
171,-504.000000,2880.000000
172,-504.000000,2880.000000
173,-504.000000,2880.000000
174,-504.000000,2880.000000
175,-504.000000,2880.000000
176,-504.000000,2880.000000
177,-504.000000,2880.000000
178,-504.000000,2880.000000
179,-504.000000,2880.000000
180,-504.000000,2880.000000
181,-504.000000,2880.000000
182,-504.000000,2880.000000
183,-504.000000,2880.000000
184,-504.000000,2880.000000
185,-504.000000,2880.000000
186,-504.000000,2880.000000
187,-512.000000,2880.000000
188,-504.000000,2880.000000
189,-504.000000,2880.000000
190,-504.000000,2840.000000
191,-504.000000,2880.000000
192,-504.000000,2880.000000
193,-512.000000,2920.000000
194,-504.000000,2880.000000
195,-512.000000,2880.000000
196,-512.000000,2880.000000
197,-512.000000,2880.000000
198,-512.000000,2880.000000
199,-512.000000,2880.000000
200,-504.000000,2920.000000
201,-512.000000,2880.000000
202,-512.000000,2880.000000
203,-512.000000,2880.000000
204,-512.000000,2880.000000
205,-520.000000,2880.000000
206,-512.000000,2880.000000
207,-512.000000,2880.000000
208,-512.000000,2880.000000
209,-512.000000,2880.000000
210,-520.000000,2880.000000
211,-520.000000,2880.000000
212,-520.000000,2840.000000
213,-520.000000,2880.000000
214,-520.000000,2880.000000
215,-520.000000,2880.000000
216,-520.000000,2880.000000
217,-520.000000,2880.000000
218,-520.000000,2880.000000
219,-504.000000,2880.000000
220,-512.000000,2880.000000
221,-520.000000,2880.000000
222,-536.000000,2880.000000
223,-520.000000,2880.000000
224,-520.000000,2880.000000
225,-520.000000,2880.000000
226,-520.000000,2880.000000
227,-528.000000,2880.000000
228,-528.000000,2880.000000
229,-520.000000,2880.000000
230,-520.000000,2880.000000
231,-520.000000,2880.000000
232,-528.000000,2880.000000
233,-520.000000,2880.000000
234,-520.000000,2880.000000
235,-528.000000,2880.000000
236,-528.000000,2880.000000
237,-528.000000,2880.000000
238,-520.000000,2880.000000
239,-528.000000,2880.000000
240,-528.000000,2880.000000
241,-528.000000,2880.000000
242,-528.000000,2880.000000
243,-528.000000,2880.000000
244,-528.000000,2880.000000
245,-528.000000,2880.000000
246,-528.000000,2880.000000
247,-528.000000,2880.000000
248,-528.000000,2880.000000
249,-528.000000,2880.000000
250,-528.000000,2880.000000
251,-528.000000,2880.000000
252,-528.000000,2880.000000
253,-528.000000,2840.000000
254,-528.000000,2880.000000
255,-528.000000,2880.000000
256,-528.000000,2880.000000
257,-528.000000,2880.000000
258,-528.000000,2880.000000
259,-528.000000,2880.000000
260,-528.000000,2880.000000
261,-528.000000,2880.000000
262,-528.000000,2880.000000
263,-536.000000,2880.000000
264,-528.000000,2880.000000
265,-536.000000,2880.000000
266,-536.000000,2880.000000
267,-536.000000,2880.000000
268,-536.000000,2880.000000
269,-536.000000,2880.000000
270,-536.000000,2880.000000
271,-536.000000,2920.000000
272,-536.000000,2880.000000
273,-536.000000,2880.000000
274,-536.000000,2880.000000
275,-536.000000,2880.000000
276,-536.000000,2880.000000
277,-536.000000,2880.000000
278,-536.000000,2880.000000
279,-536.000000,2880.000000
280,-536.000000,2880.000000
281,-536.000000,2880.000000
282,-536.000000,2880.000000
283,-536.000000,2880.000000
284,-536.000000,2880.000000
285,-536.000000,2880.000000
286,-536.000000,2880.000000
287,-536.000000,2880.000000
288,-536.000000,2880.000000
289,-536.000000,2880.000000
290,-536.000000,2880.000000
291,-536.000000,2880.000000
292,-536.000000,2880.000000
293,-536.000000,2880.000000
294,-536.000000,2880.000000
295,-536.000000,2880.000000
296,-536.000000,2880.000000
297,-544.000000,2880.000000
298,-536.000000,2880.000000
299,-536.000000,2840.000000
300,-536.000000,2880.000000
301,-544.000000,2880.000000
302,-544.000000,2880.000000
303,-544.000000,2880.000000
304,-544.000000,2880.000000
305,-544.000000,2880.000000
306,-544.000000,2880.000000
307,-552.000000,2880.000000
308,-544.000000,2880.000000
309,-544.000000,2880.000000
310,-544.000000,2880.000000
311,-544.000000,2880.000000
312,-544.000000,2880.000000
313,-544.000000,2880.000000
314,-536.000000,2880.000000
315,-544.000000,2880.000000
316,-544.000000,2880.000000
317,-544.000000,2880.000000
318,-544.000000,2880.000000
319,-544.000000,2880.000000
320,-536.000000,2880.000000
321,-544.000000,2880.000000
322,-544.000000,2880.000000
323,-544.000000,2880.000000
324,-544.000000,2880.000000
325,-544.000000,2880.000000
326,-544.000000,2880.000000
327,-544.000000,2880.000000
328,-544.000000,2880.000000
329,-544.000000,2880.000000
330,-544.000000,2880.000000
331,-544.000000,2880.000000
332,-544.000000,2880.000000
333,-552.000000,2880.000000
334,-544.000000,2880.000000
335,-552.000000,2880.000000
336,-544.000000,2880.000000
337,-544.000000,2880.000000
338,-552.000000,2880.000000
339,-544.000000,2880.000000
340,-552.000000,2880.000000
341,-544.000000,2880.000000
342,-544.000000,2880.000000
343,-552.000000,2880.000000
344,-552.000000,2880.000000
345,-544.000000,2880.000000
346,-544.000000,2880.000000
347,-544.000000,2880.000000
348,-552.000000,2880.000000
349,-552.000000,2880.000000
350,-544.000000,2880.000000
351,-552.000000,2880.000000
352,-544.000000,2880.000000
353,-544.000000,2880.000000
354,-544.000000,2880.000000
355,-552.000000,2880.000000
356,-552.000000,2840.000000
357,-552.000000,2880.000000
358,-552.000000,2880.000000
359,-552.000000,2880.000000
360,-544.000000,2880.000000
361,-544.000000,2880.000000
362,-552.000000,2880.000000
363,-552.000000,2880.000000
364,-552.000000,2880.000000
365,-552.000000,2880.000000
366,-552.000000,2840.000000
367,-552.000000,2880.000000
368,-552.000000,2880.000000
369,-560.000000,2880.000000
370,-552.000000,2880.000000
371,-552.000000,2880.000000
372,-552.000000,2880.000000
373,-560.000000,2880.000000
374,-552.000000,2880.000000
375,-552.000000,2840.000000
376,-552.000000,2880.000000
377,-552.000000,2880.000000
378,-552.000000,2880.000000
379,-552.000000,2920.000000
380,-552.000000,2880.000000
381,-552.000000,2880.000000
382,-552.000000,2880.000000
383,-552.000000,2880.000000
384,-552.000000,2880.000000
385,-552.000000,2880.000000
386,-552.000000,2880.000000
387,-552.000000,2880.000000
388,-552.000000,2880.000000
389,-552.000000,2880.000000
390,-552.000000,2880.000000
391,-552.000000,2880.000000
392,-560.000000,2880.000000
393,-552.000000,2880.000000
394,-552.000000,2880.000000
395,-552.000000,2880.000000
396,-552.000000,2880.000000
397,-552.000000,2920.000000
398,-552.000000,2880.000000
399,-552.000000,2880.000000
400,-552.000000,2880.000000
401,-552.000000,2880.000000
402,-552.000000,2880.000000
403,-552.000000,2880.000000
404,-552.000000,2880.000000
405,-552.000000,2880.000000
406,-552.000000,2880.000000
407,-552.000000,2880.000000
408,-552.000000,2920.000000
409,-560.000000,2880.000000
410,-560.000000,2880.000000
411,-552.000000,2880.000000
412,-552.000000,2880.000000
413,-560.000000,2880.000000
414,-560.000000,2880.000000
415,-568.000000,2880.000000
416,-560.000000,2880.000000
417,-560.000000,2880.000000
418,-552.000000,2880.000000
419,-568.000000,2880.000000
420,-552.000000,2880.000000
421,-560.000000,2880.000000
422,-560.000000,2880.000000
423,-552.000000,2880.000000
424,-560.000000,2880.000000
425,-560.000000,2880.000000
426,-552.000000,2880.000000
427,-560.000000,2880.000000
428,-560.000000,2880.000000
429,-560.000000,2880.000000
430,-560.000000,2880.000000
431,-552.000000,2880.000000
432,-560.000000,2880.000000
433,-560.000000,2880.000000
434,-560.000000,2880.000000
435,-560.000000,2880.000000
436,-560.000000,2880.000000
437,-560.000000,2880.000000
438,-560.000000,2880.000000
439,-560.000000,2880.000000
440,-560.000000,2840.000000
441,-560.000000,2880.000000
442,-552.000000,2880.000000
443,-560.000000,2880.000000
444,-560.000000,2880.000000
445,-560.000000,2880.000000
446,-560.000000,2840.000000
447,-552.000000,2880.000000
448,-560.000000,2880.000000
449,-560.000000,2880.000000
450,-560.000000,2880.000000
451,-560.000000,2880.000000
452,-560.000000,2880.000000
453,-560.000000,2880.000000
454,-560.000000,2880.000000
455,-560.000000,2880.000000
456,-552.000000,2880.000000
457,-560.000000,2880.000000
458,-560.000000,2880.000000
459,-560.000000,2880.000000
460,-560.000000,2880.000000
461,-560.000000,2880.000000
462,-560.000000,2880.000000
463,-560.000000,2880.000000
464,-560.000000,2880.000000
465,-568.000000,2880.000000
466,-560.000000,2880.000000
467,-560.000000,2880.000000
468,-560.000000,2880.000000
469,-560.000000,2880.000000
470,-560.000000,2880.000000
471,-560.000000,2880.000000
472,-560.000000,2880.000000
473,-560.000000,2880.000000
474,-560.000000,2880.000000
475,-560.000000,2880.000000
476,-560.000000,2880.000000
477,-560.000000,2880.000000
478,-568.000000,2880.000000
479,-560.000000,2880.000000
480,-560.000000,2880.000000
481,-560.000000,2840.000000
482,-560.000000,2880.000000
483,-560.000000,2880.000000
484,-560.000000,2880.000000
485,-560.000000,2880.000000
486,-560.000000,2880.000000
487,-560.000000,2880.000000
488,-560.000000,2880.000000
489,-560.000000,2920.000000
490,-560.000000,2880.000000
491,-560.000000,2880.000000
492,-560.000000,2880.000000
493,-560.000000,2880.000000
494,-560.000000,2840.000000
495,-560.000000,2880.000000
496,-560.000000,2880.000000
497,-560.000000,2880.000000
498,-560.000000,2880.000000
499,-560.000000,2880.000000
500,-560.000000,2880.000000
501,-560.000000,2880.000000
502,-560.000000,2880.000000
503,-560.000000,2880.000000
504,-568.000000,2880.000000
505,-568.000000,2880.000000
506,-560.000000,2880.000000
507,-560.000000,2880.000000
508,-560.000000,2880.000000
509,-560.000000,2840.000000
510,-560.000000,2880.000000
511,-560.000000,2880.000000
512,-560.000000,2880.000000
513,-568.000000,2880.000000
514,-568.000000,2880.000000
515,-560.000000,2880.000000
516,-560.000000,2880.000000
517,-560.000000,2880.000000
518,-560.000000,2880.000000
519,-560.000000,2880.000000
520,-560.000000,2920.000000
521,-560.000000,2880.000000
522,-568.000000,2880.000000
523,-560.000000,2880.000000
524,-560.000000,2880.000000
525,-560.000000,2880.000000
526,-560.000000,2880.000000
527,-560.000000,2880.000000
528,-568.000000,2880.000000
529,-568.000000,2880.000000
530,-560.000000,2880.000000
531,-560.000000,2880.000000
532,-568.000000,2880.000000
533,-560.000000,2880.000000
534,-568.000000,2880.000000
535,-560.000000,2880.000000
536,-560.000000,2880.000000
537,-560.000000,2880.000000
538,-568.000000,2880.000000
539,-560.000000,2880.000000
540,-560.000000,2880.000000
541,-560.000000,2880.000000
542,-568.000000,2880.000000
543,-568.000000,2880.000000
544,-568.000000,2880.000000
545,-560.000000,2880.000000
546,-560.000000,2880.000000
547,-560.000000,2880.000000
548,-560.000000,2880.000000
549,-568.000000,2880.000000
550,-560.000000,2880.000000
551,-560.000000,2880.000000
552,-560.000000,2880.000000
553,-560.000000,2880.000000
554,-560.000000,2880.000000
555,-568.000000,2880.000000
556,-568.000000,2880.000000
557,-560.000000,2880.000000
558,-560.000000,2880.000000
559,-568.000000,2880.000000
560,-560.000000,2880.000000
561,-568.000000,2880.000000
562,-560.000000,2880.000000
563,-568.000000,2880.000000
564,-560.000000,2880.000000
565,-568.000000,2880.000000
566,-568.000000,2880.000000
567,-568.000000,2880.000000
568,-568.000000,2880.000000
569,-568.000000,2880.000000
570,-568.000000,2880.000000
571,-568.000000,2880.000000
572,-568.000000,2880.000000
573,-568.000000,2880.000000
574,-568.000000,2880.000000
575,-568.000000,2880.000000
576,-568.000000,2880.000000
577,-560.000000,2880.000000
578,-560.000000,2880.000000
579,-568.000000,2880.000000
580,-560.000000,2880.000000
581,-568.000000,2880.000000
582,-560.000000,2880.000000
583,-568.000000,2880.000000
584,-560.000000,2880.000000
585,-560.000000,2880.000000
586,-568.000000,2880.000000
587,-568.000000,2880.000000
588,-568.000000,2880.000000
589,-568.000000,2880.000000
590,-568.000000,2880.000000
591,-568.000000,2880.000000
592,-568.000000,2880.000000
593,-568.000000,2880.000000
594,-568.000000,2880.000000
595,-568.000000,2840.000000
596,-568.000000,2880.000000
597,-560.000000,2880.000000
598,-568.000000,2880.000000
599,-568.000000,2880.000000
600,-560.000000,2880.000000
601,-568.000000,2880.000000
602,-568.000000,2880.000000
603,-568.000000,2880.000000
604,-568.000000,2880.000000
605,-560.000000,2880.000000
606,-568.000000,2880.000000
607,-568.000000,2880.000000
608,-568.000000,2880.000000
609,-568.000000,2880.000000
610,-568.000000,2880.000000
611,-568.000000,2880.000000
612,-568.000000,2880.000000
613,-568.000000,2880.000000
614,-584.000000,2880.000000
615,-568.000000,2880.000000
616,-568.000000,2880.000000
617,-568.000000,2880.000000
618,-560.000000,2880.000000
619,-560.000000,2880.000000
620,-560.000000,2880.000000
621,-560.000000,2880.000000
622,-560.000000,2880.000000
623,-560.000000,2880.000000
624,-560.000000,2880.000000
625,-568.000000,2880.000000
626,-568.000000,2880.000000
627,-568.000000,2880.000000
628,-568.000000,2880.000000
629,-568.000000,2880.000000
630,-568.000000,2880.000000
631,-568.000000,2880.000000
632,-560.000000,2880.000000
633,-568.000000,2880.000000
634,-568.000000,2880.000000
635,-568.000000,2880.000000
636,-568.000000,2880.000000
637,-568.000000,2880.000000
638,-568.000000,2880.000000
639,-568.000000,2880.000000
640,-568.000000,2880.000000
641,-568.000000,2880.000000
642,-568.000000,2880.000000
643,-568.000000,2880.000000
644,-568.000000,2880.000000
645,-568.000000,2880.000000
646,-576.000000,2880.000000
647,-560.000000,2880.000000
648,-568.000000,2880.000000
649,-568.000000,2880.000000
650,-568.000000,2920.000000
651,-560.000000,2880.000000
652,-568.000000,2880.000000
653,-568.000000,2880.000000
654,-568.000000,2880.000000
655,-568.000000,2880.000000
656,-568.000000,2880.000000
657,-568.000000,2880.000000
658,-568.000000,2880.000000
659,-568.000000,2880.000000
660,-568.000000,2880.000000
661,-568.000000,2880.000000
662,-568.000000,2880.000000
663,-568.000000,2880.000000
664,-568.000000,2880.000000
665,-568.000000,2880.000000
666,-560.000000,2880.000000
667,-568.000000,2880.000000
668,-568.000000,2880.000000
669,-560.000000,2880.000000
670,-568.000000,2880.000000
671,-568.000000,2880.000000
672,-568.000000,2880.000000
673,-568.000000,2880.000000
674,-560.000000,2880.000000
675,-568.000000,2880.000000
676,-568.000000,2880.000000
677,-568.000000,2880.000000
678,-568.000000,2880.000000
679,-568.000000,2880.000000
680,-568.000000,2880.000000
681,-568.000000,2880.000000
682,-568.000000,2880.000000
683,-568.000000,2880.000000
684,-568.000000,2880.000000
685,-568.000000,2880.000000
686,-568.000000,2880.000000
687,-568.000000,2880.000000
688,-568.000000,2880.000000
689,-568.000000,2880.000000
690,-568.000000,2880.000000
691,-568.000000,2880.000000
692,-568.000000,2880.000000
693,-568.000000,2880.000000
694,-568.000000,2880.000000
695,-568.000000,2880.000000
696,-568.000000,2880.000000
697,-568.000000,2880.000000
698,-568.000000,2880.000000
699,-568.000000,2880.000000
700,-568.000000,2880.000000
701,-568.000000,2880.000000
702,-568.000000,2920.000000
703,-560.000000,2880.000000
704,-576.000000,2880.000000
705,-568.000000,2880.000000
706,-568.000000,2880.000000
707,-568.000000,2880.000000
