repport_data/pow_reoptimization_4_telecom_2_db_step/data_54_008.csv

Channel              :,CH1,CH2
Frequency            :,  ?,  ?
Period               :,  ?,  ?
PK-PK                :,528.0mV,120.0mV
Probe attenuation    :,1X,1X
Voltage per ADC value:,0.500000mV,2.500000mV
Time interval        :,200.00000uS,200.00000uS

index,CH1_Voltage(mV),CH2_Voltage(mV)
1,-112.000000,2920.000000
2,-112.000000,2920.000000
3,-112.000000,2920.000000
4,-112.000000,2920.000000
5,-112.000000,2920.000000
6,-112.000000,2880.000000
7,-112.000000,2920.000000
8,-112.000000,2880.000000
9,-112.000000,2920.000000
10,-112.000000,2920.000000
11,-112.000000,2920.000000
12,-112.000000,2920.000000
13,-112.000000,2920.000000
14,-112.000000,2920.000000
15,-112.000000,2920.000000
16,-112.000000,2880.000000
17,-112.000000,2920.000000
18,-112.000000,2920.000000
19,-112.000000,2920.000000
20,-120.000000,2920.000000
21,-120.000000,2920.000000
22,-120.000000,2920.000000
23,-120.000000,2920.000000
24,-120.000000,2920.000000
25,-128.000000,2880.000000
26,-120.000000,2920.000000
27,-120.000000,2920.000000
28,-120.000000,2920.000000
29,-128.000000,2920.000000
30,-128.000000,2920.000000
31,-128.000000,2920.000000
32,-128.000000,2880.000000
33,-128.000000,2880.000000
34,-128.000000,2920.000000
35,-128.000000,2880.000000
36,-128.000000,2920.000000
37,-128.000000,2920.000000
38,-128.000000,2920.000000
39,-128.000000,2920.000000
40,-128.000000,2920.000000
41,-120.000000,2920.000000
42,-120.000000,2920.000000
43,-120.000000,2920.000000
44,-120.000000,2880.000000
45,-120.000000,2920.000000
46,-120.000000,2920.000000
47,-120.000000,2880.000000
48,-120.000000,2920.000000
49,-120.000000,2920.000000
50,-120.000000,2880.000000
51,-112.000000,2920.000000
52,-112.000000,2920.000000
53,-112.000000,2920.000000
54,-112.000000,2920.000000
55,-112.000000,2920.000000
56,-112.000000,2920.000000
57,-112.000000,2920.000000
58,-120.000000,2920.000000
59,-120.000000,2880.000000
60,-112.000000,2920.000000
61,-112.000000,2880.000000
62,-112.000000,2880.000000
63,-112.000000,2920.000000
64,-112.000000,2880.000000
65,-112.000000,2920.000000
66,-112.000000,2920.000000
67,-112.000000,2920.000000
68,-112.000000,2920.000000
69,-120.000000,2920.000000
70,-112.000000,2920.000000
71,-112.000000,2880.000000
72,-112.000000,2920.000000
73,-112.000000,2920.000000
74,-112.000000,2920.000000
75,-112.000000,2920.000000
76,-112.000000,2920.000000
77,-112.000000,2920.000000
78,-112.000000,2920.000000
79,-112.000000,2920.000000
80,-112.000000,2920.000000
81,-120.000000,2920.000000
82,-112.000000,2920.000000
83,-112.000000,2880.000000
84,-112.000000,2920.000000
85,-112.000000,2920.000000
86,-112.000000,2920.000000
87,-112.000000,2920.000000
88,-112.000000,2920.000000
89,-112.000000,2920.000000
90,-120.000000,2920.000000
91,-120.000000,2920.000000
92,-120.000000,2920.000000
93,-112.000000,2920.000000
94,-112.000000,2920.000000
95,-112.000000,2920.000000
96,-112.000000,2880.000000
97,-112.000000,2920.000000
98,-112.000000,2920.000000
99,-112.000000,2880.000000
100,-112.000000,2920.000000
101,-120.000000,2920.000000
102,-112.000000,2920.000000
103,-120.000000,2920.000000
104,-112.000000,2920.000000
105,-112.000000,2920.000000
106,-112.000000,2880.000000
107,-112.000000,2920.000000
108,-120.000000,2920.000000
109,-112.000000,2920.000000
110,-112.000000,2920.000000
111,-112.000000,2880.000000
112,-120.000000,2920.000000
113,-120.000000,2920.000000
114,-128.000000,2920.000000
115,-120.000000,2880.000000
116,-120.000000,2880.000000
117,-120.000000,2920.000000
118,-120.000000,2880.000000
119,-128.000000,2920.000000
120,-128.000000,2880.000000
121,-120.000000,2920.000000
122,-128.000000,2920.000000
123,-128.000000,2920.000000
124,-128.000000,2880.000000
125,-128.000000,2920.000000
126,-128.000000,2920.000000
127,-128.000000,2920.000000
128,-128.000000,2920.000000
129,-128.000000,2920.000000
130,-128.000000,2920.000000
131,-128.000000,2920.000000
132,-128.000000,2920.000000
133,-128.000000,2920.000000
134,-120.000000,2920.000000
135,-128.000000,2920.000000
136,-120.000000,2920.000000
137,-120.000000,2920.000000
138,-128.000000,2920.000000
139,-128.000000,2920.000000
140,-128.000000,2920.000000
141,-136.000000,2920.000000
142,-128.000000,2880.000000
143,-128.000000,2880.000000
144,-128.000000,2880.000000
145,-120.000000,2880.000000
146,-128.000000,2880.000000
147,-128.000000,2880.000000
148,-136.000000,2880.000000
149,-128.000000,2920.000000
150,-128.000000,2920.000000
151,-128.000000,2920.000000
152,-128.000000,2920.000000
153,-128.000000,2920.000000
154,-128.000000,2880.000000
155,-128.000000,2880.000000
156,-128.000000,2880.000000
157,-128.000000,2920.000000
158,-136.000000,2920.000000
159,-128.000000,2920.000000
160,-136.000000,2920.000000
161,-128.000000,2880.000000
162,-144.000000,2880.000000
163,-176.000000,2880.000000
164,-200.000000,2920.000000
165,-232.000000,2880.000000
166,-256.000000,2920.000000
167,-280.000000,2920.000000
168,-304.000000,2920.000000
169,-320.000000,2880.000000
170,-344.000000,2880.000000
171,-360.000000,2920.000000
172,-376.000000,2920.000000
173,-392.000000,2920.000000
174,-408.000000,2920.000000
175,-424.000000,2920.000000
176,-432.000000,2880.000000
177,-448.000000,2920.000000
178,-456.000000,2920.000000
179,-464.000000,2920.000000
180,-480.000000,2920.000000
181,-480.000000,2920.000000
182,-488.000000,2920.000000
183,-496.000000,2920.000000
184,-504.000000,2920.000000
185,-512.000000,2920.000000
186,-520.000000,2920.000000
187,-520.000000,2920.000000
188,-528.000000,2920.000000
189,-528.000000,2920.000000
190,-536.000000,2920.000000
191,-544.000000,2880.000000
192,-544.000000,2920.000000
193,-544.000000,2920.000000
194,-536.000000,2880.000000
195,-576.000000,2920.000000
196,-552.000000,2920.000000
197,-560.000000,2920.000000
198,-560.000000,2880.000000
199,-544.000000,2920.000000
200,-560.000000,2880.000000
201,-568.000000,2880.000000
202,-560.000000,2920.000000
203,-568.000000,2920.000000
204,-568.000000,2920.000000
205,-560.000000,2880.000000
206,-568.000000,2920.000000
207,-568.000000,2920.000000
208,-568.000000,2920.000000
209,-568.000000,2920.000000
210,-568.000000,2920.000000
211,-568.000000,2920.000000
212,-568.000000,2920.000000
213,-568.000000,2920.000000
214,-568.000000,2880.000000
215,-568.000000,2920.000000
216,-576.000000,2920.000000
217,-576.000000,2920.000000
218,-568.000000,2920.000000
219,-576.000000,2920.000000
220,-576.000000,2920.000000
221,-576.000000,2920.000000
222,-576.000000,2880.000000
223,-576.000000,2920.000000
224,-576.000000,2920.000000
225,-576.000000,2880.000000
226,-576.000000,2920.000000
227,-576.000000,2920.000000
228,-576.000000,2920.000000
229,-576.000000,2920.000000
230,-576.000000,2920.000000
231,-576.000000,2920.000000
232,-568.000000,2920.000000
233,-576.000000,2920.000000
234,-576.000000,2880.000000
235,-576.000000,2880.000000
236,-576.000000,2920.000000
237,-576.000000,2920.000000
238,-576.000000,2920.000000
239,-576.000000,2880.000000
240,-576.000000,2920.000000
241,-576.000000,2920.000000
242,-576.000000,2880.000000
243,-576.000000,2920.000000
244,-576.000000,2920.000000
245,-576.000000,2920.000000
246,-584.000000,2920.000000
247,-576.000000,2920.000000
248,-576.000000,2920.000000
249,-576.000000,2880.000000
250,-568.000000,2920.000000
251,-584.000000,2920.000000
252,-576.000000,2880.000000
253,-576.000000,2880.000000
254,-584.000000,2920.000000
255,-576.000000,2920.000000
256,-576.000000,2920.000000
257,-576.000000,2880.000000
258,-576.000000,2920.000000
259,-576.000000,2920.000000
260,-576.000000,2920.000000
261,-576.000000,2880.000000
262,-576.000000,2920.000000
263,-584.000000,2920.000000
264,-584.000000,2920.000000
265,-576.000000,2880.000000
266,-576.000000,2920.000000
267,-576.000000,2880.000000
268,-576.000000,2920.000000
269,-576.000000,2920.000000
270,-576.000000,2920.000000
271,-576.000000,2880.000000
272,-576.000000,2880.000000
273,-576.000000,2920.000000
274,-568.000000,2920.000000
275,-576.000000,2920.000000
276,-576.000000,2920.000000
277,-576.000000,2920.000000
278,-576.000000,2920.000000
279,-576.000000,2920.000000
280,-576.000000,2920.000000
281,-576.000000,2920.000000
282,-576.000000,2880.000000
283,-576.000000,2920.000000
284,-576.000000,2920.000000
285,-576.000000,2880.000000
286,-576.000000,2920.000000
287,-576.000000,2880.000000
288,-576.000000,2920.000000
289,-576.000000,2920.000000
290,-576.000000,2920.000000
291,-576.000000,2920.000000
292,-576.000000,2920.000000
293,-576.000000,2920.000000
294,-576.000000,2920.000000
295,-576.000000,2880.000000
296,-576.000000,2920.000000
297,-568.000000,2920.000000
298,-576.000000,2920.000000
299,-576.000000,2920.000000
300,-576.000000,2880.000000
301,-576.000000,2920.000000
302,-576.000000,2920.000000
303,-576.000000,2920.000000
304,-576.000000,2920.000000
305,-576.000000,2920.000000
306,-576.000000,2920.000000
307,-576.000000,2920.000000
308,-576.000000,2880.000000
309,-568.000000,2920.000000
310,-576.000000,2920.000000
311,-576.000000,2920.000000
312,-576.000000,2920.000000
313,-576.000000,2920.000000
314,-576.000000,2920.000000
315,-576.000000,2920.000000
316,-568.000000,2880.000000
317,-576.000000,2920.000000
318,-576.000000,2920.000000
319,-576.000000,2920.000000
320,-576.000000,2880.000000
321,-576.000000,2920.000000
322,-576.000000,2920.000000
323,-576.000000,2920.000000
324,-576.000000,2880.000000
325,-576.000000,2920.000000
326,-576.000000,2920.000000
327,-576.000000,2920.000000
328,-576.000000,2920.000000
329,-576.000000,2920.000000
330,-576.000000,2920.000000
331,-568.000000,2920.000000
332,-576.000000,2920.000000
333,-576.000000,2920.000000
334,-576.000000,2920.000000
335,-576.000000,2920.000000
336,-576.000000,2920.000000
337,-576.000000,2920.000000
338,-576.000000,2920.000000
339,-576.000000,2920.000000
340,-576.000000,2880.000000
341,-576.000000,2920.000000
342,-576.000000,2920.000000
343,-576.000000,2920.000000
344,-576.000000,2920.000000
345,-568.000000,2920.000000
346,-576.000000,2920.000000
347,-576.000000,2920.000000
348,-576.000000,2920.000000
349,-576.000000,2880.000000
350,-576.000000,2920.000000
351,-576.000000,2920.000000
352,-576.000000,2920.000000
353,-576.000000,2880.000000
354,-576.000000,2920.000000
355,-576.000000,2920.000000
356,-576.000000,2920.000000
357,-576.000000,2880.000000
358,-568.000000,2920.000000
359,-576.000000,2920.000000
360,-576.000000,2920.000000
361,-576.000000,2920.000000
362,-576.000000,2920.000000
363,-576.000000,2880.000000
364,-576.000000,2920.000000
365,-576.000000,2920.000000
366,-568.000000,2880.000000
367,-576.000000,2920.000000
368,-576.000000,2920.000000
369,-576.000000,2920.000000
370,-576.000000,2920.000000
371,-576.000000,2920.000000
372,-576.000000,2920.000000
373,-576.000000,2880.000000
374,-576.000000,2920.000000
375,-576.000000,2920.000000
376,-576.000000,2920.000000
377,-568.000000,2880.000000
378,-576.000000,2880.000000
379,-576.000000,2920.000000
380,-576.000000,2920.000000
381,-576.000000,2920.000000
382,-576.000000,2880.000000
383,-568.000000,2920.000000
384,-568.000000,2920.000000
385,-576.000000,2920.000000
386,-576.000000,2880.000000
387,-568.000000,2920.000000
388,-568.000000,2920.000000
389,-576.000000,2920.000000
390,-576.000000,2920.000000
391,-568.000000,2920.000000
392,-576.000000,2920.000000
393,-576.000000,2920.000000
394,-584.000000,2920.000000
395,-576.000000,2920.000000
396,-576.000000,2920.000000
397,-600.000000,2920.000000
398,-576.000000,2920.000000
399,-576.000000,2920.000000
400,-568.000000,2920.000000
401,-576.000000,2920.000000
402,-576.000000,2920.000000
403,-576.000000,2880.000000
404,-576.000000,2920.000000
405,-576.000000,2880.000000
406,-576.000000,2920.000000
407,-576.000000,2920.000000
408,-576.000000,2920.000000
409,-568.000000,2920.000000
410,-576.000000,2920.000000
411,-568.000000,2920.000000
412,-568.000000,2920.000000
413,-576.000000,2920.000000
414,-576.000000,2920.000000
415,-576.000000,2920.000000
416,-568.000000,2920.000000
417,-576.000000,2880.000000
418,-568.000000,2920.000000
419,-568.000000,2920.000000
420,-576.000000,2920.000000
421,-568.000000,2920.000000
422,-568.000000,2920.000000
423,-576.000000,2920.000000
424,-576.000000,2920.000000
425,-576.000000,2920.000000
426,-576.000000,2920.000000
427,-576.000000,2880.000000
428,-576.000000,2880.000000
429,-568.000000,2920.000000
430,-576.000000,2880.000000
431,-576.000000,2920.000000
432,-576.000000,2920.000000
433,-568.000000,2920.000000
434,-576.000000,2920.000000
435,-576.000000,2920.000000
436,-576.000000,2920.000000
437,-576.000000,2920.000000
438,-576.000000,2920.000000
439,-576.000000,2920.000000
440,-576.000000,2920.000000
441,-576.000000,2920.000000
442,-576.000000,2960.000000
443,-576.000000,2920.000000
444,-576.000000,2880.000000
445,-576.000000,2880.000000
446,-576.000000,2920.000000
447,-576.000000,2920.000000
448,-576.000000,2920.000000
449,-584.000000,2920.000000
450,-576.000000,2880.000000
451,-576.000000,2920.000000
452,-560.000000,2880.000000
453,-568.000000,2880.000000
454,-568.000000,2920.000000
455,-568.000000,2880.000000
456,-576.000000,2920.000000
457,-576.000000,2920.000000
458,-576.000000,2880.000000
459,-576.000000,2920.000000
460,-576.000000,2920.000000
461,-576.000000,2920.000000
462,-568.000000,2920.000000
463,-576.000000,2920.000000
464,-576.000000,2920.000000
465,-576.000000,2920.000000
466,-576.000000,2920.000000
467,-568.000000,2920.000000
468,-568.000000,2920.000000
469,-576.000000,2920.000000
470,-576.000000,2920.000000
471,-576.000000,2920.000000
472,-576.000000,2880.000000
473,-576.000000,2920.000000
474,-576.000000,2880.000000
475,-576.000000,2920.000000
476,-576.000000,2880.000000
477,-576.000000,2920.000000
478,-576.000000,2920.000000
479,-576.000000,2920.000000
480,-576.000000,2920.000000
481,-576.000000,2880.000000
482,-576.000000,2920.000000
483,-576.000000,2920.000000
484,-568.000000,2920.000000
485,-568.000000,2880.000000
486,-576.000000,2920.000000
487,-576.000000,2920.000000
488,-576.000000,2920.000000
489,-568.000000,2920.000000
490,-576.000000,2920.000000
491,-576.000000,2920.000000
492,-576.000000,2920.000000
493,-576.000000,2920.000000
494,-576.000000,2920.000000
495,-576.000000,2920.000000
496,-576.000000,2920.000000
497,-568.000000,2920.000000
498,-568.000000,2920.000000
499,-576.000000,2880.000000
500,-568.000000,2920.000000
501,-568.000000,2920.000000
502,-568.000000,2920.000000
503,-568.000000,2920.000000
504,-568.000000,2920.000000
505,-568.000000,2880.000000
506,-576.000000,2920.000000
507,-576.000000,2880.000000
508,-568.000000,2920.000000
509,-568.000000,2920.000000
510,-576.000000,2920.000000
511,-576.000000,2880.000000
512,-576.000000,2920.000000
513,-568.000000,2920.000000
514,-568.000000,2920.000000
515,-568.000000,2920.000000
516,-576.000000,2920.000000
517,-568.000000,2920.000000
518,-568.000000,2920.000000
519,-576.000000,2920.000000
520,-576.000000,2920.000000
521,-568.000000,2920.000000
522,-568.000000,2920.000000
523,-568.000000,2880.000000
524,-576.000000,2920.000000
525,-568.000000,2920.000000
526,-568.000000,2880.000000
527,-576.000000,2920.000000
528,-568.000000,2920.000000
529,-576.000000,2880.000000
530,-568.000000,2920.000000
531,-576.000000,2920.000000
532,-568.000000,2880.000000
533,-576.000000,2920.000000
534,-576.000000,2920.000000
535,-568.000000,2920.000000
536,-576.000000,2880.000000
537,-576.000000,2920.000000
538,-568.000000,2920.000000
539,-576.000000,2920.000000
540,-576.000000,2920.000000
541,-568.000000,2920.000000
542,-576.000000,2920.000000
543,-568.000000,2920.000000
544,-576.000000,2920.000000
545,-576.000000,2920.000000
546,-568.000000,2920.000000
547,-576.000000,2920.000000
548,-568.000000,2920.000000
549,-576.000000,2920.000000
550,-576.000000,2920.000000
551,-576.000000,2920.000000
552,-576.000000,2920.000000
553,-576.000000,2920.000000
554,-568.000000,2920.000000
555,-568.000000,2920.000000
556,-576.000000,2920.000000
557,-576.000000,2920.000000
558,-568.000000,2920.000000
559,-576.000000,2920.000000
560,-568.000000,2880.000000
561,-576.000000,2920.000000
562,-576.000000,2880.000000
563,-568.000000,2920.000000
564,-568.000000,2920.000000
565,-568.000000,2920.000000
566,-576.000000,2920.000000
567,-568.000000,2920.000000
568,-576.000000,2920.000000
569,-576.000000,2920.000000
570,-576.000000,2920.000000
571,-576.000000,2960.000000
572,-576.000000,2920.000000
573,-568.000000,2920.000000
574,-568.000000,2920.000000
575,-576.000000,2920.000000
576,-576.000000,2920.000000
577,-576.000000,2880.000000
578,-576.000000,2920.000000
579,-568.000000,2920.000000
580,-576.000000,2920.000000
581,-576.000000,2920.000000
582,-568.000000,2920.000000
583,-568.000000,2920.000000
584,-576.000000,2880.000000
585,-584.000000,2920.000000
586,-568.000000,2920.000000
587,-568.000000,2920.000000
588,-568.000000,2920.000000
589,-568.000000,2920.000000
590,-576.000000,2920.000000
591,-568.000000,2920.000000
592,-568.000000,2920.000000
593,-560.000000,2920.000000
594,-576.000000,2920.000000
595,-568.000000,2880.000000
596,-568.000000,2880.000000
597,-568.000000,2880.000000
598,-576.000000,2920.000000
599,-576.000000,2920.000000
600,-568.000000,2920.000000
601,-576.000000,2920.000000
602,-576.000000,2920.000000
603,-576.000000,2920.000000
604,-576.000000,2920.000000
605,-568.000000,2920.000000
606,-576.000000,2920.000000
607,-576.000000,2920.000000
608,-576.000000,2920.000000
609,-576.000000,2920.000000
610,-568.000000,2920.000000
611,-568.000000,2920.000000
612,-576.000000,2920.000000
613,-568.000000,2920.000000
614,-576.000000,2880.000000
615,-576.000000,2880.000000
616,-576.000000,2920.000000
617,-568.000000,2920.000000
618,-576.000000,2920.000000
619,-568.000000,2920.000000
620,-568.000000,2920.000000
621,-568.000000,2920.000000
622,-568.000000,2920.000000
623,-568.000000,2880.000000
624,-568.000000,2920.000000
625,-568.000000,2920.000000
626,-568.000000,2920.000000
627,-576.000000,2920.000000
628,-568.000000,2880.000000
629,-568.000000,2920.000000
630,-568.000000,2920.000000
631,-576.000000,2880.000000
632,-576.000000,2920.000000
633,-568.000000,2920.000000
634,-576.000000,2960.000000
635,-576.000000,2880.000000
636,-568.000000,2920.000000
637,-576.000000,2920.000000
638,-576.000000,2920.000000
639,-568.000000,2920.000000
640,-576.000000,2920.000000
641,-568.000000,2920.000000
642,-576.000000,2920.000000
643,-568.000000,2920.000000
644,-568.000000,2920.000000
645,-568.000000,2920.000000
646,-568.000000,2920.000000
647,-568.000000,2920.000000
648,-568.000000,2880.000000
649,-568.000000,2920.000000
650,-576.000000,2920.000000
651,-568.000000,2920.000000
652,-568.000000,2880.000000
653,-568.000000,2920.000000
654,-568.000000,2920.000000
655,-568.000000,2920.000000
656,-568.000000,2920.000000
657,-576.000000,2880.000000
658,-576.000000,2920.000000
659,-576.000000,2880.000000
660,-568.000000,2920.000000
661,-568.000000,2920.000000
662,-568.000000,2920.000000
663,-568.000000,2920.000000
664,-576.000000,2880.000000
665,-568.000000,2920.000000
666,-576.000000,2920.000000
667,-576.000000,2920.000000
668,-576.000000,2920.000000
669,-568.000000,2920.000000
670,-576.000000,2920.000000
671,-576.000000,2920.000000
672,-576.000000,2920.000000
673,-568.000000,2920.000000
674,-576.000000,2920.000000
675,-568.000000,2920.000000
676,-568.000000,2920.000000
677,-568.000000,2920.000000
678,-568.000000,2920.000000
679,-568.000000,2920.000000
680,-576.000000,2920.000000
681,-568.000000,2920.000000
682,-568.000000,2920.000000
683,-576.000000,2880.000000
684,-568.000000,2920.000000
685,-576.000000,2920.000000
686,-568.000000,2920.000000
687,-568.000000,2920.000000
688,-568.000000,2880.000000
689,-568.000000,2920.000000
690,-576.000000,2920.000000
691,-576.000000,2920.000000
692,-568.000000,2880.000000
693,-576.000000,2920.000000
694,-568.000000,2920.000000
695,-576.000000,2920.000000
696,-568.000000,2920.000000
697,-576.000000,2920.000000
698,-576.000000,2920.000000
699,-568.000000,2920.000000
700,-576.000000,2920.000000
701,-568.000000,2920.000000
702,-576.000000,2920.000000
703,-576.000000,2920.000000
704,-568.000000,2920.000000
705,-568.000000,2920.000000
706,-568.000000,2920.000000
707,-568.000000,2920.000000
