repport_data/pow_reoptimization_4_telecom_2_db_step/data_54_007.csv

Channel              :,CH1,CH2
Frequency            :,  ?,  ?
Period               :,  ?,  ?
PK-PK                :,552.0mV,120.0mV
Probe attenuation    :,1X,1X
Voltage per ADC value:,0.500000mV,2.500000mV
Time interval        :,200.00000uS,200.00000uS

index,CH1_Voltage(mV),CH2_Voltage(mV)
1,-568.000000,2920.000000
2,-568.000000,2920.000000
3,-576.000000,2920.000000
4,-560.000000,2920.000000
5,-568.000000,2880.000000
6,-568.000000,2920.000000
7,-560.000000,2880.000000
8,-568.000000,2920.000000
9,-568.000000,2880.000000
10,-568.000000,2920.000000
11,-568.000000,2920.000000
12,-568.000000,2920.000000
13,-568.000000,2920.000000
14,-568.000000,2920.000000
15,-568.000000,2920.000000
16,-568.000000,2880.000000
17,-568.000000,2920.000000
18,-568.000000,2880.000000
19,-568.000000,2920.000000
20,-568.000000,2880.000000
21,-568.000000,2920.000000
22,-568.000000,2920.000000
23,-568.000000,2920.000000
24,-568.000000,2920.000000
25,-568.000000,2920.000000
26,-568.000000,2920.000000
27,-568.000000,2880.000000
28,-568.000000,2880.000000
29,-568.000000,2920.000000
30,-568.000000,2920.000000
31,-568.000000,2920.000000
32,-568.000000,2920.000000
33,-568.000000,2920.000000
34,-568.000000,2920.000000
35,-568.000000,2920.000000
36,-568.000000,2920.000000
37,-560.000000,2920.000000
38,-568.000000,2920.000000
39,-560.000000,2920.000000
40,-568.000000,2920.000000
41,-568.000000,2920.000000
42,-568.000000,2920.000000
43,-568.000000,2920.000000
44,-568.000000,2880.000000
45,-560.000000,2920.000000
46,-568.000000,2920.000000
47,-568.000000,2880.000000
48,-568.000000,2920.000000
49,-568.000000,2880.000000
50,-560.000000,2920.000000
51,-568.000000,2920.000000
52,-560.000000,2920.000000
53,-568.000000,2920.000000
54,-568.000000,2920.000000
55,-568.000000,2920.000000
56,-568.000000,2920.000000
57,-568.000000,2920.000000
58,-568.000000,2920.000000
59,-568.000000,2920.000000
60,-560.000000,2920.000000
61,-560.000000,2920.000000
62,-560.000000,2880.000000
63,-568.000000,2920.000000
64,-568.000000,2880.000000
65,-568.000000,2920.000000
66,-568.000000,2920.000000
67,-568.000000,2920.000000
68,-560.000000,2920.000000
69,-560.000000,2880.000000
70,-560.000000,2920.000000
71,-560.000000,2880.000000
72,-552.000000,2920.000000
73,-544.000000,2920.000000
74,-536.000000,2920.000000
75,-536.000000,2920.000000
76,-536.000000,2920.000000
77,-536.000000,2920.000000
78,-536.000000,2880.000000
79,-536.000000,2920.000000
80,-528.000000,2920.000000
81,-536.000000,2920.000000
82,-536.000000,2880.000000
83,-536.000000,2880.000000
84,-536.000000,2880.000000
85,-536.000000,2920.000000
86,-528.000000,2920.000000
87,-528.000000,2920.000000
88,-536.000000,2920.000000
89,-536.000000,2880.000000
90,-536.000000,2880.000000
91,-528.000000,2920.000000
92,-536.000000,2920.000000
93,-528.000000,2920.000000
94,-528.000000,2920.000000
95,-528.000000,2880.000000
96,-528.000000,2880.000000
97,-528.000000,2920.000000
98,-528.000000,2920.000000
99,-528.000000,2880.000000
100,-520.000000,2920.000000
101,-512.000000,2920.000000
102,-488.000000,2880.000000
103,-472.000000,2920.000000
104,-448.000000,2920.000000
105,-440.000000,2920.000000
106,-424.000000,2920.000000
107,-408.000000,2920.000000
108,-400.000000,2920.000000
109,-384.000000,2880.000000
110,-376.000000,2920.000000
111,-368.000000,2880.000000
112,-360.000000,2880.000000
113,-352.000000,2920.000000
114,-344.000000,2920.000000
115,-336.000000,2920.000000
116,-336.000000,2920.000000
117,-328.000000,2920.000000
118,-320.000000,2920.000000
119,-320.000000,2880.000000
120,-312.000000,2880.000000
121,-312.000000,2920.000000
122,-304.000000,2920.000000
123,-304.000000,2920.000000
124,-304.000000,2920.000000
125,-304.000000,2920.000000
126,-296.000000,2920.000000
127,-296.000000,2920.000000
128,-288.000000,2920.000000
129,-288.000000,2880.000000
130,-288.000000,2920.000000
131,-296.000000,2920.000000
132,-280.000000,2920.000000
133,-280.000000,2920.000000
134,-280.000000,2920.000000
135,-280.000000,2920.000000
136,-272.000000,2920.000000
137,-272.000000,2920.000000
138,-272.000000,2920.000000
139,-272.000000,2920.000000
140,-272.000000,2880.000000
141,-272.000000,2920.000000
142,-272.000000,2920.000000
143,-272.000000,2920.000000
144,-272.000000,2920.000000
145,-272.000000,2920.000000
146,-272.000000,2920.000000
147,-272.000000,2920.000000
148,-272.000000,2920.000000
149,-272.000000,2920.000000
150,-272.000000,2920.000000
151,-272.000000,2920.000000
152,-264.000000,2920.000000
153,-272.000000,2920.000000
154,-264.000000,2920.000000
155,-264.000000,2920.000000
156,-264.000000,2880.000000
157,-272.000000,2920.000000
158,-264.000000,2920.000000
159,-272.000000,2920.000000
160,-264.000000,2920.000000
161,-264.000000,2880.000000
162,-256.000000,2880.000000
163,-248.000000,2920.000000
164,-240.000000,2920.000000
165,-224.000000,2920.000000
166,-224.000000,2920.000000
167,-216.000000,2920.000000
168,-200.000000,2920.000000
169,-200.000000,2920.000000
170,-200.000000,2920.000000
171,-192.000000,2920.000000
172,-192.000000,2920.000000
173,-184.000000,2920.000000
174,-176.000000,2880.000000
175,-176.000000,2920.000000
176,-168.000000,2920.000000
177,-160.000000,2920.000000
178,-168.000000,2920.000000
179,-160.000000,2920.000000
180,-160.000000,2960.000000
181,-152.000000,2880.000000
182,-160.000000,2920.000000
183,-144.000000,2920.000000
184,-152.000000,2920.000000
185,-144.000000,2920.000000
186,-144.000000,2880.000000
187,-144.000000,2920.000000
188,-144.000000,2920.000000
189,-144.000000,2920.000000
190,-144.000000,2880.000000
191,-144.000000,2920.000000
192,-144.000000,2880.000000
193,-136.000000,2920.000000
194,-136.000000,2920.000000
195,-136.000000,2920.000000
196,-136.000000,2880.000000
197,-136.000000,2920.000000
198,-128.000000,2920.000000
199,-128.000000,2920.000000
200,-136.000000,2920.000000
201,-128.000000,2920.000000
202,-128.000000,2880.000000
203,-128.000000,2920.000000
204,-128.000000,2920.000000
205,-128.000000,2920.000000
206,-128.000000,2920.000000
207,-128.000000,2880.000000
208,-128.000000,2920.000000
209,-136.000000,2920.000000
210,-128.000000,2880.000000
211,-128.000000,2920.000000
212,-128.000000,2880.000000
213,-128.000000,2920.000000
214,-128.000000,2920.000000
215,-128.000000,2920.000000
216,-128.000000,2920.000000
217,-128.000000,2920.000000
218,-128.000000,2920.000000
219,-128.000000,2920.000000
220,-128.000000,2880.000000
221,-128.000000,2920.000000
222,-128.000000,2920.000000
223,-128.000000,2920.000000
224,-128.000000,2920.000000
225,-128.000000,2920.000000
226,-120.000000,2920.000000
227,-136.000000,2920.000000
228,-120.000000,2920.000000
229,-128.000000,2920.000000
230,-128.000000,2920.000000
231,-128.000000,2920.000000
232,-128.000000,2920.000000
233,-128.000000,2920.000000
234,-128.000000,2920.000000
235,-128.000000,2880.000000
236,-120.000000,2880.000000
237,-120.000000,2880.000000
238,-120.000000,2920.000000
239,-128.000000,2880.000000
240,-120.000000,2880.000000
241,-128.000000,2920.000000
242,-128.000000,2920.000000
243,-128.000000,2920.000000
244,-128.000000,2920.000000
245,-120.000000,2880.000000
246,-120.000000,2920.000000
247,-120.000000,2880.000000
248,-120.000000,2920.000000
249,-120.000000,2920.000000
250,-120.000000,2920.000000
251,-104.000000,2880.000000
252,-112.000000,2920.000000
253,-112.000000,2920.000000
254,-112.000000,2920.000000
255,-112.000000,2920.000000
256,-112.000000,2880.000000
257,-112.000000,2920.000000
258,-112.000000,2920.000000
259,-112.000000,2920.000000
260,-112.000000,2920.000000
261,-104.000000,2880.000000
262,-104.000000,2920.000000
263,-112.000000,2880.000000
264,-104.000000,2880.000000
265,-104.000000,2920.000000
266,-104.000000,2880.000000
267,-112.000000,2920.000000
268,-104.000000,2920.000000
269,-112.000000,2920.000000
270,-104.000000,2920.000000
271,-112.000000,2920.000000
272,-104.000000,2920.000000
273,-104.000000,2920.000000
274,-104.000000,2880.000000
275,-112.000000,2880.000000
276,-104.000000,2920.000000
277,-96.000000,2920.000000
278,-104.000000,2880.000000
279,-104.000000,2920.000000
280,-112.000000,2920.000000
281,-112.000000,2920.000000
282,-104.000000,2920.000000
283,-104.000000,2920.000000
284,-112.000000,2880.000000
285,-104.000000,2920.000000
286,-104.000000,2920.000000
287,-104.000000,2880.000000
288,-112.000000,2920.000000
289,-104.000000,2920.000000
290,-104.000000,2920.000000
291,-112.000000,2920.000000
292,-104.000000,2920.000000
293,-104.000000,2920.000000
294,-104.000000,2920.000000
295,-104.000000,2920.000000
296,-104.000000,2880.000000
297,-104.000000,2880.000000
298,-104.000000,2920.000000
299,-112.000000,2920.000000
300,-104.000000,2920.000000
301,-104.000000,2920.000000
302,-112.000000,2920.000000
303,-112.000000,2920.000000
304,-104.000000,2880.000000
305,-104.000000,2920.000000
306,-104.000000,2880.000000
307,-104.000000,2920.000000
308,-104.000000,2920.000000
309,-104.000000,2920.000000
310,-104.000000,2880.000000
311,-104.000000,2920.000000
312,-104.000000,2920.000000
313,-104.000000,2920.000000
314,-104.000000,2880.000000
315,-112.000000,2920.000000
316,-104.000000,2920.000000
317,-104.000000,2920.000000
318,-104.000000,2920.000000
319,-104.000000,2920.000000
320,-104.000000,2880.000000
321,-104.000000,2880.000000
322,-104.000000,2920.000000
323,-104.000000,2920.000000
324,-112.000000,2920.000000
325,-104.000000,2920.000000
326,-104.000000,2920.000000
327,-104.000000,2920.000000
328,-104.000000,2920.000000
329,-96.000000,2920.000000
330,-104.000000,2880.000000
331,-128.000000,2920.000000
332,-104.000000,2880.000000
333,-112.000000,2880.000000
334,-104.000000,2920.000000
335,-104.000000,2920.000000
336,-104.000000,2920.000000
337,-104.000000,2920.000000
338,-104.000000,2920.000000
339,-104.000000,2880.000000
340,-104.000000,2880.000000
341,-104.000000,2920.000000
342,-104.000000,2920.000000
343,-104.000000,2920.000000
344,-104.000000,2880.000000
345,-104.000000,2920.000000
346,-104.000000,2920.000000
347,-104.000000,2920.000000
348,-104.000000,2920.000000
349,-104.000000,2920.000000
350,-112.000000,2920.000000
351,-104.000000,2920.000000
352,-104.000000,2880.000000
353,-104.000000,2920.000000
354,-104.000000,2920.000000
355,-104.000000,2920.000000
356,-104.000000,2920.000000
357,-104.000000,2880.000000
358,-104.000000,2920.000000
359,-104.000000,2920.000000
360,-104.000000,2920.000000
361,-104.000000,2920.000000
362,-104.000000,2920.000000
363,-104.000000,2920.000000
364,-104.000000,2920.000000
365,-104.000000,2920.000000
366,-104.000000,2920.000000
367,-104.000000,2920.000000
368,-104.000000,2920.000000
369,-104.000000,2920.000000
370,-104.000000,2920.000000
371,-104.000000,2920.000000
372,-104.000000,2920.000000
373,-112.000000,2920.000000
374,-112.000000,2920.000000
375,-112.000000,2920.000000
376,-112.000000,2920.000000
377,-112.000000,2920.000000
378,-120.000000,2920.000000
379,-112.000000,2920.000000
380,-112.000000,2920.000000
381,-112.000000,2920.000000
382,-120.000000,2920.000000
383,-112.000000,2920.000000
384,-120.000000,2920.000000
385,-120.000000,2920.000000
386,-120.000000,2880.000000
387,-120.000000,2920.000000
388,-120.000000,2920.000000
389,-120.000000,2880.000000
390,-120.000000,2880.000000
391,-128.000000,2920.000000
392,-128.000000,2920.000000
393,-128.000000,2920.000000
394,-120.000000,2920.000000
395,-128.000000,2880.000000
396,-120.000000,2920.000000
397,-120.000000,2920.000000
398,-120.000000,2920.000000
399,-120.000000,2920.000000
400,-120.000000,2920.000000
401,-120.000000,2920.000000
402,-120.000000,2920.000000
403,-120.000000,2920.000000
404,-120.000000,2920.000000
405,-112.000000,2920.000000
406,-112.000000,2920.000000
407,-112.000000,2920.000000
408,-112.000000,2880.000000
409,-112.000000,2920.000000
410,-112.000000,2920.000000
411,-112.000000,2880.000000
412,-112.000000,2880.000000
413,-112.000000,2920.000000
414,-112.000000,2920.000000
415,-112.000000,2920.000000
416,-112.000000,2920.000000
417,-112.000000,2920.000000
418,-112.000000,2920.000000
419,-112.000000,2920.000000
420,-104.000000,2920.000000
421,-104.000000,2920.000000
422,-112.000000,2920.000000
423,-112.000000,2920.000000
424,-112.000000,2920.000000
425,-112.000000,2920.000000
426,-112.000000,2920.000000
427,-104.000000,2920.000000
428,-104.000000,2920.000000
429,-112.000000,2920.000000
430,-104.000000,2920.000000
431,-104.000000,2880.000000
432,-104.000000,2920.000000
433,-104.000000,2920.000000
434,-104.000000,2920.000000
435,-104.000000,2920.000000
436,-104.000000,2920.000000
437,-104.000000,2920.000000
438,-104.000000,2920.000000
439,-112.000000,2880.000000
440,-112.000000,2880.000000
441,-112.000000,2920.000000
442,-112.000000,2920.000000
443,-112.000000,2920.000000
444,-104.000000,2920.000000
445,-112.000000,2920.000000
446,-104.000000,2920.000000
447,-104.000000,2880.000000
448,-104.000000,2920.000000
449,-104.000000,2920.000000
450,-112.000000,2920.000000
451,-112.000000,2920.000000
452,-112.000000,2920.000000
453,-112.000000,2920.000000
454,-112.000000,2880.000000
455,-112.000000,2920.000000
456,-112.000000,2920.000000
457,-112.000000,2880.000000
458,-112.000000,2920.000000
459,-112.000000,2920.000000
460,-120.000000,2920.000000
461,-112.000000,2920.000000
462,-112.000000,2920.000000
463,-112.000000,2920.000000
464,-112.000000,2880.000000
465,-112.000000,2920.000000
466,-112.000000,2880.000000
467,-112.000000,2920.000000
468,-104.000000,2880.000000
469,-104.000000,2920.000000
470,-104.000000,2920.000000
471,-112.000000,2920.000000
472,-104.000000,2920.000000
473,-104.000000,2920.000000
474,-112.000000,2920.000000
475,-104.000000,2920.000000
476,-104.000000,2920.000000
477,-112.000000,2920.000000
478,-112.000000,2920.000000
479,-104.000000,2920.000000
480,-112.000000,2880.000000
481,-104.000000,2920.000000
482,-104.000000,2920.000000
483,-104.000000,2920.000000
484,-104.000000,2920.000000
485,-104.000000,2920.000000
486,-104.000000,2920.000000
487,-104.000000,2920.000000
488,-104.000000,2920.000000
489,-104.000000,2880.000000
490,-104.000000,2880.000000
491,-104.000000,2920.000000
492,-112.000000,2920.000000
493,-112.000000,2920.000000
494,-112.000000,2920.000000
495,-112.000000,2880.000000
496,-112.000000,2920.000000
497,-112.000000,2920.000000
498,-112.000000,2920.000000
499,-104.000000,2880.000000
500,-104.000000,2880.000000
501,-104.000000,2880.000000
502,-112.000000,2920.000000
503,-104.000000,2920.000000
504,-104.000000,2880.000000
505,-104.000000,2920.000000
506,-104.000000,2880.000000
507,-104.000000,2880.000000
508,-104.000000,2880.000000
509,-104.000000,2880.000000
510,-112.000000,2880.000000
511,-104.000000,2920.000000
512,-104.000000,2920.000000
513,-104.000000,2920.000000
514,-104.000000,2920.000000
515,-112.000000,2920.000000
516,-104.000000,2920.000000
517,-104.000000,2880.000000
518,-104.000000,2920.000000
519,-104.000000,2880.000000
520,-104.000000,2920.000000
521,-104.000000,2920.000000
522,-104.000000,2920.000000
523,-104.000000,2880.000000
524,-104.000000,2920.000000
525,-112.000000,2920.000000
526,-104.000000,2920.000000
527,-104.000000,2920.000000
528,-112.000000,2920.000000
529,-112.000000,2920.000000
530,-120.000000,2920.000000
531,-112.000000,2920.000000
532,-120.000000,2920.000000
533,-120.000000,2920.000000
534,-120.000000,2920.000000
535,-120.000000,2920.000000
536,-112.000000,2880.000000
537,-120.000000,2920.000000
538,-120.000000,2920.000000
539,-120.000000,2920.000000
540,-120.000000,2920.000000
541,-128.000000,2920.000000
542,-120.000000,2920.000000
543,-128.000000,2920.000000
544,-128.000000,2920.000000
545,-128.000000,2920.000000
546,-128.000000,2920.000000
547,-120.000000,2920.000000
548,-128.000000,2920.000000
549,-128.000000,2880.000000
550,-128.000000,2920.000000
551,-120.000000,2920.000000
552,-120.000000,2920.000000
553,-128.000000,2880.000000
554,-120.000000,2920.000000
555,-120.000000,2880.000000
556,-120.000000,2920.000000
557,-112.000000,2920.000000
558,-120.000000,2920.000000
559,-120.000000,2880.000000
560,-112.000000,2880.000000
561,-112.000000,2880.000000
562,-112.000000,2920.000000
563,-112.000000,2920.000000
564,-112.000000,2880.000000
565,-112.000000,2920.000000
566,-112.000000,2920.000000
567,-112.000000,2920.000000
568,-104.000000,2920.000000
569,-112.000000,2920.000000
570,-112.000000,2920.000000
571,-104.000000,2920.000000
572,-112.000000,2920.000000
573,-112.000000,2920.000000
574,-112.000000,2920.000000
575,-112.000000,2920.000000
576,-104.000000,2920.000000
577,-112.000000,2920.000000
578,-112.000000,2920.000000
579,-104.000000,2920.000000
580,-112.000000,2920.000000
581,-112.000000,2920.000000
582,-112.000000,2920.000000
583,-112.000000,2880.000000
584,-112.000000,2920.000000
585,-112.000000,2920.000000
586,-112.000000,2920.000000
587,-104.000000,2920.000000
588,-104.000000,2920.000000
589,-104.000000,2920.000000
590,-112.000000,2920.000000
591,-112.000000,2920.000000
592,-104.000000,2920.000000
593,-104.000000,2920.000000
594,-104.000000,2920.000000
595,-112.000000,2920.000000
596,-112.000000,2920.000000
597,-104.000000,2920.000000
598,-104.000000,2880.000000
599,-112.000000,2920.000000
600,-104.000000,2880.000000
601,-104.000000,2920.000000
602,-112.000000,2920.000000
603,-104.000000,2920.000000
604,-104.000000,2920.000000
605,-112.000000,2920.000000
606,-112.000000,2920.000000
607,-112.000000,2920.000000
608,-112.000000,2920.000000
609,-112.000000,2920.000000
610,-112.000000,2920.000000
611,-112.000000,2920.000000
612,-112.000000,2920.000000
613,-112.000000,2920.000000
614,-112.000000,2920.000000
615,-112.000000,2920.000000
616,-112.000000,2880.000000
617,-104.000000,2920.000000
618,-104.000000,2960.000000
619,-112.000000,2880.000000
620,-104.000000,2920.000000
621,-104.000000,2920.000000
622,-104.000000,2920.000000
623,-104.000000,2920.000000
624,-112.000000,2920.000000
625,-104.000000,2920.000000
626,-104.000000,2920.000000
627,-104.000000,2920.000000
628,-104.000000,2920.000000
629,-112.000000,2920.000000
630,-112.000000,2920.000000
631,-112.000000,2920.000000
632,-104.000000,2920.000000
633,-112.000000,2920.000000
634,-112.000000,2920.000000
635,-104.000000,2920.000000
636,-104.000000,2920.000000
637,-112.000000,2880.000000
638,-104.000000,2920.000000
639,-104.000000,2880.000000
640,-104.000000,2920.000000
641,-112.000000,2920.000000
642,-112.000000,2920.000000
643,-112.000000,2920.000000
644,-104.000000,2920.000000
645,-104.000000,2920.000000
646,-104.000000,2920.000000
647,-112.000000,2920.000000
648,-104.000000,2920.000000
649,-112.000000,2920.000000
650,-104.000000,2920.000000
651,-104.000000,2920.000000
652,-104.000000,2920.000000
653,-104.000000,2920.000000
654,-104.000000,2920.000000
655,-112.000000,2880.000000
656,-96.000000,2920.000000
657,-104.000000,2920.000000
658,-104.000000,2880.000000
659,-112.000000,2920.000000
660,-104.000000,2920.000000
661,-104.000000,2920.000000
662,-104.000000,2920.000000
663,-104.000000,2920.000000
664,-104.000000,2920.000000
665,-112.000000,2880.000000
666,-104.000000,2880.000000
667,-104.000000,2920.000000
668,-104.000000,2880.000000
669,-104.000000,2920.000000
670,-112.000000,2880.000000
671,-104.000000,2920.000000
672,-112.000000,2920.000000
673,-104.000000,2920.000000
674,-104.000000,2880.000000
675,-104.000000,2920.000000
676,-112.000000,2920.000000
677,-104.000000,2920.000000
678,-104.000000,2920.000000
679,-104.000000,2920.000000
680,-104.000000,2920.000000
681,-104.000000,2920.000000
682,-112.000000,2920.000000
683,-112.000000,2920.000000
684,-112.000000,2920.000000
685,-112.000000,2920.000000
686,-112.000000,2920.000000
687,-120.000000,2920.000000
688,-120.000000,2920.000000
689,-120.000000,2920.000000
690,-120.000000,2920.000000
691,-120.000000,2920.000000
692,-128.000000,2920.000000
693,-120.000000,2920.000000
694,-120.000000,2920.000000
695,-120.000000,2960.000000
696,-120.000000,2920.000000
697,-120.000000,2920.000000
698,-128.000000,2920.000000
699,-120.000000,2920.000000
700,-120.000000,2920.000000
701,-128.000000,2920.000000
702,-128.000000,2920.000000
703,-128.000000,2920.000000
704,-128.000000,2920.000000
705,-120.000000,2920.000000
706,-128.000000,2920.000000
707,-128.000000,2920.000000
