repport_data/pow_reoptimization_4_telecom_2_db_step/data_54_013.csv

Channel              :,CH1,CH2
Frequency            :,  ?,  ?
Period               :,  ?,  ?
PK-PK                :,496.0mV,120.0mV
Probe attenuation    :,1X,1X
Voltage per ADC value:,0.500000mV,2.500000mV
Time interval        :,200.00000uS,200.00000uS

index,CH1_Voltage(mV),CH2_Voltage(mV)
1,-584.000000,2920.000000
2,-584.000000,2920.000000
3,-584.000000,2920.000000
4,-584.000000,2920.000000
5,-584.000000,2920.000000
6,-584.000000,2880.000000
7,-584.000000,2920.000000
8,-584.000000,2920.000000
9,-584.000000,2920.000000
10,-584.000000,2920.000000
11,-584.000000,2920.000000
12,-576.000000,2920.000000
13,-584.000000,2920.000000
14,-584.000000,2920.000000
15,-584.000000,2920.000000
16,-584.000000,2920.000000
17,-584.000000,2920.000000
18,-584.000000,2920.000000
19,-584.000000,2920.000000
20,-584.000000,2920.000000
21,-584.000000,2880.000000
22,-584.000000,2920.000000
23,-584.000000,2880.000000
24,-584.000000,2920.000000
25,-584.000000,2920.000000
26,-584.000000,2920.000000
27,-584.000000,2920.000000
28,-584.000000,2920.000000
29,-584.000000,2920.000000
30,-584.000000,2920.000000
31,-576.000000,2920.000000
32,-592.000000,2920.000000
33,-584.000000,2920.000000
34,-576.000000,2920.000000
35,-584.000000,2920.000000
36,-584.000000,2920.000000
37,-584.000000,2920.000000
38,-584.000000,2920.000000
39,-584.000000,2920.000000
40,-584.000000,2920.000000
41,-584.000000,2920.000000
42,-584.000000,2920.000000
43,-584.000000,2920.000000
44,-584.000000,2920.000000
45,-576.000000,2880.000000
46,-584.000000,2920.000000
47,-576.000000,2920.000000
48,-584.000000,2920.000000
49,-584.000000,2920.000000
50,-584.000000,2920.000000
51,-584.000000,2920.000000
52,-576.000000,2920.000000
53,-576.000000,2920.000000
54,-584.000000,2920.000000
55,-584.000000,2920.000000
56,-576.000000,2920.000000
57,-584.000000,2920.000000
58,-584.000000,2920.000000
59,-584.000000,2920.000000
60,-584.000000,2920.000000
61,-584.000000,2920.000000
62,-584.000000,2920.000000
63,-584.000000,2880.000000
64,-576.000000,2880.000000
65,-584.000000,2920.000000
66,-584.000000,2920.000000
67,-584.000000,2920.000000
68,-576.000000,2920.000000
69,-584.000000,2920.000000
70,-584.000000,2920.000000
71,-584.000000,2920.000000
72,-584.000000,2920.000000
73,-576.000000,2920.000000
74,-584.000000,2920.000000
75,-584.000000,2920.000000
76,-584.000000,2920.000000
77,-584.000000,2920.000000
78,-584.000000,2920.000000
79,-584.000000,2920.000000
80,-584.000000,2920.000000
81,-584.000000,2920.000000
82,-576.000000,2920.000000
83,-584.000000,2920.000000
84,-592.000000,2920.000000
85,-584.000000,2920.000000
86,-584.000000,2920.000000
87,-576.000000,2960.000000
88,-584.000000,2920.000000
89,-584.000000,2920.000000
90,-584.000000,2920.000000
91,-584.000000,2920.000000
92,-584.000000,2920.000000
93,-584.000000,2920.000000
94,-584.000000,2920.000000
95,-584.000000,2920.000000
96,-584.000000,2920.000000
97,-584.000000,2920.000000
98,-584.000000,2920.000000
99,-584.000000,2920.000000
100,-584.000000,2920.000000
101,-584.000000,2920.000000
102,-584.000000,2920.000000
103,-584.000000,2920.000000
104,-584.000000,2920.000000
105,-584.000000,2920.000000
106,-584.000000,2920.000000
107,-584.000000,2920.000000
108,-584.000000,2920.000000
109,-584.000000,2920.000000
110,-584.000000,2920.000000
111,-584.000000,2920.000000
112,-584.000000,2920.000000
113,-584.000000,2920.000000
114,-584.000000,2920.000000
115,-584.000000,2920.000000
116,-584.000000,2920.000000
117,-584.000000,2920.000000
118,-584.000000,2920.000000
119,-576.000000,2880.000000
120,-584.000000,2920.000000
121,-584.000000,2920.000000
122,-584.000000,2920.000000
123,-584.000000,2920.000000
124,-576.000000,2920.000000
125,-584.000000,2920.000000
126,-584.000000,2920.000000
127,-584.000000,2920.000000
128,-584.000000,2920.000000
129,-584.000000,2920.000000
130,-584.000000,2920.000000
131,-584.000000,2920.000000
132,-584.000000,2920.000000
133,-584.000000,2920.000000
134,-584.000000,2920.000000
135,-584.000000,2920.000000
136,-584.000000,2920.000000
137,-584.000000,2920.000000
138,-576.000000,2920.000000
139,-584.000000,2920.000000
140,-584.000000,2920.000000
141,-584.000000,2920.000000
142,-584.000000,2880.000000
143,-584.000000,2920.000000
144,-584.000000,2920.000000
145,-584.000000,2920.000000
146,-584.000000,2920.000000
147,-584.000000,2920.000000
148,-584.000000,2880.000000
149,-592.000000,2920.000000
150,-576.000000,2920.000000
151,-576.000000,2920.000000
152,-584.000000,2920.000000
153,-584.000000,2920.000000
154,-584.000000,2920.000000
155,-584.000000,2920.000000
156,-584.000000,2920.000000
157,-584.000000,2880.000000
158,-584.000000,2920.000000
159,-584.000000,2920.000000
160,-584.000000,2920.000000
161,-584.000000,2920.000000
162,-584.000000,2920.000000
163,-584.000000,2920.000000
164,-584.000000,2920.000000
165,-584.000000,2920.000000
166,-584.000000,2920.000000
167,-584.000000,2920.000000
168,-584.000000,2920.000000
169,-584.000000,2920.000000
170,-584.000000,2920.000000
171,-584.000000,2920.000000
172,-584.000000,2920.000000
173,-584.000000,2920.000000
174,-584.000000,2920.000000
175,-584.000000,2920.000000
176,-584.000000,2920.000000
177,-584.000000,2920.000000
178,-584.000000,2920.000000
179,-584.000000,2920.000000
180,-584.000000,2920.000000
181,-584.000000,2920.000000
182,-584.000000,2920.000000
183,-584.000000,2920.000000
184,-576.000000,2920.000000
185,-584.000000,2920.000000
186,-576.000000,2920.000000
187,-576.000000,2920.000000
188,-568.000000,2920.000000
189,-576.000000,2920.000000
190,-576.000000,2920.000000
191,-576.000000,2920.000000
192,-576.000000,2920.000000
193,-568.000000,2920.000000
194,-568.000000,2920.000000
195,-568.000000,2920.000000
196,-568.000000,2920.000000
197,-568.000000,2920.000000
198,-568.000000,2920.000000
199,-568.000000,2920.000000
200,-568.000000,2920.000000
201,-568.000000,2920.000000
202,-568.000000,2920.000000
203,-568.000000,2920.000000
204,-568.000000,2920.000000
205,-568.000000,2920.000000
206,-560.000000,2880.000000
207,-560.000000,2920.000000
208,-568.000000,2920.000000
209,-560.000000,2920.000000
210,-560.000000,2920.000000
211,-560.000000,2920.000000
212,-560.000000,2920.000000
213,-568.000000,2920.000000
214,-560.000000,2920.000000
215,-560.000000,2920.000000
216,-560.000000,2920.000000
217,-560.000000,2920.000000
218,-560.000000,2920.000000
219,-568.000000,2920.000000
220,-560.000000,2920.000000
221,-560.000000,2920.000000
222,-560.000000,2920.000000
223,-568.000000,2920.000000
224,-560.000000,2920.000000
225,-560.000000,2920.000000
226,-560.000000,2920.000000
227,-568.000000,2920.000000
228,-560.000000,2920.000000
229,-560.000000,2880.000000
230,-560.000000,2920.000000
231,-560.000000,2920.000000
232,-568.000000,2920.000000
233,-560.000000,2920.000000
234,-560.000000,2920.000000
235,-560.000000,2920.000000
236,-560.000000,2920.000000
237,-560.000000,2920.000000
238,-560.000000,2920.000000
239,-568.000000,2920.000000
240,-568.000000,2920.000000
241,-568.000000,2920.000000
242,-560.000000,2920.000000
243,-560.000000,2920.000000
244,-560.000000,2920.000000
245,-560.000000,2920.000000
246,-568.000000,2880.000000
247,-560.000000,2920.000000
248,-560.000000,2920.000000
249,-560.000000,2880.000000
250,-576.000000,2920.000000
251,-544.000000,2920.000000
252,-560.000000,2920.000000
253,-560.000000,2880.000000
254,-560.000000,2920.000000
255,-568.000000,2920.000000
256,-560.000000,2880.000000
257,-560.000000,2920.000000
258,-560.000000,2920.000000
259,-560.000000,2920.000000
260,-560.000000,2880.000000
261,-568.000000,2920.000000
262,-560.000000,2920.000000
263,-560.000000,2920.000000
264,-560.000000,2920.000000
265,-560.000000,2920.000000
266,-560.000000,2920.000000
267,-560.000000,2920.000000
268,-560.000000,2920.000000
269,-568.000000,2920.000000
270,-560.000000,2920.000000
271,-560.000000,2920.000000
272,-560.000000,2880.000000
273,-560.000000,2920.000000
274,-560.000000,2920.000000
275,-560.000000,2920.000000
276,-560.000000,2920.000000
277,-560.000000,2920.000000
278,-560.000000,2880.000000
279,-560.000000,2920.000000
280,-560.000000,2920.000000
281,-560.000000,2920.000000
282,-568.000000,2880.000000
283,-560.000000,2920.000000
284,-560.000000,2920.000000
285,-560.000000,2920.000000
286,-560.000000,2920.000000
287,-560.000000,2920.000000
288,-560.000000,2920.000000
289,-560.000000,2920.000000
290,-560.000000,2880.000000
291,-560.000000,2920.000000
292,-560.000000,2960.000000
293,-568.000000,2920.000000
294,-560.000000,2920.000000
295,-568.000000,2920.000000
296,-560.000000,2920.000000
297,-560.000000,2920.000000
298,-560.000000,2920.000000
299,-560.000000,2920.000000
300,-560.000000,2920.000000
301,-568.000000,2920.000000
302,-560.000000,2920.000000
303,-560.000000,2920.000000
304,-560.000000,2920.000000
305,-560.000000,2920.000000
306,-560.000000,2920.000000
307,-560.000000,2920.000000
308,-560.000000,2880.000000
309,-560.000000,2920.000000
310,-560.000000,2920.000000
311,-560.000000,2920.000000
312,-560.000000,2920.000000
313,-560.000000,2920.000000
314,-568.000000,2880.000000
315,-560.000000,2920.000000
316,-560.000000,2920.000000
317,-560.000000,2920.000000
318,-560.000000,2920.000000
319,-568.000000,2920.000000
320,-560.000000,2920.000000
321,-560.000000,2880.000000
322,-568.000000,2920.000000
323,-560.000000,2920.000000
324,-560.000000,2920.000000
325,-560.000000,2920.000000
326,-568.000000,2920.000000
327,-568.000000,2920.000000
328,-560.000000,2920.000000
329,-560.000000,2920.000000
330,-560.000000,2920.000000
331,-560.000000,2920.000000
332,-568.000000,2920.000000
333,-560.000000,2920.000000
334,-560.000000,2920.000000
335,-568.000000,2880.000000
336,-560.000000,2920.000000
337,-560.000000,2920.000000
338,-560.000000,2920.000000
339,-560.000000,2920.000000
340,-560.000000,2880.000000
341,-560.000000,2920.000000
342,-560.000000,2920.000000
343,-560.000000,2920.000000
344,-560.000000,2920.000000
345,-560.000000,2920.000000
346,-560.000000,2920.000000
347,-560.000000,2920.000000
348,-560.000000,2920.000000
349,-560.000000,2920.000000
350,-560.000000,2920.000000
351,-560.000000,2880.000000
352,-560.000000,2880.000000
353,-560.000000,2920.000000
354,-560.000000,2920.000000
355,-560.000000,2920.000000
356,-560.000000,2920.000000
357,-560.000000,2920.000000
358,-560.000000,2920.000000
359,-560.000000,2920.000000
360,-560.000000,2920.000000
361,-560.000000,2920.000000
362,-560.000000,2920.000000
363,-560.000000,2880.000000
364,-560.000000,2920.000000
365,-560.000000,2920.000000
366,-560.000000,2920.000000
367,-560.000000,2920.000000
368,-560.000000,2920.000000
369,-560.000000,2920.000000
370,-560.000000,2920.000000
371,-560.000000,2920.000000
372,-560.000000,2920.000000
373,-560.000000,2920.000000
374,-560.000000,2920.000000
375,-560.000000,2920.000000
376,-560.000000,2920.000000
377,-560.000000,2920.000000
378,-560.000000,2920.000000
379,-560.000000,2920.000000
380,-560.000000,2920.000000
381,-560.000000,2880.000000
382,-552.000000,2920.000000
383,-560.000000,2920.000000
384,-560.000000,2920.000000
385,-560.000000,2920.000000
386,-560.000000,2880.000000
387,-560.000000,2920.000000
388,-560.000000,2920.000000
389,-560.000000,2920.000000
390,-560.000000,2920.000000
391,-560.000000,2960.000000
392,-560.000000,2920.000000
393,-560.000000,2920.000000
394,-560.000000,2920.000000
395,-560.000000,2920.000000
396,-560.000000,2920.000000
397,-560.000000,2920.000000
398,-560.000000,2920.000000
399,-560.000000,2920.000000
400,-560.000000,2920.000000
401,-560.000000,2920.000000
402,-560.000000,2920.000000
403,-560.000000,2920.000000
404,-560.000000,2920.000000
405,-560.000000,2920.000000
406,-560.000000,2920.000000
407,-560.000000,2920.000000
408,-568.000000,2920.000000
409,-560.000000,2920.000000
410,-560.000000,2920.000000
411,-560.000000,2920.000000
412,-560.000000,2880.000000
413,-560.000000,2920.000000
414,-560.000000,2920.000000
415,-560.000000,2960.000000
416,-560.000000,2920.000000
417,-560.000000,2920.000000
418,-560.000000,2920.000000
419,-560.000000,2920.000000
420,-560.000000,2920.000000
421,-560.000000,2920.000000
422,-560.000000,2920.000000
423,-560.000000,2920.000000
424,-560.000000,2920.000000
425,-560.000000,2920.000000
426,-560.000000,2920.000000
427,-560.000000,2920.000000
428,-560.000000,2920.000000
429,-560.000000,2920.000000
430,-560.000000,2960.000000
431,-560.000000,2920.000000
432,-560.000000,2920.000000
433,-560.000000,2920.000000
434,-560.000000,2920.000000
435,-560.000000,2920.000000
436,-560.000000,2920.000000
437,-560.000000,2920.000000
438,-560.000000,2920.000000
439,-560.000000,2920.000000
440,-560.000000,2920.000000
441,-560.000000,2920.000000
442,-560.000000,2920.000000
443,-560.000000,2920.000000
444,-560.000000,2920.000000
445,-560.000000,2920.000000
446,-560.000000,2880.000000
447,-560.000000,2920.000000
448,-560.000000,2920.000000
449,-568.000000,2920.000000
450,-560.000000,2920.000000
451,-536.000000,2920.000000
452,-576.000000,2920.000000
453,-560.000000,2920.000000
454,-568.000000,2920.000000
455,-560.000000,2920.000000
456,-568.000000,2920.000000
457,-568.000000,2920.000000
458,-568.000000,2920.000000
459,-568.000000,2920.000000
460,-568.000000,2920.000000
461,-568.000000,2920.000000
462,-568.000000,2920.000000
463,-568.000000,2920.000000
464,-568.000000,2920.000000
465,-568.000000,2920.000000
466,-568.000000,2920.000000
467,-568.000000,2880.000000
468,-568.000000,2920.000000
469,-568.000000,2920.000000
470,-560.000000,2920.000000
471,-568.000000,2920.000000
472,-568.000000,2920.000000
473,-568.000000,2920.000000
474,-568.000000,2920.000000
475,-560.000000,2920.000000
476,-568.000000,2880.000000
477,-568.000000,2880.000000
478,-568.000000,2920.000000
479,-568.000000,2920.000000
480,-568.000000,2920.000000
481,-568.000000,2920.000000
482,-568.000000,2920.000000
483,-568.000000,2920.000000
484,-560.000000,2920.000000
485,-560.000000,2920.000000
486,-568.000000,2920.000000
487,-560.000000,2920.000000
488,-560.000000,2920.000000
489,-568.000000,2920.000000
490,-568.000000,2920.000000
491,-560.000000,2920.000000
492,-568.000000,2920.000000
493,-568.000000,2920.000000
494,-568.000000,2880.000000
495,-568.000000,2920.000000
496,-568.000000,2920.000000
497,-568.000000,2920.000000
498,-568.000000,2880.000000
499,-568.000000,2920.000000
500,-568.000000,2920.000000
501,-568.000000,2920.000000
502,-568.000000,2920.000000
503,-576.000000,2920.000000
504,-560.000000,2920.000000
505,-568.000000,2920.000000
506,-568.000000,2920.000000
507,-568.000000,2920.000000
508,-576.000000,2920.000000
509,-568.000000,2920.000000
510,-568.000000,2920.000000
511,-576.000000,2920.000000
512,-568.000000,2920.000000
513,-560.000000,2920.000000
514,-568.000000,2920.000000
515,-568.000000,2920.000000
516,-568.000000,2920.000000
517,-568.000000,2920.000000
518,-568.000000,2920.000000
519,-568.000000,2920.000000
520,-568.000000,2880.000000
521,-568.000000,2920.000000
522,-568.000000,2920.000000
523,-560.000000,2920.000000
524,-568.000000,2920.000000
525,-568.000000,2920.000000
526,-568.000000,2920.000000
527,-568.000000,2920.000000
528,-568.000000,2920.000000
529,-568.000000,2920.000000
530,-568.000000,2920.000000
531,-568.000000,2920.000000
532,-568.000000,2880.000000
533,-568.000000,2880.000000
534,-568.000000,2920.000000
535,-568.000000,2920.000000
536,-568.000000,2920.000000
537,-568.000000,2880.000000
538,-568.000000,2920.000000
539,-568.000000,2920.000000
540,-568.000000,2880.000000
541,-568.000000,2920.000000
542,-568.000000,2920.000000
543,-568.000000,2920.000000
544,-568.000000,2920.000000
545,-568.000000,2880.000000
546,-568.000000,2920.000000
547,-568.000000,2920.000000
548,-568.000000,2880.000000
549,-568.000000,2920.000000
550,-568.000000,2920.000000
551,-568.000000,2920.000000
552,-568.000000,2920.000000
553,-568.000000,2920.000000
554,-568.000000,2920.000000
555,-568.000000,2920.000000
556,-568.000000,2920.000000
557,-568.000000,2920.000000
558,-560.000000,2920.000000
559,-568.000000,2920.000000
560,-568.000000,2920.000000
561,-568.000000,2920.000000
562,-568.000000,2920.000000
563,-568.000000,2920.000000
564,-560.000000,2920.000000
565,-568.000000,2920.000000
566,-568.000000,2920.000000
567,-568.000000,2920.000000
568,-568.000000,2880.000000
569,-568.000000,2920.000000
570,-568.000000,2920.000000
571,-568.000000,2920.000000
572,-568.000000,2920.000000
573,-568.000000,2920.000000
574,-560.000000,2920.000000
575,-568.000000,2920.000000
576,-568.000000,2920.000000
577,-568.000000,2880.000000
578,-568.000000,2920.000000
579,-568.000000,2920.000000
580,-568.000000,2880.000000
581,-560.000000,2880.000000
582,-568.000000,2920.000000
583,-568.000000,2920.000000
584,-568.000000,2920.000000
585,-568.000000,2920.000000
586,-560.000000,2920.000000
587,-560.000000,2920.000000
588,-560.000000,2880.000000
589,-568.000000,2920.000000
590,-568.000000,2920.000000
591,-568.000000,2920.000000
592,-568.000000,2920.000000
593,-560.000000,2920.000000
594,-568.000000,2920.000000
595,-568.000000,2920.000000
596,-560.000000,2920.000000
597,-560.000000,2920.000000
598,-568.000000,2920.000000
599,-568.000000,2920.000000
600,-568.000000,2920.000000
601,-568.000000,2920.000000
602,-568.000000,2920.000000
603,-568.000000,2920.000000
604,-560.000000,2920.000000
605,-568.000000,2920.000000
606,-568.000000,2920.000000
607,-560.000000,2960.000000
608,-560.000000,2880.000000
609,-560.000000,2880.000000
610,-560.000000,2920.000000
611,-568.000000,2920.000000
612,-568.000000,2920.000000
613,-560.000000,2920.000000
614,-560.000000,2880.000000
615,-568.000000,2920.000000
616,-568.000000,2920.000000
617,-560.000000,2920.000000
618,-560.000000,2920.000000
619,-568.000000,2920.000000
620,-568.000000,2920.000000
621,-568.000000,2920.000000
622,-568.000000,2920.000000
623,-560.000000,2920.000000
624,-560.000000,2880.000000
625,-568.000000,2920.000000
626,-560.000000,2920.000000
627,-568.000000,2920.000000
628,-560.000000,2880.000000
629,-568.000000,2920.000000
630,-576.000000,2920.000000
631,-560.000000,2920.000000
632,-560.000000,2920.000000
633,-568.000000,2920.000000
634,-560.000000,2920.000000
635,-560.000000,2920.000000
636,-560.000000,2920.000000
637,-568.000000,2920.000000
638,-568.000000,2920.000000
639,-568.000000,2920.000000
640,-568.000000,2920.000000
641,-568.000000,2920.000000
642,-568.000000,2920.000000
643,-568.000000,2920.000000
644,-568.000000,2920.000000
645,-568.000000,2920.000000
646,-560.000000,2920.000000
647,-560.000000,2920.000000
648,-560.000000,2920.000000
649,-584.000000,2920.000000
650,-552.000000,2920.000000
651,-560.000000,2920.000000
652,-568.000000,2920.000000
653,-568.000000,2920.000000
654,-568.000000,2920.000000
655,-568.000000,2880.000000
656,-568.000000,2920.000000
657,-568.000000,2920.000000
658,-568.000000,2920.000000
659,-560.000000,2920.000000
660,-568.000000,2920.000000
661,-568.000000,2920.000000
662,-560.000000,2920.000000
663,-560.000000,2920.000000
664,-568.000000,2920.000000
665,-568.000000,2920.000000
666,-568.000000,2920.000000
667,-568.000000,2920.000000
668,-568.000000,2920.000000
669,-560.000000,2920.000000
670,-568.000000,2920.000000
671,-560.000000,2920.000000
672,-568.000000,2880.000000
673,-560.000000,2920.000000
674,-568.000000,2920.000000
675,-560.000000,2920.000000
676,-568.000000,2920.000000
677,-560.000000,2920.000000
678,-568.000000,2920.000000
679,-568.000000,2920.000000
680,-560.000000,2920.000000
681,-568.000000,2920.000000
682,-568.000000,2920.000000
683,-568.000000,2920.000000
684,-560.000000,2920.000000
685,-568.000000,2920.000000
686,-568.000000,2920.000000
687,-568.000000,2880.000000
688,-560.000000,2920.000000
689,-568.000000,2920.000000
690,-568.000000,2920.000000
691,-568.000000,2920.000000
692,-560.000000,2920.000000
693,-560.000000,2920.000000
694,-568.000000,2920.000000
695,-568.000000,2920.000000
696,-568.000000,2920.000000
697,-560.000000,2920.000000
698,-568.000000,2920.000000
699,-568.000000,2920.000000
700,-568.000000,2920.000000
701,-568.000000,2920.000000
702,-560.000000,2920.000000
703,-568.000000,2920.000000
704,-568.000000,2920.000000
705,-568.000000,2920.000000
706,-560.000000,2920.000000
707,-568.000000,2920.000000
