repport_data/pow_reoptimization_5_lpuart_on/data_57_003.csv

Channel              :,CH1,CH2
Frequency            :,  ?,  ?
Period               :,  ?,  ?
PK-PK                :,160.0mV,120.0mV
Probe attenuation    :,1X,1X
Voltage per ADC value:,0.500000mV,2.500000mV
Time interval        :,200.00000uS,200.00000uS

index,CH1_Voltage(mV),CH2_Voltage(mV)
1,-384.000000,2960.000000
2,-384.000000,2960.000000
3,-392.000000,2920.000000
4,-392.000000,2960.000000
5,-400.000000,2960.000000
6,-400.000000,2920.000000
7,-400.000000,2960.000000
8,-400.000000,2960.000000
9,-400.000000,2920.000000
10,-400.000000,2920.000000
11,-408.000000,2960.000000
12,-408.000000,2920.000000
13,-400.000000,2920.000000
14,-400.000000,2960.000000
15,-384.000000,2920.000000
16,-288.000000,2920.000000
17,-288.000000,2960.000000
18,-304.000000,2960.000000
19,-320.000000,2920.000000
20,-336.000000,2960.000000
21,-352.000000,2920.000000
22,-368.000000,2960.000000
23,-376.000000,2960.000000
24,-392.000000,2960.000000
25,-400.000000,2960.000000
26,-400.000000,2960.000000
27,-400.000000,2960.000000
28,-400.000000,2960.000000
29,-400.000000,2960.000000
30,-400.000000,2920.000000
31,-400.000000,2960.000000
32,-400.000000,2920.000000
33,-400.000000,2920.000000
34,-400.000000,2920.000000
35,-400.000000,2920.000000
36,-400.000000,2920.000000
37,-352.000000,2920.000000
38,-288.000000,2960.000000
39,-288.000000,2960.000000
40,-304.000000,2960.000000
41,-320.000000,2960.000000
42,-336.000000,2960.000000
43,-352.000000,2960.000000
44,-360.000000,2960.000000
45,-376.000000,2960.000000
46,-392.000000,2960.000000
47,-392.000000,2920.000000
48,-400.000000,2960.000000
49,-392.000000,2920.000000
50,-400.000000,2960.000000
51,-400.000000,2960.000000
52,-400.000000,2960.000000
53,-408.000000,2960.000000
54,-400.000000,2960.000000
55,-400.000000,2920.000000
56,-400.000000,2960.000000
57,-400.000000,2920.000000
58,-400.000000,2920.000000
59,-352.000000,2920.000000
60,-288.000000,2960.000000
61,-296.000000,2920.000000
62,-304.000000,2920.000000
63,-320.000000,2920.000000
64,-336.000000,2920.000000
65,-352.000000,2960.000000
66,-368.000000,2920.000000
67,-376.000000,2960.000000
68,-392.000000,2920.000000
69,-400.000000,2960.000000
70,-400.000000,2920.000000
71,-400.000000,2960.000000
72,-400.000000,2920.000000
73,-400.000000,2960.000000
74,-400.000000,2960.000000
75,-400.000000,2920.000000
76,-400.000000,2960.000000
77,-400.000000,2960.000000
78,-392.000000,2920.000000
79,-392.000000,2920.000000
80,-392.000000,2960.000000
81,-352.000000,2960.000000
82,-288.000000,2920.000000
83,-288.000000,2920.000000
84,-304.000000,2960.000000
85,-320.000000,2920.000000
86,-336.000000,2960.000000
87,-352.000000,2920.000000
88,-368.000000,2960.000000
89,-376.000000,2920.000000
90,-392.000000,2920.000000
91,-400.000000,2960.000000
92,-408.000000,2920.000000
93,-400.000000,2920.000000
94,-400.000000,2960.000000
95,-400.000000,2920.000000
96,-400.000000,2960.000000
97,-408.000000,2960.000000
98,-400.000000,2960.000000
99,-400.000000,2920.000000
100,-400.000000,2960.000000
101,-400.000000,2920.000000
102,-400.000000,2920.000000
103,-344.000000,2960.000000
104,-288.000000,2960.000000
105,-288.000000,2960.000000
106,-304.000000,2960.000000
107,-320.000000,2960.000000
108,-328.000000,2960.000000
109,-352.000000,2920.000000
110,-360.000000,2960.000000
111,-376.000000,2920.000000
112,-392.000000,2960.000000
113,-400.000000,2960.000000
114,-400.000000,2920.000000
115,-400.000000,2960.000000
116,-400.000000,2960.000000
117,-408.000000,2960.000000
118,-400.000000,2920.000000
119,-400.000000,2960.000000
120,-400.000000,2960.000000
121,-400.000000,2960.000000
122,-408.000000,2960.000000
123,-400.000000,2960.000000
124,-400.000000,2960.000000
125,-344.000000,2920.000000
126,-280.000000,2920.000000
127,-288.000000,2920.000000
128,-304.000000,2920.000000
129,-320.000000,2920.000000
130,-336.000000,2960.000000
131,-360.000000,2920.000000
132,-368.000000,2920.000000
133,-384.000000,2960.000000
134,-392.000000,2960.000000
135,-400.000000,2920.000000
136,-400.000000,2960.000000
137,-400.000000,2960.000000
138,-400.000000,2960.000000
139,-400.000000,2960.000000
140,-400.000000,2960.000000
141,-400.000000,2920.000000
142,-400.000000,2960.000000
143,-392.000000,2960.000000
144,-400.000000,2920.000000
145,-392.000000,2960.000000
146,-392.000000,2920.000000
147,-336.000000,2960.000000
148,-288.000000,2960.000000
149,-288.000000,2960.000000
150,-304.000000,2920.000000
151,-320.000000,2960.000000
152,-328.000000,2960.000000
153,-344.000000,2920.000000
154,-360.000000,2960.000000
155,-376.000000,2960.000000
156,-384.000000,2920.000000
157,-400.000000,2920.000000
158,-392.000000,2920.000000
159,-400.000000,2960.000000
160,-432.000000,3000.000000
161,-408.000000,2960.000000
162,-408.000000,2960.000000
163,-400.000000,2920.000000
164,-408.000000,2960.000000
165,-408.000000,2960.000000
166,-400.000000,2960.000000
167,-400.000000,2960.000000
168,-400.000000,2960.000000
169,-344.000000,2960.000000
170,-296.000000,2920.000000
171,-296.000000,2920.000000
172,-312.000000,2960.000000
173,-320.000000,2960.000000
174,-336.000000,2960.000000
175,-360.000000,2960.000000
176,-368.000000,2920.000000
177,-376.000000,2960.000000
178,-392.000000,2960.000000
179,-400.000000,2960.000000
180,-400.000000,2960.000000
181,-400.000000,2960.000000
182,-400.000000,2920.000000
183,-400.000000,2960.000000
184,-400.000000,2960.000000
185,-400.000000,2920.000000
186,-400.000000,2920.000000
187,-400.000000,2920.000000
188,-400.000000,2960.000000
189,-400.000000,2960.000000
190,-392.000000,2960.000000
191,-344.000000,2960.000000
192,-288.000000,2920.000000
193,-296.000000,2960.000000
194,-304.000000,2920.000000
195,-320.000000,2920.000000
196,-336.000000,2920.000000
197,-352.000000,2920.000000
198,-368.000000,2920.000000
199,-384.000000,2960.000000
200,-392.000000,2960.000000
201,-400.000000,2920.000000
202,-400.000000,2920.000000
203,-400.000000,2960.000000
204,-408.000000,2920.000000
205,-400.000000,2960.000000
206,-408.000000,2960.000000
207,-400.000000,2920.000000
208,-400.000000,2920.000000
209,-400.000000,2920.000000
210,-400.000000,2960.000000
211,-408.000000,2960.000000
212,-392.000000,2960.000000
213,-336.000000,2960.000000
214,-304.000000,2920.000000
215,-312.000000,2960.000000
216,-304.000000,2960.000000
217,-320.000000,2960.000000
218,-336.000000,2960.000000
219,-352.000000,2960.000000
220,-360.000000,2920.000000
221,-376.000000,2960.000000
222,-384.000000,2960.000000
223,-400.000000,2960.000000
224,-400.000000,2960.000000
225,-400.000000,2920.000000
226,-400.000000,2960.000000
227,-400.000000,2960.000000
228,-400.000000,2960.000000
229,-400.000000,2960.000000
230,-400.000000,2960.000000
231,-400.000000,2920.000000
232,-400.000000,2960.000000
233,-392.000000,2960.000000
234,-392.000000,2920.000000
235,-336.000000,2960.000000
236,-288.000000,2920.000000
237,-288.000000,2960.000000
238,-304.000000,2960.000000
239,-320.000000,2960.000000
240,-336.000000,2960.000000
241,-352.000000,2960.000000
242,-368.000000,2960.000000
243,-376.000000,2960.000000
244,-392.000000,2960.000000
245,-400.000000,2960.000000
246,-400.000000,2960.000000
247,-400.000000,2920.000000
248,-400.000000,2960.000000
249,-400.000000,2960.000000
250,-400.000000,2960.000000
251,-400.000000,2960.000000
252,-400.000000,2920.000000
253,-400.000000,2920.000000
254,-400.000000,2960.000000
255,-400.000000,2920.000000
256,-392.000000,2960.000000
257,-336.000000,2960.000000
258,-288.000000,2960.000000
259,-288.000000,2920.000000
260,-304.000000,2920.000000
261,-320.000000,2920.000000
262,-344.000000,2960.000000
263,-352.000000,2960.000000
264,-368.000000,2960.000000
265,-376.000000,2960.000000
266,-392.000000,2960.000000
267,-400.000000,2960.000000
268,-400.000000,2920.000000
269,-408.000000,2920.000000
270,-400.000000,2960.000000
271,-400.000000,2960.000000
272,-400.000000,2920.000000
273,-400.000000,2960.000000
274,-400.000000,2960.000000
275,-400.000000,2960.000000
276,-384.000000,2960.000000
277,-400.000000,2960.000000
278,-400.000000,2960.000000
279,-336.000000,2960.000000
280,-288.000000,2960.000000
281,-288.000000,2960.000000
282,-304.000000,2960.000000
283,-320.000000,2960.000000
284,-336.000000,2960.000000
285,-352.000000,2960.000000
286,-368.000000,2920.000000
287,-384.000000,2920.000000
288,-392.000000,2920.000000
289,-400.000000,2960.000000
290,-400.000000,2960.000000
291,-400.000000,2960.000000
292,-400.000000,2960.000000
293,-400.000000,2960.000000
294,-400.000000,2960.000000
295,-400.000000,2960.000000
296,-400.000000,2960.000000
297,-400.000000,2960.000000
298,-392.000000,2920.000000
299,-392.000000,2920.000000
300,-392.000000,2960.000000
301,-328.000000,2960.000000
302,-280.000000,2920.000000
303,-288.000000,2920.000000
304,-312.000000,2960.000000
305,-320.000000,2960.000000
306,-336.000000,2920.000000
307,-352.000000,2960.000000
308,-368.000000,2920.000000
309,-376.000000,2960.000000
310,-392.000000,2920.000000
311,-400.000000,2960.000000
312,-400.000000,2960.000000
313,-408.000000,2960.000000
314,-400.000000,2960.000000
315,-400.000000,2960.000000
316,-400.000000,2920.000000
317,-408.000000,2960.000000
318,-400.000000,2960.000000
319,-400.000000,2960.000000
320,-400.000000,2960.000000
321,-408.000000,2960.000000
322,-392.000000,2920.000000
323,-328.000000,2960.000000
324,-288.000000,2960.000000
325,-304.000000,2960.000000
326,-312.000000,2960.000000
327,-328.000000,2960.000000
328,-344.000000,2960.000000
329,-360.000000,2920.000000
330,-368.000000,2960.000000
331,-384.000000,2960.000000
332,-392.000000,2920.000000
333,-400.000000,2920.000000
334,-408.000000,2960.000000
335,-400.000000,2960.000000
336,-400.000000,2960.000000
337,-400.000000,2960.000000
338,-408.000000,2920.000000
339,-400.000000,2920.000000
340,-408.000000,2920.000000
341,-400.000000,2920.000000
342,-400.000000,2960.000000
343,-400.000000,2920.000000
344,-392.000000,2960.000000
345,-328.000000,2960.000000
346,-288.000000,2960.000000
347,-296.000000,2920.000000
348,-304.000000,2960.000000
349,-320.000000,2960.000000
350,-336.000000,2960.000000
351,-352.000000,2960.000000
352,-368.000000,2960.000000
353,-384.000000,2960.000000
354,-400.000000,2920.000000
355,-400.000000,2920.000000
356,-408.000000,2920.000000
357,-400.000000,2960.000000
358,-408.000000,2960.000000
359,-400.000000,2960.000000
360,-400.000000,2960.000000
361,-400.000000,2920.000000
362,-408.000000,2960.000000
363,-400.000000,2960.000000
364,-400.000000,2960.000000
365,-392.000000,2960.000000
366,-392.000000,2960.000000
367,-320.000000,2960.000000
368,-288.000000,2920.000000
369,-288.000000,2920.000000
370,-304.000000,2960.000000
371,-320.000000,2960.000000
372,-336.000000,2920.000000
373,-352.000000,2920.000000
374,-376.000000,2960.000000
375,-376.000000,2960.000000
376,-392.000000,2960.000000
377,-400.000000,2960.000000
378,-400.000000,2960.000000
379,-400.000000,2960.000000
380,-400.000000,2960.000000
381,-400.000000,2960.000000
382,-400.000000,2960.000000
383,-400.000000,2960.000000
384,-400.000000,2960.000000
385,-400.000000,2960.000000
386,-400.000000,2960.000000
387,-400.000000,2920.000000
388,-392.000000,2960.000000
389,-320.000000,2960.000000
390,-288.000000,2920.000000
391,-296.000000,2920.000000
392,-304.000000,2920.000000
393,-328.000000,2960.000000
394,-344.000000,2920.000000
395,-352.000000,2960.000000
396,-368.000000,2960.000000
397,-384.000000,2960.000000
398,-392.000000,2960.000000
399,-400.000000,2960.000000
400,-400.000000,2960.000000
401,-400.000000,2960.000000
402,-400.000000,2960.000000
403,-408.000000,2960.000000
404,-408.000000,2960.000000
405,-400.000000,2960.000000
406,-400.000000,2960.000000
407,-392.000000,2960.000000
408,-400.000000,2960.000000
409,-408.000000,2960.000000
410,-384.000000,2960.000000
411,-320.000000,2920.000000
412,-288.000000,2960.000000
413,-296.000000,2920.000000
414,-296.000000,2960.000000
415,-328.000000,2960.000000
416,-336.000000,2920.000000
417,-352.000000,2960.000000
418,-368.000000,2960.000000
419,-384.000000,2960.000000
420,-392.000000,2960.000000
421,-400.000000,2920.000000
422,-400.000000,2960.000000
423,-400.000000,2960.000000
424,-400.000000,2960.000000
425,-408.000000,2960.000000
426,-400.000000,2960.000000
427,-400.000000,2960.000000
428,-408.000000,2960.000000
429,-400.000000,2960.000000
430,-408.000000,2960.000000
431,-400.000000,2920.000000
432,-392.000000,2960.000000
433,-320.000000,2920.000000
434,-288.000000,2960.000000
435,-296.000000,2960.000000
436,-304.000000,2960.000000
437,-328.000000,2920.000000
438,-336.000000,2920.000000
439,-352.000000,2960.000000
440,-368.000000,2960.000000
441,-384.000000,2960.000000
442,-392.000000,2960.000000
443,-400.000000,2920.000000
444,-400.000000,2960.000000
445,-392.000000,2920.000000
446,-392.000000,2960.000000
447,-400.000000,2960.000000
448,-400.000000,2960.000000
449,-392.000000,2920.000000
450,-400.000000,2920.000000
451,-392.000000,2920.000000
452,-392.000000,2960.000000
453,-392.000000,2920.000000
454,-384.000000,2920.000000
455,-320.000000,2920.000000
456,-288.000000,2920.000000
457,-296.000000,2960.000000
458,-312.000000,2960.000000
459,-328.000000,2960.000000
460,-344.000000,2960.000000
461,-352.000000,2920.000000
462,-376.000000,2920.000000
463,-384.000000,2960.000000
464,-400.000000,2960.000000
465,-400.000000,2960.000000
466,-408.000000,2960.000000
467,-408.000000,2920.000000
468,-408.000000,2960.000000
469,-400.000000,2960.000000
470,-400.000000,2960.000000
471,-408.000000,2960.000000
472,-416.000000,2960.000000
473,-400.000000,2920.000000
474,-400.000000,2920.000000
475,-408.000000,2960.000000
476,-392.000000,2960.000000
477,-320.000000,2960.000000
478,-288.000000,2960.000000
479,-296.000000,2960.000000
480,-312.000000,2920.000000
481,-328.000000,2960.000000
482,-344.000000,2920.000000
483,-360.000000,2960.000000
484,-368.000000,2960.000000
485,-384.000000,2920.000000
486,-392.000000,2960.000000
487,-400.000000,2960.000000
488,-400.000000,2960.000000
489,-400.000000,2960.000000
490,-408.000000,2920.000000
491,-400.000000,2960.000000
492,-400.000000,2920.000000
493,-408.000000,2960.000000
494,-408.000000,2960.000000
495,-400.000000,2920.000000
496,-400.000000,2960.000000
497,-400.000000,2960.000000
498,-384.000000,2960.000000
499,-312.000000,2960.000000
500,-288.000000,2920.000000
501,-304.000000,2920.000000
502,-312.000000,2960.000000
503,-328.000000,2960.000000
504,-344.000000,2960.000000
505,-352.000000,2920.000000
506,-376.000000,2960.000000
507,-384.000000,2960.000000
508,-400.000000,2920.000000
509,-400.000000,2960.000000
510,-400.000000,2960.000000
511,-408.000000,2960.000000
512,-400.000000,2960.000000
513,-400.000000,2920.000000
514,-400.000000,2960.000000
515,-400.000000,2920.000000
516,-392.000000,2960.000000
517,-400.000000,2920.000000
518,-400.000000,2960.000000
519,-392.000000,2920.000000
520,-384.000000,2920.000000
521,-312.000000,2920.000000
522,-280.000000,2960.000000
523,-288.000000,2960.000000
524,-312.000000,2960.000000
525,-328.000000,2920.000000
526,-344.000000,2920.000000
527,-360.000000,2920.000000
528,-368.000000,2920.000000
529,-384.000000,2920.000000
530,-400.000000,2960.000000
531,-400.000000,2920.000000
532,-408.000000,2960.000000
533,-408.000000,2960.000000
534,-408.000000,2920.000000
535,-400.000000,2960.000000
536,-400.000000,2960.000000
537,-400.000000,2920.000000
538,-408.000000,2960.000000
539,-400.000000,2920.000000
540,-392.000000,2920.000000
541,-400.000000,2920.000000
542,-392.000000,2920.000000
543,-312.000000,2920.000000
544,-288.000000,2960.000000
545,-296.000000,2960.000000
546,-312.000000,2920.000000
547,-328.000000,2960.000000
548,-344.000000,2920.000000
549,-352.000000,2920.000000
550,-368.000000,2920.000000
551,-384.000000,2960.000000
552,-392.000000,2960.000000
553,-400.000000,2960.000000
554,-400.000000,2960.000000
555,-400.000000,2920.000000
556,-400.000000,2920.000000
557,-408.000000,2920.000000
558,-400.000000,2960.000000
559,-400.000000,2920.000000
560,-408.000000,2960.000000
561,-400.000000,2960.000000
562,-408.000000,2920.000000
563,-400.000000,2920.000000
564,-392.000000,2920.000000
565,-312.000000,2960.000000
566,-288.000000,2920.000000
567,-296.000000,2960.000000
568,-312.000000,2920.000000
569,-328.000000,2960.000000
570,-344.000000,2960.000000
571,-360.000000,2960.000000
572,-368.000000,2960.000000
573,-384.000000,2920.000000
574,-392.000000,2960.000000
575,-400.000000,2920.000000
576,-408.000000,2920.000000
577,-408.000000,2960.000000
578,-408.000000,2920.000000
579,-400.000000,2920.000000
580,-408.000000,2960.000000
581,-408.000000,2960.000000
582,-408.000000,2960.000000
583,-408.000000,2960.000000
584,-400.000000,2960.000000
585,-400.000000,2920.000000
586,-384.000000,2960.000000
587,-312.000000,3000.000000
588,-288.000000,2960.000000
589,-296.000000,2920.000000
590,-312.000000,2960.000000
591,-328.000000,2960.000000
592,-344.000000,2960.000000
593,-360.000000,2960.000000
594,-368.000000,2920.000000
595,-384.000000,2960.000000
596,-384.000000,2960.000000
597,-392.000000,2960.000000
598,-400.000000,2960.000000
599,-400.000000,2920.000000
600,-400.000000,2960.000000
601,-400.000000,2920.000000
602,-400.000000,2920.000000
603,-400.000000,2960.000000
604,-400.000000,2920.000000
605,-400.000000,2920.000000
606,-320.000000,2960.000000
607,-400.000000,2960.000000
608,-384.000000,2960.000000
609,-304.000000,2960.000000
610,-288.000000,2960.000000
611,-296.000000,2920.000000
612,-304.000000,2960.000000
613,-344.000000,2960.000000
614,-336.000000,2960.000000
615,-360.000000,2960.000000
616,-376.000000,2960.000000
617,-384.000000,2960.000000
618,-392.000000,2920.000000
619,-400.000000,2960.000000
620,-408.000000,2920.000000
621,-408.000000,2920.000000
622,-400.000000,2960.000000
623,-408.000000,2960.000000
624,-400.000000,2920.000000
625,-400.000000,2920.000000
626,-400.000000,2960.000000
627,-400.000000,2960.000000
628,-400.000000,2920.000000
629,-392.000000,2920.000000
630,-384.000000,2920.000000
631,-304.000000,2920.000000
632,-288.000000,2960.000000
633,-296.000000,2960.000000
634,-312.000000,2960.000000
635,-328.000000,2920.000000
636,-344.000000,2960.000000
637,-360.000000,2960.000000
638,-376.000000,2920.000000
639,-376.000000,2960.000000
640,-400.000000,2920.000000
641,-400.000000,2960.000000
642,-400.000000,2960.000000
643,-400.000000,2960.000000
644,-400.000000,2920.000000
645,-400.000000,2960.000000
646,-400.000000,2960.000000
647,-400.000000,2960.000000
648,-400.000000,2960.000000
649,-400.000000,2920.000000
650,-400.000000,2960.000000
651,-400.000000,2960.000000
652,-384.000000,2920.000000
653,-304.000000,2960.000000
654,-288.000000,2960.000000
655,-304.000000,2960.000000
656,-320.000000,2920.000000
657,-328.000000,2960.000000
658,-344.000000,2960.000000
659,-360.000000,2960.000000
660,-368.000000,2920.000000
661,-384.000000,2960.000000
662,-392.000000,2960.000000
663,-392.000000,2960.000000
664,-408.000000,2960.000000
665,-400.000000,2960.000000
666,-400.000000,2920.000000
667,-392.000000,2960.000000
668,-408.000000,2960.000000
669,-400.000000,2960.000000
670,-400.000000,2920.000000
671,-400.000000,2960.000000
672,-392.000000,2960.000000
673,-400.000000,2920.000000
674,-376.000000,2920.000000
675,-296.000000,2920.000000
676,-280.000000,2960.000000
677,-296.000000,2960.000000
678,-312.000000,2960.000000
679,-328.000000,2960.000000
680,-344.000000,2960.000000
681,-360.000000,2920.000000
682,-376.000000,2960.000000
683,-384.000000,2960.000000
684,-400.000000,2920.000000
685,-400.000000,2960.000000
686,-408.000000,2920.000000
687,-408.000000,2960.000000
688,-400.000000,2960.000000
689,-408.000000,2960.000000
690,-400.000000,2960.000000
691,-408.000000,2920.000000
692,-408.000000,2960.000000
693,-400.000000,2960.000000
694,-400.000000,2960.000000
695,-400.000000,2920.000000
696,-384.000000,2960.000000
697,-304.000000,2960.000000
698,-288.000000,2960.000000
699,-304.000000,2920.000000
700,-312.000000,2960.000000
701,-328.000000,2920.000000
702,-344.000000,2920.000000
703,-360.000000,2960.000000
704,-376.000000,2960.000000
705,-384.000000,2960.000000
706,-392.000000,2920.000000
707,-400.000000,2960.000000
