repport_data/pow_reoptimization_1/data_49_009.csv

Channel              :,CH1,CH2
Frequency            :,  ?,  ?
Period               :,  ?,  ?
PK-PK                :,816.0mV,120.0mV
Probe attenuation    :,1X,1X
Voltage per ADC value:,0.500000mV,2.500000mV
Time interval        :,200.00000uS,200.00000uS

index,CH1_Voltage(mV),CH2_Voltage(mV)
1,-544.000000,3080.000000
2,-544.000000,3080.000000
3,-536.000000,3040.000000
4,-544.000000,3080.000000
5,-552.000000,3040.000000
6,-552.000000,3080.000000
7,-544.000000,3080.000000
8,-552.000000,3080.000000
9,-544.000000,3080.000000
10,-552.000000,3080.000000
11,-552.000000,3080.000000
12,-544.000000,3080.000000
13,-552.000000,3040.000000
14,-552.000000,3080.000000
15,-552.000000,3080.000000
16,-552.000000,3080.000000
17,-544.000000,3040.000000
18,-544.000000,3080.000000
19,-544.000000,3080.000000
20,-544.000000,3080.000000
21,-552.000000,3080.000000
22,-552.000000,3040.000000
23,-552.000000,3040.000000
24,-544.000000,3080.000000
25,-552.000000,3040.000000
26,-544.000000,3080.000000
27,-552.000000,3040.000000
28,-544.000000,3040.000000
29,-552.000000,3080.000000
30,-552.000000,3080.000000
31,-552.000000,3080.000000
32,-544.000000,3040.000000
33,-544.000000,3040.000000
34,-544.000000,3080.000000
35,-552.000000,3080.000000
36,-544.000000,3080.000000
37,-544.000000,3080.000000
38,-552.000000,3080.000000
39,-552.000000,3080.000000
40,-552.000000,3040.000000
41,-552.000000,3080.000000
42,-552.000000,3080.000000
43,-544.000000,3080.000000
44,-552.000000,3080.000000
45,-544.000000,3080.000000
46,-544.000000,3080.000000
47,-544.000000,3080.000000
48,-544.000000,3080.000000
49,-544.000000,3080.000000
50,-552.000000,3040.000000
51,-552.000000,3080.000000
52,-544.000000,3080.000000
53,-544.000000,3080.000000
54,-544.000000,3080.000000
55,-552.000000,3080.000000
56,-552.000000,3080.000000
57,-536.000000,3080.000000
58,-544.000000,3080.000000
59,-552.000000,3080.000000
60,-544.000000,3080.000000
61,-544.000000,3080.000000
62,-536.000000,3080.000000
63,-552.000000,3080.000000
64,-544.000000,3080.000000
65,-552.000000,3040.000000
66,-552.000000,3080.000000
67,-552.000000,3080.000000
68,-544.000000,3080.000000
69,-552.000000,3040.000000
70,-544.000000,3040.000000
71,-552.000000,3040.000000
72,-552.000000,3080.000000
73,-552.000000,3080.000000
74,-552.000000,3080.000000
75,-544.000000,3080.000000
76,-552.000000,3080.000000
77,-544.000000,3080.000000
78,-544.000000,3080.000000
79,-552.000000,3080.000000
80,-544.000000,3080.000000
81,-544.000000,3080.000000
82,-552.000000,3040.000000
83,-552.000000,3080.000000
84,-544.000000,3040.000000
85,-552.000000,3080.000000
86,-544.000000,3040.000000
87,-552.000000,3040.000000
88,-552.000000,3040.000000
89,-544.000000,3040.000000
90,-544.000000,3040.000000
91,-544.000000,3080.000000
92,-544.000000,3080.000000
93,-544.000000,3040.000000
94,-544.000000,3040.000000
95,-544.000000,3080.000000
96,-544.000000,3080.000000
97,-544.000000,3080.000000
98,-536.000000,3080.000000
99,-544.000000,3080.000000
100,-544.000000,3080.000000
101,-544.000000,3040.000000
102,-544.000000,3040.000000
103,-544.000000,3080.000000
104,-544.000000,3080.000000
105,-544.000000,3080.000000
106,-536.000000,3080.000000
107,-544.000000,3080.000000
108,-544.000000,3080.000000
109,-544.000000,3080.000000
110,-544.000000,3080.000000
111,-544.000000,3080.000000
112,-544.000000,3080.000000
113,-552.000000,3080.000000
114,-544.000000,3040.000000
115,-544.000000,3080.000000
116,-552.000000,3080.000000
117,-552.000000,3040.000000
118,-552.000000,3040.000000
119,-552.000000,3080.000000
120,-544.000000,3040.000000
121,-544.000000,3040.000000
122,-544.000000,3080.000000
123,-552.000000,3040.000000
124,-552.000000,3080.000000
125,-544.000000,3080.000000
126,-552.000000,3080.000000
127,-544.000000,3080.000000
128,-552.000000,3080.000000
129,-544.000000,3080.000000
130,-552.000000,3080.000000
131,-552.000000,3080.000000
132,-552.000000,3040.000000
133,-544.000000,3080.000000
134,-544.000000,3080.000000
135,-544.000000,3080.000000
136,-544.000000,3080.000000
137,-544.000000,3080.000000
138,-552.000000,3080.000000
139,-544.000000,3040.000000
140,-552.000000,3080.000000
141,-552.000000,3040.000000
142,-552.000000,3040.000000
143,-544.000000,3080.000000
144,-544.000000,3040.000000
145,-544.000000,3040.000000
146,-544.000000,3040.000000
147,-544.000000,3040.000000
148,-552.000000,3080.000000
149,-552.000000,3080.000000
150,-544.000000,3080.000000
151,-544.000000,3080.000000
152,-552.000000,3080.000000
153,-544.000000,3080.000000
154,-552.000000,3040.000000
155,-544.000000,3080.000000
156,-552.000000,3080.000000
157,-552.000000,3080.000000
158,-544.000000,3040.000000
159,-544.000000,3080.000000
160,-552.000000,3080.000000
161,-552.000000,3080.000000
162,-552.000000,3080.000000
163,-544.000000,3040.000000
164,-544.000000,3080.000000
165,-544.000000,3080.000000
166,-536.000000,3080.000000
167,-544.000000,3040.000000
168,-536.000000,3080.000000
169,-544.000000,3080.000000
170,-544.000000,3080.000000
171,-544.000000,3040.000000
172,-552.000000,3080.000000
173,-544.000000,3080.000000
174,-544.000000,3080.000000
175,-536.000000,3040.000000
176,-536.000000,3040.000000
177,-544.000000,3080.000000
178,-536.000000,3080.000000
179,-536.000000,3040.000000
180,-544.000000,3080.000000
181,-544.000000,3080.000000
182,-544.000000,3040.000000
183,-552.000000,3080.000000
184,-544.000000,3080.000000
185,-544.000000,3040.000000
186,-544.000000,3080.000000
187,-552.000000,3080.000000
188,-536.000000,3080.000000
189,-544.000000,3080.000000
190,-544.000000,3040.000000
191,-552.000000,3080.000000
192,-552.000000,3040.000000
193,-544.000000,3040.000000
194,-544.000000,3080.000000
195,-552.000000,3080.000000
196,-544.000000,3040.000000
197,-544.000000,3080.000000
198,-552.000000,3040.000000
199,-536.000000,3080.000000
200,-544.000000,3080.000000
201,-552.000000,3080.000000
202,-552.000000,3080.000000
203,-544.000000,3080.000000
204,-552.000000,3080.000000
205,-584.000000,3040.000000
206,-544.000000,3040.000000
207,-544.000000,3080.000000
208,-544.000000,3040.000000
209,-544.000000,3040.000000
210,-544.000000,3080.000000
211,-544.000000,3040.000000
212,-544.000000,3080.000000
213,-544.000000,3040.000000
214,-552.000000,3040.000000
215,-544.000000,3040.000000
216,-544.000000,3080.000000
217,-552.000000,3080.000000
218,-544.000000,3040.000000
219,-544.000000,3080.000000
220,-544.000000,3040.000000
221,-544.000000,3080.000000
222,-552.000000,3080.000000
223,-552.000000,3040.000000
224,-544.000000,3080.000000
225,-544.000000,3080.000000
226,-552.000000,3080.000000
227,-544.000000,3080.000000
228,-552.000000,3080.000000
229,-544.000000,3040.000000
230,-552.000000,3080.000000
231,-552.000000,3080.000000
232,-552.000000,3080.000000
233,-544.000000,3080.000000
234,-544.000000,3040.000000
235,-552.000000,3040.000000
236,-552.000000,3080.000000
237,-536.000000,3080.000000
238,-544.000000,3080.000000
239,-544.000000,3080.000000
240,-536.000000,3040.000000
241,-544.000000,3080.000000
242,-544.000000,3080.000000
243,-544.000000,3080.000000
244,-544.000000,3080.000000
245,-544.000000,3080.000000
246,-544.000000,3040.000000
247,-536.000000,3080.000000
248,-544.000000,3080.000000
249,-544.000000,3080.000000
250,-536.000000,3080.000000
251,-544.000000,3080.000000
252,-552.000000,3080.000000
253,-536.000000,3080.000000
254,-536.000000,3080.000000
255,-544.000000,3080.000000
256,-536.000000,3040.000000
257,-584.000000,3080.000000
258,-552.000000,3080.000000
259,-544.000000,3040.000000
260,-544.000000,3080.000000
261,-552.000000,3080.000000
262,-552.000000,3040.000000
263,-552.000000,3040.000000
264,-544.000000,3080.000000
265,-528.000000,3080.000000
266,-552.000000,3040.000000
267,-552.000000,3040.000000
268,-552.000000,3080.000000
269,-544.000000,3040.000000
270,-552.000000,3040.000000
271,-544.000000,3080.000000
272,-552.000000,3080.000000
273,-544.000000,3080.000000
274,-552.000000,3040.000000
275,-552.000000,3080.000000
276,-544.000000,3040.000000
277,-552.000000,3080.000000
278,-544.000000,3040.000000
279,-544.000000,3080.000000
280,-544.000000,3040.000000
281,-552.000000,3080.000000
282,-544.000000,3080.000000
283,-552.000000,3080.000000
284,-536.000000,3080.000000
285,-544.000000,3040.000000
286,-544.000000,3040.000000
287,-552.000000,3080.000000
288,-544.000000,3080.000000
289,-544.000000,3080.000000
290,-544.000000,3080.000000
291,-544.000000,3080.000000
292,-544.000000,3040.000000
293,-552.000000,3080.000000
294,-552.000000,3080.000000
295,-552.000000,3080.000000
296,-552.000000,3080.000000
297,-552.000000,3040.000000
298,-552.000000,3080.000000
299,-544.000000,3040.000000
300,-552.000000,3080.000000
301,-544.000000,3040.000000
302,-552.000000,3080.000000
303,-544.000000,3080.000000
304,-552.000000,3080.000000
305,-544.000000,3080.000000
306,-552.000000,3080.000000
307,-544.000000,3080.000000
308,-552.000000,3040.000000
309,-552.000000,3040.000000
310,-544.000000,3080.000000
311,-544.000000,3080.000000
312,-544.000000,3040.000000
313,-544.000000,3080.000000
314,-544.000000,3080.000000
315,-544.000000,3040.000000
316,-544.000000,3080.000000
317,-544.000000,3040.000000
318,-544.000000,3080.000000
319,-552.000000,3040.000000
320,-544.000000,3080.000000
321,-552.000000,3080.000000
322,-544.000000,3080.000000
323,-536.000000,3040.000000
324,-544.000000,3080.000000
325,-536.000000,3080.000000
326,-544.000000,3080.000000
327,-544.000000,3080.000000
328,-544.000000,3040.000000
329,-544.000000,3040.000000
330,-544.000000,3080.000000
331,-536.000000,3080.000000
332,-544.000000,3080.000000
333,-544.000000,3040.000000
334,-552.000000,3080.000000
335,-544.000000,3040.000000
336,-552.000000,3080.000000
337,-544.000000,3040.000000
338,-552.000000,3080.000000
339,-552.000000,3040.000000
340,-552.000000,3040.000000
341,-544.000000,3080.000000
342,-552.000000,3040.000000
343,-544.000000,3040.000000
344,-552.000000,3040.000000
345,-552.000000,3080.000000
346,-552.000000,3080.000000
347,-544.000000,3080.000000
348,-544.000000,3040.000000
349,-552.000000,3080.000000
350,-552.000000,3080.000000
351,-552.000000,3080.000000
352,-552.000000,3040.000000
353,-552.000000,3080.000000
354,-536.000000,3080.000000
355,-544.000000,3080.000000
356,-544.000000,3080.000000
357,-544.000000,3080.000000
358,-536.000000,3040.000000
359,-544.000000,3080.000000
360,-544.000000,3040.000000
361,-552.000000,3080.000000
362,-544.000000,3040.000000
363,-544.000000,3080.000000
364,-544.000000,3080.000000
365,-544.000000,3080.000000
366,-544.000000,3080.000000
367,-536.000000,3040.000000
368,-544.000000,3040.000000
369,-544.000000,3080.000000
370,-544.000000,3040.000000
371,-544.000000,3080.000000
372,-552.000000,3080.000000
373,-552.000000,3080.000000
374,-544.000000,3040.000000
375,-552.000000,3040.000000
376,-552.000000,3040.000000
377,-544.000000,3040.000000
378,-552.000000,3040.000000
379,-552.000000,3040.000000
380,-552.000000,3080.000000
381,-544.000000,3040.000000
382,-552.000000,3080.000000
383,-552.000000,3040.000000
384,-544.000000,3040.000000
385,-552.000000,3040.000000
386,-552.000000,3080.000000
387,-544.000000,3080.000000
388,-544.000000,3080.000000
389,-536.000000,3080.000000
390,-552.000000,3080.000000
391,-544.000000,3080.000000
392,-544.000000,3080.000000
393,-544.000000,3040.000000
394,-552.000000,3040.000000
395,-544.000000,3040.000000
396,-544.000000,3080.000000
397,-536.000000,3040.000000
398,-544.000000,3080.000000
399,-544.000000,3040.000000
400,-544.000000,3080.000000
401,-544.000000,3080.000000
402,-544.000000,3080.000000
403,-544.000000,3040.000000
404,-544.000000,3040.000000
405,-552.000000,3040.000000
406,-544.000000,3080.000000
407,-552.000000,3080.000000
408,-568.000000,3080.000000
409,-552.000000,3080.000000
410,-528.000000,3080.000000
411,-544.000000,3080.000000
412,-552.000000,3080.000000
413,-536.000000,3080.000000
414,-544.000000,3080.000000
415,-552.000000,3080.000000
416,-552.000000,3040.000000
417,-544.000000,3080.000000
418,-552.000000,3080.000000
419,-552.000000,3080.000000
420,-552.000000,3080.000000
421,-552.000000,3080.000000
422,-544.000000,3080.000000
423,-552.000000,3040.000000
424,-552.000000,3080.000000
425,-544.000000,3080.000000
426,-552.000000,3080.000000
427,-552.000000,3040.000000
428,-544.000000,3080.000000
429,-536.000000,3080.000000
430,-552.000000,3080.000000
431,-544.000000,3080.000000
432,-544.000000,3040.000000
433,-552.000000,3080.000000
434,-544.000000,3040.000000
435,-544.000000,3040.000000
436,-544.000000,3080.000000
437,-544.000000,3080.000000
438,-544.000000,3080.000000
439,-544.000000,3080.000000
440,-544.000000,3080.000000
441,-552.000000,3080.000000
442,-552.000000,3080.000000
443,-552.000000,3080.000000
444,-552.000000,3040.000000
445,-544.000000,3080.000000
446,-552.000000,3080.000000
447,-544.000000,3080.000000
448,-552.000000,3080.000000
449,-552.000000,3080.000000
450,-552.000000,3040.000000
451,-544.000000,3040.000000
452,-552.000000,3080.000000
453,-544.000000,3080.000000
454,-552.000000,3040.000000
455,-544.000000,3040.000000
456,-544.000000,3080.000000
457,-552.000000,3080.000000
458,-544.000000,3040.000000
459,-544.000000,3080.000000
460,-552.000000,3040.000000
461,-544.000000,3040.000000
462,-544.000000,3080.000000
463,-552.000000,3080.000000
464,-544.000000,3080.000000
465,-544.000000,3080.000000
466,-544.000000,3080.000000
467,-552.000000,3040.000000
468,-544.000000,3080.000000
469,-544.000000,3040.000000
470,-536.000000,3080.000000
471,-544.000000,3040.000000
472,-536.000000,3080.000000
473,-536.000000,3080.000000
474,-544.000000,3040.000000
475,-536.000000,3080.000000
476,-544.000000,3080.000000
477,-544.000000,3080.000000
478,-544.000000,3040.000000
479,-552.000000,3080.000000
480,-544.000000,3040.000000
481,-552.000000,3040.000000
482,-544.000000,3040.000000
483,-544.000000,3080.000000
484,-552.000000,3040.000000
485,-552.000000,3040.000000
486,-552.000000,3080.000000
487,-552.000000,3080.000000
488,-552.000000,3080.000000
489,-544.000000,3080.000000
490,-552.000000,3080.000000
491,-552.000000,3040.000000
492,-552.000000,3080.000000
493,-552.000000,3080.000000
494,-552.000000,3080.000000
495,-552.000000,3080.000000
496,-552.000000,3040.000000
497,-552.000000,3080.000000
498,-552.000000,3040.000000
499,-544.000000,3040.000000
500,-552.000000,3080.000000
501,-552.000000,3040.000000
502,-552.000000,3080.000000
503,-552.000000,3040.000000
504,-552.000000,3080.000000
505,-552.000000,3040.000000
506,-552.000000,3040.000000
507,-552.000000,3080.000000
508,-552.000000,3080.000000
509,-544.000000,3080.000000
510,-544.000000,3080.000000
511,-544.000000,3080.000000
512,-552.000000,3040.000000
513,-552.000000,3080.000000
514,-544.000000,3040.000000
515,-544.000000,3080.000000
516,-552.000000,3040.000000
517,-544.000000,3080.000000
518,-552.000000,3040.000000
519,-544.000000,3080.000000
520,-544.000000,3080.000000
521,-544.000000,3080.000000
522,-544.000000,3080.000000
523,-552.000000,3080.000000
524,-552.000000,3040.000000
525,-552.000000,3080.000000
526,-552.000000,3080.000000
527,-552.000000,3040.000000
528,-552.000000,3040.000000
529,-544.000000,3080.000000
530,-552.000000,3080.000000
531,-544.000000,3080.000000
532,-552.000000,3080.000000
533,-552.000000,3080.000000
534,-552.000000,3040.000000
535,-552.000000,3080.000000
536,-544.000000,3080.000000
537,-544.000000,3080.000000
538,-552.000000,3080.000000
539,-544.000000,3040.000000
540,-544.000000,3080.000000
541,-536.000000,3080.000000
542,-544.000000,3040.000000
543,-536.000000,3040.000000
544,-544.000000,3080.000000
545,-536.000000,3080.000000
546,-504.000000,3080.000000
547,-544.000000,3080.000000
548,-544.000000,3080.000000
549,-544.000000,3040.000000
550,-544.000000,3080.000000
551,-544.000000,3080.000000
552,-544.000000,3040.000000
553,-544.000000,3080.000000
554,-552.000000,3080.000000
555,-544.000000,3040.000000
556,-544.000000,3080.000000
557,-552.000000,3080.000000
558,-552.000000,3080.000000
559,-544.000000,3080.000000
560,-544.000000,3040.000000
561,-552.000000,3080.000000
562,-552.000000,3080.000000
563,-552.000000,3080.000000
564,-544.000000,3040.000000
565,-552.000000,3080.000000
566,-552.000000,3080.000000
567,-552.000000,3040.000000
568,-544.000000,3040.000000
569,-552.000000,3080.000000
570,-552.000000,3080.000000
571,-552.000000,3080.000000
572,-544.000000,3080.000000
573,-544.000000,3080.000000
574,-544.000000,3080.000000
575,-544.000000,3040.000000
576,-544.000000,3080.000000
577,-544.000000,3080.000000
578,-544.000000,3080.000000
579,-544.000000,3080.000000
580,-544.000000,3080.000000
581,-552.000000,3080.000000
582,-544.000000,3080.000000
583,-544.000000,3080.000000
584,-544.000000,3040.000000
585,-544.000000,3040.000000
586,-552.000000,3080.000000
587,-544.000000,3080.000000
588,-544.000000,3080.000000
589,-552.000000,3080.000000
590,-544.000000,3080.000000
591,-552.000000,3080.000000
592,-544.000000,3080.000000
593,-544.000000,3080.000000
594,-544.000000,3040.000000
595,-544.000000,3080.000000
596,-552.000000,3040.000000
597,-552.000000,3080.000000
598,-544.000000,3080.000000
599,-552.000000,3080.000000
600,-552.000000,3040.000000
601,-544.000000,3040.000000
602,-552.000000,3040.000000
603,-544.000000,3040.000000
604,-552.000000,3080.000000
605,-552.000000,3080.000000
606,-552.000000,3080.000000
607,-560.000000,3080.000000
608,-560.000000,3080.000000
609,-552.000000,3080.000000
610,-536.000000,3080.000000
611,-544.000000,3040.000000
612,-544.000000,3080.000000
613,-544.000000,3040.000000
614,-544.000000,3040.000000
615,-544.000000,3040.000000
616,-536.000000,3040.000000
617,-536.000000,3080.000000
618,-544.000000,3080.000000
619,-528.000000,3080.000000
620,-536.000000,3080.000000
621,-536.000000,3040.000000
622,-536.000000,3040.000000
623,-536.000000,3040.000000
624,-552.000000,3080.000000
625,-544.000000,3040.000000
626,-544.000000,3040.000000
627,-544.000000,3080.000000
628,-544.000000,3080.000000
629,-544.000000,3080.000000
630,-552.000000,3080.000000
631,-552.000000,3080.000000
632,-552.000000,3040.000000
633,-552.000000,3080.000000
634,-552.000000,3080.000000
635,-552.000000,3040.000000
636,-552.000000,3040.000000
637,-552.000000,3080.000000
638,-544.000000,3040.000000
639,-552.000000,3080.000000
640,-552.000000,3080.000000
641,-552.000000,3080.000000
642,-552.000000,3080.000000
643,-552.000000,3080.000000
644,-544.000000,3040.000000
645,-544.000000,3040.000000
646,-544.000000,3040.000000
647,-544.000000,3040.000000
648,-544.000000,3040.000000
649,-544.000000,3080.000000
650,-544.000000,3080.000000
651,-544.000000,3080.000000
652,-552.000000,3040.000000
653,-544.000000,3080.000000
654,-544.000000,3080.000000
655,-544.000000,3080.000000
656,-552.000000,3080.000000
657,-544.000000,3080.000000
658,-552.000000,3080.000000
659,-552.000000,3040.000000
660,-544.000000,3080.000000
661,-552.000000,3040.000000
662,-552.000000,3080.000000
663,-544.000000,3080.000000
664,-544.000000,3080.000000
665,-544.000000,3080.000000
666,-552.000000,3080.000000
667,-552.000000,3080.000000
668,-544.000000,3080.000000
669,-544.000000,3080.000000
670,-544.000000,3080.000000
671,-544.000000,3040.000000
672,-552.000000,3040.000000
673,-552.000000,3080.000000
674,-552.000000,3040.000000
675,-552.000000,3040.000000
676,-552.000000,3040.000000
677,-552.000000,3040.000000
678,-552.000000,3080.000000
679,-552.000000,3080.000000
680,-544.000000,3040.000000
681,-552.000000,3080.000000
682,-544.000000,3040.000000
683,-544.000000,3040.000000
684,-544.000000,3080.000000
685,-544.000000,3040.000000
686,-544.000000,3080.000000
687,-544.000000,3040.000000
688,-544.000000,3040.000000
689,-536.000000,3040.000000
690,-544.000000,3080.000000
691,-544.000000,3080.000000
692,-536.000000,3080.000000
693,-544.000000,3080.000000
694,-536.000000,3040.000000
695,-544.000000,3080.000000
696,-544.000000,3080.000000
697,-544.000000,3080.000000
698,-544.000000,3080.000000
699,-544.000000,3080.000000
700,-544.000000,3080.000000
701,-544.000000,3040.000000
702,-544.000000,3080.000000
703,-552.000000,3040.000000
704,-552.000000,3040.000000
705,-552.000000,3080.000000
706,-544.000000,3040.000000
707,-552.000000,3040.000000
