repport_data/pow_reoptimization_1/data_49_008.csv

Channel              :,CH1,CH2
Frequency            :,  ?,  ?
Period               :,  ?,  ?
PK-PK                :,848.0mV,120.0mV
Probe attenuation    :,1X,1X
Voltage per ADC value:,0.500000mV,2.500000mV
Time interval        :,200.00000uS,200.00000uS

index,CH1_Voltage(mV),CH2_Voltage(mV)
1,-544.000000,3080.000000
2,-544.000000,3080.000000
3,-544.000000,3080.000000
4,-544.000000,3080.000000
5,-544.000000,3040.000000
6,-544.000000,3040.000000
7,-552.000000,3080.000000
8,-544.000000,3080.000000
9,-544.000000,3040.000000
10,-544.000000,3080.000000
11,-552.000000,3040.000000
12,-544.000000,3080.000000
13,-552.000000,3080.000000
14,-544.000000,3040.000000
15,-536.000000,3080.000000
16,-552.000000,3040.000000
17,-552.000000,3080.000000
18,-544.000000,3080.000000
19,-544.000000,3080.000000
20,-544.000000,3080.000000
21,-544.000000,3040.000000
22,-544.000000,3040.000000
23,-544.000000,3040.000000
24,-544.000000,3080.000000
25,-544.000000,3080.000000
26,-544.000000,3080.000000
27,-544.000000,3040.000000
28,-536.000000,3040.000000
29,-544.000000,3080.000000
30,-544.000000,3080.000000
31,-544.000000,3080.000000
32,-552.000000,3040.000000
33,-544.000000,3040.000000
34,-552.000000,3080.000000
35,-544.000000,3040.000000
36,-544.000000,3040.000000
37,-544.000000,3080.000000
38,-544.000000,3080.000000
39,-544.000000,3080.000000
40,-544.000000,3080.000000
41,-552.000000,3080.000000
42,-552.000000,3080.000000
43,-544.000000,3040.000000
44,-544.000000,3040.000000
45,-544.000000,3080.000000
46,-552.000000,3080.000000
47,-544.000000,3080.000000
48,-552.000000,3080.000000
49,-552.000000,3080.000000
50,-544.000000,3080.000000
51,-544.000000,3080.000000
52,-552.000000,3080.000000
53,-544.000000,3080.000000
54,-552.000000,3080.000000
55,-552.000000,3080.000000
56,-552.000000,3040.000000
57,-544.000000,3080.000000
58,-552.000000,3080.000000
59,-544.000000,3080.000000
60,-552.000000,3040.000000
61,-536.000000,3080.000000
62,-552.000000,3080.000000
63,-544.000000,3080.000000
64,-544.000000,3080.000000
65,-544.000000,3080.000000
66,-544.000000,3080.000000
67,-544.000000,3080.000000
68,-544.000000,3080.000000
69,-552.000000,3080.000000
70,-544.000000,3080.000000
71,-544.000000,3080.000000
72,-544.000000,3080.000000
73,-536.000000,3040.000000
74,-544.000000,3080.000000
75,-544.000000,3040.000000
76,-544.000000,3080.000000
77,-544.000000,3080.000000
78,-544.000000,3040.000000
79,-552.000000,3040.000000
80,-552.000000,3040.000000
81,-552.000000,3040.000000
82,-552.000000,3040.000000
83,-544.000000,3040.000000
84,-544.000000,3080.000000
85,-552.000000,3040.000000
86,-544.000000,3080.000000
87,-552.000000,3080.000000
88,-552.000000,3080.000000
89,-552.000000,3040.000000
90,-552.000000,3080.000000
91,-552.000000,3080.000000
92,-544.000000,3040.000000
93,-544.000000,3040.000000
94,-544.000000,3040.000000
95,-552.000000,3080.000000
96,-552.000000,3080.000000
97,-544.000000,3080.000000
98,-552.000000,3080.000000
99,-544.000000,3080.000000
100,-552.000000,3080.000000
101,-544.000000,3080.000000
102,-544.000000,3080.000000
103,-536.000000,3040.000000
104,-552.000000,3040.000000
105,-544.000000,3040.000000
106,-544.000000,3080.000000
107,-552.000000,3080.000000
108,-544.000000,3080.000000
109,-552.000000,3080.000000
110,-552.000000,3080.000000
111,-552.000000,3080.000000
112,-544.000000,3040.000000
113,-536.000000,3080.000000
114,-544.000000,3080.000000
115,-560.000000,3080.000000
116,-544.000000,3040.000000
117,-544.000000,3040.000000
118,-544.000000,3040.000000
119,-544.000000,3040.000000
120,-552.000000,3040.000000
121,-544.000000,3080.000000
122,-544.000000,3080.000000
123,-544.000000,3080.000000
124,-552.000000,3040.000000
125,-552.000000,3040.000000
126,-552.000000,3040.000000
127,-552.000000,3080.000000
128,-552.000000,3080.000000
129,-544.000000,3080.000000
130,-544.000000,3080.000000
131,-544.000000,3040.000000
132,-544.000000,3040.000000
133,-552.000000,3080.000000
134,-544.000000,3080.000000
135,-544.000000,3040.000000
136,-544.000000,3040.000000
137,-544.000000,3040.000000
138,-544.000000,3080.000000
139,-544.000000,3040.000000
140,-544.000000,3040.000000
141,-544.000000,3080.000000
142,-536.000000,3080.000000
143,-544.000000,3080.000000
144,-552.000000,3080.000000
145,-544.000000,3080.000000
146,-544.000000,3080.000000
147,-544.000000,3080.000000
148,-544.000000,3040.000000
149,-544.000000,3080.000000
150,-544.000000,3080.000000
151,-544.000000,3040.000000
152,-544.000000,3080.000000
153,-544.000000,3080.000000
154,-544.000000,3080.000000
155,-544.000000,3080.000000
156,-544.000000,3080.000000
157,-552.000000,3040.000000
158,-544.000000,3080.000000
159,-552.000000,3080.000000
160,-544.000000,3080.000000
161,-544.000000,3080.000000
162,-552.000000,3040.000000
163,-552.000000,3080.000000
164,-544.000000,3080.000000
165,-552.000000,3080.000000
166,-552.000000,3080.000000
167,-552.000000,3080.000000
168,-552.000000,3040.000000
169,-552.000000,3080.000000
170,-552.000000,3040.000000
171,-552.000000,3080.000000
172,-544.000000,3080.000000
173,-544.000000,3080.000000
174,-544.000000,3080.000000
175,-544.000000,3080.000000
176,-544.000000,3080.000000
177,-544.000000,3080.000000
178,-544.000000,3040.000000
179,-552.000000,3080.000000
180,-552.000000,3080.000000
181,-544.000000,3080.000000
182,-544.000000,3040.000000
183,-544.000000,3040.000000
184,-552.000000,3080.000000
185,-544.000000,3080.000000
186,-552.000000,3080.000000
187,-544.000000,3040.000000
188,-552.000000,3080.000000
189,-544.000000,3080.000000
190,-552.000000,3080.000000
191,-544.000000,3080.000000
192,-544.000000,3080.000000
193,-544.000000,3040.000000
194,-544.000000,3040.000000
195,-544.000000,3040.000000
196,-544.000000,3080.000000
197,-544.000000,3040.000000
198,-552.000000,3080.000000
199,-552.000000,3040.000000
200,-552.000000,3080.000000
201,-552.000000,3080.000000
202,-552.000000,3080.000000
203,-544.000000,3080.000000
204,-544.000000,3040.000000
205,-544.000000,3080.000000
206,-552.000000,3080.000000
207,-544.000000,3080.000000
208,-544.000000,3080.000000
209,-536.000000,3080.000000
210,-544.000000,3040.000000
211,-544.000000,3040.000000
212,-536.000000,3080.000000
213,-552.000000,3080.000000
214,-552.000000,3040.000000
215,-544.000000,3080.000000
216,-544.000000,3080.000000
217,-544.000000,3040.000000
218,-544.000000,3080.000000
219,-536.000000,3040.000000
220,-544.000000,3080.000000
221,-536.000000,3080.000000
222,-544.000000,3040.000000
223,-536.000000,3080.000000
224,-552.000000,3040.000000
225,-544.000000,3080.000000
226,-544.000000,3080.000000
227,-552.000000,3080.000000
228,-552.000000,3080.000000
229,-552.000000,3080.000000
230,-552.000000,3080.000000
231,-544.000000,3080.000000
232,-552.000000,3080.000000
233,-552.000000,3080.000000
234,-552.000000,3040.000000
235,-552.000000,3080.000000
236,-552.000000,3080.000000
237,-552.000000,3080.000000
238,-552.000000,3040.000000
239,-552.000000,3080.000000
240,-544.000000,3040.000000
241,-552.000000,3040.000000
242,-552.000000,3080.000000
243,-544.000000,3040.000000
244,-544.000000,3080.000000
245,-544.000000,3040.000000
246,-544.000000,3040.000000
247,-552.000000,3040.000000
248,-552.000000,3080.000000
249,-552.000000,3080.000000
250,-544.000000,3080.000000
251,-544.000000,3040.000000
252,-544.000000,3040.000000
253,-552.000000,3040.000000
254,-552.000000,3040.000000
255,-552.000000,3080.000000
256,-544.000000,3080.000000
257,-544.000000,3080.000000
258,-544.000000,3040.000000
259,-568.000000,3040.000000
260,-520.000000,3080.000000
261,-544.000000,3080.000000
262,-544.000000,3080.000000
263,-528.000000,3080.000000
264,-552.000000,3080.000000
265,-544.000000,3040.000000
266,-544.000000,3040.000000
267,-552.000000,3080.000000
268,-552.000000,3040.000000
269,-544.000000,3080.000000
270,-544.000000,3080.000000
271,-544.000000,3080.000000
272,-552.000000,3040.000000
273,-552.000000,3040.000000
274,-560.000000,3080.000000
275,-552.000000,3080.000000
276,-552.000000,3040.000000
277,-552.000000,3040.000000
278,-544.000000,3080.000000
279,-552.000000,3080.000000
280,-544.000000,3040.000000
281,-544.000000,3080.000000
282,-536.000000,3040.000000
283,-544.000000,3080.000000
284,-544.000000,3040.000000
285,-544.000000,3040.000000
286,-544.000000,3080.000000
287,-544.000000,3080.000000
288,-552.000000,3040.000000
289,-544.000000,3080.000000
290,-544.000000,3080.000000
291,-544.000000,3080.000000
292,-536.000000,3080.000000
293,-544.000000,3080.000000
294,-536.000000,3080.000000
295,-536.000000,3040.000000
296,-544.000000,3040.000000
297,-544.000000,3080.000000
298,-544.000000,3080.000000
299,-536.000000,3080.000000
300,-544.000000,3080.000000
301,-552.000000,3040.000000
302,-552.000000,3040.000000
303,-544.000000,3080.000000
304,-552.000000,3080.000000
305,-544.000000,3080.000000
306,-544.000000,3040.000000
307,-544.000000,3080.000000
308,-544.000000,3080.000000
309,-552.000000,3040.000000
310,-544.000000,3040.000000
311,-544.000000,3080.000000
312,-544.000000,3040.000000
313,-544.000000,3080.000000
314,-544.000000,3040.000000
315,-552.000000,3080.000000
316,-544.000000,3040.000000
317,-552.000000,3080.000000
318,-544.000000,3080.000000
319,-544.000000,3040.000000
320,-544.000000,3080.000000
321,-544.000000,3040.000000
322,-544.000000,3080.000000
323,-544.000000,3080.000000
324,-544.000000,3080.000000
325,-544.000000,3080.000000
326,-544.000000,3080.000000
327,-544.000000,3080.000000
328,-544.000000,3080.000000
329,-544.000000,3080.000000
330,-552.000000,3080.000000
331,-544.000000,3040.000000
332,-544.000000,3040.000000
333,-544.000000,3040.000000
334,-536.000000,3080.000000
335,-544.000000,3080.000000
336,-544.000000,3080.000000
337,-544.000000,3040.000000
338,-552.000000,3080.000000
339,-544.000000,3040.000000
340,-544.000000,3080.000000
341,-544.000000,3080.000000
342,-552.000000,3080.000000
343,-552.000000,3040.000000
344,-552.000000,3080.000000
345,-552.000000,3040.000000
346,-552.000000,3080.000000
347,-552.000000,3040.000000
348,-552.000000,3080.000000
349,-552.000000,3080.000000
350,-552.000000,3080.000000
351,-552.000000,3040.000000
352,-544.000000,3040.000000
353,-552.000000,3080.000000
354,-544.000000,3080.000000
355,-544.000000,3080.000000
356,-544.000000,3040.000000
357,-544.000000,3040.000000
358,-544.000000,3040.000000
359,-552.000000,3040.000000
360,-544.000000,3080.000000
361,-544.000000,3040.000000
362,-544.000000,3080.000000
363,-544.000000,3040.000000
364,-544.000000,3040.000000
365,-536.000000,3080.000000
366,-536.000000,3080.000000
367,-544.000000,3080.000000
368,-544.000000,3080.000000
369,-544.000000,3040.000000
370,-544.000000,3040.000000
371,-552.000000,3080.000000
372,-544.000000,3080.000000
373,-552.000000,3080.000000
374,-552.000000,3080.000000
375,-544.000000,3080.000000
376,-544.000000,3040.000000
377,-544.000000,3040.000000
378,-552.000000,3040.000000
379,-544.000000,3080.000000
380,-544.000000,3080.000000
381,-544.000000,3040.000000
382,-552.000000,3080.000000
383,-552.000000,3040.000000
384,-552.000000,3040.000000
385,-544.000000,3040.000000
386,-544.000000,3080.000000
387,-552.000000,3080.000000
388,-552.000000,3040.000000
389,-544.000000,3080.000000
390,-544.000000,3080.000000
391,-552.000000,3080.000000
392,-536.000000,3040.000000
393,-544.000000,3080.000000
394,-544.000000,3040.000000
395,-552.000000,3080.000000
396,-544.000000,3040.000000
397,-544.000000,3080.000000
398,-544.000000,3080.000000
399,-544.000000,3040.000000
400,-544.000000,3040.000000
401,-544.000000,3080.000000
402,-544.000000,3080.000000
403,-536.000000,3080.000000
404,-544.000000,3080.000000
405,-536.000000,3080.000000
406,-552.000000,3080.000000
407,-544.000000,3080.000000
408,-552.000000,3080.000000
409,-552.000000,3040.000000
410,-552.000000,3040.000000
411,-536.000000,3080.000000
412,-552.000000,3080.000000
413,-544.000000,3080.000000
414,-552.000000,3040.000000
415,-552.000000,3080.000000
416,-544.000000,3080.000000
417,-552.000000,3080.000000
418,-544.000000,3040.000000
419,-552.000000,3080.000000
420,-552.000000,3080.000000
421,-552.000000,3040.000000
422,-552.000000,3040.000000
423,-544.000000,3040.000000
424,-552.000000,3040.000000
425,-552.000000,3040.000000
426,-552.000000,3080.000000
427,-544.000000,3040.000000
428,-544.000000,3080.000000
429,-536.000000,3040.000000
430,-544.000000,3080.000000
431,-544.000000,3080.000000
432,-544.000000,3080.000000
433,-536.000000,3080.000000
434,-544.000000,3080.000000
435,-544.000000,3080.000000
436,-552.000000,3080.000000
437,-544.000000,3080.000000
438,-544.000000,3080.000000
439,-544.000000,3080.000000
440,-536.000000,3040.000000
441,-544.000000,3040.000000
442,-544.000000,3040.000000
443,-536.000000,3080.000000
444,-544.000000,3080.000000
445,-536.000000,3080.000000
446,-544.000000,3080.000000
447,-552.000000,3080.000000
448,-544.000000,3080.000000
449,-544.000000,3080.000000
450,-544.000000,3080.000000
451,-552.000000,3080.000000
452,-552.000000,3040.000000
453,-552.000000,3080.000000
454,-552.000000,3080.000000
455,-552.000000,3040.000000
456,-544.000000,3040.000000
457,-544.000000,3080.000000
458,-552.000000,3080.000000
459,-544.000000,3040.000000
460,-552.000000,3080.000000
461,-552.000000,3080.000000
462,-544.000000,3080.000000
463,-544.000000,3080.000000
464,-552.000000,3080.000000
465,-536.000000,3080.000000
466,-560.000000,3040.000000
467,-544.000000,3080.000000
468,-544.000000,3040.000000
469,-544.000000,3080.000000
470,-544.000000,3080.000000
471,-552.000000,3040.000000
472,-544.000000,3080.000000
473,-552.000000,3040.000000
474,-552.000000,3080.000000
475,-544.000000,3080.000000
476,-552.000000,3080.000000
477,-544.000000,3080.000000
478,-544.000000,3040.000000
479,-544.000000,3080.000000
480,-544.000000,3080.000000
481,-544.000000,3080.000000
482,-560.000000,3080.000000
483,-544.000000,3040.000000
484,-552.000000,3080.000000
485,-552.000000,3080.000000
486,-552.000000,3080.000000
487,-544.000000,3080.000000
488,-544.000000,3080.000000
489,-544.000000,3040.000000
490,-544.000000,3040.000000
491,-544.000000,3080.000000
492,-552.000000,3080.000000
493,-544.000000,3040.000000
494,-552.000000,3080.000000
495,-552.000000,3080.000000
496,-552.000000,3080.000000
497,-552.000000,3080.000000
498,-552.000000,3080.000000
499,-544.000000,3080.000000
500,-544.000000,3080.000000
501,-544.000000,3080.000000
502,-544.000000,3080.000000
503,-552.000000,3080.000000
504,-544.000000,3040.000000
505,-544.000000,3040.000000
506,-544.000000,3040.000000
507,-544.000000,3080.000000
508,-544.000000,3080.000000
509,-544.000000,3080.000000
510,-536.000000,3080.000000
511,-544.000000,3040.000000
512,-544.000000,3040.000000
513,-544.000000,3080.000000
514,-544.000000,3040.000000
515,-536.000000,3080.000000
516,-544.000000,3040.000000
517,-544.000000,3080.000000
518,-544.000000,3080.000000
519,-544.000000,3080.000000
520,-544.000000,3080.000000
521,-544.000000,3040.000000
522,-544.000000,3080.000000
523,-552.000000,3080.000000
524,-544.000000,3080.000000
525,-536.000000,3080.000000
526,-536.000000,3080.000000
527,-544.000000,3040.000000
528,-552.000000,3040.000000
529,-544.000000,3040.000000
530,-552.000000,3040.000000
531,-552.000000,3040.000000
532,-552.000000,3080.000000
533,-552.000000,3040.000000
534,-544.000000,3080.000000
535,-552.000000,3040.000000
536,-552.000000,3080.000000
537,-552.000000,3080.000000
538,-544.000000,3040.000000
539,-552.000000,3080.000000
540,-544.000000,3040.000000
541,-552.000000,3080.000000
542,-552.000000,3080.000000
543,-552.000000,3080.000000
544,-544.000000,3080.000000
545,-552.000000,3040.000000
546,-552.000000,3080.000000
547,-552.000000,3080.000000
548,-544.000000,3040.000000
549,-552.000000,3080.000000
550,-552.000000,3080.000000
551,-552.000000,3080.000000
552,-552.000000,3080.000000
553,-544.000000,3040.000000
554,-544.000000,3080.000000
555,-544.000000,3080.000000
556,-552.000000,3040.000000
557,-552.000000,3040.000000
558,-544.000000,3040.000000
559,-544.000000,3040.000000
560,-544.000000,3040.000000
561,-544.000000,3040.000000
562,-544.000000,3040.000000
563,-552.000000,3080.000000
564,-544.000000,3040.000000
565,-552.000000,3040.000000
566,-552.000000,3080.000000
567,-552.000000,3080.000000
568,-544.000000,3080.000000
569,-552.000000,3080.000000
570,-552.000000,3040.000000
571,-544.000000,3080.000000
572,-544.000000,3080.000000
573,-552.000000,3080.000000
574,-552.000000,3080.000000
575,-544.000000,3080.000000
576,-544.000000,3080.000000
577,-552.000000,3040.000000
578,-544.000000,3080.000000
579,-544.000000,3040.000000
580,-544.000000,3080.000000
581,-544.000000,3080.000000
582,-544.000000,3080.000000
583,-544.000000,3080.000000
584,-544.000000,3080.000000
585,-544.000000,3000.000000
586,-544.000000,3040.000000
587,-544.000000,3080.000000
588,-544.000000,3080.000000
589,-544.000000,3080.000000
590,-544.000000,3040.000000
591,-552.000000,3080.000000
592,-544.000000,3040.000000
593,-544.000000,3080.000000
594,-544.000000,3080.000000
595,-544.000000,3040.000000
596,-544.000000,3080.000000
597,-544.000000,3080.000000
598,-544.000000,3080.000000
599,-544.000000,3080.000000
600,-552.000000,3080.000000
601,-544.000000,3040.000000
602,-544.000000,3080.000000
603,-536.000000,3080.000000
604,-552.000000,3080.000000
605,-544.000000,3040.000000
606,-616.000000,3040.000000
607,-552.000000,3080.000000
608,-552.000000,3080.000000
609,-552.000000,3080.000000
610,-544.000000,3040.000000
611,-544.000000,3080.000000
612,-552.000000,3040.000000
613,-544.000000,3040.000000
614,-544.000000,3080.000000
615,-544.000000,3080.000000
616,-536.000000,3040.000000
617,-552.000000,3040.000000
618,-544.000000,3040.000000
619,-552.000000,3080.000000
620,-544.000000,3040.000000
621,-552.000000,3080.000000
622,-544.000000,3080.000000
623,-552.000000,3080.000000
624,-552.000000,3080.000000
625,-552.000000,3040.000000
626,-544.000000,3040.000000
627,-552.000000,3080.000000
628,-544.000000,3040.000000
629,-552.000000,3080.000000
630,-544.000000,3080.000000
631,-552.000000,3040.000000
632,-552.000000,3080.000000
633,-552.000000,3080.000000
634,-544.000000,3040.000000
635,-552.000000,3040.000000
636,-552.000000,3040.000000
637,-544.000000,3080.000000
638,-552.000000,3040.000000
639,-544.000000,3080.000000
640,-544.000000,3080.000000
641,-552.000000,3040.000000
642,-544.000000,3080.000000
643,-552.000000,3040.000000
644,-552.000000,3080.000000
645,-544.000000,3080.000000
646,-552.000000,3040.000000
647,-552.000000,3080.000000
648,-552.000000,3040.000000
649,-552.000000,3080.000000
650,-552.000000,3080.000000
651,-544.000000,3040.000000
652,-544.000000,3040.000000
653,-552.000000,3040.000000
654,-544.000000,3040.000000
655,-544.000000,3040.000000
656,-536.000000,3040.000000
657,-544.000000,3040.000000
658,-536.000000,3080.000000
659,-544.000000,3080.000000
660,-536.000000,3080.000000
661,-544.000000,3080.000000
662,-544.000000,3080.000000
663,-544.000000,3080.000000
664,-536.000000,3080.000000
665,-544.000000,3080.000000
666,-536.000000,3080.000000
667,-536.000000,3080.000000
668,-544.000000,3080.000000
669,-544.000000,3080.000000
670,-544.000000,3080.000000
671,-536.000000,3080.000000
672,-544.000000,3080.000000
673,-544.000000,3040.000000
674,-544.000000,3080.000000
675,-552.000000,3080.000000
676,-536.000000,3080.000000
677,-552.000000,3040.000000
678,-552.000000,3080.000000
679,-552.000000,3040.000000
680,-552.000000,3040.000000
681,-552.000000,3080.000000
682,-544.000000,3040.000000
683,-552.000000,3080.000000
684,-544.000000,3080.000000
685,-544.000000,3040.000000
686,-544.000000,3080.000000
687,-552.000000,3040.000000
688,-552.000000,3080.000000
689,-544.000000,3080.000000
690,-552.000000,3040.000000
691,-552.000000,3040.000000
692,-552.000000,3080.000000
693,-544.000000,3040.000000
694,-544.000000,3080.000000
695,-544.000000,3080.000000
696,-544.000000,3080.000000
697,-552.000000,3040.000000
698,-544.000000,3040.000000
699,-552.000000,3040.000000
700,-552.000000,3080.000000
701,-544.000000,3040.000000
702,-536.000000,3040.000000
703,-544.000000,3080.000000
704,-552.000000,3080.000000
705,-544.000000,3040.000000
706,-544.000000,3080.000000
707,-552.000000,3080.000000
