repport_data/pow_reoptimization_1/data_49_007.csv

Channel              :,CH1,CH2
Frequency            :,  ?,  ?
Period               :,  ?,  ?
PK-PK                :,864.0mV,160.0mV
Probe attenuation    :,1X,1X
Voltage per ADC value:,0.500000mV,2.500000mV
Time interval        :,200.00000uS,200.00000uS

index,CH1_Voltage(mV),CH2_Voltage(mV)
1,176.000000,3040.000000
2,176.000000,3040.000000
3,176.000000,3040.000000
4,176.000000,3040.000000
5,176.000000,3040.000000
6,168.000000,3080.000000
7,176.000000,3040.000000
8,176.000000,3040.000000
9,176.000000,3040.000000
10,176.000000,3080.000000
11,168.000000,3040.000000
12,168.000000,3040.000000
13,168.000000,3040.000000
14,160.000000,3040.000000
15,168.000000,3040.000000
16,160.000000,3040.000000
17,168.000000,3040.000000
18,168.000000,3040.000000
19,168.000000,3040.000000
20,168.000000,3080.000000
21,160.000000,3040.000000
22,168.000000,3040.000000
23,168.000000,3080.000000
24,168.000000,3080.000000
25,168.000000,3040.000000
26,176.000000,3040.000000
27,176.000000,3080.000000
28,176.000000,3040.000000
29,176.000000,3040.000000
30,184.000000,3040.000000
31,176.000000,3040.000000
32,176.000000,3040.000000
33,168.000000,3040.000000
34,176.000000,3040.000000
35,176.000000,3040.000000
36,176.000000,3040.000000
37,176.000000,3040.000000
38,184.000000,3040.000000
39,176.000000,3040.000000
40,168.000000,3040.000000
41,176.000000,3080.000000
42,192.000000,3040.000000
43,184.000000,3040.000000
44,184.000000,3080.000000
45,176.000000,3040.000000
46,184.000000,3040.000000
47,184.000000,3080.000000
48,184.000000,3040.000000
49,184.000000,3040.000000
50,184.000000,3040.000000
51,184.000000,3080.000000
52,184.000000,3040.000000
53,184.000000,3080.000000
54,184.000000,3040.000000
55,184.000000,3040.000000
56,184.000000,3040.000000
57,184.000000,3040.000000
58,184.000000,3040.000000
59,192.000000,3040.000000
60,184.000000,3040.000000
61,184.000000,3040.000000
62,184.000000,3040.000000
63,184.000000,3040.000000
64,184.000000,3040.000000
65,192.000000,3040.000000
66,192.000000,3040.000000
67,192.000000,3040.000000
68,184.000000,3080.000000
69,184.000000,3040.000000
70,192.000000,3040.000000
71,192.000000,3080.000000
72,192.000000,3080.000000
73,192.000000,3080.000000
74,192.000000,3040.000000
75,184.000000,3040.000000
76,192.000000,3080.000000
77,192.000000,3040.000000
78,184.000000,3040.000000
79,184.000000,3040.000000
80,184.000000,3040.000000
81,184.000000,3040.000000
82,176.000000,3040.000000
83,184.000000,3040.000000
84,184.000000,3080.000000
85,184.000000,3040.000000
86,184.000000,3040.000000
87,176.000000,3040.000000
88,192.000000,3040.000000
89,184.000000,3040.000000
90,184.000000,3040.000000
91,184.000000,3080.000000
92,184.000000,3040.000000
93,184.000000,3040.000000
94,184.000000,3040.000000
95,184.000000,3040.000000
96,184.000000,3040.000000
97,176.000000,3040.000000
98,176.000000,3040.000000
99,184.000000,3040.000000
100,176.000000,3040.000000
101,176.000000,3040.000000
102,176.000000,3040.000000
103,176.000000,3040.000000
104,176.000000,3080.000000
105,176.000000,3080.000000
106,168.000000,3040.000000
107,168.000000,3040.000000
108,168.000000,3040.000000
109,168.000000,3040.000000
110,168.000000,3040.000000
111,160.000000,3040.000000
112,168.000000,3080.000000
113,160.000000,3080.000000
114,160.000000,3080.000000
115,160.000000,3040.000000
116,152.000000,3040.000000
117,168.000000,3080.000000
118,168.000000,3040.000000
119,168.000000,3040.000000
120,168.000000,3040.000000
121,160.000000,3040.000000
122,168.000000,3040.000000
123,168.000000,3040.000000
124,168.000000,3040.000000
125,168.000000,3040.000000
126,168.000000,3040.000000
127,160.000000,3080.000000
128,168.000000,3040.000000
129,168.000000,3040.000000
130,168.000000,3040.000000
131,168.000000,3080.000000
132,160.000000,3040.000000
133,168.000000,3040.000000
134,192.000000,3040.000000
135,176.000000,3040.000000
136,168.000000,3040.000000
137,160.000000,3040.000000
138,176.000000,3040.000000
139,160.000000,3040.000000
140,152.000000,3080.000000
141,160.000000,3080.000000
142,160.000000,3080.000000
143,160.000000,3080.000000
144,160.000000,3040.000000
145,160.000000,3040.000000
146,128.000000,3040.000000
147,72.000000,3040.000000
148,24.000000,3040.000000
149,-24.000000,3040.000000
150,-56.000000,3080.000000
151,-96.000000,3040.000000
152,-128.000000,3040.000000
153,-168.000000,3040.000000
154,-192.000000,3040.000000
155,-224.000000,3040.000000
156,-256.000000,3080.000000
157,-288.000000,3040.000000
158,-312.000000,3040.000000
159,-328.000000,3040.000000
160,-352.000000,3080.000000
161,-376.000000,3040.000000
162,-384.000000,3040.000000
163,-400.000000,3040.000000
164,-416.000000,3040.000000
165,-432.000000,3080.000000
166,-448.000000,3080.000000
167,-456.000000,3040.000000
168,-464.000000,3040.000000
169,-472.000000,3040.000000
170,-472.000000,3040.000000
171,-488.000000,3040.000000
172,-496.000000,3040.000000
173,-504.000000,3040.000000
174,-512.000000,3080.000000
175,-512.000000,3040.000000
176,-520.000000,3040.000000
177,-520.000000,3080.000000
178,-528.000000,3040.000000
179,-536.000000,3040.000000
180,-536.000000,3040.000000
181,-536.000000,3040.000000
182,-544.000000,3080.000000
183,-544.000000,3040.000000
184,-544.000000,3040.000000
185,-552.000000,3040.000000
186,-544.000000,3040.000000
187,-560.000000,3040.000000
188,-552.000000,3040.000000
189,-560.000000,3080.000000
190,-560.000000,3040.000000
191,-560.000000,3040.000000
192,-568.000000,3080.000000
193,-560.000000,3040.000000
194,-568.000000,3040.000000
195,-568.000000,3080.000000
196,-568.000000,3040.000000
197,-568.000000,3040.000000
198,-568.000000,3040.000000
199,-568.000000,3040.000000
200,-568.000000,3040.000000
201,-568.000000,3080.000000
202,-576.000000,3040.000000
203,-568.000000,3040.000000
204,-568.000000,3040.000000
205,-568.000000,3080.000000
206,-568.000000,3040.000000
207,-568.000000,3080.000000
208,-576.000000,3040.000000
209,-568.000000,3040.000000
210,-576.000000,3040.000000
211,-568.000000,3040.000000
212,-576.000000,3040.000000
213,-568.000000,3040.000000
214,-568.000000,3040.000000
215,-568.000000,3040.000000
216,-568.000000,3080.000000
217,-576.000000,3080.000000
218,-576.000000,3080.000000
219,-568.000000,3040.000000
220,-576.000000,3040.000000
221,-576.000000,3040.000000
222,-576.000000,3040.000000
223,-576.000000,3040.000000
224,-576.000000,3080.000000
225,-576.000000,3080.000000
226,-568.000000,3080.000000
227,-576.000000,3080.000000
228,-568.000000,3040.000000
229,-576.000000,3080.000000
230,-568.000000,3040.000000
231,-568.000000,3040.000000
232,-568.000000,3040.000000
233,-576.000000,3040.000000
234,-568.000000,3040.000000
235,-576.000000,3040.000000
236,-576.000000,3040.000000
237,-576.000000,3040.000000
238,-576.000000,3040.000000
239,-568.000000,3040.000000
240,-568.000000,3040.000000
241,-568.000000,3040.000000
242,-568.000000,3040.000000
243,-576.000000,3080.000000
244,-576.000000,3080.000000
245,-576.000000,3040.000000
246,-568.000000,3040.000000
247,-568.000000,3040.000000
248,-568.000000,3080.000000
249,-568.000000,3040.000000
250,-568.000000,3080.000000
251,-576.000000,3040.000000
252,-576.000000,3040.000000
253,-568.000000,3040.000000
254,-576.000000,3040.000000
255,-576.000000,3040.000000
256,-576.000000,3000.000000
257,-576.000000,3040.000000
258,-568.000000,3040.000000
259,-576.000000,3040.000000
260,-568.000000,3080.000000
261,-568.000000,3080.000000
262,-576.000000,3040.000000
263,-568.000000,3040.000000
264,-576.000000,3040.000000
265,-576.000000,3040.000000
266,-576.000000,3040.000000
267,-568.000000,3080.000000
268,-576.000000,3040.000000
269,-576.000000,3080.000000
270,-576.000000,3080.000000
271,-560.000000,3040.000000
272,-568.000000,3040.000000
273,-568.000000,3040.000000
274,-576.000000,3040.000000
275,-576.000000,3040.000000
276,-568.000000,3040.000000
277,-568.000000,3080.000000
278,-576.000000,3040.000000
279,-576.000000,3040.000000
280,-568.000000,3040.000000
281,-568.000000,3040.000000
282,-568.000000,3080.000000
283,-576.000000,3080.000000
284,-584.000000,3040.000000
285,-576.000000,3040.000000
286,-576.000000,3040.000000
287,-568.000000,3040.000000
288,-576.000000,3040.000000
289,-568.000000,3040.000000
290,-568.000000,3040.000000
291,-568.000000,3040.000000
292,-576.000000,3040.000000
293,-576.000000,3080.000000
294,-568.000000,3080.000000
295,-568.000000,3040.000000
296,-568.000000,3040.000000
297,-568.000000,3040.000000
298,-576.000000,3040.000000
299,-568.000000,3080.000000
300,-568.000000,3040.000000
301,-568.000000,3040.000000
302,-576.000000,3040.000000
303,-576.000000,3040.000000
304,-576.000000,3040.000000
305,-568.000000,3080.000000
306,-568.000000,3040.000000
307,-576.000000,3040.000000
308,-568.000000,3040.000000
309,-576.000000,3080.000000
310,-576.000000,3040.000000
311,-576.000000,3040.000000
312,-568.000000,3080.000000
313,-576.000000,3080.000000
314,-568.000000,3040.000000
315,-568.000000,3040.000000
316,-576.000000,3040.000000
317,-576.000000,3040.000000
318,-568.000000,3040.000000
319,-568.000000,3040.000000
320,-568.000000,3040.000000
321,-576.000000,3040.000000
322,-568.000000,3080.000000
323,-568.000000,3040.000000
324,-568.000000,3080.000000
325,-576.000000,3040.000000
326,-576.000000,3040.000000
327,-568.000000,3040.000000
328,-568.000000,3040.000000
329,-568.000000,3040.000000
330,-568.000000,3040.000000
331,-568.000000,3040.000000
332,-568.000000,3040.000000
333,-568.000000,3040.000000
334,-560.000000,3080.000000
335,-576.000000,3040.000000
336,-568.000000,3040.000000
337,-592.000000,3040.000000
338,-584.000000,3040.000000
339,-568.000000,3040.000000
340,-568.000000,3040.000000
341,-576.000000,3040.000000
342,-568.000000,3040.000000
343,-568.000000,3040.000000
344,-568.000000,3040.000000
345,-568.000000,3040.000000
346,-568.000000,3040.000000
347,-568.000000,3040.000000
348,-568.000000,3040.000000
349,-568.000000,3040.000000
350,-568.000000,3040.000000
351,-568.000000,3080.000000
352,-576.000000,3080.000000
353,-568.000000,3040.000000
354,-568.000000,3080.000000
355,-576.000000,3080.000000
356,-568.000000,3080.000000
357,-576.000000,3040.000000
358,-576.000000,3080.000000
359,-568.000000,3040.000000
360,-576.000000,3040.000000
361,-576.000000,3040.000000
362,-568.000000,3040.000000
363,-576.000000,3080.000000
364,-568.000000,3040.000000
365,-568.000000,3040.000000
366,-568.000000,3040.000000
367,-576.000000,3040.000000
368,-568.000000,3040.000000
369,-576.000000,3040.000000
370,-576.000000,3080.000000
371,-568.000000,3040.000000
372,-560.000000,3040.000000
373,-568.000000,3040.000000
374,-568.000000,3080.000000
375,-568.000000,3080.000000
376,-568.000000,3040.000000
377,-568.000000,3040.000000
378,-568.000000,3040.000000
379,-576.000000,3040.000000
380,-568.000000,3040.000000
381,-576.000000,3040.000000
382,-568.000000,3040.000000
383,-568.000000,3040.000000
384,-568.000000,3080.000000
385,-568.000000,3080.000000
386,-568.000000,3040.000000
387,-568.000000,3040.000000
388,-568.000000,3040.000000
389,-576.000000,3040.000000
390,-560.000000,3040.000000
391,-568.000000,3080.000000
392,-568.000000,3040.000000
393,-568.000000,3080.000000
394,-568.000000,3080.000000
395,-568.000000,3080.000000
396,-576.000000,3040.000000
397,-568.000000,3040.000000
398,-568.000000,3040.000000
399,-568.000000,3040.000000
400,-568.000000,3040.000000
401,-568.000000,3040.000000
402,-560.000000,3080.000000
403,-568.000000,3040.000000
404,-568.000000,3080.000000
405,-568.000000,3040.000000
406,-560.000000,3080.000000
407,-568.000000,3080.000000
408,-568.000000,3080.000000
409,-568.000000,3080.000000
410,-568.000000,3080.000000
411,-568.000000,3040.000000
412,-568.000000,3040.000000
413,-560.000000,3040.000000
414,-568.000000,3080.000000
415,-568.000000,3080.000000
416,-568.000000,3040.000000
417,-568.000000,3040.000000
418,-568.000000,3040.000000
419,-568.000000,3040.000000
420,-568.000000,3040.000000
421,-568.000000,3040.000000
422,-576.000000,3040.000000
423,-576.000000,3040.000000
424,-568.000000,3080.000000
425,-568.000000,3040.000000
426,-568.000000,3040.000000
427,-568.000000,3080.000000
428,-576.000000,3080.000000
429,-576.000000,3040.000000
430,-576.000000,3040.000000
431,-568.000000,3040.000000
432,-568.000000,3040.000000
433,-576.000000,3040.000000
434,-568.000000,3040.000000
435,-568.000000,3040.000000
436,-568.000000,3040.000000
437,-568.000000,3040.000000
438,-568.000000,3040.000000
439,-568.000000,3080.000000
440,-568.000000,3040.000000
441,-576.000000,3040.000000
442,-568.000000,3040.000000
443,-568.000000,3040.000000
444,-560.000000,3040.000000
445,-568.000000,3040.000000
446,-560.000000,3040.000000
447,-560.000000,3040.000000
448,-568.000000,3040.000000
449,-576.000000,3040.000000
450,-568.000000,3080.000000
451,-568.000000,3040.000000
452,-576.000000,3040.000000
453,-568.000000,3040.000000
454,-568.000000,3040.000000
455,-568.000000,3080.000000
456,-568.000000,3080.000000
457,-576.000000,3080.000000
458,-568.000000,3040.000000
459,-568.000000,3080.000000
460,-576.000000,3040.000000
461,-568.000000,3040.000000
462,-568.000000,3080.000000
463,-568.000000,3040.000000
464,-560.000000,3040.000000
465,-568.000000,3040.000000
466,-568.000000,3080.000000
467,-568.000000,3040.000000
468,-568.000000,3040.000000
469,-560.000000,3040.000000
470,-568.000000,3040.000000
471,-568.000000,3040.000000
472,-568.000000,3040.000000
473,-568.000000,3040.000000
474,-560.000000,3040.000000
475,-576.000000,3040.000000
476,-560.000000,3040.000000
477,-568.000000,3080.000000
478,-568.000000,3040.000000
479,-560.000000,3040.000000
480,-576.000000,3040.000000
481,-568.000000,3080.000000
482,-568.000000,3040.000000
483,-560.000000,3040.000000
484,-560.000000,3080.000000
485,-568.000000,3040.000000
486,-568.000000,3040.000000
487,-536.000000,3040.000000
488,-576.000000,3040.000000
489,-568.000000,3040.000000
490,-568.000000,3040.000000
491,-560.000000,3080.000000
492,-568.000000,3040.000000
493,-568.000000,3040.000000
494,-568.000000,3040.000000
495,-568.000000,3040.000000
496,-576.000000,3080.000000
497,-568.000000,3080.000000
498,-576.000000,3040.000000
499,-568.000000,3080.000000
500,-568.000000,3040.000000
501,-568.000000,3080.000000
502,-576.000000,3040.000000
503,-568.000000,3080.000000
504,-568.000000,3040.000000
505,-568.000000,3080.000000
506,-576.000000,3040.000000
507,-568.000000,3040.000000
508,-568.000000,3040.000000
509,-568.000000,3040.000000
510,-568.000000,3040.000000
511,-568.000000,3040.000000
512,-568.000000,3040.000000
513,-560.000000,3040.000000
514,-568.000000,3040.000000
515,-568.000000,3040.000000
516,-568.000000,3040.000000
517,-568.000000,3040.000000
518,-568.000000,3080.000000
519,-568.000000,3040.000000
520,-568.000000,3040.000000
521,-560.000000,3080.000000
522,-568.000000,3080.000000
523,-568.000000,3040.000000
524,-568.000000,3040.000000
525,-568.000000,3040.000000
526,-568.000000,3080.000000
527,-568.000000,3040.000000
528,-576.000000,3040.000000
529,-576.000000,3080.000000
530,-568.000000,3040.000000
531,-568.000000,3040.000000
532,-560.000000,3040.000000
533,-560.000000,3040.000000
534,-568.000000,3040.000000
535,-568.000000,3040.000000
536,-568.000000,3040.000000
537,-568.000000,3040.000000
538,-568.000000,3040.000000
539,-568.000000,3040.000000
540,-568.000000,3040.000000
541,-568.000000,3040.000000
542,-568.000000,3040.000000
543,-568.000000,3040.000000
544,-560.000000,3040.000000
545,-568.000000,3040.000000
546,-568.000000,3040.000000
547,-568.000000,3040.000000
548,-568.000000,3080.000000
549,-560.000000,3040.000000
550,-568.000000,3040.000000
551,-560.000000,3040.000000
552,-568.000000,3040.000000
553,-568.000000,3040.000000
554,-568.000000,3040.000000
555,-568.000000,3040.000000
556,-568.000000,3040.000000
557,-576.000000,3040.000000
558,-568.000000,3040.000000
559,-560.000000,3080.000000
560,-568.000000,3040.000000
561,-568.000000,3040.000000
562,-568.000000,3040.000000
563,-576.000000,3080.000000
564,-568.000000,3040.000000
565,-568.000000,3040.000000
566,-568.000000,3040.000000
567,-576.000000,3080.000000
568,-568.000000,3080.000000
569,-560.000000,3040.000000
570,-560.000000,3040.000000
571,-568.000000,3080.000000
572,-568.000000,3040.000000
573,-568.000000,3040.000000
574,-576.000000,3040.000000
575,-568.000000,3040.000000
576,-568.000000,3040.000000
577,-568.000000,3040.000000
578,-568.000000,3040.000000
579,-568.000000,3080.000000
580,-568.000000,3040.000000
581,-568.000000,3040.000000
582,-568.000000,3040.000000
583,-568.000000,3040.000000
584,-560.000000,3080.000000
585,-568.000000,3040.000000
586,-568.000000,3040.000000
587,-560.000000,3080.000000
588,-568.000000,3040.000000
589,-568.000000,3040.000000
590,-568.000000,3040.000000
591,-560.000000,3040.000000
592,-568.000000,3040.000000
593,-568.000000,3040.000000
594,-568.000000,3040.000000
595,-560.000000,3080.000000
596,-568.000000,3040.000000
597,-568.000000,3040.000000
598,-568.000000,3040.000000
599,-576.000000,3080.000000
600,-560.000000,3040.000000
601,-568.000000,3040.000000
602,-568.000000,3080.000000
603,-560.000000,3080.000000
604,-560.000000,3080.000000
605,-568.000000,3080.000000
606,-568.000000,3040.000000
607,-560.000000,3040.000000
608,-568.000000,3040.000000
609,-568.000000,3040.000000
610,-560.000000,3040.000000
611,-568.000000,3080.000000
612,-568.000000,3040.000000
613,-568.000000,3080.000000
614,-568.000000,3040.000000
615,-560.000000,3040.000000
616,-560.000000,3040.000000
617,-576.000000,3040.000000
618,-560.000000,3040.000000
619,-568.000000,3040.000000
620,-568.000000,3040.000000
621,-568.000000,3040.000000
622,-560.000000,3040.000000
623,-568.000000,3040.000000
624,-568.000000,3040.000000
625,-568.000000,3080.000000
626,-568.000000,3040.000000
627,-568.000000,3080.000000
628,-568.000000,3080.000000
629,-568.000000,3040.000000
630,-568.000000,3080.000000
631,-576.000000,3040.000000
632,-568.000000,3040.000000
633,-568.000000,3040.000000
634,-576.000000,3080.000000
635,-568.000000,3080.000000
636,-560.000000,3040.000000
637,-568.000000,3040.000000
638,-568.000000,3040.000000
639,-568.000000,3040.000000
640,-568.000000,3040.000000
641,-560.000000,3040.000000
642,-560.000000,3040.000000
643,-568.000000,3040.000000
644,-576.000000,3040.000000
645,-568.000000,3040.000000
646,-568.000000,3080.000000
647,-568.000000,3040.000000
648,-568.000000,3040.000000
649,-560.000000,3080.000000
650,-568.000000,3040.000000
651,-568.000000,3040.000000
652,-568.000000,3040.000000
653,-568.000000,3040.000000
654,-568.000000,3080.000000
655,-568.000000,3080.000000
656,-568.000000,3040.000000
657,-568.000000,3040.000000
658,-568.000000,3040.000000
659,-576.000000,3040.000000
660,-568.000000,3040.000000
661,-568.000000,3080.000000
662,-560.000000,3040.000000
663,-568.000000,3040.000000
664,-568.000000,3040.000000
665,-568.000000,3040.000000
666,-568.000000,3040.000000
667,-576.000000,3080.000000
668,-576.000000,3040.000000
669,-568.000000,3040.000000
670,-568.000000,3040.000000
671,-568.000000,3080.000000
672,-568.000000,3040.000000
673,-568.000000,3040.000000
674,-568.000000,3040.000000
675,-568.000000,3040.000000
676,-560.000000,3080.000000
677,-568.000000,3040.000000
678,-560.000000,3040.000000
679,-560.000000,3080.000000
680,-568.000000,3040.000000
681,-568.000000,3040.000000
682,-560.000000,3080.000000
683,-576.000000,3040.000000
684,-568.000000,3080.000000
685,-560.000000,3040.000000
686,-560.000000,3040.000000
687,-584.000000,3040.000000
688,-544.000000,3080.000000
689,-568.000000,3040.000000
690,-584.000000,3080.000000
691,-576.000000,3040.000000
692,-568.000000,3080.000000
693,-560.000000,3040.000000
694,-568.000000,3040.000000
695,-568.000000,3040.000000
696,-568.000000,3040.000000
697,-568.000000,3040.000000
698,-576.000000,3080.000000
699,-568.000000,3040.000000
700,-568.000000,3040.000000
701,-568.000000,3040.000000
702,-576.000000,3040.000000
703,-568.000000,3040.000000
704,-568.000000,3040.000000
705,-568.000000,3040.000000
706,-568.000000,3040.000000
707,-568.000000,3080.000000
708,-568.000000,3040.000000
709,-560.000000,3080.000000
710,-568.000000,3080.000000
711,-568.000000,3080.000000
712,-568.000000,3040.000000
713,-568.000000,3040.000000
