repport_data/pow_reoptimization_2/data_51_001.csv

Channel              :,CH1,CH2
Frequency            :,  ?,  ?
Period               :,  ?,  ?
PK-PK                :,968.0mV,120.0mV
Probe attenuation    :,1X,1X
Voltage per ADC value:,0.500000mV,2.500000mV
Time interval        :,200.00000uS,200.00000uS

index,CH1_Voltage(mV),CH2_Voltage(mV)
1,-560.000000,2680.000000
2,-560.000000,2680.000000
3,-560.000000,2720.000000
4,-560.000000,2720.000000
5,-560.000000,2720.000000
6,-560.000000,2680.000000
7,-560.000000,2680.000000
8,-568.000000,2720.000000
9,-560.000000,2680.000000
10,-560.000000,2720.000000
11,-560.000000,2680.000000
12,-560.000000,2680.000000
13,-560.000000,2720.000000
14,-560.000000,2720.000000
15,-560.000000,2720.000000
16,-560.000000,2720.000000
17,-560.000000,2720.000000
18,-568.000000,2720.000000
19,-560.000000,2720.000000
20,-560.000000,2680.000000
21,-560.000000,2680.000000
22,-560.000000,2680.000000
23,-560.000000,2680.000000
24,-560.000000,2680.000000
25,-560.000000,2680.000000
26,-560.000000,2680.000000
27,-560.000000,2720.000000
28,-560.000000,2680.000000
29,-552.000000,2720.000000
30,-560.000000,2680.000000
31,-568.000000,2720.000000
32,-552.000000,2680.000000
33,-552.000000,2680.000000
34,-552.000000,2720.000000
35,-560.000000,2720.000000
36,-552.000000,2680.000000
37,-560.000000,2720.000000
38,-560.000000,2720.000000
39,-552.000000,2720.000000
40,-560.000000,2720.000000
41,-560.000000,2680.000000
42,-560.000000,2720.000000
43,-560.000000,2680.000000
44,-560.000000,2720.000000
45,-560.000000,2720.000000
46,-560.000000,2680.000000
47,-568.000000,2720.000000
48,-560.000000,2720.000000
49,-568.000000,2680.000000
50,-568.000000,2720.000000
51,-568.000000,2720.000000
52,-568.000000,2680.000000
53,-568.000000,2680.000000
54,-560.000000,2680.000000
55,-560.000000,2680.000000
56,-568.000000,2720.000000
57,-560.000000,2720.000000
58,-560.000000,2680.000000
59,-560.000000,2720.000000
60,-560.000000,2680.000000
61,-560.000000,2720.000000
62,-560.000000,2680.000000
63,-560.000000,2680.000000
64,-560.000000,2720.000000
65,-568.000000,2720.000000
66,-560.000000,2720.000000
67,-560.000000,2680.000000
68,-560.000000,2680.000000
69,-560.000000,2720.000000
70,-560.000000,2720.000000
71,-560.000000,2720.000000
72,-560.000000,2680.000000
73,-560.000000,2680.000000
74,-560.000000,2720.000000
75,-560.000000,2720.000000
76,-560.000000,2720.000000
77,-560.000000,2720.000000
78,-560.000000,2720.000000
79,-560.000000,2680.000000
80,-560.000000,2680.000000
81,-560.000000,2680.000000
82,-560.000000,2720.000000
83,-560.000000,2720.000000
84,-560.000000,2720.000000
85,-560.000000,2720.000000
86,-560.000000,2680.000000
87,-560.000000,2720.000000
88,-560.000000,2720.000000
89,-568.000000,2680.000000
90,-560.000000,2680.000000
91,-560.000000,2680.000000
92,-568.000000,2720.000000
93,-560.000000,2680.000000
94,-560.000000,2720.000000
95,-560.000000,2680.000000
96,-560.000000,2680.000000
97,-560.000000,2720.000000
98,-560.000000,2720.000000
99,-552.000000,2680.000000
100,-552.000000,2720.000000
101,-560.000000,2720.000000
102,-552.000000,2680.000000
103,-560.000000,2720.000000
104,-552.000000,2720.000000
105,-560.000000,2680.000000
106,-560.000000,2720.000000
107,-552.000000,2720.000000
108,-552.000000,2680.000000
109,-560.000000,2720.000000
110,-560.000000,2720.000000
111,-560.000000,2720.000000
112,-560.000000,2720.000000
113,-560.000000,2680.000000
114,-560.000000,2680.000000
115,-560.000000,2680.000000
116,-560.000000,2720.000000
117,-560.000000,2680.000000
118,-560.000000,2720.000000
119,-568.000000,2680.000000
120,-568.000000,2680.000000
121,-568.000000,2720.000000
122,-560.000000,2720.000000
123,-568.000000,2680.000000
124,-560.000000,2680.000000
125,-568.000000,2720.000000
126,-568.000000,2720.000000
127,-560.000000,2680.000000
128,-560.000000,2720.000000
129,-560.000000,2680.000000
130,-560.000000,2720.000000
131,-560.000000,2720.000000
132,-560.000000,2720.000000
133,-560.000000,2720.000000
134,-560.000000,2680.000000
135,-568.000000,2720.000000
136,-560.000000,2720.000000
137,-560.000000,2720.000000
138,-560.000000,2680.000000
139,-560.000000,2720.000000
140,-560.000000,2720.000000
141,-560.000000,2720.000000
142,-560.000000,2720.000000
143,-560.000000,2720.000000
144,-560.000000,2680.000000
145,-560.000000,2680.000000
146,-568.000000,2680.000000
147,-560.000000,2720.000000
148,-560.000000,2680.000000
149,-560.000000,2720.000000
150,-560.000000,2720.000000
151,-560.000000,2720.000000
152,-560.000000,2720.000000
153,-568.000000,2720.000000
154,-560.000000,2720.000000
155,-560.000000,2720.000000
156,-560.000000,2680.000000
157,-560.000000,2680.000000
158,-560.000000,2680.000000
159,-560.000000,2680.000000
160,-560.000000,2720.000000
161,-560.000000,2680.000000
162,-560.000000,2680.000000
163,-560.000000,2720.000000
164,-560.000000,2720.000000
165,-568.000000,2720.000000
166,-560.000000,2720.000000
167,-560.000000,2720.000000
168,-560.000000,2680.000000
169,-560.000000,2720.000000
170,-560.000000,2680.000000
171,-552.000000,2680.000000
172,-560.000000,2720.000000
173,-560.000000,2720.000000
174,-552.000000,2680.000000
175,-544.000000,2680.000000
176,-560.000000,2680.000000
177,-552.000000,2680.000000
178,-552.000000,2680.000000
179,-560.000000,2680.000000
180,-560.000000,2680.000000
181,-560.000000,2680.000000
182,-560.000000,2720.000000
183,-560.000000,2720.000000
184,-552.000000,2720.000000
185,-560.000000,2680.000000
186,-560.000000,2680.000000
187,-560.000000,2720.000000
188,-560.000000,2680.000000
189,-552.000000,2680.000000
190,-560.000000,2680.000000
191,-560.000000,2720.000000
192,-560.000000,2680.000000
193,-568.000000,2720.000000
194,-560.000000,2720.000000
195,-568.000000,2680.000000
196,-560.000000,2680.000000
197,-560.000000,2720.000000
198,-560.000000,2720.000000
199,-560.000000,2680.000000
200,-560.000000,2720.000000
201,-560.000000,2720.000000
202,-560.000000,2720.000000
203,-560.000000,2720.000000
204,-560.000000,2680.000000
205,-568.000000,2720.000000
206,-552.000000,2680.000000
207,-560.000000,2680.000000
208,-560.000000,2680.000000
209,-560.000000,2680.000000
210,-560.000000,2720.000000
211,-560.000000,2680.000000
212,-568.000000,2680.000000
213,-568.000000,2720.000000
214,-560.000000,2720.000000
215,-560.000000,2680.000000
216,-552.000000,2680.000000
217,-560.000000,2680.000000
218,-560.000000,2680.000000
219,-560.000000,2680.000000
220,-560.000000,2680.000000
221,-560.000000,2680.000000
222,-568.000000,2680.000000
223,-560.000000,2720.000000
224,-560.000000,2680.000000
225,-560.000000,2720.000000
226,-560.000000,2720.000000
227,-560.000000,2680.000000
228,-560.000000,2720.000000
229,-536.000000,2720.000000
230,-560.000000,2680.000000
231,-560.000000,2720.000000
232,-560.000000,2720.000000
233,-568.000000,2720.000000
234,-560.000000,2720.000000
235,-560.000000,2720.000000
236,-560.000000,2720.000000
237,-560.000000,2720.000000
238,-560.000000,2720.000000
239,-560.000000,2680.000000
240,-560.000000,2680.000000
241,-560.000000,2720.000000
242,-560.000000,2680.000000
243,-560.000000,2720.000000
244,-560.000000,2720.000000
245,-560.000000,2720.000000
246,-560.000000,2720.000000
247,-560.000000,2680.000000
248,-560.000000,2680.000000
249,-552.000000,2720.000000
250,-560.000000,2680.000000
251,-560.000000,2680.000000
252,-552.000000,2680.000000
253,-560.000000,2680.000000
254,-560.000000,2720.000000
255,-560.000000,2720.000000
256,-560.000000,2720.000000
257,-552.000000,2680.000000
258,-560.000000,2680.000000
259,-560.000000,2720.000000
260,-560.000000,2680.000000
261,-560.000000,2720.000000
262,-560.000000,2720.000000
263,-560.000000,2720.000000
264,-568.000000,2720.000000
265,-560.000000,2720.000000
266,-560.000000,2720.000000
267,-568.000000,2680.000000
268,-560.000000,2720.000000
269,-560.000000,2720.000000
270,-560.000000,2680.000000
271,-560.000000,2720.000000
272,-560.000000,2720.000000
273,-568.000000,2680.000000
274,-568.000000,2720.000000
275,-560.000000,2680.000000
276,-560.000000,2720.000000
277,-560.000000,2720.000000
278,-560.000000,2680.000000
279,-560.000000,2680.000000
280,-568.000000,2720.000000
281,-568.000000,2720.000000
282,-560.000000,2680.000000
283,-568.000000,2680.000000
284,-560.000000,2680.000000
285,-560.000000,2680.000000
286,-560.000000,2680.000000
287,-560.000000,2720.000000
288,-560.000000,2720.000000
289,-560.000000,2680.000000
290,-560.000000,2720.000000
291,-560.000000,2680.000000
292,-560.000000,2720.000000
293,-560.000000,2720.000000
294,-560.000000,2680.000000
295,-560.000000,2680.000000
296,-560.000000,2680.000000
297,-560.000000,2720.000000
298,-560.000000,2720.000000
299,-560.000000,2720.000000
300,-560.000000,2680.000000
301,-560.000000,2720.000000
302,-560.000000,2720.000000
303,-560.000000,2720.000000
304,-560.000000,2680.000000
305,-560.000000,2680.000000
306,-560.000000,2680.000000
307,-560.000000,2720.000000
308,-560.000000,2720.000000
309,-552.000000,2720.000000
310,-560.000000,2720.000000
311,-560.000000,2720.000000
312,-560.000000,2720.000000
313,-560.000000,2680.000000
314,-568.000000,2720.000000
315,-560.000000,2680.000000
316,-560.000000,2720.000000
317,-568.000000,2680.000000
318,-560.000000,2720.000000
319,-560.000000,2680.000000
320,-560.000000,2720.000000
321,-568.000000,2680.000000
322,-560.000000,2680.000000
323,-560.000000,2720.000000
324,-552.000000,2720.000000
325,-552.000000,2720.000000
326,-560.000000,2720.000000
327,-552.000000,2680.000000
328,-560.000000,2680.000000
329,-560.000000,2720.000000
330,-552.000000,2680.000000
331,-560.000000,2720.000000
332,-560.000000,2680.000000
333,-560.000000,2720.000000
334,-560.000000,2680.000000
335,-560.000000,2680.000000
336,-560.000000,2680.000000
337,-560.000000,2720.000000
338,-552.000000,2680.000000
339,-552.000000,2680.000000
340,-560.000000,2680.000000
341,-560.000000,2720.000000
342,-560.000000,2680.000000
343,-560.000000,2680.000000
344,-560.000000,2680.000000
345,-560.000000,2680.000000
346,-568.000000,2680.000000
347,-568.000000,2720.000000
348,-568.000000,2680.000000
349,-560.000000,2720.000000
350,-560.000000,2720.000000
351,-560.000000,2720.000000
352,-560.000000,2680.000000
353,-568.000000,2720.000000
354,-568.000000,2680.000000
355,-568.000000,2720.000000
356,-560.000000,2680.000000
357,-560.000000,2680.000000
358,-560.000000,2720.000000
359,-560.000000,2680.000000
360,-568.000000,2680.000000
361,-560.000000,2680.000000
362,-560.000000,2720.000000
363,-568.000000,2720.000000
364,-568.000000,2720.000000
365,-560.000000,2720.000000
366,-568.000000,2720.000000
367,-560.000000,2720.000000
368,-568.000000,2680.000000
369,-560.000000,2680.000000
370,-560.000000,2680.000000
371,-560.000000,2720.000000
372,-568.000000,2680.000000
373,-560.000000,2720.000000
374,-560.000000,2680.000000
375,-560.000000,2720.000000
376,-568.000000,2720.000000
377,-560.000000,2720.000000
378,-552.000000,2680.000000
379,-568.000000,2720.000000
380,-568.000000,2720.000000
381,-560.000000,2680.000000
382,-560.000000,2680.000000
383,-560.000000,2680.000000
384,-568.000000,2720.000000
385,-568.000000,2680.000000
386,-568.000000,2680.000000
387,-560.000000,2680.000000
388,-568.000000,2680.000000
389,-560.000000,2680.000000
390,-560.000000,2680.000000
391,-560.000000,2680.000000
392,-560.000000,2680.000000
393,-560.000000,2720.000000
394,-568.000000,2680.000000
395,-568.000000,2680.000000
396,-560.000000,2720.000000
397,-560.000000,2720.000000
398,-568.000000,2680.000000
399,-568.000000,2680.000000
400,-560.000000,2720.000000
401,-568.000000,2680.000000
402,-568.000000,2720.000000
403,-560.000000,2720.000000
404,-560.000000,2720.000000
405,-568.000000,2720.000000
406,-560.000000,2680.000000
407,-560.000000,2680.000000
408,-560.000000,2720.000000
409,-560.000000,2720.000000
410,-568.000000,2680.000000
411,-568.000000,2680.000000
412,-560.000000,2720.000000
413,-560.000000,2680.000000
414,-560.000000,2680.000000
415,-560.000000,2680.000000
416,-560.000000,2720.000000
417,-568.000000,2680.000000
418,-560.000000,2720.000000
419,-560.000000,2720.000000
420,-560.000000,2720.000000
421,-560.000000,2680.000000
422,-560.000000,2680.000000
423,-568.000000,2680.000000
424,-568.000000,2680.000000
425,-560.000000,2720.000000
426,-560.000000,2680.000000
427,-560.000000,2680.000000
428,-560.000000,2720.000000
429,-568.000000,2720.000000
430,-560.000000,2680.000000
431,-560.000000,2720.000000
432,-560.000000,2720.000000
433,-560.000000,2720.000000
434,-560.000000,2720.000000
435,-560.000000,2720.000000
436,-560.000000,2720.000000
437,-560.000000,2680.000000
438,-560.000000,2720.000000
439,-560.000000,2680.000000
440,-568.000000,2720.000000
441,-560.000000,2720.000000
442,-560.000000,2720.000000
443,-568.000000,2680.000000
444,-568.000000,2680.000000
445,-560.000000,2720.000000
446,-568.000000,2680.000000
447,-560.000000,2680.000000
448,-560.000000,2680.000000
449,-560.000000,2680.000000
450,-568.000000,2720.000000
451,-568.000000,2680.000000
452,-568.000000,2680.000000
453,-568.000000,2720.000000
454,-560.000000,2720.000000
455,-568.000000,2680.000000
456,-560.000000,2720.000000
457,-560.000000,2720.000000
458,-568.000000,2720.000000
459,-560.000000,2680.000000
460,-560.000000,2720.000000
461,-560.000000,2720.000000
462,-560.000000,2720.000000
463,-560.000000,2680.000000
464,-560.000000,2720.000000
465,-560.000000,2720.000000
466,-560.000000,2680.000000
467,-568.000000,2720.000000
468,-560.000000,2720.000000
469,-568.000000,2680.000000
470,-560.000000,2720.000000
471,-560.000000,2680.000000
472,-560.000000,2680.000000
473,-560.000000,2720.000000
474,-568.000000,2680.000000
475,-560.000000,2680.000000
476,-560.000000,2680.000000
477,-560.000000,2720.000000
478,-560.000000,2720.000000
479,-568.000000,2680.000000
480,-560.000000,2720.000000
481,-560.000000,2680.000000
482,-560.000000,2720.000000
483,-560.000000,2680.000000
484,-560.000000,2720.000000
485,-568.000000,2680.000000
486,-560.000000,2680.000000
487,-560.000000,2720.000000
488,-560.000000,2720.000000
489,-560.000000,2680.000000
490,-560.000000,2720.000000
491,-560.000000,2680.000000
492,-560.000000,2720.000000
493,-560.000000,2720.000000
494,-560.000000,2680.000000
495,-560.000000,2680.000000
496,-560.000000,2680.000000
497,-560.000000,2720.000000
498,-560.000000,2720.000000
499,-560.000000,2680.000000
500,-560.000000,2680.000000
501,-568.000000,2680.000000
502,-560.000000,2680.000000
503,-560.000000,2720.000000
504,-560.000000,2720.000000
505,-560.000000,2680.000000
506,-560.000000,2680.000000
507,-560.000000,2720.000000
508,-568.000000,2680.000000
509,-560.000000,2720.000000
510,-560.000000,2680.000000
511,-568.000000,2720.000000
512,-568.000000,2680.000000
513,-568.000000,2680.000000
514,-560.000000,2720.000000
515,-568.000000,2720.000000
516,-560.000000,2680.000000
517,-568.000000,2680.000000
518,-568.000000,2680.000000
519,-568.000000,2720.000000
520,-560.000000,2680.000000
521,-568.000000,2720.000000
522,-560.000000,2680.000000
523,-568.000000,2680.000000
524,-560.000000,2680.000000
525,-560.000000,2680.000000
526,-560.000000,2720.000000
527,-560.000000,2720.000000
528,-560.000000,2680.000000
529,-560.000000,2720.000000
530,-560.000000,2680.000000
531,-568.000000,2720.000000
532,-560.000000,2720.000000
533,-560.000000,2720.000000
534,-568.000000,2680.000000
535,-560.000000,2680.000000
536,-560.000000,2720.000000
537,-568.000000,2720.000000
538,-560.000000,2720.000000
539,-560.000000,2680.000000
540,-568.000000,2720.000000
541,-560.000000,2720.000000
542,-560.000000,2720.000000
543,-560.000000,2680.000000
544,-560.000000,2680.000000
545,-560.000000,2680.000000
546,-560.000000,2720.000000
547,-560.000000,2720.000000
548,-560.000000,2720.000000
549,-560.000000,2720.000000
550,-560.000000,2720.000000
551,-560.000000,2680.000000
552,-560.000000,2680.000000
553,-560.000000,2680.000000
554,-560.000000,2720.000000
555,-560.000000,2680.000000
556,-560.000000,2680.000000
557,-560.000000,2680.000000
558,-560.000000,2680.000000
559,-560.000000,2720.000000
560,-568.000000,2680.000000
561,-560.000000,2720.000000
562,-560.000000,2680.000000
563,-560.000000,2720.000000
564,-560.000000,2680.000000
565,-560.000000,2720.000000
566,-560.000000,2680.000000
567,-560.000000,2720.000000
568,-560.000000,2720.000000
569,-560.000000,2720.000000
570,-560.000000,2680.000000
571,-544.000000,2680.000000
572,-536.000000,2720.000000
573,-544.000000,2680.000000
574,-536.000000,2720.000000
575,-528.000000,2720.000000
576,-536.000000,2720.000000
577,-536.000000,2680.000000
578,-528.000000,2720.000000
579,-552.000000,2720.000000
580,-528.000000,2680.000000
581,-528.000000,2720.000000
582,-528.000000,2720.000000
583,-528.000000,2720.000000
584,-528.000000,2720.000000
585,-520.000000,2720.000000
586,-528.000000,2720.000000
587,-528.000000,2680.000000
588,-528.000000,2680.000000
589,-528.000000,2680.000000
590,-528.000000,2720.000000
591,-528.000000,2680.000000
592,-528.000000,2720.000000
593,-528.000000,2720.000000
594,-528.000000,2680.000000
595,-528.000000,2680.000000
596,-520.000000,2680.000000
597,-496.000000,2680.000000
598,-472.000000,2720.000000
599,-456.000000,2680.000000
600,-440.000000,2680.000000
601,-424.000000,2720.000000
602,-408.000000,2720.000000
603,-392.000000,2680.000000
604,-384.000000,2680.000000
605,-376.000000,2720.000000
606,-368.000000,2720.000000
607,-360.000000,2720.000000
608,-352.000000,2680.000000
609,-344.000000,2720.000000
610,-336.000000,2720.000000
611,-328.000000,2680.000000
612,-320.000000,2720.000000
613,-320.000000,2720.000000
614,-312.000000,2720.000000
615,-312.000000,2720.000000
616,-304.000000,2720.000000
617,-304.000000,2720.000000
618,-296.000000,2680.000000
619,-296.000000,2680.000000
620,-288.000000,2720.000000
621,-288.000000,2680.000000
622,-280.000000,2680.000000
623,-280.000000,2720.000000
624,-280.000000,2720.000000
625,-288.000000,2680.000000
626,-272.000000,2680.000000
627,-248.000000,2680.000000
628,-272.000000,2680.000000
629,-272.000000,2720.000000
630,-296.000000,2720.000000
631,-264.000000,2680.000000
632,-272.000000,2720.000000
633,-264.000000,2680.000000
634,-264.000000,2720.000000
635,-264.000000,2680.000000
636,-264.000000,2720.000000
637,-264.000000,2680.000000
638,-264.000000,2720.000000
639,-256.000000,2720.000000
640,-256.000000,2680.000000
641,-264.000000,2680.000000
642,-256.000000,2680.000000
643,-256.000000,2680.000000
644,-256.000000,2720.000000
645,-264.000000,2720.000000
646,-264.000000,2680.000000
647,-256.000000,2720.000000
648,-256.000000,2680.000000
649,-256.000000,2680.000000
650,-256.000000,2720.000000
651,-256.000000,2680.000000
652,-256.000000,2680.000000
653,-256.000000,2680.000000
654,-256.000000,2680.000000
655,-256.000000,2680.000000
656,-256.000000,2720.000000
657,-256.000000,2680.000000
658,-224.000000,2680.000000
659,-192.000000,2720.000000
660,-160.000000,2720.000000
661,-136.000000,2680.000000
662,-112.000000,2720.000000
663,-88.000000,2720.000000
664,-72.000000,2720.000000
665,-48.000000,2680.000000
666,-32.000000,2720.000000
667,-16.000000,2680.000000
668,0.000000,2720.000000
669,16.000000,2680.000000
670,32.000000,2680.000000
671,48.000000,2680.000000
672,56.000000,2680.000000
673,72.000000,2680.000000
674,72.000000,2680.000000
675,88.000000,2720.000000
676,104.000000,2680.000000
677,104.000000,2680.000000
678,120.000000,2680.000000
679,120.000000,2680.000000
680,136.000000,2720.000000
681,136.000000,2720.000000
682,144.000000,2680.000000
683,152.000000,2680.000000
684,160.000000,2680.000000
685,160.000000,2680.000000
686,176.000000,2680.000000
687,176.000000,2680.000000
688,176.000000,2720.000000
689,184.000000,2720.000000
690,192.000000,2720.000000
691,192.000000,2680.000000
692,200.000000,2680.000000
693,208.000000,2680.000000
694,208.000000,2680.000000
695,216.000000,2720.000000
696,216.000000,2680.000000
697,216.000000,2680.000000
698,224.000000,2720.000000
699,224.000000,2720.000000
700,232.000000,2680.000000
701,224.000000,2680.000000
702,232.000000,2720.000000
703,240.000000,2720.000000
704,240.000000,2720.000000
705,232.000000,2680.000000
706,240.000000,2720.000000
707,240.000000,2680.000000
708,240.000000,2680.000000
709,240.000000,2680.000000
