repport_data/pow_reoptimization_2/data_50_006.csv

Channel              :,CH1,CH2
Frequency            :,  ?,  ?
Period               :,  ?,  ?
PK-PK                :,1.136V,160.0mV
Probe attenuation    :,1X,1X
Voltage per ADC value:,0.500000mV,2.500000mV
Time interval        :,200.00000uS,200.00000uS

index,CH1_Voltage(mV),CH2_Voltage(mV)
1,-576.000000,2440.000000
2,-576.000000,2440.000000
3,-576.000000,2480.000000
4,-576.000000,2440.000000
5,-576.000000,2480.000000
6,-576.000000,2480.000000
7,-576.000000,2440.000000
8,-576.000000,2440.000000
9,-576.000000,2440.000000
10,-576.000000,2480.000000
11,-576.000000,2480.000000
12,-576.000000,2440.000000
13,-576.000000,2440.000000
14,-576.000000,2440.000000
15,-576.000000,2440.000000
16,-584.000000,2440.000000
17,-576.000000,2440.000000
18,-576.000000,2480.000000
19,-576.000000,2440.000000
20,-576.000000,2440.000000
21,-576.000000,2440.000000
22,-576.000000,2440.000000
23,-576.000000,2440.000000
24,-576.000000,2440.000000
25,-576.000000,2440.000000
26,-584.000000,2440.000000
27,-576.000000,2480.000000
28,-576.000000,2480.000000
29,-576.000000,2440.000000
30,-576.000000,2440.000000
31,-576.000000,2440.000000
32,-576.000000,2440.000000
33,-576.000000,2440.000000
34,-576.000000,2440.000000
35,-576.000000,2480.000000
36,-576.000000,2440.000000
37,-576.000000,2440.000000
38,-584.000000,2480.000000
39,-584.000000,2480.000000
40,-584.000000,2480.000000
41,-584.000000,2440.000000
42,-576.000000,2480.000000
43,-576.000000,2480.000000
44,-584.000000,2440.000000
45,-576.000000,2440.000000
46,-576.000000,2480.000000
47,-576.000000,2480.000000
48,-576.000000,2480.000000
49,-576.000000,2440.000000
50,-584.000000,2440.000000
51,-576.000000,2440.000000
52,-576.000000,2440.000000
53,-576.000000,2440.000000
54,-576.000000,2440.000000
55,-576.000000,2480.000000
56,-584.000000,2480.000000
57,-576.000000,2440.000000
58,-576.000000,2440.000000
59,-576.000000,2440.000000
60,-576.000000,2440.000000
61,-576.000000,2480.000000
62,-576.000000,2480.000000
63,-576.000000,2480.000000
64,-576.000000,2480.000000
65,-576.000000,2440.000000
66,-576.000000,2440.000000
67,-584.000000,2480.000000
68,-576.000000,2440.000000
69,-584.000000,2440.000000
70,-576.000000,2440.000000
71,-584.000000,2440.000000
72,-576.000000,2440.000000
73,-576.000000,2480.000000
74,-576.000000,2440.000000
75,-576.000000,2440.000000
76,-576.000000,2440.000000
77,-576.000000,2440.000000
78,-576.000000,2440.000000
79,-576.000000,2480.000000
80,-576.000000,2440.000000
81,-576.000000,2440.000000
82,-576.000000,2440.000000
83,-576.000000,2440.000000
84,-584.000000,2440.000000
85,-584.000000,2440.000000
86,-576.000000,2440.000000
87,-584.000000,2440.000000
88,-576.000000,2440.000000
89,-576.000000,2480.000000
90,-576.000000,2440.000000
91,-576.000000,2440.000000
92,-560.000000,2440.000000
93,-584.000000,2440.000000
94,-576.000000,2440.000000
95,-576.000000,2440.000000
96,-584.000000,2440.000000
97,-576.000000,2440.000000
98,-576.000000,2440.000000
99,-576.000000,2440.000000
100,-576.000000,2440.000000
101,-576.000000,2440.000000
102,-576.000000,2440.000000
103,-584.000000,2440.000000
104,-576.000000,2440.000000
105,-584.000000,2480.000000
106,-576.000000,2440.000000
107,-584.000000,2440.000000
108,-576.000000,2440.000000
109,-584.000000,2440.000000
110,-584.000000,2440.000000
111,-584.000000,2440.000000
112,-584.000000,2440.000000
113,-576.000000,2440.000000
114,-584.000000,2480.000000
115,-576.000000,2440.000000
116,-576.000000,2480.000000
117,-576.000000,2440.000000
118,-584.000000,2440.000000
119,-576.000000,2440.000000
120,-576.000000,2480.000000
121,-576.000000,2440.000000
122,-576.000000,2440.000000
123,-584.000000,2480.000000
124,-576.000000,2440.000000
125,-584.000000,2440.000000
126,-576.000000,2480.000000
127,-584.000000,2480.000000
128,-576.000000,2440.000000
129,-576.000000,2480.000000
130,-576.000000,2440.000000
131,-576.000000,2440.000000
132,-576.000000,2440.000000
133,-576.000000,2440.000000
134,-576.000000,2480.000000
135,-576.000000,2440.000000
136,-576.000000,2440.000000
137,-576.000000,2480.000000
138,-584.000000,2440.000000
139,-576.000000,2440.000000
140,-576.000000,2480.000000
141,-576.000000,2440.000000
142,-576.000000,2480.000000
143,-576.000000,2440.000000
144,-576.000000,2440.000000
145,-576.000000,2440.000000
146,-576.000000,2440.000000
147,-576.000000,2440.000000
148,-576.000000,2440.000000
149,-584.000000,2480.000000
150,-576.000000,2440.000000
151,-576.000000,2440.000000
152,-576.000000,2480.000000
153,-576.000000,2440.000000
154,-576.000000,2480.000000
155,-584.000000,2440.000000
156,-576.000000,2440.000000
157,-576.000000,2440.000000
158,-576.000000,2440.000000
159,-576.000000,2440.000000
160,-584.000000,2440.000000
161,-576.000000,2440.000000
162,-576.000000,2480.000000
163,-576.000000,2440.000000
164,-584.000000,2440.000000
165,-576.000000,2440.000000
166,-576.000000,2440.000000
167,-576.000000,2440.000000
168,-576.000000,2440.000000
169,-576.000000,2440.000000
170,-576.000000,2480.000000
171,-576.000000,2440.000000
172,-576.000000,2440.000000
173,-576.000000,2440.000000
174,-576.000000,2440.000000
175,-576.000000,2440.000000
176,-576.000000,2440.000000
177,-576.000000,2480.000000
178,-584.000000,2440.000000
179,-576.000000,2480.000000
180,-576.000000,2440.000000
181,-576.000000,2440.000000
182,-584.000000,2440.000000
183,-584.000000,2440.000000
184,-576.000000,2440.000000
185,-576.000000,2480.000000
186,-568.000000,2480.000000
187,-576.000000,2440.000000
188,-576.000000,2440.000000
189,-576.000000,2440.000000
190,-576.000000,2440.000000
191,-576.000000,2440.000000
192,-576.000000,2440.000000
193,-576.000000,2440.000000
194,-584.000000,2480.000000
195,-576.000000,2440.000000
196,-576.000000,2440.000000
197,-576.000000,2440.000000
198,-576.000000,2440.000000
199,-576.000000,2440.000000
200,-576.000000,2440.000000
201,-584.000000,2440.000000
202,-576.000000,2440.000000
203,-576.000000,2480.000000
204,-576.000000,2440.000000
205,-576.000000,2480.000000
206,-576.000000,2440.000000
207,-576.000000,2480.000000
208,-576.000000,2440.000000
209,-576.000000,2440.000000
210,-576.000000,2440.000000
211,-576.000000,2440.000000
212,-568.000000,2440.000000
213,-576.000000,2440.000000
214,-576.000000,2440.000000
215,-576.000000,2480.000000
216,-576.000000,2440.000000
217,-576.000000,2440.000000
218,-576.000000,2480.000000
219,-576.000000,2440.000000
220,-584.000000,2440.000000
221,-576.000000,2440.000000
222,-576.000000,2440.000000
223,-576.000000,2480.000000
224,-576.000000,2440.000000
225,-576.000000,2440.000000
226,-576.000000,2440.000000
227,-576.000000,2440.000000
228,-576.000000,2440.000000
229,-576.000000,2440.000000
230,-576.000000,2440.000000
231,-576.000000,2440.000000
232,-576.000000,2480.000000
233,-576.000000,2440.000000
234,-576.000000,2440.000000
235,-576.000000,2440.000000
236,-584.000000,2440.000000
237,-576.000000,2440.000000
238,-576.000000,2440.000000
239,-576.000000,2440.000000
240,-576.000000,2440.000000
241,-576.000000,2440.000000
242,-576.000000,2440.000000
243,-576.000000,2440.000000
244,-576.000000,2440.000000
245,-576.000000,2480.000000
246,-576.000000,2440.000000
247,-576.000000,2440.000000
248,-576.000000,2440.000000
249,-584.000000,2440.000000
250,-584.000000,2440.000000
251,-576.000000,2440.000000
252,-576.000000,2440.000000
253,-584.000000,2440.000000
254,-584.000000,2440.000000
255,-576.000000,2440.000000
256,-576.000000,2440.000000
257,-576.000000,2440.000000
258,-584.000000,2440.000000
259,-576.000000,2440.000000
260,-576.000000,2440.000000
261,-576.000000,2440.000000
262,-576.000000,2440.000000
263,-576.000000,2440.000000
264,-576.000000,2480.000000
265,-576.000000,2480.000000
266,-576.000000,2440.000000
267,-576.000000,2440.000000
268,-576.000000,2440.000000
269,-576.000000,2440.000000
270,-576.000000,2480.000000
271,-576.000000,2440.000000
272,-576.000000,2440.000000
273,-576.000000,2440.000000
274,-576.000000,2440.000000
275,-576.000000,2440.000000
276,-576.000000,2440.000000
277,-576.000000,2440.000000
278,-576.000000,2480.000000
279,-576.000000,2440.000000
280,-576.000000,2440.000000
281,-584.000000,2440.000000
282,-576.000000,2440.000000
283,-576.000000,2440.000000
284,-576.000000,2480.000000
285,-584.000000,2440.000000
286,-576.000000,2440.000000
287,-576.000000,2440.000000
288,-584.000000,2440.000000
289,-576.000000,2440.000000
290,-584.000000,2440.000000
291,-608.000000,2480.000000
292,-584.000000,2440.000000
293,-584.000000,2440.000000
294,-568.000000,2440.000000
295,-600.000000,2440.000000
296,-568.000000,2440.000000
297,-576.000000,2440.000000
298,-584.000000,2440.000000
299,-576.000000,2440.000000
300,-576.000000,2440.000000
301,-576.000000,2440.000000
302,-576.000000,2440.000000
303,-576.000000,2440.000000
304,-576.000000,2480.000000
305,-576.000000,2440.000000
306,-576.000000,2440.000000
307,-576.000000,2440.000000
308,-584.000000,2440.000000
309,-576.000000,2440.000000
310,-576.000000,2440.000000
311,-576.000000,2480.000000
312,-576.000000,2440.000000
313,-576.000000,2440.000000
314,-576.000000,2440.000000
315,-576.000000,2440.000000
316,-576.000000,2480.000000
317,-576.000000,2440.000000
318,-576.000000,2440.000000
319,-584.000000,2440.000000
320,-584.000000,2440.000000
321,-576.000000,2440.000000
322,-576.000000,2480.000000
323,-576.000000,2440.000000
324,-584.000000,2440.000000
325,-576.000000,2480.000000
326,-576.000000,2440.000000
327,-576.000000,2440.000000
328,-576.000000,2440.000000
329,-576.000000,2440.000000
330,-576.000000,2440.000000
331,-576.000000,2440.000000
332,-584.000000,2440.000000
333,-576.000000,2440.000000
334,-576.000000,2440.000000
335,-576.000000,2440.000000
336,-576.000000,2440.000000
337,-576.000000,2480.000000
338,-576.000000,2440.000000
339,-576.000000,2480.000000
340,-576.000000,2440.000000
341,-576.000000,2440.000000
342,-584.000000,2480.000000
343,-576.000000,2440.000000
344,-576.000000,2440.000000
345,-584.000000,2440.000000
346,-584.000000,2440.000000
347,-576.000000,2440.000000
348,-584.000000,2480.000000
349,-576.000000,2440.000000
350,-576.000000,2440.000000
351,-576.000000,2440.000000
352,-576.000000,2440.000000
353,-584.000000,2440.000000
354,-576.000000,2440.000000
355,-576.000000,2440.000000
356,-576.000000,2440.000000
357,-576.000000,2440.000000
358,-576.000000,2440.000000
359,-576.000000,2440.000000
360,-576.000000,2440.000000
361,-576.000000,2440.000000
362,-576.000000,2440.000000
363,-576.000000,2440.000000
364,-576.000000,2440.000000
365,-576.000000,2440.000000
366,-576.000000,2440.000000
367,-584.000000,2440.000000
368,-584.000000,2440.000000
369,-576.000000,2440.000000
370,-584.000000,2440.000000
371,-576.000000,2440.000000
372,-576.000000,2440.000000
373,-576.000000,2440.000000
374,-576.000000,2480.000000
375,-584.000000,2440.000000
376,-576.000000,2480.000000
377,-584.000000,2440.000000
378,-576.000000,2480.000000
379,-576.000000,2440.000000
380,-576.000000,2440.000000
381,-576.000000,2480.000000
382,-576.000000,2440.000000
383,-576.000000,2440.000000
384,-576.000000,2440.000000
385,-576.000000,2440.000000
386,-576.000000,2440.000000
387,-576.000000,2440.000000
388,-576.000000,2480.000000
389,-576.000000,2440.000000
390,-576.000000,2440.000000
391,-576.000000,2440.000000
392,-576.000000,2440.000000
393,-576.000000,2440.000000
394,-576.000000,2440.000000
395,-584.000000,2480.000000
396,-584.000000,2440.000000
397,-576.000000,2440.000000
398,-584.000000,2440.000000
399,-576.000000,2480.000000
400,-576.000000,2440.000000
401,-584.000000,2440.000000
402,-576.000000,2480.000000
403,-576.000000,2480.000000
404,-576.000000,2440.000000
405,-576.000000,2400.000000
406,-576.000000,2440.000000
407,-584.000000,2440.000000
408,-584.000000,2440.000000
409,-584.000000,2480.000000
410,-576.000000,2440.000000
411,-576.000000,2440.000000
412,-576.000000,2440.000000
413,-584.000000,2440.000000
414,-576.000000,2440.000000
415,-576.000000,2440.000000
416,-576.000000,2440.000000
417,-576.000000,2440.000000
418,-576.000000,2440.000000
419,-576.000000,2440.000000
420,-584.000000,2440.000000
421,-584.000000,2440.000000
422,-576.000000,2440.000000
423,-576.000000,2440.000000
424,-624.000000,2440.000000
425,-584.000000,2440.000000
426,-576.000000,2440.000000
427,-576.000000,2440.000000
428,-584.000000,2440.000000
429,-568.000000,2440.000000
430,-576.000000,2440.000000
431,-576.000000,2440.000000
432,-576.000000,2440.000000
433,-576.000000,2440.000000
434,-576.000000,2480.000000
435,-576.000000,2480.000000
436,-576.000000,2440.000000
437,-576.000000,2480.000000
438,-584.000000,2480.000000
439,-584.000000,2480.000000
440,-576.000000,2440.000000
441,-584.000000,2440.000000
442,-584.000000,2440.000000
443,-576.000000,2440.000000
444,-576.000000,2440.000000
445,-584.000000,2440.000000
446,-576.000000,2440.000000
447,-568.000000,2440.000000
448,-584.000000,2440.000000
449,-584.000000,2480.000000
450,-576.000000,2440.000000
451,-576.000000,2440.000000
452,-576.000000,2440.000000
453,-576.000000,2480.000000
454,-576.000000,2440.000000
455,-576.000000,2440.000000
456,-576.000000,2480.000000
457,-576.000000,2440.000000
458,-584.000000,2440.000000
459,-576.000000,2400.000000
460,-576.000000,2440.000000
461,-576.000000,2440.000000
462,-576.000000,2440.000000
463,-576.000000,2440.000000
464,-576.000000,2440.000000
465,-576.000000,2440.000000
466,-584.000000,2440.000000
467,-576.000000,2440.000000
468,-576.000000,2440.000000
469,-576.000000,2440.000000
470,-576.000000,2440.000000
471,-576.000000,2480.000000
472,-576.000000,2440.000000
473,-576.000000,2440.000000
474,-576.000000,2440.000000
475,-584.000000,2480.000000
476,-576.000000,2440.000000
477,-576.000000,2440.000000
478,-576.000000,2440.000000
479,-584.000000,2480.000000
480,-584.000000,2440.000000
481,-576.000000,2440.000000
482,-576.000000,2440.000000
483,-576.000000,2440.000000
484,-568.000000,2440.000000
485,-576.000000,2440.000000
486,-576.000000,2440.000000
487,-576.000000,2440.000000
488,-568.000000,2440.000000
489,-576.000000,2480.000000
490,-576.000000,2440.000000
491,-584.000000,2440.000000
492,-584.000000,2440.000000
493,-568.000000,2440.000000
494,-576.000000,2440.000000
495,-584.000000,2480.000000
496,-576.000000,2440.000000
497,-576.000000,2480.000000
498,-584.000000,2440.000000
499,-576.000000,2480.000000
500,-576.000000,2440.000000
501,-584.000000,2440.000000
502,-576.000000,2440.000000
503,-576.000000,2440.000000
504,-576.000000,2440.000000
505,-584.000000,2440.000000
506,-576.000000,2440.000000
507,-576.000000,2440.000000
508,-584.000000,2440.000000
509,-576.000000,2440.000000
510,-584.000000,2440.000000
511,-576.000000,2440.000000
512,-576.000000,2440.000000
513,-584.000000,2440.000000
514,-576.000000,2440.000000
515,-576.000000,2440.000000
516,-576.000000,2440.000000
517,-576.000000,2440.000000
518,-584.000000,2480.000000
519,-576.000000,2440.000000
520,-576.000000,2480.000000
521,-576.000000,2440.000000
522,-576.000000,2480.000000
523,-576.000000,2440.000000
524,-576.000000,2440.000000
525,-576.000000,2440.000000
526,-576.000000,2440.000000
527,-576.000000,2440.000000
528,-584.000000,2440.000000
529,-584.000000,2440.000000
530,-576.000000,2440.000000
531,-568.000000,2440.000000
532,-584.000000,2440.000000
533,-584.000000,2440.000000
534,-584.000000,2440.000000
535,-576.000000,2440.000000
536,-576.000000,2440.000000
537,-576.000000,2480.000000
538,-576.000000,2440.000000
539,-584.000000,2440.000000
540,-576.000000,2480.000000
541,-576.000000,2440.000000
542,-576.000000,2440.000000
543,-576.000000,2440.000000
544,-576.000000,2440.000000
545,-576.000000,2440.000000
546,-576.000000,2440.000000
547,-576.000000,2440.000000
548,-584.000000,2440.000000
549,-576.000000,2440.000000
550,-576.000000,2440.000000
551,-584.000000,2440.000000
552,-576.000000,2440.000000
553,-576.000000,2440.000000
554,-576.000000,2440.000000
555,-576.000000,2440.000000
556,-584.000000,2440.000000
557,-576.000000,2480.000000
558,-584.000000,2440.000000
559,-576.000000,2440.000000
560,-576.000000,2440.000000
561,-576.000000,2480.000000
562,-576.000000,2440.000000
563,-576.000000,2440.000000
564,-584.000000,2440.000000
565,-576.000000,2440.000000
566,-576.000000,2440.000000
567,-584.000000,2440.000000
568,-576.000000,2440.000000
569,-576.000000,2440.000000
570,-576.000000,2440.000000
571,-584.000000,2440.000000
572,-584.000000,2440.000000
573,-576.000000,2440.000000
574,-576.000000,2440.000000
575,-584.000000,2440.000000
576,-584.000000,2440.000000
577,-576.000000,2440.000000
578,-576.000000,2440.000000
579,-576.000000,2440.000000
580,-584.000000,2440.000000
581,-576.000000,2440.000000
582,-576.000000,2440.000000
583,-576.000000,2440.000000
584,-576.000000,2440.000000
585,-584.000000,2440.000000
586,-576.000000,2440.000000
587,-576.000000,2440.000000
588,-576.000000,2440.000000
589,-576.000000,2480.000000
590,-584.000000,2480.000000
591,-576.000000,2440.000000
592,-576.000000,2440.000000
593,-576.000000,2480.000000
594,-584.000000,2440.000000
595,-576.000000,2480.000000
596,-576.000000,2480.000000
597,-576.000000,2440.000000
598,-576.000000,2440.000000
599,-576.000000,2440.000000
600,-576.000000,2440.000000
601,-576.000000,2440.000000
602,-576.000000,2440.000000
603,-584.000000,2440.000000
604,-576.000000,2440.000000
605,-576.000000,2440.000000
606,-576.000000,2440.000000
607,-584.000000,2440.000000
608,-576.000000,2440.000000
609,-576.000000,2440.000000
610,-576.000000,2440.000000
611,-576.000000,2440.000000
612,-576.000000,2480.000000
613,-584.000000,2480.000000
614,-576.000000,2480.000000
615,-576.000000,2440.000000
616,-576.000000,2440.000000
617,-576.000000,2480.000000
618,-576.000000,2440.000000
619,-576.000000,2440.000000
620,-584.000000,2440.000000
621,-576.000000,2480.000000
622,-576.000000,2440.000000
623,-584.000000,2440.000000
624,-576.000000,2440.000000
625,-584.000000,2440.000000
626,-576.000000,2440.000000
627,-576.000000,2440.000000
628,-576.000000,2440.000000
629,-584.000000,2480.000000
630,-576.000000,2440.000000
631,-576.000000,2440.000000
632,-576.000000,2480.000000
633,-576.000000,2440.000000
634,-584.000000,2480.000000
635,-576.000000,2480.000000
636,-576.000000,2440.000000
637,-576.000000,2440.000000
638,-576.000000,2440.000000
639,-576.000000,2440.000000
640,-576.000000,2440.000000
641,-584.000000,2480.000000
642,-576.000000,2440.000000
643,-576.000000,2480.000000
644,-584.000000,2440.000000
645,-584.000000,2440.000000
646,-576.000000,2440.000000
647,-576.000000,2440.000000
648,-576.000000,2480.000000
649,-576.000000,2480.000000
650,-584.000000,2440.000000
651,-584.000000,2440.000000
652,-576.000000,2440.000000
653,-576.000000,2440.000000
654,-584.000000,2440.000000
655,-576.000000,2440.000000
656,-576.000000,2440.000000
657,-576.000000,2440.000000
658,-576.000000,2440.000000
659,-576.000000,2440.000000
660,-576.000000,2440.000000
661,-576.000000,2440.000000
662,-576.000000,2480.000000
663,-576.000000,2480.000000
664,-576.000000,2440.000000
665,-576.000000,2440.000000
666,-576.000000,2440.000000
667,-576.000000,2440.000000
668,-584.000000,2440.000000
669,-576.000000,2440.000000
670,-576.000000,2440.000000
671,-584.000000,2440.000000
672,-576.000000,2440.000000
673,-576.000000,2480.000000
674,-584.000000,2440.000000
675,-576.000000,2440.000000
676,-576.000000,2440.000000
677,-576.000000,2480.000000
678,-576.000000,2440.000000
679,-576.000000,2480.000000
680,-576.000000,2440.000000
681,-576.000000,2440.000000
682,-576.000000,2440.000000
683,-576.000000,2440.000000
684,-584.000000,2440.000000
685,-576.000000,2440.000000
686,-576.000000,2480.000000
687,-576.000000,2480.000000
688,-584.000000,2440.000000
689,-584.000000,2440.000000
690,-576.000000,2440.000000
691,-576.000000,2440.000000
692,-568.000000,2440.000000
693,-592.000000,2440.000000
694,-584.000000,2440.000000
695,-576.000000,2440.000000
696,-560.000000,2480.000000
697,-584.000000,2440.000000
698,-576.000000,2440.000000
699,-576.000000,2480.000000
700,-576.000000,2440.000000
701,-584.000000,2440.000000
702,-576.000000,2480.000000
703,-576.000000,2440.000000
704,-576.000000,2480.000000
705,-576.000000,2440.000000
706,-576.000000,2440.000000
707,-576.000000,2440.000000
