repport_data/power_optimization_measures/data_44_000.csv

Channel              :,CH1,CH2
Frequency            :,  ?,  ?
Period               :,  ?,  ?
PK-PK                :,724.0mV?,1.000V
Probe attenuation    :,1X,1X
Voltage per ADC value:,0.250000mV,2.500000mV
Time interval        :,200.00000uS,200.00000uS

index,CH1_Voltage(mV),CH2_Voltage(mV)
1,136.000000,1720.000000
2,136.000000,1720.000000
3,132.000000,1720.000000
4,132.000000,1720.000000
5,132.000000,1720.000000
6,180.000000,1720.000000
7,140.000000,1720.000000
8,136.000000,1720.000000
9,136.000000,1720.000000
10,132.000000,1720.000000
11,136.000000,1720.000000
12,136.000000,1720.000000
13,132.000000,1720.000000
14,132.000000,1720.000000
15,132.000000,1720.000000
16,136.000000,1720.000000
17,132.000000,1720.000000
18,132.000000,1720.000000
19,132.000000,1720.000000
20,128.000000,1720.000000
21,132.000000,1720.000000
22,132.000000,1720.000000
23,132.000000,1720.000000
24,128.000000,1720.000000
25,132.000000,1720.000000
26,128.000000,1680.000000
27,132.000000,1720.000000
28,132.000000,1720.000000
29,132.000000,1720.000000
30,132.000000,1720.000000
31,132.000000,1720.000000
32,132.000000,1720.000000
33,132.000000,1720.000000
34,132.000000,1720.000000
35,132.000000,1680.000000
36,132.000000,1720.000000
37,128.000000,1720.000000
38,132.000000,1720.000000
39,132.000000,1720.000000
40,128.000000,1720.000000
41,132.000000,1720.000000
42,136.000000,1720.000000
43,128.000000,1720.000000
44,132.000000,1720.000000
45,132.000000,1720.000000
46,132.000000,1720.000000
47,128.000000,1720.000000
48,132.000000,1720.000000
49,132.000000,1720.000000
50,132.000000,1680.000000
51,136.000000,1720.000000
52,132.000000,1720.000000
53,128.000000,1680.000000
54,128.000000,1720.000000
55,136.000000,1720.000000
56,128.000000,1720.000000
57,124.000000,1720.000000
58,136.000000,1720.000000
59,124.000000,1720.000000
60,128.000000,1720.000000
61,124.000000,1720.000000
62,128.000000,1680.000000
63,124.000000,1720.000000
64,128.000000,1720.000000
65,124.000000,1720.000000
66,128.000000,1720.000000
67,128.000000,1680.000000
68,128.000000,1720.000000
69,128.000000,1720.000000
70,124.000000,1720.000000
71,128.000000,1720.000000
72,128.000000,1680.000000
73,124.000000,1720.000000
74,132.000000,1720.000000
75,128.000000,1720.000000
76,128.000000,1720.000000
77,128.000000,1720.000000
78,128.000000,1720.000000
79,128.000000,1720.000000
80,128.000000,1720.000000
81,124.000000,1720.000000
82,128.000000,1720.000000
83,128.000000,1720.000000
84,132.000000,1720.000000
85,132.000000,1720.000000
86,132.000000,1720.000000
87,128.000000,1720.000000
88,132.000000,1720.000000
89,132.000000,1720.000000
90,132.000000,1720.000000
91,128.000000,1720.000000
92,128.000000,1720.000000
93,128.000000,1720.000000
94,136.000000,1720.000000
95,132.000000,1720.000000
96,132.000000,1720.000000
97,128.000000,1720.000000
98,132.000000,1720.000000
99,132.000000,1720.000000
100,136.000000,1720.000000
101,136.000000,1720.000000
102,132.000000,1720.000000
103,136.000000,1760.000000
104,140.000000,1720.000000
105,128.000000,1720.000000
106,136.000000,1720.000000
107,144.000000,1760.000000
108,140.000000,1720.000000
109,140.000000,1720.000000
110,148.000000,1720.000000
111,144.000000,1720.000000
112,140.000000,1720.000000
113,144.000000,1720.000000
114,128.000000,1720.000000
115,144.000000,1720.000000
116,144.000000,1720.000000
117,144.000000,1720.000000
118,148.000000,1720.000000
119,144.000000,1720.000000
120,148.000000,1720.000000
121,144.000000,1720.000000
122,144.000000,1720.000000
123,144.000000,1720.000000
124,148.000000,1720.000000
125,144.000000,1760.000000
126,148.000000,1720.000000
127,148.000000,1760.000000
128,144.000000,1720.000000
129,148.000000,1720.000000
130,144.000000,1760.000000
131,148.000000,1720.000000
132,148.000000,1720.000000
133,148.000000,1720.000000
134,144.000000,1720.000000
135,144.000000,1720.000000
136,148.000000,1720.000000
137,144.000000,1720.000000
138,148.000000,1720.000000
139,148.000000,1720.000000
140,144.000000,1720.000000
141,148.000000,1720.000000
142,140.000000,1720.000000
143,144.000000,1720.000000
144,144.000000,1760.000000
145,144.000000,1720.000000
146,144.000000,1720.000000
147,144.000000,1720.000000
148,144.000000,1720.000000
149,144.000000,1720.000000
150,140.000000,1720.000000
151,144.000000,1720.000000
152,148.000000,1720.000000
153,148.000000,1720.000000
154,144.000000,1720.000000
155,144.000000,1720.000000
156,148.000000,1720.000000
157,144.000000,1720.000000
158,140.000000,1720.000000
159,140.000000,1720.000000
160,144.000000,1720.000000
161,144.000000,1720.000000
162,140.000000,1720.000000
163,144.000000,1720.000000
164,144.000000,1720.000000
165,144.000000,1720.000000
166,144.000000,1720.000000
167,144.000000,1720.000000
168,144.000000,1720.000000
169,140.000000,1720.000000
170,144.000000,1720.000000
171,144.000000,1720.000000
172,144.000000,1720.000000
173,144.000000,1720.000000
174,144.000000,1720.000000
175,144.000000,1720.000000
176,136.000000,1720.000000
177,140.000000,1720.000000
178,140.000000,1720.000000
179,132.000000,1720.000000
180,136.000000,1720.000000
181,136.000000,1720.000000
182,140.000000,1720.000000
183,136.000000,1720.000000
184,132.000000,1720.000000
185,136.000000,1720.000000
186,132.000000,1720.000000
187,136.000000,1720.000000
188,132.000000,1720.000000
189,132.000000,1720.000000
190,132.000000,1720.000000
191,132.000000,1720.000000
192,136.000000,1720.000000
193,132.000000,1720.000000
194,132.000000,1720.000000
195,128.000000,1720.000000
196,132.000000,1720.000000
197,136.000000,1720.000000
198,132.000000,1720.000000
199,132.000000,1720.000000
200,132.000000,1720.000000
201,124.000000,1720.000000
202,128.000000,1720.000000
203,136.000000,1720.000000
204,132.000000,1680.000000
205,132.000000,1720.000000
206,132.000000,1720.000000
207,132.000000,1720.000000
208,136.000000,1720.000000
209,132.000000,1720.000000
210,132.000000,1720.000000
211,132.000000,1720.000000
212,136.000000,1720.000000
213,132.000000,1720.000000
214,132.000000,1720.000000
215,136.000000,1720.000000
216,132.000000,1720.000000
217,132.000000,1720.000000
218,132.000000,1720.000000
219,132.000000,1720.000000
220,132.000000,1720.000000
221,132.000000,1720.000000
222,132.000000,1720.000000
223,132.000000,1720.000000
224,136.000000,1720.000000
225,132.000000,1720.000000
226,132.000000,1720.000000
227,132.000000,1720.000000
228,132.000000,1720.000000
229,128.000000,1720.000000
230,132.000000,1720.000000
231,128.000000,1720.000000
232,132.000000,1720.000000
233,132.000000,1720.000000
234,132.000000,1720.000000
235,128.000000,1720.000000
236,128.000000,1720.000000
237,132.000000,1720.000000
238,132.000000,1720.000000
239,128.000000,1720.000000
240,132.000000,1720.000000
241,132.000000,1720.000000
242,132.000000,1720.000000
243,136.000000,1720.000000
244,132.000000,1720.000000
245,136.000000,1720.000000
246,132.000000,1720.000000
247,132.000000,1720.000000
248,132.000000,1720.000000
249,132.000000,1720.000000
250,136.000000,1720.000000
251,132.000000,1720.000000
252,136.000000,1720.000000
253,132.000000,1720.000000
254,132.000000,1720.000000
255,136.000000,1720.000000
256,132.000000,1720.000000
257,128.000000,1720.000000
258,128.000000,1720.000000
259,124.000000,1720.000000
260,132.000000,1720.000000
261,128.000000,1720.000000
262,136.000000,1720.000000
263,132.000000,1720.000000
264,132.000000,1720.000000
265,132.000000,1680.000000
266,132.000000,1720.000000
267,128.000000,1720.000000
268,128.000000,1720.000000
269,128.000000,1720.000000
270,128.000000,1720.000000
271,128.000000,1720.000000
272,132.000000,1720.000000
273,128.000000,1720.000000
274,128.000000,1720.000000
275,128.000000,1720.000000
276,128.000000,1720.000000
277,128.000000,1720.000000
278,132.000000,1720.000000
279,128.000000,1720.000000
280,128.000000,1680.000000
281,124.000000,1720.000000
282,128.000000,1720.000000
283,128.000000,1720.000000
284,128.000000,1720.000000
285,128.000000,1720.000000
286,128.000000,1720.000000
287,128.000000,1720.000000
288,128.000000,1720.000000
289,128.000000,1720.000000
290,128.000000,1720.000000
291,128.000000,1720.000000
292,128.000000,1720.000000
293,132.000000,1720.000000
294,132.000000,1720.000000
295,128.000000,1720.000000
296,128.000000,1720.000000
297,132.000000,1720.000000
298,132.000000,1760.000000
299,128.000000,1720.000000
300,132.000000,1720.000000
301,132.000000,1720.000000
302,132.000000,1720.000000
303,132.000000,1720.000000
304,144.000000,1720.000000
305,116.000000,1720.000000
306,132.000000,1720.000000
307,136.000000,1720.000000
308,136.000000,1720.000000
309,100.000000,1720.000000
310,140.000000,1720.000000
311,136.000000,1720.000000
312,136.000000,1720.000000
313,140.000000,1720.000000
314,140.000000,1720.000000
315,136.000000,1720.000000
316,140.000000,1720.000000
317,140.000000,1720.000000
318,140.000000,1720.000000
319,144.000000,1720.000000
320,144.000000,1720.000000
321,144.000000,1720.000000
322,140.000000,1720.000000
323,144.000000,1720.000000
324,144.000000,1720.000000
325,144.000000,1720.000000
326,144.000000,1720.000000
327,144.000000,1720.000000
328,144.000000,1720.000000
329,144.000000,1720.000000
330,144.000000,1720.000000
331,140.000000,1720.000000
332,144.000000,1720.000000
333,144.000000,1720.000000
334,144.000000,1720.000000
335,144.000000,1720.000000
336,148.000000,1720.000000
337,148.000000,1760.000000
338,144.000000,1760.000000
339,140.000000,1720.000000
340,148.000000,1720.000000
341,144.000000,1720.000000
342,144.000000,1720.000000
343,148.000000,1720.000000
344,148.000000,1720.000000
345,144.000000,1720.000000
346,144.000000,1720.000000
347,144.000000,1720.000000
348,144.000000,1760.000000
349,148.000000,1720.000000
350,140.000000,1720.000000
351,148.000000,1720.000000
352,148.000000,1720.000000
353,144.000000,1720.000000
354,144.000000,1720.000000
355,88.000000,1720.000000
356,144.000000,1720.000000
357,144.000000,1720.000000
358,144.000000,1720.000000
359,140.000000,1720.000000
360,140.000000,1760.000000
361,140.000000,1720.000000
362,144.000000,1720.000000
363,140.000000,1760.000000
364,140.000000,1720.000000
365,144.000000,1720.000000
366,144.000000,1720.000000
367,144.000000,1720.000000
368,144.000000,1720.000000
369,144.000000,1720.000000
370,144.000000,1720.000000
371,144.000000,1720.000000
372,148.000000,1720.000000
373,144.000000,1760.000000
374,148.000000,1720.000000
375,144.000000,1720.000000
376,148.000000,1720.000000
377,148.000000,1720.000000
378,144.000000,1720.000000
379,148.000000,1720.000000
380,148.000000,1720.000000
381,144.000000,1720.000000
382,148.000000,1720.000000
383,144.000000,1720.000000
384,148.000000,1720.000000
385,144.000000,1720.000000
386,140.000000,1720.000000
387,140.000000,1680.000000
388,140.000000,1720.000000
389,140.000000,1720.000000
390,144.000000,1720.000000
391,136.000000,1720.000000
392,136.000000,1720.000000
393,136.000000,1720.000000
394,136.000000,1720.000000
395,136.000000,1720.000000
396,136.000000,1720.000000
397,136.000000,1720.000000
398,136.000000,1720.000000
399,136.000000,1720.000000
400,132.000000,1720.000000
401,132.000000,1720.000000
402,132.000000,1720.000000
403,136.000000,1720.000000
404,140.000000,1720.000000
405,136.000000,1720.000000
406,136.000000,1720.000000
407,132.000000,1720.000000
408,136.000000,1720.000000
409,136.000000,1720.000000
410,136.000000,1680.000000
411,136.000000,1720.000000
412,136.000000,1720.000000
413,136.000000,1720.000000
414,116.000000,1720.000000
415,136.000000,1720.000000
416,132.000000,1720.000000
417,132.000000,1720.000000
418,132.000000,1720.000000
419,128.000000,1720.000000
420,132.000000,1720.000000
421,128.000000,1720.000000
422,128.000000,1720.000000
423,132.000000,1720.000000
424,132.000000,1720.000000
425,132.000000,1720.000000
426,128.000000,1720.000000
427,132.000000,1720.000000
428,132.000000,1720.000000
429,136.000000,1720.000000
430,128.000000,1720.000000
431,132.000000,1720.000000
432,128.000000,1720.000000
433,132.000000,1720.000000
434,132.000000,1720.000000
435,132.000000,1720.000000
436,132.000000,1720.000000
437,132.000000,1720.000000
438,132.000000,1720.000000
439,132.000000,1720.000000
440,132.000000,1720.000000
441,132.000000,1720.000000
442,136.000000,1720.000000
443,128.000000,1720.000000
444,128.000000,1720.000000
445,124.000000,1720.000000
446,132.000000,1720.000000
447,136.000000,1720.000000
448,132.000000,1720.000000
449,132.000000,1760.000000
450,132.000000,1720.000000
451,132.000000,1720.000000
452,128.000000,1720.000000
453,128.000000,1720.000000
454,132.000000,1720.000000
455,132.000000,1720.000000
456,132.000000,1720.000000
457,124.000000,1720.000000
458,124.000000,1720.000000
459,128.000000,1720.000000
460,128.000000,1720.000000
461,128.000000,1720.000000
462,128.000000,1720.000000
463,128.000000,1720.000000
464,132.000000,1720.000000
465,132.000000,1720.000000
466,132.000000,1720.000000
467,128.000000,1720.000000
468,132.000000,1720.000000
469,132.000000,1720.000000
470,132.000000,1720.000000
471,132.000000,1720.000000
472,132.000000,1720.000000
473,132.000000,1720.000000
474,128.000000,1720.000000
475,132.000000,1720.000000
476,132.000000,1720.000000
477,132.000000,1720.000000
478,132.000000,1720.000000
479,128.000000,1720.000000
480,128.000000,1720.000000
481,128.000000,1720.000000
482,128.000000,1720.000000
483,132.000000,1720.000000
484,128.000000,1720.000000
485,128.000000,1720.000000
486,128.000000,1720.000000
487,132.000000,1720.000000
488,128.000000,1720.000000
489,128.000000,1720.000000
490,128.000000,1720.000000
491,128.000000,1720.000000
492,128.000000,1720.000000
493,128.000000,1720.000000
494,128.000000,1720.000000
495,132.000000,1720.000000
496,128.000000,1720.000000
497,128.000000,1720.000000
498,124.000000,1720.000000
499,132.000000,1720.000000
500,132.000000,1720.000000
501,132.000000,1720.000000
502,116.000000,1720.000000
503,128.000000,1720.000000
504,132.000000,1720.000000
505,132.000000,1720.000000
506,140.000000,1720.000000
507,136.000000,1720.000000
508,136.000000,1720.000000
509,136.000000,1720.000000
510,136.000000,1720.000000
511,136.000000,1720.000000
512,132.000000,1720.000000
513,136.000000,1720.000000
514,132.000000,1720.000000
515,132.000000,1720.000000
516,132.000000,1720.000000
517,132.000000,1720.000000
518,136.000000,1760.000000
519,132.000000,1720.000000
520,132.000000,1720.000000
521,132.000000,1720.000000
522,136.000000,1720.000000
523,136.000000,1760.000000
524,136.000000,1720.000000
525,136.000000,1760.000000
526,140.000000,1720.000000
527,136.000000,1720.000000
528,140.000000,1720.000000
529,140.000000,1720.000000
530,136.000000,1720.000000
531,140.000000,1720.000000
532,144.000000,1720.000000
533,140.000000,1720.000000
534,140.000000,1760.000000
535,144.000000,1720.000000
536,144.000000,1720.000000
537,144.000000,1720.000000
538,144.000000,1720.000000
539,140.000000,1720.000000
540,144.000000,1720.000000
541,140.000000,1720.000000
542,144.000000,1720.000000
543,144.000000,1720.000000
544,144.000000,1720.000000
545,144.000000,1720.000000
546,160.000000,1720.000000
547,144.000000,1720.000000
548,144.000000,1760.000000
549,144.000000,1720.000000
550,148.000000,1720.000000
551,148.000000,1720.000000
552,144.000000,1760.000000
553,144.000000,1760.000000
554,144.000000,1720.000000
555,144.000000,1720.000000
556,144.000000,1720.000000
557,144.000000,1720.000000
558,144.000000,1720.000000
559,144.000000,1720.000000
560,144.000000,1720.000000
561,144.000000,1720.000000
562,144.000000,1760.000000
563,148.000000,1720.000000
564,148.000000,1720.000000
565,148.000000,1720.000000
566,148.000000,1720.000000
567,148.000000,1720.000000
568,144.000000,1720.000000
569,144.000000,1720.000000
570,140.000000,1720.000000
571,144.000000,1720.000000
572,144.000000,1720.000000
573,144.000000,1720.000000
574,140.000000,1760.000000
575,144.000000,1720.000000
576,144.000000,1720.000000
577,148.000000,1720.000000
578,144.000000,1760.000000
579,148.000000,1720.000000
580,144.000000,1720.000000
581,144.000000,1720.000000
582,144.000000,1720.000000
583,144.000000,1720.000000
584,144.000000,1720.000000
585,144.000000,1720.000000
586,148.000000,1720.000000
587,148.000000,1720.000000
588,144.000000,1720.000000
589,144.000000,1720.000000
590,144.000000,1720.000000
591,148.000000,1720.000000
592,144.000000,1720.000000
593,144.000000,1720.000000
594,144.000000,1720.000000
595,148.000000,1720.000000
596,144.000000,1720.000000
597,144.000000,1720.000000
598,136.000000,1720.000000
599,140.000000,1720.000000
600,136.000000,1720.000000
601,136.000000,1720.000000
602,136.000000,1720.000000
603,132.000000,1720.000000
604,136.000000,1720.000000
605,132.000000,1680.000000
606,140.000000,1720.000000
607,112.000000,1720.000000
608,124.000000,1720.000000
609,136.000000,1720.000000
610,136.000000,1720.000000
611,156.000000,1720.000000
612,132.000000,1720.000000
613,136.000000,1720.000000
614,136.000000,1720.000000
615,136.000000,1720.000000
616,136.000000,1720.000000
617,136.000000,1720.000000
618,136.000000,1720.000000
619,136.000000,1720.000000
620,136.000000,1720.000000
621,132.000000,1720.000000
622,136.000000,1720.000000
623,136.000000,1720.000000
624,132.000000,1720.000000
625,128.000000,1720.000000
626,132.000000,1720.000000
627,128.000000,1680.000000
628,132.000000,1720.000000
629,128.000000,1720.000000
630,132.000000,1720.000000
631,132.000000,1720.000000
632,132.000000,1720.000000
633,132.000000,1720.000000
634,128.000000,1720.000000
635,128.000000,1720.000000
636,132.000000,1720.000000
637,132.000000,1720.000000
638,132.000000,1720.000000
639,128.000000,1720.000000
640,132.000000,1720.000000
641,132.000000,1720.000000
642,128.000000,1720.000000
643,128.000000,1720.000000
644,132.000000,1720.000000
645,128.000000,1720.000000
646,132.000000,1720.000000
647,132.000000,1720.000000
648,128.000000,1720.000000
649,132.000000,1720.000000
650,132.000000,1720.000000
651,132.000000,1720.000000
652,136.000000,1720.000000
653,132.000000,1720.000000
654,132.000000,1720.000000
655,124.000000,1720.000000
656,124.000000,1720.000000
657,124.000000,1720.000000
658,128.000000,1720.000000
659,132.000000,1720.000000
660,128.000000,1720.000000
661,128.000000,1720.000000
662,132.000000,1720.000000
663,124.000000,1720.000000
664,132.000000,1720.000000
665,128.000000,1720.000000
666,128.000000,1720.000000
667,124.000000,1720.000000
668,124.000000,1720.000000
669,128.000000,1720.000000
670,132.000000,1720.000000
671,128.000000,1720.000000
672,132.000000,1720.000000
673,132.000000,1720.000000
674,128.000000,1720.000000
675,128.000000,1720.000000
676,132.000000,1720.000000
677,132.000000,1720.000000
678,132.000000,1720.000000
679,132.000000,1720.000000
680,136.000000,1720.000000
681,136.000000,1720.000000
682,136.000000,1720.000000
683,132.000000,1720.000000
684,132.000000,1720.000000
685,136.000000,1720.000000
686,132.000000,1720.000000
687,132.000000,1720.000000
688,132.000000,1720.000000
689,132.000000,1720.000000
690,132.000000,1720.000000
691,128.000000,1720.000000
692,132.000000,1720.000000
693,128.000000,1720.000000
694,128.000000,1720.000000
695,128.000000,1720.000000
696,132.000000,1720.000000
697,128.000000,1720.000000
698,128.000000,1720.000000
699,128.000000,1720.000000
700,124.000000,1720.000000
701,128.000000,1720.000000
702,128.000000,1720.000000
703,128.000000,1720.000000
704,132.000000,1720.000000
705,132.000000,1720.000000
706,124.000000,1720.000000
707,128.000000,1720.000000
708,128.000000,1720.000000
709,128.000000,1720.000000
710,132.000000,1720.000000
711,132.000000,1720.000000
712,128.000000,1720.000000
713,132.000000,1720.000000
714,132.000000,1720.000000
715,132.000000,1720.000000
716,132.000000,1720.000000
717,132.000000,1720.000000
718,136.000000,1720.000000
719,132.000000,1720.000000
720,136.000000,1720.000000
721,132.000000,1720.000000
722,132.000000,1720.000000
723,132.000000,1720.000000
724,132.000000,1720.000000
725,132.000000,1720.000000
726,132.000000,1720.000000
727,132.000000,1720.000000
728,132.000000,1720.000000
729,132.000000,1720.000000
730,132.000000,1720.000000
731,132.000000,1720.000000
732,136.000000,1720.000000
733,136.000000,1760.000000
