repport_data/power_optimization_measures/data_44_004.csv

Channel              :,CH1,CH2
Frequency            :,  ?,  ?
Period               :,  ?,  ?
PK-PK                :,356.0mV?,960.0mV
Probe attenuation    :,1X,1X
Voltage per ADC value:,0.250000mV,2.500000mV
Time interval        :,200.00000uS,200.00000uS

index,CH1_Voltage(mV),CH2_Voltage(mV)
1,-348.000000,2600.000000
2,-348.000000,2600.000000
3,-332.000000,2600.000000
4,-328.000000,2640.000000
5,-324.000000,2640.000000
6,-308.000000,2600.000000
7,-296.000000,2600.000000
8,-288.000000,2640.000000
9,-284.000000,2640.000000
10,-280.000000,2600.000000
11,-272.000000,2640.000000
12,-268.000000,2640.000000
13,-260.000000,2600.000000
14,-256.000000,2640.000000
15,-252.000000,2640.000000
16,-252.000000,2640.000000
17,-244.000000,2600.000000
18,-244.000000,2640.000000
19,-240.000000,2640.000000
20,-240.000000,2600.000000
21,-236.000000,2640.000000
22,-232.000000,2640.000000
23,-232.000000,2600.000000
24,-232.000000,2640.000000
25,-228.000000,2640.000000
26,-228.000000,2600.000000
27,-224.000000,2640.000000
28,-224.000000,2640.000000
29,-228.000000,2600.000000
30,-224.000000,2600.000000
31,-224.000000,2600.000000
32,-220.000000,2640.000000
33,-220.000000,2640.000000
34,-220.000000,2640.000000
35,-212.000000,2640.000000
36,-220.000000,2640.000000
37,-216.000000,2640.000000
38,-212.000000,2640.000000
39,-220.000000,2640.000000
40,-216.000000,2640.000000
41,-216.000000,2640.000000
42,-212.000000,2640.000000
43,-212.000000,2640.000000
44,-216.000000,2640.000000
45,-208.000000,2640.000000
46,-208.000000,2640.000000
47,-212.000000,2640.000000
48,-208.000000,2640.000000
49,-212.000000,2640.000000
50,-228.000000,2640.000000
51,-216.000000,2640.000000
52,-212.000000,2640.000000
53,-212.000000,2640.000000
54,-204.000000,2640.000000
55,-212.000000,2640.000000
56,-212.000000,2640.000000
57,-208.000000,2640.000000
58,-208.000000,2600.000000
59,-208.000000,2640.000000
60,-208.000000,2640.000000
61,-204.000000,2600.000000
62,-208.000000,2640.000000
63,-208.000000,2640.000000
64,-208.000000,2640.000000
65,-208.000000,2600.000000
66,-208.000000,2600.000000
67,-208.000000,2640.000000
68,-212.000000,2640.000000
69,-208.000000,2640.000000
70,-204.000000,2640.000000
71,-208.000000,2640.000000
72,-208.000000,2640.000000
73,-208.000000,2600.000000
74,-208.000000,2640.000000
75,-212.000000,2640.000000
76,-212.000000,2600.000000
77,-208.000000,2640.000000
78,-208.000000,2640.000000
79,-208.000000,2640.000000
80,-212.000000,2640.000000
81,-212.000000,2640.000000
82,-208.000000,2640.000000
83,-212.000000,2600.000000
84,-212.000000,2640.000000
85,-208.000000,2640.000000
86,-208.000000,2640.000000
87,-208.000000,2640.000000
88,-208.000000,2640.000000
89,-208.000000,2640.000000
90,-216.000000,2640.000000
91,-212.000000,2640.000000
92,-208.000000,2640.000000
93,-208.000000,2640.000000
94,-212.000000,2640.000000
95,-208.000000,2640.000000
96,-212.000000,2640.000000
97,-212.000000,2640.000000
98,-208.000000,2640.000000
99,-212.000000,2640.000000
100,-220.000000,2640.000000
101,-212.000000,2640.000000
102,-204.000000,2640.000000
103,-216.000000,2640.000000
104,-216.000000,2640.000000
105,-212.000000,2640.000000
106,-204.000000,2640.000000
107,-212.000000,2600.000000
108,-216.000000,2640.000000
109,-212.000000,2600.000000
110,-208.000000,2640.000000
111,-216.000000,2600.000000
112,-212.000000,2600.000000
113,-216.000000,2640.000000
114,-212.000000,2600.000000
115,-212.000000,2640.000000
116,-212.000000,2640.000000
117,-212.000000,2600.000000
118,-212.000000,2640.000000
119,-208.000000,2600.000000
120,-212.000000,2640.000000
121,-208.000000,2640.000000
122,-212.000000,2640.000000
123,-208.000000,2640.000000
124,-208.000000,2640.000000
125,-208.000000,2640.000000
126,-212.000000,2640.000000
127,-212.000000,2640.000000
128,-212.000000,2640.000000
129,-208.000000,2640.000000
130,-212.000000,2640.000000
131,-208.000000,2640.000000
132,-204.000000,2600.000000
133,-208.000000,2640.000000
134,-212.000000,2640.000000
135,-208.000000,2640.000000
136,-212.000000,2640.000000
137,-208.000000,2600.000000
138,-208.000000,2640.000000
139,-212.000000,2640.000000
140,-212.000000,2640.000000
141,-208.000000,2640.000000
142,-208.000000,2640.000000
143,-216.000000,2640.000000
144,-208.000000,2640.000000
145,-212.000000,2640.000000
146,-212.000000,2640.000000
147,-212.000000,2640.000000
148,-204.000000,2640.000000
149,-208.000000,2640.000000
150,-208.000000,2600.000000
151,-204.000000,2640.000000
152,-204.000000,2640.000000
153,-208.000000,2640.000000
154,-208.000000,2640.000000
155,-204.000000,2640.000000
156,-208.000000,2640.000000
157,-208.000000,2640.000000
158,-208.000000,2640.000000
159,-208.000000,2600.000000
160,-208.000000,2600.000000
161,-208.000000,2640.000000
162,-208.000000,2640.000000
163,-208.000000,2640.000000
164,-208.000000,2640.000000
165,-208.000000,2640.000000
166,-208.000000,2640.000000
167,-208.000000,2640.000000
168,-212.000000,2640.000000
169,-212.000000,2640.000000
170,-208.000000,2640.000000
171,-212.000000,2640.000000
172,-208.000000,2640.000000
173,-208.000000,2640.000000
174,-208.000000,2640.000000
175,-212.000000,2640.000000
176,-208.000000,2640.000000
177,-208.000000,2640.000000
178,-208.000000,2640.000000
179,-208.000000,2600.000000
180,-212.000000,2640.000000
181,-208.000000,2640.000000
182,-208.000000,2640.000000
183,-212.000000,2640.000000
184,-208.000000,2600.000000
185,-212.000000,2640.000000
186,-208.000000,2640.000000
187,-212.000000,2640.000000
188,-208.000000,2600.000000
189,-212.000000,2640.000000
190,-212.000000,2640.000000
191,-208.000000,2640.000000
192,-212.000000,2640.000000
193,-204.000000,2640.000000
194,-208.000000,2640.000000
195,-212.000000,2640.000000
196,-164.000000,2640.000000
197,-212.000000,2640.000000
198,-212.000000,2640.000000
199,-212.000000,2640.000000
200,-220.000000,2600.000000
201,-208.000000,2640.000000
202,-208.000000,2640.000000
203,-212.000000,2640.000000
204,-216.000000,2640.000000
205,-212.000000,2640.000000
206,-212.000000,2640.000000
207,-212.000000,2640.000000
208,-208.000000,2600.000000
209,-212.000000,2640.000000
210,-212.000000,2640.000000
211,-212.000000,2640.000000
212,-208.000000,2640.000000
213,-212.000000,2600.000000
214,-208.000000,2560.000000
215,-208.000000,2520.000000
216,-208.000000,2480.000000
217,-212.000000,2440.000000
218,-212.000000,2440.000000
219,-208.000000,2400.000000
220,-212.000000,2400.000000
221,-212.000000,2360.000000
222,-212.000000,2360.000000
223,-212.000000,2360.000000
224,-212.000000,2400.000000
225,-208.000000,2360.000000
226,-208.000000,2400.000000
227,-208.000000,2440.000000
228,-212.000000,2440.000000
229,-212.000000,2440.000000
230,-208.000000,2480.000000
231,-212.000000,2480.000000
232,-216.000000,2520.000000
233,-216.000000,2520.000000
234,-252.000000,2560.000000
235,-288.000000,2520.000000
236,-324.000000,2560.000000
237,-352.000000,2560.000000
238,-388.000000,2560.000000
239,-416.000000,2560.000000
240,-432.000000,2560.000000
241,-444.000000,2560.000000
242,-468.000000,2560.000000
243,-480.000000,2600.000000
244,-476.000000,2600.000000
245,-448.000000,2600.000000
246,-472.000000,2560.000000
247,-436.000000,2600.000000
248,-416.000000,2600.000000
249,-440.000000,2600.000000
250,-384.000000,2600.000000
251,-364.000000,2600.000000
252,-352.000000,2600.000000
253,-344.000000,2600.000000
254,-328.000000,2600.000000
255,-316.000000,2600.000000
256,-348.000000,2600.000000
257,-300.000000,2640.000000
258,-292.000000,2640.000000
259,-288.000000,2640.000000
260,-280.000000,2640.000000
261,-276.000000,2600.000000
262,-268.000000,2600.000000
263,-264.000000,2640.000000
264,-260.000000,2600.000000
265,-252.000000,2640.000000
266,-252.000000,2600.000000
267,-244.000000,2600.000000
268,-244.000000,2640.000000
269,-236.000000,2640.000000
270,-240.000000,2640.000000
271,-236.000000,2640.000000
272,-232.000000,2640.000000
273,-232.000000,2600.000000
274,-228.000000,2640.000000
275,-232.000000,2600.000000
276,-224.000000,2640.000000
277,-224.000000,2640.000000
278,-228.000000,2600.000000
279,-224.000000,2640.000000
280,-224.000000,2640.000000
281,-224.000000,2640.000000
282,-220.000000,2640.000000
283,-220.000000,2600.000000
284,-220.000000,2640.000000
285,-216.000000,2640.000000
286,-216.000000,2640.000000
287,-216.000000,2640.000000
288,-220.000000,2640.000000
289,-216.000000,2640.000000
290,-212.000000,2640.000000
291,-212.000000,2600.000000
292,-212.000000,2640.000000
293,-212.000000,2640.000000
294,-212.000000,2640.000000
295,-220.000000,2640.000000
296,-216.000000,2640.000000
297,-212.000000,2640.000000
298,-216.000000,2640.000000
299,-216.000000,2640.000000
300,-216.000000,2640.000000
301,-208.000000,2640.000000
302,-216.000000,2600.000000
303,-216.000000,2640.000000
304,-216.000000,2640.000000
305,-212.000000,2640.000000
306,-212.000000,2600.000000
307,-212.000000,2640.000000
308,-212.000000,2640.000000
309,-216.000000,2640.000000
310,-212.000000,2640.000000
311,-216.000000,2640.000000
312,-216.000000,2640.000000
313,-216.000000,2640.000000
314,-212.000000,2640.000000
315,-212.000000,2640.000000
316,-212.000000,2640.000000
317,-216.000000,2640.000000
318,-216.000000,2600.000000
319,-212.000000,2640.000000
320,-212.000000,2600.000000
321,-212.000000,2600.000000
322,-208.000000,2640.000000
323,-220.000000,2640.000000
324,-212.000000,2640.000000
325,-208.000000,2600.000000
326,-208.000000,2640.000000
327,-208.000000,2600.000000
328,-212.000000,2600.000000
329,-212.000000,2640.000000
330,-208.000000,2600.000000
331,-212.000000,2640.000000
332,-212.000000,2640.000000
333,-208.000000,2640.000000
334,-208.000000,2640.000000
335,-212.000000,2640.000000
336,-212.000000,2640.000000
337,-212.000000,2640.000000
338,-212.000000,2640.000000
339,-216.000000,2600.000000
340,-208.000000,2640.000000
341,-212.000000,2640.000000
342,-212.000000,2640.000000
343,-208.000000,2640.000000
344,-208.000000,2640.000000
345,-216.000000,2600.000000
346,-208.000000,2640.000000
347,-212.000000,2640.000000
348,-208.000000,2640.000000
349,-204.000000,2600.000000
350,-204.000000,2640.000000
351,-208.000000,2640.000000
352,-208.000000,2600.000000
353,-204.000000,2640.000000
354,-204.000000,2640.000000
355,-208.000000,2640.000000
356,-208.000000,2600.000000
357,-204.000000,2640.000000
358,-208.000000,2640.000000
359,-208.000000,2640.000000
360,-208.000000,2640.000000
361,-208.000000,2640.000000
362,-212.000000,2600.000000
363,-208.000000,2640.000000
364,-208.000000,2640.000000
365,-208.000000,2640.000000
366,-212.000000,2640.000000
367,-208.000000,2640.000000
368,-212.000000,2640.000000
369,-212.000000,2640.000000
370,-212.000000,2640.000000
371,-208.000000,2640.000000
372,-208.000000,2640.000000
373,-212.000000,2640.000000
374,-208.000000,2640.000000
375,-208.000000,2640.000000
376,-208.000000,2640.000000
377,-208.000000,2640.000000
378,-212.000000,2640.000000
379,-208.000000,2640.000000
380,-208.000000,2640.000000
381,-212.000000,2640.000000
382,-208.000000,2640.000000
383,-216.000000,2640.000000
384,-212.000000,2640.000000
385,-208.000000,2640.000000
386,-208.000000,2640.000000
387,-208.000000,2640.000000
388,-216.000000,2640.000000
389,-212.000000,2600.000000
390,-208.000000,2600.000000
391,-216.000000,2600.000000
392,-208.000000,2600.000000
393,-208.000000,2640.000000
394,-224.000000,2640.000000
395,-212.000000,2640.000000
396,-208.000000,2640.000000
397,-212.000000,2640.000000
398,-212.000000,2640.000000
399,-208.000000,2640.000000
400,-212.000000,2640.000000
401,-216.000000,2640.000000
402,-216.000000,2600.000000
403,-212.000000,2640.000000
404,-212.000000,2600.000000
405,-216.000000,2640.000000
406,-212.000000,2640.000000
407,-212.000000,2600.000000
408,-212.000000,2640.000000
409,-216.000000,2640.000000
410,-212.000000,2640.000000
411,-212.000000,2600.000000
412,-212.000000,2640.000000
413,-212.000000,2640.000000
414,-212.000000,2640.000000
415,-212.000000,2640.000000
416,-212.000000,2640.000000
417,-208.000000,2640.000000
418,-212.000000,2640.000000
419,-208.000000,2600.000000
420,-212.000000,2640.000000
421,-212.000000,2640.000000
422,-212.000000,2640.000000
423,-212.000000,2640.000000
424,-212.000000,2640.000000
425,-212.000000,2640.000000
426,-212.000000,2640.000000
427,-208.000000,2640.000000
428,-212.000000,2600.000000
429,-212.000000,2640.000000
430,-216.000000,2640.000000
431,-212.000000,2640.000000
432,-212.000000,2640.000000
433,-208.000000,2640.000000
434,-208.000000,2640.000000
435,-208.000000,2640.000000
436,-208.000000,2600.000000
437,-212.000000,2640.000000
438,-212.000000,2640.000000
439,-212.000000,2640.000000
440,-212.000000,2640.000000
441,-212.000000,2600.000000
442,-212.000000,2640.000000
443,-192.000000,2640.000000
444,-212.000000,2640.000000
445,-208.000000,2600.000000
446,-212.000000,2640.000000
447,-240.000000,2640.000000
448,-212.000000,2640.000000
449,-208.000000,2640.000000
450,-204.000000,2640.000000
451,-208.000000,2600.000000
452,-208.000000,2640.000000
453,-208.000000,2640.000000
454,-220.000000,2640.000000
455,-204.000000,2640.000000
456,-208.000000,2640.000000
457,-208.000000,2640.000000
458,-208.000000,2640.000000
459,-208.000000,2640.000000
460,-208.000000,2640.000000
461,-212.000000,2600.000000
462,-208.000000,2640.000000
463,-204.000000,2600.000000
464,-208.000000,2600.000000
465,-208.000000,2520.000000
466,-208.000000,2520.000000
467,-208.000000,2480.000000
468,-208.000000,2440.000000
469,-208.000000,2400.000000
470,-212.000000,2400.000000
471,-212.000000,2400.000000
472,-208.000000,2360.000000
473,-208.000000,2360.000000
474,-212.000000,2320.000000
475,-212.000000,2360.000000
476,-212.000000,2360.000000
477,-212.000000,2440.000000
478,-208.000000,2440.000000
479,-216.000000,2440.000000
480,-212.000000,2440.000000
481,-212.000000,2480.000000
482,-204.000000,2520.000000
483,-212.000000,2520.000000
484,-220.000000,2520.000000
485,-260.000000,2520.000000
486,-296.000000,2520.000000
487,-328.000000,2520.000000
488,-360.000000,2520.000000
489,-392.000000,2560.000000
490,-416.000000,2560.000000
491,-436.000000,2560.000000
492,-448.000000,2600.000000
493,-472.000000,2560.000000
494,-480.000000,2600.000000
495,-480.000000,2600.000000
496,-484.000000,2600.000000
497,-464.000000,2600.000000
498,-440.000000,2600.000000
499,-420.000000,2600.000000
500,-404.000000,2600.000000
501,-392.000000,2600.000000
502,-372.000000,2600.000000
503,-360.000000,2600.000000
504,-344.000000,2600.000000
505,-332.000000,2600.000000
506,-324.000000,2600.000000
507,-320.000000,2640.000000
508,-304.000000,2600.000000
509,-300.000000,2600.000000
510,-292.000000,2600.000000
511,-284.000000,2600.000000
512,-280.000000,2640.000000
513,-272.000000,2600.000000
514,-268.000000,2600.000000
515,-260.000000,2640.000000
516,-256.000000,2600.000000
517,-252.000000,2640.000000
518,-248.000000,2600.000000
519,-244.000000,2600.000000
520,-240.000000,2640.000000
521,-240.000000,2640.000000
522,-240.000000,2640.000000
523,-232.000000,2640.000000
524,-232.000000,2640.000000
525,-232.000000,2640.000000
526,-232.000000,2600.000000
527,-228.000000,2640.000000
528,-228.000000,2640.000000
529,-224.000000,2600.000000
530,-228.000000,2640.000000
531,-220.000000,2640.000000
532,-224.000000,2640.000000
533,-220.000000,2640.000000
534,-220.000000,2640.000000
535,-220.000000,2640.000000
536,-220.000000,2640.000000
537,-216.000000,2600.000000
538,-216.000000,2640.000000
539,-220.000000,2600.000000
540,-216.000000,2640.000000
541,-216.000000,2640.000000
542,-216.000000,2640.000000
543,-216.000000,2640.000000
544,-212.000000,2600.000000
545,-212.000000,2640.000000
546,-216.000000,2600.000000
547,-208.000000,2640.000000
548,-208.000000,2640.000000
549,-208.000000,2640.000000
550,-212.000000,2640.000000
551,-208.000000,2640.000000
552,-204.000000,2640.000000
553,-208.000000,2640.000000
554,-212.000000,2640.000000
555,-208.000000,2600.000000
556,-212.000000,2640.000000
557,-208.000000,2640.000000
558,-212.000000,2640.000000
559,-212.000000,2600.000000
560,-212.000000,2640.000000
561,-208.000000,2640.000000
562,-208.000000,2640.000000
563,-212.000000,2640.000000
564,-212.000000,2640.000000
565,-208.000000,2640.000000
566,-212.000000,2640.000000
567,-212.000000,2640.000000
568,-208.000000,2640.000000
569,-208.000000,2600.000000
570,-208.000000,2640.000000
571,-212.000000,2640.000000
572,-212.000000,2600.000000
573,-212.000000,2640.000000
574,-208.000000,2640.000000
575,-212.000000,2640.000000
576,-208.000000,2640.000000
577,-212.000000,2640.000000
578,-208.000000,2640.000000
579,-208.000000,2640.000000
580,-212.000000,2600.000000
581,-208.000000,2640.000000
582,-212.000000,2640.000000
583,-208.000000,2640.000000
584,-204.000000,2640.000000
585,-208.000000,2640.000000
586,-212.000000,2640.000000
587,-212.000000,2640.000000
588,-208.000000,2640.000000
589,-208.000000,2640.000000
590,-208.000000,2640.000000
591,-208.000000,2640.000000
592,-232.000000,2600.000000
593,-216.000000,2640.000000
594,-208.000000,2640.000000
595,-216.000000,2640.000000
596,-220.000000,2640.000000
597,-208.000000,2640.000000
598,-208.000000,2640.000000
599,-220.000000,2640.000000
600,-220.000000,2640.000000
601,-204.000000,2640.000000
602,-208.000000,2640.000000
603,-212.000000,2600.000000
604,-212.000000,2640.000000
605,-212.000000,2600.000000
606,-212.000000,2640.000000
607,-216.000000,2600.000000
608,-212.000000,2640.000000
609,-212.000000,2600.000000
610,-212.000000,2640.000000
611,-212.000000,2600.000000
612,-212.000000,2640.000000
613,-216.000000,2640.000000
614,-208.000000,2640.000000
615,-212.000000,2600.000000
616,-212.000000,2640.000000
617,-212.000000,2640.000000
618,-212.000000,2640.000000
619,-212.000000,2640.000000
620,-212.000000,2640.000000
621,-216.000000,2600.000000
622,-212.000000,2640.000000
623,-212.000000,2640.000000
624,-212.000000,2640.000000
625,-212.000000,2640.000000
626,-212.000000,2640.000000
627,-212.000000,2640.000000
628,-212.000000,2640.000000
629,-212.000000,2640.000000
630,-212.000000,2640.000000
631,-212.000000,2640.000000
632,-212.000000,2640.000000
633,-208.000000,2640.000000
634,-212.000000,2600.000000
635,-208.000000,2600.000000
636,-212.000000,2640.000000
637,-216.000000,2640.000000
638,-212.000000,2640.000000
639,-212.000000,2640.000000
640,-216.000000,2640.000000
641,-212.000000,2640.000000
642,-208.000000,2640.000000
643,-204.000000,2640.000000
644,-208.000000,2640.000000
645,-208.000000,2640.000000
646,-220.000000,2640.000000
647,-200.000000,2640.000000
648,-208.000000,2640.000000
649,-204.000000,2640.000000
650,-204.000000,2640.000000
651,-196.000000,2640.000000
652,-208.000000,2600.000000
653,-208.000000,2600.000000
654,-208.000000,2640.000000
655,-208.000000,2640.000000
656,-212.000000,2640.000000
657,-208.000000,2640.000000
658,-208.000000,2600.000000
659,-208.000000,2640.000000
660,-208.000000,2640.000000
661,-208.000000,2640.000000
662,-208.000000,2640.000000
663,-212.000000,2640.000000
664,-208.000000,2600.000000
665,-212.000000,2640.000000
666,-208.000000,2640.000000
667,-208.000000,2600.000000
668,-212.000000,2640.000000
669,-208.000000,2640.000000
670,-212.000000,2640.000000
671,-212.000000,2640.000000
672,-208.000000,2640.000000
673,-212.000000,2640.000000
674,-212.000000,2600.000000
675,-208.000000,2640.000000
676,-212.000000,2640.000000
677,-212.000000,2600.000000
678,-212.000000,2640.000000
679,-208.000000,2680.000000
680,-208.000000,2640.000000
681,-212.000000,2640.000000
682,-208.000000,2640.000000
683,-208.000000,2640.000000
684,-208.000000,2640.000000
685,-212.000000,2640.000000
686,-208.000000,2640.000000
687,-208.000000,2640.000000
688,-212.000000,2600.000000
689,-208.000000,2600.000000
690,-208.000000,2600.000000
691,-216.000000,2640.000000
692,-208.000000,2640.000000
693,-196.000000,2600.000000
694,-208.000000,2600.000000
695,-216.000000,2600.000000
696,-208.000000,2640.000000
697,-208.000000,2640.000000
698,-220.000000,2640.000000
699,-216.000000,2640.000000
700,-208.000000,2640.000000
701,-212.000000,2640.000000
702,-224.000000,2640.000000
703,-216.000000,2640.000000
704,-216.000000,2640.000000
705,-216.000000,2640.000000
706,-216.000000,2640.000000
707,-212.000000,2640.000000
