repport_data/power_optimization_measures/data_44_001.csv

Channel              :,CH1,CH2
Frequency            :,  ?,  ?
Period               :,  ?,  ?
PK-PK                :,392.0mV?,1.000V
Probe attenuation    :,1X,1X
Voltage per ADC value:,0.250000mV,2.500000mV
Time interval        :,200.00000uS,200.00000uS

index,CH1_Voltage(mV),CH2_Voltage(mV)
1,-216.000000,2640.000000
2,-216.000000,2640.000000
3,-220.000000,2600.000000
4,-224.000000,2600.000000
5,-220.000000,2600.000000
6,-220.000000,2600.000000
7,-220.000000,2600.000000
8,-220.000000,2600.000000
9,-220.000000,2600.000000
10,-216.000000,2600.000000
11,-224.000000,2600.000000
12,-220.000000,2600.000000
13,-220.000000,2600.000000
14,-224.000000,2600.000000
15,-224.000000,2600.000000
16,-220.000000,2600.000000
17,-220.000000,2600.000000
18,-220.000000,2600.000000
19,-224.000000,2600.000000
20,-220.000000,2600.000000
21,-216.000000,2600.000000
22,-216.000000,2640.000000
23,-216.000000,2640.000000
24,-220.000000,2640.000000
25,-216.000000,2600.000000
26,-216.000000,2600.000000
27,-220.000000,2600.000000
28,-220.000000,2600.000000
29,-216.000000,2600.000000
30,-220.000000,2600.000000
31,-216.000000,2600.000000
32,-216.000000,2640.000000
33,-216.000000,2600.000000
34,-212.000000,2600.000000
35,-220.000000,2600.000000
36,-216.000000,2600.000000
37,-220.000000,2600.000000
38,-216.000000,2600.000000
39,-220.000000,2640.000000
40,-216.000000,2600.000000
41,-216.000000,2600.000000
42,-216.000000,2600.000000
43,-220.000000,2600.000000
44,-216.000000,2640.000000
45,-220.000000,2600.000000
46,-216.000000,2640.000000
47,-216.000000,2600.000000
48,-220.000000,2600.000000
49,-216.000000,2640.000000
50,-216.000000,2640.000000
51,-216.000000,2600.000000
52,-220.000000,2600.000000
53,-220.000000,2600.000000
54,-212.000000,2600.000000
55,-216.000000,2600.000000
56,-216.000000,2600.000000
57,-212.000000,2600.000000
58,-212.000000,2600.000000
59,-216.000000,2600.000000
60,-216.000000,2600.000000
61,-212.000000,2640.000000
62,-216.000000,2600.000000
63,-216.000000,2600.000000
64,-216.000000,2600.000000
65,-216.000000,2600.000000
66,-216.000000,2600.000000
67,-212.000000,2600.000000
68,-216.000000,2600.000000
69,-220.000000,2600.000000
70,-216.000000,2600.000000
71,-212.000000,2600.000000
72,-212.000000,2600.000000
73,-212.000000,2600.000000
74,-216.000000,2600.000000
75,-216.000000,2600.000000
76,-220.000000,2600.000000
77,-216.000000,2600.000000
78,-212.000000,2600.000000
79,-216.000000,2600.000000
80,-220.000000,2600.000000
81,-216.000000,2600.000000
82,-216.000000,2600.000000
83,-216.000000,2600.000000
84,-216.000000,2600.000000
85,-220.000000,2600.000000
86,-216.000000,2600.000000
87,-216.000000,2600.000000
88,-216.000000,2600.000000
89,-216.000000,2600.000000
90,-220.000000,2600.000000
91,-216.000000,2600.000000
92,-216.000000,2600.000000
93,-220.000000,2640.000000
94,-216.000000,2640.000000
95,-212.000000,2600.000000
96,-216.000000,2600.000000
97,-216.000000,2600.000000
98,-212.000000,2600.000000
99,-216.000000,2600.000000
100,-216.000000,2640.000000
101,-220.000000,2600.000000
102,-212.000000,2640.000000
103,-216.000000,2600.000000
104,-220.000000,2600.000000
105,-220.000000,2600.000000
106,-216.000000,2600.000000
107,-220.000000,2600.000000
108,-224.000000,2600.000000
109,-224.000000,2640.000000
110,-212.000000,2600.000000
111,-220.000000,2600.000000
112,-224.000000,2600.000000
113,-220.000000,2640.000000
114,-216.000000,2600.000000
115,-220.000000,2600.000000
116,-220.000000,2600.000000
117,-220.000000,2600.000000
118,-220.000000,2600.000000
119,-216.000000,2640.000000
120,-220.000000,2600.000000
121,-216.000000,2600.000000
122,-216.000000,2600.000000
123,-216.000000,2600.000000
124,-216.000000,2600.000000
125,-216.000000,2600.000000
126,-220.000000,2600.000000
127,-216.000000,2600.000000
128,-216.000000,2600.000000
129,-216.000000,2640.000000
130,-216.000000,2600.000000
131,-220.000000,2600.000000
132,-216.000000,2600.000000
133,-220.000000,2640.000000
134,-216.000000,2600.000000
135,-216.000000,2600.000000
136,-216.000000,2600.000000
137,-216.000000,2600.000000
138,-212.000000,2600.000000
139,-216.000000,2640.000000
140,-216.000000,2640.000000
141,-216.000000,2600.000000
142,-216.000000,2600.000000
143,-216.000000,2640.000000
144,-216.000000,2600.000000
145,-220.000000,2600.000000
146,-216.000000,2640.000000
147,-220.000000,2600.000000
148,-220.000000,2600.000000
149,-216.000000,2600.000000
150,-216.000000,2600.000000
151,-216.000000,2600.000000
152,-216.000000,2600.000000
153,-212.000000,2640.000000
154,-212.000000,2600.000000
155,-240.000000,2600.000000
156,-220.000000,2600.000000
157,-216.000000,2600.000000
158,-216.000000,2600.000000
159,-212.000000,2600.000000
160,-212.000000,2640.000000
161,-216.000000,2600.000000
162,-212.000000,2600.000000
163,-212.000000,2600.000000
164,-216.000000,2600.000000
165,-216.000000,2600.000000
166,-216.000000,2600.000000
167,-216.000000,2640.000000
168,-216.000000,2600.000000
169,-220.000000,2560.000000
170,-212.000000,2600.000000
171,-216.000000,2600.000000
172,-216.000000,2600.000000
173,-216.000000,2600.000000
174,-212.000000,2560.000000
175,-216.000000,2520.000000
176,-212.000000,2480.000000
177,-216.000000,2440.000000
178,-216.000000,2440.000000
179,-216.000000,2480.000000
180,-216.000000,2480.000000
181,-216.000000,2520.000000
182,-212.000000,2520.000000
183,-216.000000,2520.000000
184,-212.000000,2560.000000
185,-216.000000,2520.000000
186,-216.000000,2560.000000
187,-216.000000,2560.000000
188,-216.000000,2560.000000
189,-216.000000,2560.000000
190,-216.000000,2560.000000
191,-216.000000,2600.000000
192,-216.000000,2560.000000
193,-216.000000,2560.000000
194,-216.000000,2560.000000
195,-216.000000,2560.000000
196,-216.000000,2560.000000
197,-220.000000,2560.000000
198,-216.000000,2600.000000
199,-216.000000,2600.000000
200,-216.000000,2600.000000
201,-216.000000,2600.000000
202,-216.000000,2600.000000
203,-216.000000,2600.000000
204,-280.000000,2600.000000
205,-228.000000,2600.000000
206,-220.000000,2600.000000
207,-200.000000,2600.000000
208,-224.000000,2600.000000
209,-268.000000,2640.000000
210,-304.000000,2600.000000
211,-340.000000,2600.000000
212,-372.000000,2600.000000
213,-372.000000,2600.000000
214,-356.000000,2600.000000
215,-348.000000,2600.000000
216,-332.000000,2600.000000
217,-324.000000,2600.000000
218,-312.000000,2600.000000
219,-308.000000,2600.000000
220,-296.000000,2600.000000
221,-288.000000,2600.000000
222,-284.000000,2600.000000
223,-280.000000,2600.000000
224,-276.000000,2600.000000
225,-268.000000,2600.000000
226,-264.000000,2600.000000
227,-260.000000,2600.000000
228,-256.000000,2600.000000
229,-252.000000,2600.000000
230,-252.000000,2640.000000
231,-248.000000,2600.000000
232,-244.000000,2600.000000
233,-244.000000,2600.000000
234,-240.000000,2600.000000
235,-240.000000,2600.000000
236,-236.000000,2600.000000
237,-232.000000,2600.000000
238,-232.000000,2600.000000
239,-236.000000,2600.000000
240,-228.000000,2600.000000
241,-232.000000,2600.000000
242,-232.000000,2600.000000
243,-224.000000,2600.000000
244,-228.000000,2640.000000
245,-228.000000,2600.000000
246,-224.000000,2600.000000
247,-228.000000,2600.000000
248,-224.000000,2600.000000
249,-224.000000,2600.000000
250,-224.000000,2600.000000
251,-220.000000,2600.000000
252,-220.000000,2600.000000
253,-220.000000,2600.000000
254,-216.000000,2600.000000
255,-212.000000,2600.000000
256,-216.000000,2640.000000
257,-224.000000,2600.000000
258,-216.000000,2640.000000
259,-204.000000,2600.000000
260,-216.000000,2600.000000
261,-220.000000,2600.000000
262,-216.000000,2600.000000
263,-220.000000,2600.000000
264,-216.000000,2600.000000
265,-220.000000,2600.000000
266,-220.000000,2600.000000
267,-220.000000,2600.000000
268,-216.000000,2600.000000
269,-220.000000,2600.000000
270,-216.000000,2600.000000
271,-220.000000,2600.000000
272,-220.000000,2640.000000
273,-220.000000,2600.000000
274,-216.000000,2600.000000
275,-216.000000,2600.000000
276,-216.000000,2600.000000
277,-216.000000,2600.000000
278,-216.000000,2600.000000
279,-216.000000,2600.000000
280,-216.000000,2600.000000
281,-216.000000,2640.000000
282,-220.000000,2640.000000
283,-216.000000,2600.000000
284,-216.000000,2600.000000
285,-216.000000,2600.000000
286,-216.000000,2600.000000
287,-212.000000,2600.000000
288,-216.000000,2600.000000
289,-220.000000,2600.000000
290,-216.000000,2600.000000
291,-216.000000,2600.000000
292,-216.000000,2600.000000
293,-224.000000,2640.000000
294,-220.000000,2600.000000
295,-216.000000,2600.000000
296,-216.000000,2640.000000
297,-220.000000,2600.000000
298,-216.000000,2600.000000
299,-216.000000,2600.000000
300,-220.000000,2600.000000
301,-228.000000,2600.000000
302,-224.000000,2600.000000
303,-216.000000,2640.000000
304,-220.000000,2600.000000
305,-228.000000,2600.000000
306,-220.000000,2600.000000
307,-216.000000,2600.000000
308,-220.000000,2600.000000
309,-228.000000,2600.000000
310,-228.000000,2600.000000
311,-220.000000,2600.000000
312,-220.000000,2600.000000
313,-228.000000,2640.000000
314,-224.000000,2600.000000
315,-220.000000,2600.000000
316,-220.000000,2600.000000
317,-216.000000,2600.000000
318,-220.000000,2600.000000
319,-220.000000,2600.000000
320,-220.000000,2600.000000
321,-220.000000,2600.000000
322,-220.000000,2600.000000
323,-216.000000,2600.000000
324,-216.000000,2640.000000
325,-220.000000,2640.000000
326,-220.000000,2600.000000
327,-216.000000,2640.000000
328,-216.000000,2640.000000
329,-220.000000,2600.000000
330,-220.000000,2600.000000
331,-216.000000,2600.000000
332,-216.000000,2600.000000
333,-220.000000,2600.000000
334,-220.000000,2600.000000
335,-220.000000,2600.000000
336,-216.000000,2640.000000
337,-220.000000,2600.000000
338,-216.000000,2640.000000
339,-220.000000,2600.000000
340,-216.000000,2600.000000
341,-216.000000,2600.000000
342,-216.000000,2600.000000
343,-216.000000,2640.000000
344,-216.000000,2600.000000
345,-216.000000,2600.000000
346,-216.000000,2640.000000
347,-216.000000,2640.000000
348,-216.000000,2600.000000
349,-212.000000,2600.000000
350,-216.000000,2600.000000
351,-212.000000,2640.000000
352,-212.000000,2600.000000
353,-224.000000,2600.000000
354,-224.000000,2600.000000
355,-216.000000,2640.000000
356,-212.000000,2600.000000
357,-216.000000,2600.000000
358,-220.000000,2640.000000
359,-212.000000,2600.000000
360,-212.000000,2600.000000
361,-212.000000,2600.000000
362,-216.000000,2640.000000
363,-216.000000,2600.000000
364,-212.000000,2600.000000
365,-212.000000,2640.000000
366,-216.000000,2600.000000
367,-216.000000,2600.000000
368,-212.000000,2600.000000
369,-216.000000,2640.000000
370,-216.000000,2640.000000
371,-212.000000,2600.000000
372,-216.000000,2600.000000
373,-216.000000,2600.000000
374,-216.000000,2600.000000
375,-216.000000,2600.000000
376,-216.000000,2600.000000
377,-212.000000,2640.000000
378,-216.000000,2600.000000
379,-216.000000,2600.000000
380,-216.000000,2600.000000
381,-216.000000,2600.000000
382,-216.000000,2600.000000
383,-216.000000,2600.000000
384,-216.000000,2640.000000
385,-216.000000,2600.000000
386,-216.000000,2600.000000
387,-216.000000,2600.000000
388,-216.000000,2600.000000
389,-216.000000,2600.000000
390,-216.000000,2600.000000
391,-216.000000,2640.000000
392,-216.000000,2600.000000
393,-216.000000,2600.000000
394,-216.000000,2600.000000
395,-216.000000,2640.000000
396,-212.000000,2600.000000
397,-212.000000,2600.000000
398,-220.000000,2600.000000
399,-216.000000,2600.000000
400,-212.000000,2600.000000
401,-208.000000,2600.000000
402,-216.000000,2600.000000
403,-248.000000,2640.000000
404,-192.000000,2600.000000
405,-204.000000,2600.000000
406,-224.000000,2600.000000
407,-240.000000,2600.000000
408,-224.000000,2600.000000
409,-224.000000,2600.000000
410,-224.000000,2600.000000
411,-220.000000,2600.000000
412,-220.000000,2600.000000
413,-220.000000,2600.000000
414,-216.000000,2600.000000
415,-220.000000,2640.000000
416,-220.000000,2600.000000
417,-220.000000,2600.000000
418,-216.000000,2600.000000
419,-216.000000,2600.000000
420,-216.000000,2600.000000
421,-216.000000,2600.000000
422,-220.000000,2600.000000
423,-220.000000,2600.000000
424,-220.000000,2600.000000
425,-216.000000,2560.000000
426,-216.000000,2520.000000
427,-220.000000,2480.000000
428,-220.000000,2440.000000
429,-216.000000,2440.000000
430,-220.000000,2480.000000
431,-216.000000,2480.000000
432,-216.000000,2480.000000
433,-216.000000,2520.000000
434,-220.000000,2520.000000
435,-216.000000,2520.000000
436,-220.000000,2560.000000
437,-216.000000,2560.000000
438,-216.000000,2560.000000
439,-220.000000,2560.000000
440,-216.000000,2560.000000
441,-212.000000,2560.000000
442,-216.000000,2560.000000
443,-220.000000,2560.000000
444,-220.000000,2560.000000
445,-216.000000,2600.000000
446,-216.000000,2600.000000
447,-216.000000,2600.000000
448,-216.000000,2600.000000
449,-216.000000,2600.000000
450,-216.000000,2600.000000
451,-220.000000,2600.000000
452,-216.000000,2600.000000
453,-208.000000,2600.000000
454,-216.000000,2600.000000
455,-220.000000,2600.000000
456,-216.000000,2600.000000
457,-204.000000,2600.000000
458,-216.000000,2600.000000
459,-216.000000,2600.000000
460,-264.000000,2600.000000
461,-304.000000,2600.000000
462,-336.000000,2600.000000
463,-400.000000,2600.000000
464,-372.000000,2640.000000
465,-352.000000,2600.000000
466,-352.000000,2600.000000
467,-328.000000,2600.000000
468,-316.000000,2600.000000
469,-308.000000,2600.000000
470,-292.000000,2600.000000
471,-292.000000,2600.000000
472,-288.000000,2600.000000
473,-256.000000,2600.000000
474,-276.000000,2600.000000
475,-272.000000,2600.000000
476,-268.000000,2600.000000
477,-264.000000,2600.000000
478,-260.000000,2640.000000
479,-256.000000,2600.000000
480,-252.000000,2600.000000
481,-244.000000,2600.000000
482,-244.000000,2600.000000
483,-240.000000,2600.000000
484,-244.000000,2600.000000
485,-236.000000,2600.000000
486,-236.000000,2600.000000
487,-240.000000,2600.000000
488,-236.000000,2600.000000
489,-228.000000,2600.000000
490,-228.000000,2600.000000
491,-228.000000,2600.000000
492,-228.000000,2640.000000
493,-224.000000,2600.000000
494,-224.000000,2600.000000
495,-228.000000,2600.000000
496,-224.000000,2600.000000
497,-224.000000,2600.000000
498,-224.000000,2600.000000
499,-224.000000,2600.000000
500,-224.000000,2600.000000
501,-212.000000,2600.000000
502,-220.000000,2600.000000
503,-224.000000,2600.000000
504,-220.000000,2600.000000
505,-220.000000,2600.000000
506,-224.000000,2600.000000
507,-228.000000,2600.000000
508,-224.000000,2600.000000
509,-208.000000,2600.000000
510,-224.000000,2600.000000
511,-224.000000,2600.000000
512,-220.000000,2600.000000
513,-216.000000,2600.000000
514,-220.000000,2600.000000
515,-220.000000,2600.000000
516,-220.000000,2600.000000
517,-220.000000,2600.000000
518,-220.000000,2600.000000
519,-220.000000,2600.000000
520,-224.000000,2600.000000
521,-216.000000,2600.000000
522,-216.000000,2600.000000
523,-220.000000,2600.000000
524,-220.000000,2600.000000
525,-220.000000,2640.000000
526,-216.000000,2640.000000
527,-216.000000,2600.000000
528,-216.000000,2600.000000
529,-216.000000,2600.000000
530,-220.000000,2600.000000
531,-220.000000,2600.000000
532,-220.000000,2640.000000
533,-220.000000,2640.000000
534,-216.000000,2600.000000
535,-216.000000,2600.000000
536,-220.000000,2600.000000
537,-216.000000,2600.000000
538,-220.000000,2600.000000
539,-216.000000,2600.000000
540,-216.000000,2600.000000
541,-216.000000,2600.000000
542,-220.000000,2600.000000
543,-220.000000,2600.000000
544,-216.000000,2600.000000
545,-220.000000,2640.000000
546,-216.000000,2600.000000
547,-220.000000,2600.000000
548,-212.000000,2600.000000
549,-216.000000,2600.000000
550,-216.000000,2600.000000
551,-216.000000,2600.000000
552,-220.000000,2600.000000
553,-208.000000,2600.000000
554,-212.000000,2600.000000
555,-220.000000,2600.000000
556,-216.000000,2600.000000
557,-212.000000,2640.000000
558,-208.000000,2600.000000
559,-216.000000,2640.000000
560,-216.000000,2600.000000
561,-212.000000,2600.000000
562,-212.000000,2600.000000
563,-216.000000,2600.000000
564,-216.000000,2600.000000
565,-216.000000,2600.000000
566,-216.000000,2600.000000
567,-216.000000,2600.000000
568,-216.000000,2600.000000
569,-216.000000,2600.000000
570,-220.000000,2600.000000
571,-216.000000,2600.000000
572,-216.000000,2640.000000
573,-212.000000,2600.000000
574,-216.000000,2600.000000
575,-220.000000,2600.000000
576,-216.000000,2600.000000
577,-216.000000,2600.000000
578,-212.000000,2600.000000
579,-216.000000,2600.000000
580,-220.000000,2600.000000
581,-216.000000,2600.000000
582,-216.000000,2600.000000
583,-216.000000,2600.000000
584,-216.000000,2640.000000
585,-220.000000,2600.000000
586,-212.000000,2600.000000
587,-216.000000,2600.000000
588,-216.000000,2600.000000
589,-216.000000,2600.000000
590,-216.000000,2600.000000
591,-216.000000,2600.000000
592,-216.000000,2600.000000
593,-216.000000,2600.000000
594,-212.000000,2600.000000
595,-220.000000,2600.000000
596,-216.000000,2640.000000
597,-228.000000,2640.000000
598,-220.000000,2600.000000
599,-216.000000,2600.000000
600,-220.000000,2600.000000
601,-220.000000,2640.000000
602,-228.000000,2600.000000
603,-220.000000,2600.000000
604,-248.000000,2600.000000
605,-208.000000,2640.000000
606,-212.000000,2600.000000
607,-212.000000,2600.000000
608,-220.000000,2600.000000
609,-216.000000,2600.000000
610,-220.000000,2600.000000
611,-220.000000,2600.000000
612,-220.000000,2600.000000
613,-220.000000,2600.000000
614,-220.000000,2600.000000
615,-216.000000,2600.000000
616,-220.000000,2640.000000
617,-224.000000,2600.000000
618,-220.000000,2600.000000
619,-216.000000,2600.000000
620,-220.000000,2600.000000
621,-224.000000,2640.000000
622,-220.000000,2600.000000
623,-216.000000,2600.000000
624,-220.000000,2600.000000
625,-220.000000,2640.000000
626,-216.000000,2560.000000
627,-216.000000,2600.000000
628,-220.000000,2600.000000
629,-224.000000,2640.000000
630,-220.000000,2600.000000
631,-220.000000,2600.000000
632,-220.000000,2600.000000
633,-220.000000,2600.000000
634,-216.000000,2600.000000
635,-216.000000,2600.000000
636,-216.000000,2600.000000
637,-216.000000,2600.000000
638,-216.000000,2600.000000
639,-216.000000,2600.000000
640,-216.000000,2600.000000
641,-220.000000,2600.000000
642,-216.000000,2600.000000
643,-216.000000,2600.000000
644,-220.000000,2600.000000
645,-220.000000,2600.000000
646,-216.000000,2600.000000
647,-220.000000,2640.000000
648,-220.000000,2600.000000
649,-220.000000,2600.000000
650,-216.000000,2600.000000
651,-212.000000,2600.000000
652,-220.000000,2600.000000
653,-224.000000,2640.000000
654,-216.000000,2600.000000
655,-212.000000,2600.000000
656,-216.000000,2600.000000
657,-220.000000,2600.000000
658,-236.000000,2600.000000
659,-216.000000,2600.000000
660,-216.000000,2600.000000
661,-304.000000,2600.000000
662,-212.000000,2600.000000
663,-216.000000,2600.000000
664,-216.000000,2600.000000
665,-216.000000,2600.000000
666,-216.000000,2600.000000
667,-216.000000,2600.000000
668,-216.000000,2640.000000
669,-212.000000,2600.000000
670,-216.000000,2600.000000
671,-216.000000,2600.000000
672,-212.000000,2600.000000
673,-212.000000,2600.000000
674,-216.000000,2600.000000
675,-216.000000,2600.000000
676,-220.000000,2560.000000
677,-212.000000,2520.000000
678,-220.000000,2480.000000
679,-216.000000,2440.000000
680,-216.000000,2440.000000
681,-220.000000,2440.000000
682,-216.000000,2480.000000
683,-216.000000,2520.000000
684,-216.000000,2520.000000
685,-216.000000,2520.000000
686,-216.000000,2520.000000
687,-216.000000,2560.000000
688,-216.000000,2520.000000
689,-220.000000,2560.000000
690,-220.000000,2520.000000
691,-216.000000,2560.000000
692,-216.000000,2560.000000
693,-220.000000,2560.000000
694,-216.000000,2560.000000
695,-216.000000,2560.000000
696,-220.000000,2560.000000
697,-220.000000,2560.000000
698,-216.000000,2560.000000
699,-216.000000,2560.000000
700,-216.000000,2600.000000
701,-232.000000,2600.000000
702,-220.000000,2600.000000
703,-216.000000,2600.000000
704,-220.000000,2600.000000
705,-224.000000,2600.000000
706,-220.000000,2600.000000
707,-216.000000,2600.000000
