repport_data/power_optimization_measures/data_44_002.csv

Channel              :,CH1,CH2
Frequency            :,  ?,  ?
Period               :,  ?,  ?
PK-PK                :,164.0mV?,880.0mV
Probe attenuation    :,1X,1X
Voltage per ADC value:,0.250000mV,2.500000mV
Time interval        :,200.00000uS,200.00000uS

index,CH1_Voltage(mV),CH2_Voltage(mV)
1,-436.000000,2400.000000
2,-436.000000,2400.000000
3,-428.000000,2440.000000
4,-428.000000,2400.000000
5,-420.000000,2400.000000
6,-428.000000,2400.000000
7,-424.000000,2400.000000
8,-420.000000,2400.000000
9,-420.000000,2400.000000
10,-424.000000,2400.000000
11,-424.000000,2400.000000
12,-436.000000,2440.000000
13,-428.000000,2400.000000
14,-432.000000,2400.000000
15,-432.000000,2400.000000
16,-436.000000,2400.000000
17,-440.000000,2400.000000
18,-440.000000,2400.000000
19,-444.000000,2400.000000
20,-448.000000,2400.000000
21,-444.000000,2440.000000
22,-444.000000,2400.000000
23,-440.000000,2440.000000
24,-440.000000,2440.000000
25,-440.000000,2440.000000
26,-436.000000,2440.000000
27,-428.000000,2400.000000
28,-428.000000,2440.000000
29,-428.000000,2400.000000
30,-428.000000,2440.000000
31,-424.000000,2440.000000
32,-420.000000,2400.000000
33,-424.000000,2400.000000
34,-432.000000,2400.000000
35,-428.000000,2400.000000
36,-428.000000,2400.000000
37,-432.000000,2400.000000
38,-440.000000,2400.000000
39,-436.000000,2400.000000
40,-436.000000,2400.000000
41,-440.000000,2400.000000
42,-452.000000,2440.000000
43,-444.000000,2400.000000
44,-448.000000,2440.000000
45,-448.000000,2400.000000
46,-444.000000,2400.000000
47,-436.000000,2440.000000
48,-440.000000,2440.000000
49,-444.000000,2440.000000
50,-432.000000,2440.000000
51,-428.000000,2400.000000
52,-436.000000,2440.000000
53,-428.000000,2400.000000
54,-420.000000,2440.000000
55,-424.000000,2400.000000
56,-420.000000,2440.000000
57,-424.000000,2400.000000
58,-420.000000,2400.000000
59,-424.000000,2400.000000
60,-432.000000,2400.000000
61,-432.000000,2400.000000
62,-432.000000,2400.000000
63,-436.000000,2400.000000
64,-440.000000,2400.000000
65,-440.000000,2440.000000
66,-436.000000,2400.000000
67,-440.000000,2400.000000
68,-448.000000,2440.000000
69,-448.000000,2440.000000
70,-448.000000,2440.000000
71,-440.000000,2440.000000
72,-440.000000,2440.000000
73,-440.000000,2440.000000
74,-452.000000,2400.000000
75,-432.000000,2400.000000
76,-428.000000,2400.000000
77,-424.000000,2440.000000
78,-424.000000,2400.000000
79,-424.000000,2440.000000
80,-420.000000,2440.000000
81,-420.000000,2400.000000
82,-424.000000,2400.000000
83,-424.000000,2400.000000
84,-420.000000,2400.000000
85,-432.000000,2400.000000
86,-432.000000,2400.000000
87,-432.000000,2400.000000
88,-436.000000,2400.000000
89,-440.000000,2400.000000
90,-440.000000,2400.000000
91,-440.000000,2400.000000
92,-448.000000,2400.000000
93,-448.000000,2440.000000
94,-440.000000,2440.000000
95,-436.000000,2440.000000
96,-440.000000,2440.000000
97,-440.000000,2440.000000
98,-432.000000,2440.000000
99,-428.000000,2440.000000
100,-424.000000,2440.000000
101,-428.000000,2440.000000
102,-424.000000,2400.000000
103,-420.000000,2440.000000
104,-420.000000,2400.000000
105,-420.000000,2400.000000
106,-424.000000,2400.000000
107,-428.000000,2440.000000
108,-428.000000,2400.000000
109,-428.000000,2400.000000
110,-428.000000,2400.000000
111,-436.000000,2400.000000
112,-432.000000,2400.000000
113,-436.000000,2400.000000
114,-440.000000,2400.000000
115,-440.000000,2400.000000
116,-444.000000,2400.000000
117,-448.000000,2400.000000
118,-444.000000,2400.000000
119,-444.000000,2400.000000
120,-440.000000,2400.000000
121,-436.000000,2440.000000
122,-436.000000,2440.000000
123,-432.000000,2440.000000
124,-428.000000,2440.000000
125,-432.000000,2440.000000
126,-428.000000,2440.000000
127,-428.000000,2400.000000
128,-420.000000,2400.000000
129,-420.000000,2440.000000
130,-424.000000,2400.000000
131,-428.000000,2400.000000
132,-428.000000,2400.000000
133,-436.000000,2400.000000
134,-432.000000,2400.000000
135,-432.000000,2400.000000
136,-436.000000,2400.000000
137,-436.000000,2440.000000
138,-440.000000,2400.000000
139,-444.000000,2400.000000
140,-444.000000,2400.000000
141,-460.000000,2400.000000
142,-456.000000,2400.000000
143,-448.000000,2440.000000
144,-444.000000,2440.000000
145,-428.000000,2440.000000
146,-436.000000,2440.000000
147,-436.000000,2440.000000
148,-440.000000,2400.000000
149,-428.000000,2400.000000
150,-428.000000,2440.000000
151,-424.000000,2440.000000
152,-424.000000,2400.000000
153,-428.000000,2400.000000
154,-424.000000,2400.000000
155,-432.000000,2400.000000
156,-432.000000,2400.000000
157,-432.000000,2400.000000
158,-432.000000,2440.000000
159,-436.000000,2400.000000
160,-436.000000,2400.000000
161,-436.000000,2400.000000
162,-440.000000,2440.000000
163,-444.000000,2440.000000
164,-444.000000,2400.000000
165,-448.000000,2360.000000
166,-444.000000,2320.000000
167,-444.000000,2320.000000
168,-440.000000,2320.000000
169,-440.000000,2280.000000
170,-436.000000,2280.000000
171,-436.000000,2280.000000
172,-428.000000,2240.000000
173,-428.000000,2240.000000
174,-428.000000,2200.000000
175,-424.000000,2200.000000
176,-420.000000,2200.000000
177,-420.000000,2240.000000
178,-424.000000,2280.000000
179,-424.000000,2280.000000
180,-428.000000,2280.000000
181,-428.000000,2280.000000
182,-432.000000,2320.000000
183,-428.000000,2320.000000
184,-436.000000,2320.000000
185,-436.000000,2320.000000
186,-440.000000,2320.000000
187,-440.000000,2360.000000
188,-440.000000,2360.000000
189,-444.000000,2360.000000
190,-444.000000,2360.000000
191,-448.000000,2360.000000
192,-444.000000,2360.000000
193,-440.000000,2360.000000
194,-440.000000,2400.000000
195,-448.000000,2400.000000
196,-468.000000,2400.000000
197,-512.000000,2400.000000
198,-512.000000,2400.000000
199,-512.000000,2400.000000
200,-512.000000,2400.000000
201,-512.000000,2440.000000
202,-512.000000,2400.000000
203,-512.000000,2400.000000
204,-512.000000,2440.000000
205,-512.000000,2440.000000
206,-512.000000,2400.000000
207,-512.000000,2440.000000
208,-512.000000,2400.000000
209,-512.000000,2400.000000
210,-512.000000,2440.000000
211,-512.000000,2400.000000
212,-512.000000,2400.000000
213,-512.000000,2400.000000
214,-512.000000,2400.000000
215,-512.000000,2400.000000
216,-512.000000,2400.000000
217,-512.000000,2440.000000
218,-512.000000,2400.000000
219,-504.000000,2400.000000
220,-496.000000,2400.000000
221,-492.000000,2400.000000
222,-488.000000,2400.000000
223,-484.000000,2440.000000
224,-476.000000,2440.000000
225,-476.000000,2440.000000
226,-468.000000,2440.000000
227,-464.000000,2400.000000
228,-460.000000,2440.000000
229,-456.000000,2440.000000
230,-452.000000,2440.000000
231,-448.000000,2440.000000
232,-452.000000,2400.000000
233,-440.000000,2440.000000
234,-436.000000,2440.000000
235,-436.000000,2400.000000
236,-440.000000,2440.000000
237,-440.000000,2400.000000
238,-440.000000,2400.000000
239,-440.000000,2400.000000
240,-452.000000,2400.000000
241,-444.000000,2400.000000
242,-444.000000,2400.000000
243,-448.000000,2400.000000
244,-448.000000,2400.000000
245,-444.000000,2400.000000
246,-448.000000,2400.000000
247,-456.000000,2440.000000
248,-448.000000,2440.000000
249,-452.000000,2400.000000
250,-448.000000,2440.000000
251,-444.000000,2400.000000
252,-440.000000,2440.000000
253,-436.000000,2440.000000
254,-436.000000,2440.000000
255,-432.000000,2440.000000
256,-424.000000,2440.000000
257,-428.000000,2440.000000
258,-420.000000,2440.000000
259,-424.000000,2440.000000
260,-428.000000,2400.000000
261,-428.000000,2440.000000
262,-428.000000,2440.000000
263,-432.000000,2400.000000
264,-432.000000,2440.000000
265,-436.000000,2400.000000
266,-440.000000,2400.000000
267,-440.000000,2400.000000
268,-440.000000,2400.000000
269,-444.000000,2400.000000
270,-440.000000,2440.000000
271,-448.000000,2440.000000
272,-448.000000,2440.000000
273,-448.000000,2440.000000
274,-444.000000,2400.000000
275,-444.000000,2440.000000
276,-440.000000,2440.000000
277,-432.000000,2440.000000
278,-436.000000,2440.000000
279,-432.000000,2440.000000
280,-432.000000,2400.000000
281,-428.000000,2440.000000
282,-420.000000,2440.000000
283,-420.000000,2440.000000
284,-424.000000,2400.000000
285,-424.000000,2440.000000
286,-424.000000,2400.000000
287,-432.000000,2400.000000
288,-432.000000,2440.000000
289,-428.000000,2400.000000
290,-432.000000,2400.000000
291,-440.000000,2400.000000
292,-432.000000,2400.000000
293,-432.000000,2400.000000
294,-440.000000,2400.000000
295,-444.000000,2440.000000
296,-440.000000,2400.000000
297,-444.000000,2440.000000
298,-448.000000,2440.000000
299,-440.000000,2440.000000
300,-432.000000,2440.000000
301,-436.000000,2440.000000
302,-432.000000,2440.000000
303,-432.000000,2440.000000
304,-428.000000,2440.000000
305,-424.000000,2400.000000
306,-420.000000,2400.000000
307,-420.000000,2400.000000
308,-420.000000,2400.000000
309,-424.000000,2400.000000
310,-428.000000,2400.000000
311,-428.000000,2400.000000
312,-428.000000,2400.000000
313,-432.000000,2400.000000
314,-432.000000,2400.000000
315,-436.000000,2400.000000
316,-440.000000,2400.000000
317,-436.000000,2400.000000
318,-436.000000,2400.000000
319,-440.000000,2400.000000
320,-448.000000,2440.000000
321,-452.000000,2440.000000
322,-440.000000,2440.000000
323,-444.000000,2440.000000
324,-440.000000,2440.000000
325,-440.000000,2440.000000
326,-436.000000,2440.000000
327,-432.000000,2440.000000
328,-428.000000,2440.000000
329,-428.000000,2440.000000
330,-428.000000,2400.000000
331,-424.000000,2400.000000
332,-424.000000,2400.000000
333,-420.000000,2440.000000
334,-424.000000,2440.000000
335,-424.000000,2400.000000
336,-428.000000,2400.000000
337,-432.000000,2400.000000
338,-432.000000,2400.000000
339,-432.000000,2440.000000
340,-432.000000,2400.000000
341,-436.000000,2440.000000
342,-440.000000,2400.000000
343,-444.000000,2400.000000
344,-444.000000,2440.000000
345,-448.000000,2440.000000
346,-448.000000,2440.000000
347,-444.000000,2440.000000
348,-440.000000,2400.000000
349,-444.000000,2440.000000
350,-444.000000,2440.000000
351,-432.000000,2440.000000
352,-428.000000,2440.000000
353,-428.000000,2440.000000
354,-428.000000,2440.000000
355,-424.000000,2400.000000
356,-420.000000,2400.000000
357,-424.000000,2400.000000
358,-428.000000,2400.000000
359,-428.000000,2440.000000
360,-432.000000,2400.000000
361,-432.000000,2440.000000
362,-432.000000,2400.000000
363,-436.000000,2400.000000
364,-436.000000,2400.000000
365,-436.000000,2400.000000
366,-440.000000,2400.000000
367,-440.000000,2400.000000
368,-448.000000,2440.000000
369,-444.000000,2440.000000
370,-448.000000,2440.000000
371,-444.000000,2440.000000
372,-440.000000,2440.000000
373,-440.000000,2440.000000
374,-432.000000,2440.000000
375,-432.000000,2440.000000
376,-428.000000,2440.000000
377,-420.000000,2400.000000
378,-428.000000,2440.000000
379,-424.000000,2400.000000
380,-420.000000,2440.000000
381,-424.000000,2440.000000
382,-424.000000,2400.000000
383,-428.000000,2400.000000
384,-428.000000,2440.000000
385,-428.000000,2440.000000
386,-432.000000,2400.000000
387,-432.000000,2400.000000
388,-436.000000,2400.000000
389,-436.000000,2400.000000
390,-436.000000,2440.000000
391,-464.000000,2400.000000
392,-440.000000,2440.000000
393,-444.000000,2440.000000
394,-444.000000,2440.000000
395,-448.000000,2440.000000
396,-432.000000,2440.000000
397,-436.000000,2400.000000
398,-436.000000,2440.000000
399,-432.000000,2440.000000
400,-424.000000,2440.000000
401,-424.000000,2440.000000
402,-424.000000,2400.000000
403,-412.000000,2440.000000
404,-416.000000,2440.000000
405,-420.000000,2400.000000
406,-420.000000,2440.000000
407,-424.000000,2400.000000
408,-428.000000,2400.000000
409,-428.000000,2440.000000
410,-428.000000,2400.000000
411,-432.000000,2400.000000
412,-432.000000,2400.000000
413,-436.000000,2400.000000
414,-436.000000,2400.000000
415,-440.000000,2400.000000
416,-440.000000,2400.000000
417,-444.000000,2360.000000
418,-444.000000,2360.000000
419,-444.000000,2320.000000
420,-440.000000,2280.000000
421,-436.000000,2280.000000
422,-432.000000,2280.000000
423,-436.000000,2240.000000
424,-432.000000,2240.000000
425,-428.000000,2240.000000
426,-424.000000,2200.000000
427,-424.000000,2200.000000
428,-424.000000,2240.000000
429,-420.000000,2240.000000
430,-424.000000,2280.000000
431,-428.000000,2280.000000
432,-428.000000,2280.000000
433,-428.000000,2280.000000
434,-432.000000,2280.000000
435,-432.000000,2320.000000
436,-436.000000,2320.000000
437,-440.000000,2320.000000
438,-440.000000,2320.000000
439,-440.000000,2360.000000
440,-444.000000,2360.000000
441,-460.000000,2360.000000
442,-456.000000,2360.000000
443,-440.000000,2360.000000
444,-448.000000,2360.000000
445,-444.000000,2360.000000
446,-440.000000,2360.000000
447,-444.000000,2400.000000
448,-472.000000,2400.000000
449,-496.000000,2400.000000
450,-512.000000,2400.000000
451,-512.000000,2400.000000
452,-512.000000,2400.000000
453,-512.000000,2400.000000
454,-512.000000,2400.000000
455,-512.000000,2400.000000
456,-512.000000,2400.000000
457,-512.000000,2400.000000
458,-512.000000,2400.000000
459,-512.000000,2400.000000
460,-512.000000,2400.000000
461,-512.000000,2400.000000
462,-512.000000,2400.000000
463,-512.000000,2400.000000
464,-512.000000,2400.000000
465,-512.000000,2400.000000
466,-512.000000,2400.000000
467,-512.000000,2400.000000
468,-512.000000,2400.000000
469,-512.000000,2400.000000
470,-512.000000,2400.000000
471,-504.000000,2400.000000
472,-496.000000,2400.000000
473,-492.000000,2400.000000
474,-492.000000,2400.000000
475,-484.000000,2400.000000
476,-480.000000,2440.000000
477,-476.000000,2400.000000
478,-472.000000,2400.000000
479,-468.000000,2400.000000
480,-460.000000,2440.000000
481,-456.000000,2440.000000
482,-452.000000,2440.000000
483,-448.000000,2440.000000
484,-444.000000,2400.000000
485,-440.000000,2440.000000
486,-440.000000,2440.000000
487,-436.000000,2400.000000
488,-432.000000,2400.000000
489,-440.000000,2400.000000
490,-440.000000,2400.000000
491,-440.000000,2400.000000
492,-440.000000,2400.000000
493,-444.000000,2400.000000
494,-440.000000,2400.000000
495,-444.000000,2400.000000
496,-448.000000,2400.000000
497,-444.000000,2400.000000
498,-432.000000,2440.000000
499,-448.000000,2400.000000
500,-456.000000,2440.000000
501,-452.000000,2440.000000
502,-440.000000,2440.000000
503,-444.000000,2400.000000
504,-440.000000,2440.000000
505,-436.000000,2440.000000
506,-432.000000,2400.000000
507,-436.000000,2440.000000
508,-428.000000,2400.000000
509,-424.000000,2400.000000
510,-424.000000,2440.000000
511,-424.000000,2440.000000
512,-424.000000,2400.000000
513,-424.000000,2400.000000
514,-424.000000,2400.000000
515,-432.000000,2440.000000
516,-428.000000,2400.000000
517,-428.000000,2400.000000
518,-436.000000,2400.000000
519,-432.000000,2400.000000
520,-440.000000,2400.000000
521,-440.000000,2400.000000
522,-440.000000,2440.000000
523,-440.000000,2400.000000
524,-448.000000,2440.000000
525,-448.000000,2400.000000
526,-444.000000,2440.000000
527,-444.000000,2440.000000
528,-440.000000,2440.000000
529,-440.000000,2400.000000
530,-432.000000,2440.000000
531,-432.000000,2440.000000
532,-428.000000,2440.000000
533,-420.000000,2440.000000
534,-420.000000,2400.000000
535,-420.000000,2400.000000
536,-420.000000,2400.000000
537,-424.000000,2440.000000
538,-420.000000,2400.000000
539,-424.000000,2400.000000
540,-428.000000,2400.000000
541,-432.000000,2400.000000
542,-420.000000,2400.000000
543,-436.000000,2400.000000
544,-444.000000,2400.000000
545,-440.000000,2400.000000
546,-436.000000,2400.000000
547,-444.000000,2400.000000
548,-456.000000,2440.000000
549,-452.000000,2400.000000
550,-436.000000,2440.000000
551,-444.000000,2440.000000
552,-444.000000,2440.000000
553,-440.000000,2440.000000
554,-432.000000,2400.000000
555,-436.000000,2440.000000
556,-432.000000,2440.000000
557,-424.000000,2440.000000
558,-428.000000,2440.000000
559,-424.000000,2440.000000
560,-424.000000,2440.000000
561,-424.000000,2400.000000
562,-428.000000,2400.000000
563,-428.000000,2400.000000
564,-428.000000,2440.000000
565,-432.000000,2440.000000
566,-432.000000,2400.000000
567,-436.000000,2400.000000
568,-432.000000,2400.000000
569,-436.000000,2440.000000
570,-436.000000,2440.000000
571,-440.000000,2400.000000
572,-448.000000,2440.000000
573,-448.000000,2440.000000
574,-448.000000,2400.000000
575,-444.000000,2440.000000
576,-444.000000,2440.000000
577,-436.000000,2440.000000
578,-436.000000,2440.000000
579,-432.000000,2440.000000
580,-428.000000,2440.000000
581,-428.000000,2400.000000
582,-428.000000,2400.000000
583,-420.000000,2400.000000
584,-420.000000,2400.000000
585,-420.000000,2440.000000
586,-424.000000,2440.000000
587,-424.000000,2400.000000
588,-432.000000,2400.000000
589,-432.000000,2400.000000
590,-436.000000,2400.000000
591,-432.000000,2400.000000
592,-424.000000,2400.000000
593,-440.000000,2440.000000
594,-440.000000,2400.000000
595,-436.000000,2400.000000
596,-444.000000,2400.000000
597,-452.000000,2440.000000
598,-444.000000,2440.000000
599,-444.000000,2440.000000
600,-444.000000,2440.000000
601,-440.000000,2440.000000
602,-436.000000,2440.000000
603,-432.000000,2440.000000
604,-428.000000,2400.000000
605,-424.000000,2440.000000
606,-420.000000,2440.000000
607,-424.000000,2400.000000
608,-416.000000,2400.000000
609,-416.000000,2440.000000
610,-424.000000,2400.000000
611,-424.000000,2400.000000
612,-424.000000,2400.000000
613,-428.000000,2400.000000
614,-428.000000,2400.000000
615,-432.000000,2400.000000
616,-432.000000,2400.000000
617,-436.000000,2400.000000
618,-436.000000,2400.000000
619,-436.000000,2400.000000
620,-444.000000,2440.000000
621,-448.000000,2400.000000
622,-444.000000,2400.000000
623,-444.000000,2440.000000
624,-440.000000,2400.000000
625,-440.000000,2440.000000
626,-436.000000,2440.000000
627,-432.000000,2440.000000
628,-428.000000,2400.000000
629,-428.000000,2440.000000
630,-424.000000,2440.000000
631,-420.000000,2400.000000
632,-420.000000,2440.000000
633,-420.000000,2440.000000
634,-424.000000,2400.000000
635,-424.000000,2400.000000
636,-428.000000,2400.000000
637,-432.000000,2400.000000
638,-432.000000,2440.000000
639,-436.000000,2400.000000
640,-436.000000,2400.000000
641,-432.000000,2440.000000
642,-436.000000,2440.000000
643,-452.000000,2400.000000
644,-444.000000,2400.000000
645,-440.000000,2440.000000
646,-448.000000,2400.000000
647,-460.000000,2440.000000
648,-448.000000,2400.000000
649,-440.000000,2440.000000
650,-436.000000,2400.000000
651,-436.000000,2440.000000
652,-432.000000,2440.000000
653,-408.000000,2440.000000
654,-428.000000,2400.000000
655,-424.000000,2440.000000
656,-376.000000,2400.000000
657,-424.000000,2400.000000
658,-428.000000,2440.000000
659,-428.000000,2440.000000
660,-428.000000,2400.000000
661,-428.000000,2400.000000
662,-432.000000,2400.000000
663,-432.000000,2400.000000
664,-412.000000,2400.000000
665,-436.000000,2440.000000
666,-436.000000,2400.000000
667,-440.000000,2400.000000
668,-440.000000,2400.000000
669,-452.000000,2400.000000
670,-448.000000,2360.000000
671,-444.000000,2320.000000
672,-440.000000,2320.000000
673,-440.000000,2280.000000
674,-440.000000,2280.000000
675,-432.000000,2240.000000
676,-432.000000,2240.000000
677,-428.000000,2200.000000
678,-428.000000,2200.000000
679,-424.000000,2200.000000
680,-424.000000,2200.000000
681,-424.000000,2240.000000
682,-424.000000,2240.000000
683,-432.000000,2280.000000
684,-424.000000,2280.000000
685,-432.000000,2280.000000
686,-432.000000,2280.000000
687,-432.000000,2320.000000
688,-436.000000,2320.000000
689,-432.000000,2320.000000
690,-436.000000,2320.000000
691,-440.000000,2360.000000
692,-440.000000,2360.000000
693,-444.000000,2360.000000
694,-444.000000,2360.000000
695,-444.000000,2360.000000
696,-436.000000,2360.000000
697,-436.000000,2400.000000
698,-440.000000,2360.000000
699,-440.000000,2360.000000
700,-468.000000,2400.000000
701,-488.000000,2400.000000
702,-512.000000,2400.000000
703,-512.000000,2400.000000
704,-512.000000,2400.000000
705,-512.000000,2400.000000
706,-512.000000,2400.000000
707,-512.000000,2400.000000
