repport_data/power_optimization_measures/data_44_006.csv

Channel              :,CH1,CH2
Frequency            :,  ?,  ?
Period               :,  ?,  ?
PK-PK                :,700.0mV?,920.0mV
Probe attenuation    :,1X,1X
Voltage per ADC value:,0.250000mV,2.500000mV
Time interval        :,200.00000uS,200.00000uS

index,CH1_Voltage(mV),CH2_Voltage(mV)
1,152.000000,1760.000000
2,152.000000,1760.000000
3,152.000000,1800.000000
4,152.000000,1800.000000
5,152.000000,1760.000000
6,156.000000,1760.000000
7,156.000000,1760.000000
8,156.000000,1760.000000
9,156.000000,1760.000000
10,152.000000,1760.000000
11,156.000000,1760.000000
12,156.000000,1760.000000
13,156.000000,1760.000000
14,156.000000,1760.000000
15,152.000000,1760.000000
16,156.000000,1800.000000
17,152.000000,1760.000000
18,156.000000,1760.000000
19,156.000000,1760.000000
20,156.000000,1800.000000
21,156.000000,1760.000000
22,156.000000,1760.000000
23,156.000000,1800.000000
24,156.000000,1760.000000
25,152.000000,1760.000000
26,156.000000,1760.000000
27,160.000000,1760.000000
28,156.000000,1760.000000
29,156.000000,1800.000000
30,152.000000,1760.000000
31,160.000000,1760.000000
32,156.000000,1760.000000
33,156.000000,1760.000000
34,160.000000,1760.000000
35,156.000000,1760.000000
36,156.000000,1760.000000
37,156.000000,1760.000000
38,160.000000,1760.000000
39,172.000000,1760.000000
40,164.000000,1760.000000
41,156.000000,1720.000000
42,164.000000,1760.000000
43,160.000000,1720.000000
44,156.000000,1760.000000
45,160.000000,1760.000000
46,160.000000,1760.000000
47,160.000000,1760.000000
48,160.000000,1760.000000
49,156.000000,1760.000000
50,156.000000,1760.000000
51,156.000000,1760.000000
52,152.000000,1760.000000
53,156.000000,1760.000000
54,152.000000,1760.000000
55,148.000000,1760.000000
56,148.000000,1760.000000
57,148.000000,1760.000000
58,148.000000,1760.000000
59,144.000000,1760.000000
60,148.000000,1760.000000
61,144.000000,1760.000000
62,144.000000,1760.000000
63,144.000000,1760.000000
64,144.000000,1760.000000
65,144.000000,1760.000000
66,144.000000,1760.000000
67,144.000000,1760.000000
68,144.000000,1760.000000
69,144.000000,1760.000000
70,140.000000,1760.000000
71,140.000000,1760.000000
72,144.000000,1760.000000
73,140.000000,1760.000000
74,144.000000,1760.000000
75,144.000000,1760.000000
76,140.000000,1760.000000
77,144.000000,1720.000000
78,144.000000,1760.000000
79,140.000000,1760.000000
80,140.000000,1760.000000
81,144.000000,1760.000000
82,144.000000,1760.000000
83,140.000000,1760.000000
84,144.000000,1760.000000
85,140.000000,1760.000000
86,140.000000,1760.000000
87,140.000000,1760.000000
88,144.000000,1760.000000
89,136.000000,1760.000000
90,140.000000,1760.000000
91,144.000000,1760.000000
92,140.000000,1760.000000
93,132.000000,1760.000000
94,176.000000,1760.000000
95,136.000000,1720.000000
96,140.000000,1760.000000
97,136.000000,1760.000000
98,136.000000,1760.000000
99,136.000000,1760.000000
100,140.000000,1760.000000
101,144.000000,1760.000000
102,140.000000,1760.000000
103,136.000000,1760.000000
104,140.000000,1760.000000
105,140.000000,1760.000000
106,140.000000,1760.000000
107,144.000000,1760.000000
108,140.000000,1760.000000
109,144.000000,1760.000000
110,144.000000,1760.000000
111,140.000000,1760.000000
112,140.000000,1760.000000
113,140.000000,1760.000000
114,140.000000,1760.000000
115,144.000000,1760.000000
116,140.000000,1760.000000
117,140.000000,1760.000000
118,140.000000,1760.000000
119,140.000000,1760.000000
120,140.000000,1760.000000
121,144.000000,1760.000000
122,140.000000,1760.000000
123,140.000000,1760.000000
124,140.000000,1760.000000
125,140.000000,1760.000000
126,140.000000,1760.000000
127,140.000000,1760.000000
128,140.000000,1760.000000
129,140.000000,1760.000000
130,144.000000,1760.000000
131,140.000000,1760.000000
132,144.000000,1760.000000
133,144.000000,1760.000000
134,144.000000,1720.000000
135,140.000000,1760.000000
136,144.000000,1760.000000
137,148.000000,1720.000000
138,144.000000,1760.000000
139,136.000000,1720.000000
140,148.000000,1760.000000
141,144.000000,1760.000000
142,144.000000,1760.000000
143,148.000000,1760.000000
144,144.000000,1760.000000
145,140.000000,1760.000000
146,144.000000,1720.000000
147,144.000000,1760.000000
148,140.000000,1760.000000
149,140.000000,1760.000000
150,140.000000,1760.000000
151,140.000000,1760.000000
152,140.000000,1760.000000
153,144.000000,1760.000000
154,140.000000,1760.000000
155,140.000000,1760.000000
156,140.000000,1760.000000
157,140.000000,1760.000000
158,136.000000,1760.000000
159,136.000000,1760.000000
160,136.000000,1760.000000
161,136.000000,1760.000000
162,136.000000,1760.000000
163,140.000000,1760.000000
164,136.000000,1760.000000
165,136.000000,1760.000000
166,140.000000,1760.000000
167,140.000000,1760.000000
168,140.000000,1760.000000
169,144.000000,1760.000000
170,144.000000,1760.000000
171,140.000000,1760.000000
172,140.000000,1760.000000
173,144.000000,1760.000000
174,144.000000,1760.000000
175,144.000000,1760.000000
176,144.000000,1760.000000
177,144.000000,1760.000000
178,140.000000,1760.000000
179,140.000000,1760.000000
180,140.000000,1760.000000
181,140.000000,1760.000000
182,140.000000,1760.000000
183,140.000000,1760.000000
184,140.000000,1760.000000
185,136.000000,1760.000000
186,144.000000,1760.000000
187,140.000000,1760.000000
188,144.000000,1760.000000
189,144.000000,1760.000000
190,144.000000,1760.000000
191,144.000000,1760.000000
192,148.000000,1760.000000
193,144.000000,1760.000000
194,148.000000,1760.000000
195,148.000000,1760.000000
196,152.000000,1760.000000
197,144.000000,1760.000000
198,148.000000,1760.000000
199,148.000000,1760.000000
200,148.000000,1760.000000
201,152.000000,1760.000000
202,152.000000,1760.000000
203,156.000000,1800.000000
204,152.000000,1760.000000
205,152.000000,1760.000000
206,152.000000,1760.000000
207,156.000000,1760.000000
208,152.000000,1760.000000
209,152.000000,1760.000000
210,152.000000,1800.000000
211,152.000000,1800.000000
212,152.000000,1760.000000
213,156.000000,1760.000000
214,152.000000,1800.000000
215,156.000000,1760.000000
216,156.000000,1800.000000
217,156.000000,1760.000000
218,152.000000,1800.000000
219,156.000000,1760.000000
220,156.000000,1800.000000
221,156.000000,1760.000000
222,156.000000,1760.000000
223,152.000000,1760.000000
224,156.000000,1760.000000
225,152.000000,1760.000000
226,156.000000,1760.000000
227,156.000000,1760.000000
228,156.000000,1760.000000
229,156.000000,1760.000000
230,156.000000,1760.000000
231,156.000000,1760.000000
232,156.000000,1760.000000
233,156.000000,1800.000000
234,160.000000,1760.000000
235,156.000000,1760.000000
236,160.000000,1760.000000
237,156.000000,1760.000000
238,156.000000,1760.000000
239,160.000000,1800.000000
240,160.000000,1760.000000
241,160.000000,1760.000000
242,160.000000,1760.000000
243,164.000000,1760.000000
244,160.000000,1760.000000
245,160.000000,1760.000000
246,160.000000,1760.000000
247,160.000000,1760.000000
248,160.000000,1760.000000
249,156.000000,1760.000000
250,156.000000,1760.000000
251,156.000000,1760.000000
252,160.000000,1760.000000
253,156.000000,1760.000000
254,156.000000,1760.000000
255,156.000000,1760.000000
256,156.000000,1760.000000
257,156.000000,1760.000000
258,160.000000,1760.000000
259,156.000000,1760.000000
260,156.000000,1720.000000
261,156.000000,1760.000000
262,152.000000,1760.000000
263,152.000000,1760.000000
264,152.000000,1760.000000
265,148.000000,1760.000000
266,152.000000,1760.000000
267,148.000000,1760.000000
268,148.000000,1760.000000
269,148.000000,1760.000000
270,148.000000,1760.000000
271,148.000000,1760.000000
272,144.000000,1760.000000
273,144.000000,1760.000000
274,148.000000,1760.000000
275,144.000000,1720.000000
276,148.000000,1760.000000
277,144.000000,1760.000000
278,144.000000,1760.000000
279,140.000000,1760.000000
280,144.000000,1760.000000
281,140.000000,1760.000000
282,144.000000,1760.000000
283,140.000000,1760.000000
284,140.000000,1760.000000
285,144.000000,1760.000000
286,140.000000,1760.000000
287,144.000000,1760.000000
288,136.000000,1720.000000
289,184.000000,1760.000000
290,144.000000,1760.000000
291,136.000000,1720.000000
292,136.000000,1760.000000
293,152.000000,1760.000000
294,136.000000,1760.000000
295,140.000000,1720.000000
296,140.000000,1760.000000
297,140.000000,1720.000000
298,140.000000,1760.000000
299,140.000000,1760.000000
300,136.000000,1760.000000
301,140.000000,1760.000000
302,140.000000,1760.000000
303,140.000000,1760.000000
304,140.000000,1760.000000
305,140.000000,1760.000000
306,140.000000,1760.000000
307,140.000000,1760.000000
308,140.000000,1760.000000
309,144.000000,1760.000000
310,140.000000,1760.000000
311,140.000000,1760.000000
312,140.000000,1760.000000
313,140.000000,1760.000000
314,140.000000,1760.000000
315,140.000000,1760.000000
316,136.000000,1760.000000
317,140.000000,1760.000000
318,140.000000,1760.000000
319,140.000000,1760.000000
320,140.000000,1760.000000
321,140.000000,1760.000000
322,140.000000,1760.000000
323,140.000000,1760.000000
324,140.000000,1760.000000
325,144.000000,1760.000000
326,140.000000,1760.000000
327,144.000000,1720.000000
328,140.000000,1760.000000
329,140.000000,1760.000000
330,140.000000,1760.000000
331,144.000000,1760.000000
332,140.000000,1760.000000
333,140.000000,1760.000000
334,144.000000,1760.000000
335,140.000000,1760.000000
336,140.000000,1760.000000
337,140.000000,1720.000000
338,144.000000,1760.000000
339,140.000000,1760.000000
340,140.000000,1760.000000
341,148.000000,1760.000000
342,144.000000,1760.000000
343,140.000000,1760.000000
344,148.000000,1760.000000
345,144.000000,1720.000000
346,144.000000,1760.000000
347,144.000000,1760.000000
348,144.000000,1760.000000
349,148.000000,1760.000000
350,148.000000,1760.000000
351,144.000000,1760.000000
352,144.000000,1760.000000
353,144.000000,1760.000000
354,144.000000,1760.000000
355,140.000000,1720.000000
356,140.000000,1720.000000
357,140.000000,1720.000000
358,136.000000,1760.000000
359,136.000000,1760.000000
360,140.000000,1760.000000
361,140.000000,1760.000000
362,140.000000,1760.000000
363,140.000000,1760.000000
364,140.000000,1760.000000
365,140.000000,1720.000000
366,140.000000,1760.000000
367,140.000000,1760.000000
368,140.000000,1760.000000
369,140.000000,1760.000000
370,140.000000,1760.000000
371,140.000000,1760.000000
372,136.000000,1760.000000
373,140.000000,1760.000000
374,136.000000,1760.000000
375,136.000000,1760.000000
376,140.000000,1760.000000
377,144.000000,1760.000000
378,136.000000,1760.000000
379,136.000000,1760.000000
380,144.000000,1720.000000
381,140.000000,1760.000000
382,140.000000,1760.000000
383,140.000000,1760.000000
384,140.000000,1760.000000
385,144.000000,1760.000000
386,140.000000,1760.000000
387,144.000000,1760.000000
388,136.000000,1760.000000
389,140.000000,1760.000000
390,148.000000,1760.000000
391,136.000000,1760.000000
392,140.000000,1760.000000
393,140.000000,1760.000000
394,140.000000,1760.000000
395,132.000000,1760.000000
396,136.000000,1760.000000
397,140.000000,1760.000000
398,136.000000,1760.000000
399,140.000000,1800.000000
400,144.000000,1760.000000
401,148.000000,1760.000000
402,144.000000,1760.000000
403,148.000000,1760.000000
404,148.000000,1760.000000
405,148.000000,1760.000000
406,152.000000,1760.000000
407,156.000000,1760.000000
408,148.000000,1760.000000
409,148.000000,1760.000000
410,148.000000,1800.000000
411,148.000000,1800.000000
412,152.000000,1760.000000
413,152.000000,1760.000000
414,156.000000,1760.000000
415,152.000000,1760.000000
416,152.000000,1800.000000
417,152.000000,1760.000000
418,152.000000,1760.000000
419,156.000000,1760.000000
420,156.000000,1760.000000
421,152.000000,1760.000000
422,152.000000,1720.000000
423,152.000000,1760.000000
424,156.000000,1760.000000
425,152.000000,1760.000000
426,156.000000,1760.000000
427,156.000000,1760.000000
428,156.000000,1760.000000
429,156.000000,1760.000000
430,160.000000,1760.000000
431,152.000000,1760.000000
432,160.000000,1760.000000
433,156.000000,1760.000000
434,160.000000,1760.000000
435,156.000000,1760.000000
436,156.000000,1760.000000
437,160.000000,1760.000000
438,160.000000,1760.000000
439,160.000000,1800.000000
440,156.000000,1760.000000
441,156.000000,1760.000000
442,160.000000,1760.000000
443,160.000000,1760.000000
444,156.000000,1760.000000
445,160.000000,1800.000000
446,156.000000,1760.000000
447,156.000000,1760.000000
448,160.000000,1800.000000
449,156.000000,1760.000000
450,160.000000,1760.000000
451,156.000000,1760.000000
452,160.000000,1760.000000
453,156.000000,1760.000000
454,160.000000,1760.000000
455,156.000000,1760.000000
456,156.000000,1760.000000
457,160.000000,1760.000000
458,156.000000,1760.000000
459,156.000000,1760.000000
460,160.000000,1760.000000
461,160.000000,1760.000000
462,156.000000,1760.000000
463,156.000000,1760.000000
464,156.000000,1760.000000
465,160.000000,1760.000000
466,156.000000,1760.000000
467,160.000000,1760.000000
468,160.000000,1760.000000
469,156.000000,1760.000000
470,160.000000,1760.000000
471,156.000000,1760.000000
472,156.000000,1720.000000
473,152.000000,1760.000000
474,152.000000,1760.000000
475,152.000000,1760.000000
476,148.000000,1760.000000
477,148.000000,1760.000000
478,148.000000,1760.000000
479,148.000000,1760.000000
480,144.000000,1720.000000
481,140.000000,1760.000000
482,144.000000,1720.000000
483,144.000000,1760.000000
484,140.000000,1760.000000
485,144.000000,1760.000000
486,144.000000,1760.000000
487,140.000000,1720.000000
488,152.000000,1760.000000
489,160.000000,1720.000000
490,140.000000,1760.000000
491,140.000000,1760.000000
492,140.000000,1760.000000
493,140.000000,1760.000000
494,140.000000,1760.000000
495,144.000000,1760.000000
496,140.000000,1760.000000
497,136.000000,1760.000000
498,140.000000,1760.000000
499,140.000000,1760.000000
500,140.000000,1760.000000
501,140.000000,1760.000000
502,140.000000,1760.000000
503,144.000000,1760.000000
504,144.000000,1760.000000
505,140.000000,1720.000000
506,140.000000,1760.000000
507,140.000000,1760.000000
508,140.000000,1760.000000
509,136.000000,1800.000000
510,140.000000,1760.000000
511,136.000000,1760.000000
512,140.000000,1760.000000
513,144.000000,1760.000000
514,140.000000,1760.000000
515,140.000000,1760.000000
516,140.000000,1720.000000
517,140.000000,1760.000000
518,140.000000,1760.000000
519,140.000000,1760.000000
520,140.000000,1760.000000
521,140.000000,1760.000000
522,140.000000,1760.000000
523,140.000000,1760.000000
524,140.000000,1760.000000
525,136.000000,1760.000000
526,136.000000,1760.000000
527,140.000000,1760.000000
528,140.000000,1760.000000
529,144.000000,1760.000000
530,140.000000,1760.000000
531,140.000000,1760.000000
532,140.000000,1760.000000
533,144.000000,1760.000000
534,140.000000,1760.000000
535,140.000000,1760.000000
536,144.000000,1760.000000
537,140.000000,1760.000000
538,140.000000,1760.000000
539,144.000000,1760.000000
540,144.000000,1760.000000
541,144.000000,1760.000000
542,148.000000,1760.000000
543,144.000000,1760.000000
544,144.000000,1760.000000
545,144.000000,1760.000000
546,144.000000,1760.000000
547,144.000000,1760.000000
548,148.000000,1760.000000
549,144.000000,1760.000000
550,144.000000,1760.000000
551,144.000000,1760.000000
552,144.000000,1760.000000
553,144.000000,1760.000000
554,140.000000,1760.000000
555,140.000000,1760.000000
556,140.000000,1760.000000
557,144.000000,1760.000000
558,144.000000,1720.000000
559,144.000000,1760.000000
560,144.000000,1760.000000
561,144.000000,1760.000000
562,144.000000,1760.000000
563,144.000000,1760.000000
564,144.000000,1760.000000
565,144.000000,1760.000000
566,144.000000,1760.000000
567,140.000000,1760.000000
568,144.000000,1760.000000
569,144.000000,1760.000000
570,140.000000,1760.000000
571,140.000000,1760.000000
572,140.000000,1760.000000
573,140.000000,1760.000000
574,140.000000,1760.000000
575,140.000000,1760.000000
576,136.000000,1760.000000
577,144.000000,1760.000000
578,140.000000,1760.000000
579,140.000000,1760.000000
580,136.000000,1760.000000
581,136.000000,1720.000000
582,140.000000,1760.000000
583,136.000000,1760.000000
584,140.000000,1760.000000
585,144.000000,1760.000000
586,140.000000,1760.000000
587,136.000000,1760.000000
588,140.000000,1760.000000
589,136.000000,1760.000000
590,140.000000,1760.000000
591,140.000000,1760.000000
592,136.000000,1760.000000
593,136.000000,1760.000000
594,136.000000,1760.000000
595,136.000000,1760.000000
596,136.000000,1760.000000
597,136.000000,1760.000000
598,136.000000,1760.000000
599,140.000000,1760.000000
600,140.000000,1760.000000
601,140.000000,1760.000000
602,140.000000,1760.000000
603,136.000000,1760.000000
604,144.000000,1760.000000
605,140.000000,1760.000000
606,140.000000,1760.000000
607,140.000000,1800.000000
608,140.000000,1720.000000
609,144.000000,1760.000000
610,140.000000,1800.000000
611,144.000000,1800.000000
612,144.000000,1800.000000
613,148.000000,1760.000000
614,144.000000,1800.000000
615,144.000000,1760.000000
616,148.000000,1760.000000
617,148.000000,1760.000000
618,148.000000,1800.000000
619,152.000000,1800.000000
620,152.000000,1760.000000
621,152.000000,1760.000000
622,148.000000,1760.000000
623,152.000000,1800.000000
624,156.000000,1760.000000
625,152.000000,1760.000000
626,152.000000,1800.000000
627,156.000000,1760.000000
628,156.000000,1760.000000
629,156.000000,1760.000000
630,156.000000,1760.000000
631,152.000000,1760.000000
632,156.000000,1760.000000
633,156.000000,1760.000000
634,156.000000,1760.000000
635,156.000000,1760.000000
636,156.000000,1760.000000
637,156.000000,1760.000000
638,160.000000,1800.000000
639,156.000000,1760.000000
640,160.000000,1800.000000
641,156.000000,1760.000000
642,152.000000,1800.000000
643,160.000000,1760.000000
644,156.000000,1760.000000
645,156.000000,1760.000000
646,156.000000,1760.000000
647,156.000000,1760.000000
648,156.000000,1760.000000
649,156.000000,1800.000000
650,156.000000,1760.000000
651,160.000000,1760.000000
652,160.000000,1800.000000
653,160.000000,1760.000000
654,156.000000,1760.000000
655,156.000000,1760.000000
656,152.000000,1760.000000
657,156.000000,1760.000000
658,156.000000,1800.000000
659,160.000000,1760.000000
660,156.000000,1800.000000
661,156.000000,1760.000000
662,156.000000,1760.000000
663,156.000000,1760.000000
664,156.000000,1800.000000
665,156.000000,1760.000000
666,156.000000,1760.000000
667,156.000000,1760.000000
668,152.000000,1760.000000
669,156.000000,1760.000000
670,156.000000,1760.000000
671,156.000000,1760.000000
672,156.000000,1760.000000
673,156.000000,1760.000000
674,152.000000,1760.000000
675,156.000000,1760.000000
676,160.000000,1760.000000
677,156.000000,1760.000000
678,156.000000,1760.000000
679,160.000000,1760.000000
680,156.000000,1760.000000
681,156.000000,1760.000000
682,152.000000,1760.000000
683,148.000000,1760.000000
684,152.000000,1760.000000
685,148.000000,1760.000000
686,148.000000,1760.000000
687,140.000000,1760.000000
688,144.000000,1720.000000
689,148.000000,1760.000000
690,132.000000,1760.000000
691,156.000000,1720.000000
692,140.000000,1760.000000
693,140.000000,1760.000000
694,144.000000,1760.000000
695,140.000000,1760.000000
696,144.000000,1760.000000
697,144.000000,1760.000000
698,140.000000,1760.000000
699,144.000000,1760.000000
700,144.000000,1760.000000
701,140.000000,1760.000000
702,144.000000,1760.000000
703,144.000000,1720.000000
704,140.000000,1760.000000
705,144.000000,1760.000000
706,140.000000,1760.000000
707,140.000000,1760.000000
708,140.000000,1760.000000
709,144.000000,1760.000000
710,140.000000,1760.000000
711,140.000000,1760.000000
712,144.000000,1760.000000
713,140.000000,1760.000000
714,144.000000,1720.000000
715,140.000000,1760.000000
716,140.000000,1720.000000
717,140.000000,1760.000000
718,140.000000,1760.000000
719,140.000000,1760.000000
720,140.000000,1760.000000
721,140.000000,1760.000000
722,140.000000,1760.000000
723,140.000000,1760.000000
724,140.000000,1760.000000
725,144.000000,1760.000000
726,144.000000,1800.000000
727,136.000000,1760.000000
728,140.000000,1760.000000
729,144.000000,1800.000000
730,140.000000,1760.000000
731,140.000000,1760.000000
732,140.000000,1760.000000
733,144.000000,1720.000000
