repport_data/power_optimization_measures/data_44_010.csv

Channel              :,CH1,CH2
Frequency            :,  ?,  ?
Period               :,  ?,  ?
PK-PK                :,520.0mV,40.00mV
Probe attenuation    :,1X,1X
Voltage per ADC value:,2.500000mV,2.500000mV
Time interval        :,200.00000uS,200.00000uS

index,CH1_Voltage(mV),CH2_Voltage(mV)
1,0.000000,1680.000000
2,0.000000,1680.000000
3,-40.000000,1680.000000
4,-40.000000,1680.000000
5,-40.000000,1720.000000
6,-40.000000,1680.000000
7,-200.000000,1720.000000
8,-120.000000,1680.000000
9,-40.000000,1680.000000
10,-40.000000,1720.000000
11,0.000000,1720.000000
12,-40.000000,1680.000000
13,-40.000000,1680.000000
14,0.000000,1720.000000
15,-40.000000,1680.000000
16,-40.000000,1680.000000
17,-40.000000,1720.000000
18,-40.000000,1720.000000
19,0.000000,1680.000000
20,-40.000000,1680.000000
21,0.000000,1680.000000
22,-40.000000,1680.000000
23,-40.000000,1680.000000
24,-40.000000,1680.000000
25,-40.000000,1680.000000
26,-40.000000,1680.000000
27,-40.000000,1720.000000
28,-40.000000,1680.000000
29,0.000000,1720.000000
30,0.000000,1720.000000
31,0.000000,1680.000000
32,-40.000000,1720.000000
33,-40.000000,1720.000000
34,-40.000000,1720.000000
35,0.000000,1720.000000
36,-40.000000,1720.000000
37,0.000000,1720.000000
38,-40.000000,1720.000000
39,-200.000000,1680.000000
40,-120.000000,1720.000000
41,-40.000000,1680.000000
42,-40.000000,1720.000000
43,-40.000000,1680.000000
44,-40.000000,1720.000000
45,-40.000000,1720.000000
46,0.000000,1680.000000
47,-80.000000,1680.000000
48,-40.000000,1720.000000
49,-40.000000,1680.000000
50,-40.000000,1680.000000
51,-40.000000,1720.000000
52,-80.000000,1720.000000
53,-40.000000,1680.000000
54,-40.000000,1680.000000
55,-40.000000,1680.000000
56,-40.000000,1680.000000
57,-40.000000,1680.000000
58,-40.000000,1720.000000
59,-40.000000,1720.000000
60,-40.000000,1680.000000
61,-40.000000,1680.000000
62,-40.000000,1680.000000
63,-40.000000,1680.000000
64,-40.000000,1680.000000
65,-40.000000,1720.000000
66,-40.000000,1680.000000
67,-40.000000,1720.000000
68,-40.000000,1680.000000
69,0.000000,1680.000000
70,-80.000000,1720.000000
71,-40.000000,1680.000000
72,-240.000000,1720.000000
73,-120.000000,1680.000000
74,-40.000000,1680.000000
75,-40.000000,1680.000000
76,-80.000000,1720.000000
77,-80.000000,1680.000000
78,-40.000000,1720.000000
79,-40.000000,1720.000000
80,-40.000000,1680.000000
81,-40.000000,1680.000000
82,-40.000000,1680.000000
83,-40.000000,1680.000000
84,0.000000,1680.000000
85,-40.000000,1680.000000
86,-40.000000,1680.000000
87,-40.000000,1720.000000
88,-40.000000,1720.000000
89,-40.000000,1680.000000
90,-40.000000,1720.000000
91,-80.000000,1720.000000
92,0.000000,1720.000000
93,-40.000000,1680.000000
94,-40.000000,1680.000000
95,-40.000000,1720.000000
96,-40.000000,1680.000000
97,-40.000000,1680.000000
98,0.000000,1680.000000
99,0.000000,1680.000000
100,-40.000000,1720.000000
101,-40.000000,1680.000000
102,-40.000000,1720.000000
103,-80.000000,1720.000000
104,-200.000000,1680.000000
105,-120.000000,1680.000000
106,0.000000,1720.000000
107,-40.000000,1720.000000
108,-40.000000,1680.000000
109,-40.000000,1720.000000
110,-40.000000,1680.000000
111,-40.000000,1720.000000
112,-40.000000,1680.000000
113,-40.000000,1720.000000
114,0.000000,1680.000000
115,-40.000000,1680.000000
116,-40.000000,1720.000000
117,-40.000000,1680.000000
118,-40.000000,1720.000000
119,0.000000,1720.000000
120,-40.000000,1680.000000
121,-80.000000,1680.000000
122,-40.000000,1680.000000
123,-40.000000,1680.000000
124,-40.000000,1720.000000
125,-40.000000,1680.000000
126,-40.000000,1680.000000
127,-40.000000,1680.000000
128,-40.000000,1680.000000
129,0.000000,1680.000000
130,0.000000,1680.000000
131,-40.000000,1680.000000
132,0.000000,1720.000000
133,-40.000000,1720.000000
134,-40.000000,1720.000000
135,-40.000000,1680.000000
136,-200.000000,1680.000000
137,-120.000000,1720.000000
138,0.000000,1720.000000
139,-40.000000,1680.000000
140,-40.000000,1680.000000
141,0.000000,1680.000000
142,0.000000,1720.000000
143,-40.000000,1680.000000
144,-80.000000,1680.000000
145,-40.000000,1720.000000
146,-40.000000,1680.000000
147,-80.000000,1680.000000
148,-40.000000,1680.000000
149,-80.000000,1680.000000
150,-80.000000,1720.000000
151,-40.000000,1680.000000
152,-80.000000,1680.000000
153,-80.000000,1680.000000
154,-80.000000,1720.000000
155,-40.000000,1720.000000
156,-80.000000,1680.000000
157,-40.000000,1680.000000
158,-80.000000,1720.000000
159,-80.000000,1680.000000
160,-40.000000,1720.000000
161,-80.000000,1680.000000
162,-80.000000,1680.000000
163,-80.000000,1680.000000
164,-80.000000,1680.000000
165,-40.000000,1680.000000
166,-80.000000,1680.000000
167,-40.000000,1720.000000
168,-40.000000,1720.000000
169,-80.000000,1680.000000
170,-160.000000,1720.000000
171,-160.000000,1680.000000
172,-40.000000,1680.000000
173,-40.000000,1720.000000
174,-40.000000,1680.000000
175,-80.000000,1680.000000
176,-40.000000,1720.000000
177,-80.000000,1680.000000
178,-80.000000,1720.000000
179,-40.000000,1680.000000
180,-80.000000,1680.000000
181,-80.000000,1680.000000
182,-80.000000,1680.000000
183,-40.000000,1720.000000
184,-40.000000,1680.000000
185,-40.000000,1720.000000
186,-40.000000,1680.000000
187,-40.000000,1680.000000
188,-80.000000,1680.000000
189,-40.000000,1680.000000
190,-40.000000,1720.000000
191,-80.000000,1680.000000
192,-40.000000,1720.000000
193,-80.000000,1680.000000
194,-80.000000,1720.000000
195,-40.000000,1680.000000
196,-80.000000,1720.000000
197,-80.000000,1720.000000
198,-80.000000,1680.000000
199,-40.000000,1680.000000
200,-40.000000,1680.000000
201,-40.000000,1720.000000
202,-40.000000,1680.000000
203,-80.000000,1720.000000
204,-40.000000,1720.000000
205,-40.000000,1680.000000
206,-40.000000,1680.000000
207,-40.000000,1680.000000
208,-40.000000,1680.000000
209,-40.000000,1720.000000
210,-40.000000,1720.000000
211,-80.000000,1680.000000
212,-40.000000,1720.000000
213,-40.000000,1720.000000
214,-40.000000,1720.000000
215,-40.000000,1680.000000
216,-80.000000,1720.000000
217,-40.000000,1720.000000
218,-80.000000,1720.000000
219,-80.000000,1720.000000
220,-80.000000,1680.000000
221,-40.000000,1720.000000
222,-40.000000,1680.000000
223,-40.000000,1680.000000
224,-40.000000,1720.000000
225,-40.000000,1680.000000
226,-40.000000,1680.000000
227,-40.000000,1720.000000
228,-80.000000,1720.000000
229,-40.000000,1720.000000
230,-40.000000,1680.000000
231,-40.000000,1720.000000
232,-40.000000,1720.000000
233,-40.000000,1720.000000
234,-40.000000,1720.000000
235,-80.000000,1680.000000
236,-80.000000,1680.000000
237,-40.000000,1680.000000
238,-40.000000,1680.000000
239,-40.000000,1680.000000
240,-40.000000,1720.000000
241,-40.000000,1720.000000
242,-40.000000,1680.000000
243,-40.000000,1720.000000
244,-40.000000,1720.000000
245,-40.000000,1720.000000
246,-40.000000,1720.000000
247,-40.000000,1720.000000
248,-80.000000,1720.000000
249,-40.000000,1680.000000
250,-40.000000,1720.000000
251,-40.000000,1680.000000
252,-40.000000,1680.000000
253,-40.000000,1680.000000
254,-40.000000,1720.000000
255,-40.000000,1680.000000
256,-40.000000,1720.000000
257,-40.000000,1680.000000
258,-40.000000,1680.000000
259,-40.000000,1680.000000
260,-40.000000,1720.000000
261,-40.000000,1720.000000
262,-40.000000,1720.000000
263,-40.000000,1720.000000
264,-40.000000,1680.000000
265,-40.000000,1720.000000
266,-40.000000,1720.000000
267,-200.000000,1680.000000
268,-120.000000,1680.000000
269,-40.000000,1680.000000
270,-40.000000,1720.000000
271,-40.000000,1680.000000
272,-40.000000,1720.000000
273,-80.000000,1720.000000
274,-40.000000,1720.000000
275,-40.000000,1680.000000
276,0.000000,1720.000000
277,-40.000000,1680.000000
278,-40.000000,1680.000000
279,-40.000000,1720.000000
280,-40.000000,1680.000000
281,-40.000000,1680.000000
282,-40.000000,1680.000000
283,-40.000000,1680.000000
284,-40.000000,1720.000000
285,-40.000000,1720.000000
286,-40.000000,1720.000000
287,-40.000000,1680.000000
288,-40.000000,1720.000000
289,-40.000000,1680.000000
290,-40.000000,1720.000000
291,-40.000000,1720.000000
292,-40.000000,1680.000000
293,-40.000000,1680.000000
294,-40.000000,1720.000000
295,-40.000000,1720.000000
296,0.000000,1720.000000
297,-40.000000,1680.000000
298,-40.000000,1720.000000
299,-160.000000,1680.000000
300,-120.000000,1680.000000
301,0.000000,1680.000000
302,-40.000000,1720.000000
303,-40.000000,1720.000000
304,-40.000000,1720.000000
305,-40.000000,1680.000000
306,-40.000000,1720.000000
307,-40.000000,1720.000000
308,0.000000,1680.000000
309,-40.000000,1680.000000
310,-40.000000,1680.000000
311,0.000000,1720.000000
312,-40.000000,1720.000000
313,-40.000000,1680.000000
314,0.000000,1680.000000
315,-40.000000,1680.000000
316,0.000000,1680.000000
317,-40.000000,1680.000000
318,-40.000000,1680.000000
319,-40.000000,1720.000000
320,-40.000000,1680.000000
321,-40.000000,1680.000000
322,0.000000,1720.000000
323,0.000000,1720.000000
324,-40.000000,1720.000000
325,-40.000000,1680.000000
326,-40.000000,1720.000000
327,-40.000000,1680.000000
328,-40.000000,1720.000000
329,-40.000000,1680.000000
330,-40.000000,1720.000000
331,-160.000000,1720.000000
332,-120.000000,1720.000000
333,-40.000000,1680.000000
334,0.000000,1720.000000
335,-40.000000,1680.000000
336,-40.000000,1720.000000
337,-40.000000,1680.000000
338,-40.000000,1680.000000
339,-40.000000,1720.000000
340,0.000000,1720.000000
341,-40.000000,1720.000000
342,0.000000,1720.000000
343,-40.000000,1680.000000
344,-40.000000,1680.000000
345,0.000000,1680.000000
346,0.000000,1720.000000
347,-40.000000,1720.000000
348,-40.000000,1720.000000
349,-40.000000,1720.000000
350,0.000000,1680.000000
351,0.000000,1720.000000
352,-40.000000,1680.000000
353,-40.000000,1680.000000
354,0.000000,1720.000000
355,0.000000,1680.000000
356,-40.000000,1680.000000
357,-80.000000,1720.000000
358,-40.000000,1720.000000
359,-80.000000,1720.000000
360,-80.000000,1720.000000
361,-40.000000,1680.000000
362,-80.000000,1720.000000
363,-40.000000,1680.000000
364,-40.000000,1720.000000
365,-120.000000,1680.000000
366,-40.000000,1720.000000
367,-40.000000,1680.000000
368,-40.000000,1720.000000
369,-40.000000,1680.000000
370,-40.000000,1720.000000
371,-80.000000,1680.000000
372,-40.000000,1680.000000
373,-40.000000,1720.000000
374,-80.000000,1720.000000
375,-40.000000,1720.000000
376,-40.000000,1720.000000
377,-80.000000,1680.000000
378,-40.000000,1680.000000
379,-80.000000,1720.000000
380,-80.000000,1680.000000
381,-40.000000,1680.000000
382,-80.000000,1680.000000
383,-80.000000,1680.000000
384,-40.000000,1720.000000
385,-80.000000,1680.000000
386,-40.000000,1720.000000
387,-40.000000,1720.000000
388,-40.000000,1720.000000
389,-80.000000,1680.000000
390,-40.000000,1680.000000
391,-40.000000,1680.000000
392,-40.000000,1680.000000
393,-40.000000,1720.000000
394,-80.000000,1720.000000
395,-40.000000,1720.000000
396,-80.000000,1680.000000
397,-80.000000,1680.000000
398,-40.000000,1680.000000
399,-80.000000,1680.000000
400,-40.000000,1680.000000
401,-40.000000,1720.000000
402,-40.000000,1680.000000
403,-40.000000,1720.000000
404,-40.000000,1680.000000
405,-40.000000,1680.000000
406,-40.000000,1720.000000
407,-40.000000,1680.000000
408,-40.000000,1680.000000
409,-40.000000,1720.000000
410,-40.000000,1680.000000
411,-80.000000,1720.000000
412,-40.000000,1680.000000
413,-40.000000,1680.000000
414,-40.000000,1720.000000
415,-40.000000,1680.000000
416,-80.000000,1720.000000
417,0.000000,1680.000000
418,-40.000000,1680.000000
419,-40.000000,1680.000000
420,-40.000000,1720.000000
421,-40.000000,1720.000000
422,-40.000000,1680.000000
423,-40.000000,1720.000000
424,-40.000000,1680.000000
425,-40.000000,1680.000000
426,-40.000000,1720.000000
427,-40.000000,1720.000000
428,-40.000000,1680.000000
429,-40.000000,1720.000000
430,-120.000000,1720.000000
431,-40.000000,1720.000000
432,0.000000,1680.000000
433,-40.000000,1680.000000
434,0.000000,1720.000000
435,-40.000000,1680.000000
436,-40.000000,1720.000000
437,-40.000000,1680.000000
438,-40.000000,1720.000000
439,-40.000000,1720.000000
440,-40.000000,1720.000000
441,-40.000000,1680.000000
442,-40.000000,1720.000000
443,-40.000000,1720.000000
444,-40.000000,1720.000000
445,-40.000000,1720.000000
446,-40.000000,1680.000000
447,-80.000000,1680.000000
448,-40.000000,1680.000000
449,-40.000000,1680.000000
450,-40.000000,1720.000000
451,-40.000000,1720.000000
452,0.000000,1720.000000
453,-40.000000,1720.000000
454,-40.000000,1680.000000
455,-40.000000,1680.000000
456,0.000000,1720.000000
457,-40.000000,1680.000000
458,-40.000000,1680.000000
459,-40.000000,1720.000000
460,-40.000000,1720.000000
461,-240.000000,1680.000000
462,-120.000000,1680.000000
463,-40.000000,1680.000000
464,-40.000000,1680.000000
465,-40.000000,1720.000000
466,-40.000000,1680.000000
467,-40.000000,1720.000000
468,-40.000000,1720.000000
469,-40.000000,1720.000000
470,0.000000,1720.000000
471,-40.000000,1680.000000
472,-40.000000,1720.000000
473,-40.000000,1720.000000
474,-40.000000,1680.000000
475,-40.000000,1720.000000
476,-40.000000,1680.000000
477,-40.000000,1720.000000
478,-40.000000,1720.000000
479,-40.000000,1680.000000
480,-40.000000,1680.000000
481,-40.000000,1720.000000
482,0.000000,1680.000000
483,-40.000000,1720.000000
484,-40.000000,1720.000000
485,0.000000,1680.000000
486,-40.000000,1680.000000
487,-40.000000,1680.000000
488,-40.000000,1720.000000
489,-40.000000,1720.000000
490,0.000000,1720.000000
491,-40.000000,1680.000000
492,-80.000000,1680.000000
493,-120.000000,1680.000000
494,0.000000,1720.000000
495,0.000000,1680.000000
496,-40.000000,1720.000000
497,-40.000000,1680.000000
498,-40.000000,1720.000000
499,0.000000,1680.000000
500,0.000000,1680.000000
501,-40.000000,1720.000000
502,-40.000000,1680.000000
503,0.000000,1680.000000
504,-40.000000,1680.000000
505,-40.000000,1680.000000
506,0.000000,1680.000000
507,-40.000000,1720.000000
508,-40.000000,1720.000000
509,-40.000000,1680.000000
510,0.000000,1680.000000
511,-40.000000,1720.000000
512,-40.000000,1720.000000
513,-40.000000,1720.000000
514,0.000000,1720.000000
515,-80.000000,1720.000000
516,-120.000000,1720.000000
517,-120.000000,1680.000000
518,-120.000000,1680.000000
519,-120.000000,1720.000000
520,-160.000000,1720.000000
521,-160.000000,1680.000000
522,-120.000000,1720.000000
523,-120.000000,1680.000000
524,-120.000000,1680.000000
525,-160.000000,1720.000000
526,-160.000000,1680.000000
527,-120.000000,1680.000000
528,-160.000000,1680.000000
529,-160.000000,1680.000000
530,-240.000000,1680.000000
531,-120.000000,1720.000000
532,-160.000000,1720.000000
533,-120.000000,1680.000000
534,-160.000000,1720.000000
535,-160.000000,1680.000000
536,-120.000000,1680.000000
537,-120.000000,1720.000000
538,-120.000000,1680.000000
539,-160.000000,1720.000000
540,-120.000000,1680.000000
541,-160.000000,1680.000000
542,-160.000000,1680.000000
543,-120.000000,1680.000000
544,-120.000000,1680.000000
545,-120.000000,1680.000000
546,-80.000000,1720.000000
547,-120.000000,1720.000000
548,-120.000000,1720.000000
549,-160.000000,1720.000000
550,-160.000000,1680.000000
551,-120.000000,1720.000000
552,-120.000000,1720.000000
553,-120.000000,1720.000000
554,-120.000000,1680.000000
555,-120.000000,1720.000000
556,-120.000000,1720.000000
557,-120.000000,1680.000000
558,-120.000000,1680.000000
559,-120.000000,1720.000000
560,-120.000000,1680.000000
561,-120.000000,1720.000000
562,-160.000000,1680.000000
563,-80.000000,1680.000000
564,-120.000000,1720.000000
565,-120.000000,1720.000000
566,-120.000000,1680.000000
567,-120.000000,1680.000000
568,-120.000000,1680.000000
569,-160.000000,1720.000000
570,-120.000000,1680.000000
571,-120.000000,1680.000000
572,-120.000000,1680.000000
573,-120.000000,1720.000000
574,-120.000000,1720.000000
575,-80.000000,1720.000000
576,-120.000000,1680.000000
577,-80.000000,1680.000000
578,-120.000000,1720.000000
579,-120.000000,1680.000000
580,-120.000000,1680.000000
581,-120.000000,1680.000000
582,-120.000000,1720.000000
583,-120.000000,1720.000000
584,-160.000000,1680.000000
585,-120.000000,1680.000000
586,-120.000000,1680.000000
587,-120.000000,1720.000000
588,-120.000000,1680.000000
589,-120.000000,1720.000000
590,-120.000000,1680.000000
591,-120.000000,1680.000000
592,-160.000000,1680.000000
593,-120.000000,1720.000000
594,-240.000000,1680.000000
595,-160.000000,1680.000000
596,-120.000000,1720.000000
597,-80.000000,1720.000000
598,-80.000000,1680.000000
599,-120.000000,1720.000000
600,-120.000000,1680.000000
601,-120.000000,1680.000000
602,-80.000000,1720.000000
603,-80.000000,1720.000000
604,-120.000000,1680.000000
605,-120.000000,1680.000000
606,-120.000000,1680.000000
607,-120.000000,1680.000000
608,-120.000000,1680.000000
609,-120.000000,1680.000000
610,-80.000000,1680.000000
611,-120.000000,1680.000000
612,-120.000000,1720.000000
613,-120.000000,1680.000000
614,-120.000000,1720.000000
615,-160.000000,1720.000000
616,-120.000000,1680.000000
617,-120.000000,1720.000000
618,-120.000000,1680.000000
619,-120.000000,1680.000000
620,-80.000000,1680.000000
621,-120.000000,1680.000000
622,-120.000000,1720.000000
623,-120.000000,1680.000000
624,-120.000000,1680.000000
625,-120.000000,1680.000000
626,-120.000000,1680.000000
627,-280.000000,1680.000000
628,-160.000000,1680.000000
629,-120.000000,1680.000000
630,-120.000000,1720.000000
631,-120.000000,1680.000000
632,-120.000000,1720.000000
633,-80.000000,1680.000000
634,-120.000000,1680.000000
635,-120.000000,1720.000000
636,-120.000000,1720.000000
637,-120.000000,1680.000000
638,-120.000000,1720.000000
639,-80.000000,1720.000000
640,-120.000000,1680.000000
641,-120.000000,1680.000000
642,-80.000000,1680.000000
643,-80.000000,1680.000000
644,-120.000000,1720.000000
645,-80.000000,1720.000000
646,-80.000000,1720.000000
647,-120.000000,1720.000000
648,-120.000000,1680.000000
649,-120.000000,1680.000000
650,-120.000000,1680.000000
651,-80.000000,1680.000000
652,-120.000000,1680.000000
653,-120.000000,1680.000000
654,-120.000000,1680.000000
655,-80.000000,1680.000000
656,-80.000000,1720.000000
657,-120.000000,1720.000000
658,-120.000000,1680.000000
659,-120.000000,1720.000000
660,-120.000000,1680.000000
661,-160.000000,1720.000000
662,-120.000000,1680.000000
663,-120.000000,1680.000000
664,-120.000000,1680.000000
665,-80.000000,1680.000000
666,-120.000000,1680.000000
667,-80.000000,1720.000000
668,-80.000000,1720.000000
669,-80.000000,1680.000000
670,-120.000000,1680.000000
671,-80.000000,1720.000000
672,-120.000000,1680.000000
673,-120.000000,1680.000000
674,-80.000000,1720.000000
675,-80.000000,1680.000000
676,-120.000000,1680.000000
677,-80.000000,1680.000000
678,-80.000000,1680.000000
679,-120.000000,1720.000000
680,-120.000000,1720.000000
681,-80.000000,1680.000000
682,-80.000000,1680.000000
683,-80.000000,1680.000000
684,-80.000000,1680.000000
685,-120.000000,1680.000000
686,-80.000000,1680.000000
687,-80.000000,1680.000000
688,-120.000000,1720.000000
689,-80.000000,1680.000000
690,-80.000000,1680.000000
691,-80.000000,1720.000000
692,-160.000000,1680.000000
693,-40.000000,1720.000000
694,-80.000000,1720.000000
695,-80.000000,1680.000000
696,-80.000000,1680.000000
697,-80.000000,1680.000000
698,-120.000000,1680.000000
699,-120.000000,1720.000000
700,-80.000000,1720.000000
701,-80.000000,1680.000000
702,-80.000000,1680.000000
703,-80.000000,1680.000000
704,-80.000000,1680.000000
705,-80.000000,1720.000000
706,-80.000000,1680.000000
707,-80.000000,1720.000000
708,-120.000000,1680.000000
709,-80.000000,1680.000000
710,-80.000000,1680.000000
711,-120.000000,1720.000000
712,-80.000000,1720.000000
713,-80.000000,1720.000000
714,-80.000000,1680.000000
715,-80.000000,1680.000000
716,-80.000000,1680.000000
717,-120.000000,1680.000000
718,-80.000000,1720.000000
719,-80.000000,1720.000000
720,-80.000000,1720.000000
721,-80.000000,1680.000000
722,-120.000000,1680.000000
723,-120.000000,1680.000000
724,-240.000000,1680.000000
725,-160.000000,1680.000000
726,-80.000000,1680.000000
727,-80.000000,1680.000000
728,-80.000000,1680.000000
729,-80.000000,1680.000000
730,-80.000000,1680.000000
731,-80.000000,1680.000000
732,-120.000000,1720.000000
