repport_data/power_optimization_measures/data_44_003.csv

Channel              :,CH1,CH2
Frequency            :,  ?,  ?
Period               :,  ?,  ?
PK-PK                :,380.0mV?,960.0mV
Probe attenuation    :,1X,1X
Voltage per ADC value:,0.250000mV,2.500000mV
Time interval        :,200.00000uS,200.00000uS

index,CH1_Voltage(mV),CH2_Voltage(mV)
1,-284.000000,2600.000000
2,-284.000000,2600.000000
3,-280.000000,2600.000000
4,-276.000000,2600.000000
5,-268.000000,2600.000000
6,-264.000000,2600.000000
7,-260.000000,2600.000000
8,-252.000000,2600.000000
9,-252.000000,2600.000000
10,-252.000000,2600.000000
11,-248.000000,2600.000000
12,-240.000000,2600.000000
13,-236.000000,2600.000000
14,-240.000000,2600.000000
15,-236.000000,2600.000000
16,-228.000000,2600.000000
17,-232.000000,2600.000000
18,-232.000000,2600.000000
19,-224.000000,2600.000000
20,-220.000000,2600.000000
21,-224.000000,2600.000000
22,-224.000000,2600.000000
23,-220.000000,2600.000000
24,-220.000000,2600.000000
25,-220.000000,2600.000000
26,-216.000000,2600.000000
27,-216.000000,2600.000000
28,-220.000000,2600.000000
29,-216.000000,2600.000000
30,-216.000000,2600.000000
31,-216.000000,2600.000000
32,-212.000000,2600.000000
33,-216.000000,2600.000000
34,-212.000000,2600.000000
35,-212.000000,2600.000000
36,-212.000000,2600.000000
37,-212.000000,2560.000000
38,-212.000000,2600.000000
39,-212.000000,2600.000000
40,-212.000000,2600.000000
41,-208.000000,2600.000000
42,-212.000000,2600.000000
43,-216.000000,2600.000000
44,-212.000000,2600.000000
45,-208.000000,2600.000000
46,-212.000000,2600.000000
47,-212.000000,2600.000000
48,-208.000000,2560.000000
49,-212.000000,2600.000000
50,-208.000000,2600.000000
51,-212.000000,2600.000000
52,-208.000000,2600.000000
53,-216.000000,2600.000000
54,-212.000000,2600.000000
55,-216.000000,2600.000000
56,-212.000000,2600.000000
57,-208.000000,2600.000000
58,-208.000000,2600.000000
59,-216.000000,2600.000000
60,-216.000000,2600.000000
61,-208.000000,2600.000000
62,-212.000000,2600.000000
63,-208.000000,2600.000000
64,-212.000000,2600.000000
65,-212.000000,2600.000000
66,-232.000000,2600.000000
67,-212.000000,2600.000000
68,-216.000000,2600.000000
69,-212.000000,2600.000000
70,-208.000000,2560.000000
71,-216.000000,2600.000000
72,-216.000000,2600.000000
73,-212.000000,2600.000000
74,-212.000000,2600.000000
75,-216.000000,2600.000000
76,-212.000000,2600.000000
77,-212.000000,2600.000000
78,-212.000000,2600.000000
79,-216.000000,2600.000000
80,-212.000000,2600.000000
81,-212.000000,2600.000000
82,-212.000000,2600.000000
83,-216.000000,2600.000000
84,-208.000000,2600.000000
85,-212.000000,2600.000000
86,-212.000000,2600.000000
87,-216.000000,2600.000000
88,-212.000000,2600.000000
89,-216.000000,2600.000000
90,-212.000000,2600.000000
91,-212.000000,2600.000000
92,-212.000000,2600.000000
93,-212.000000,2600.000000
94,-212.000000,2600.000000
95,-212.000000,2600.000000
96,-212.000000,2600.000000
97,-212.000000,2600.000000
98,-212.000000,2600.000000
99,-212.000000,2600.000000
100,-216.000000,2600.000000
101,-212.000000,2600.000000
102,-220.000000,2600.000000
103,-212.000000,2600.000000
104,-208.000000,2600.000000
105,-212.000000,2640.000000
106,-216.000000,2600.000000
107,-212.000000,2600.000000
108,-212.000000,2600.000000
109,-208.000000,2600.000000
110,-212.000000,2600.000000
111,-212.000000,2600.000000
112,-212.000000,2600.000000
113,-212.000000,2600.000000
114,-216.000000,2600.000000
115,-216.000000,2600.000000
116,-208.000000,2600.000000
117,-208.000000,2600.000000
118,-240.000000,2600.000000
119,-200.000000,2600.000000
120,-208.000000,2600.000000
121,-208.000000,2600.000000
122,-216.000000,2600.000000
123,-208.000000,2600.000000
124,-208.000000,2600.000000
125,-208.000000,2600.000000
126,-204.000000,2600.000000
127,-208.000000,2600.000000
128,-208.000000,2600.000000
129,-208.000000,2600.000000
130,-208.000000,2600.000000
131,-212.000000,2600.000000
132,-208.000000,2600.000000
133,-208.000000,2600.000000
134,-212.000000,2600.000000
135,-208.000000,2600.000000
136,-212.000000,2600.000000
137,-208.000000,2600.000000
138,-212.000000,2600.000000
139,-212.000000,2600.000000
140,-208.000000,2600.000000
141,-208.000000,2600.000000
142,-208.000000,2600.000000
143,-212.000000,2600.000000
144,-212.000000,2600.000000
145,-208.000000,2600.000000
146,-208.000000,2600.000000
147,-212.000000,2600.000000
148,-212.000000,2600.000000
149,-212.000000,2600.000000
150,-212.000000,2600.000000
151,-212.000000,2600.000000
152,-208.000000,2600.000000
153,-216.000000,2600.000000
154,-212.000000,2600.000000
155,-212.000000,2600.000000
156,-212.000000,2600.000000
157,-212.000000,2600.000000
158,-212.000000,2600.000000
159,-212.000000,2600.000000
160,-212.000000,2600.000000
161,-212.000000,2600.000000
162,-212.000000,2600.000000
163,-208.000000,2600.000000
164,-212.000000,2600.000000
165,-224.000000,2600.000000
166,-212.000000,2600.000000
167,-212.000000,2600.000000
168,-216.000000,2600.000000
169,-216.000000,2600.000000
170,-212.000000,2600.000000
171,-216.000000,2600.000000
172,-216.000000,2600.000000
173,-216.000000,2600.000000
174,-208.000000,2600.000000
175,-216.000000,2600.000000
176,-216.000000,2600.000000
177,-216.000000,2600.000000
178,-216.000000,2600.000000
179,-212.000000,2600.000000
180,-208.000000,2600.000000
181,-216.000000,2600.000000
182,-216.000000,2600.000000
183,-216.000000,2600.000000
184,-212.000000,2600.000000
185,-216.000000,2600.000000
186,-212.000000,2600.000000
187,-212.000000,2600.000000
188,-216.000000,2640.000000
189,-216.000000,2560.000000
190,-212.000000,2600.000000
191,-212.000000,2600.000000
192,-212.000000,2600.000000
193,-212.000000,2600.000000
194,-212.000000,2600.000000
195,-212.000000,2600.000000
196,-212.000000,2600.000000
197,-212.000000,2600.000000
198,-208.000000,2600.000000
199,-212.000000,2600.000000
200,-212.000000,2600.000000
201,-216.000000,2600.000000
202,-208.000000,2600.000000
203,-212.000000,2600.000000
204,-212.000000,2600.000000
205,-212.000000,2560.000000
206,-212.000000,2520.000000
207,-212.000000,2480.000000
208,-216.000000,2480.000000
209,-212.000000,2440.000000
210,-208.000000,2400.000000
211,-212.000000,2360.000000
212,-216.000000,2360.000000
213,-212.000000,2360.000000
214,-212.000000,2320.000000
215,-212.000000,2320.000000
216,-208.000000,2360.000000
217,-208.000000,2360.000000
218,-216.000000,2400.000000
219,-216.000000,2400.000000
220,-208.000000,2400.000000
221,-208.000000,2440.000000
222,-216.000000,2440.000000
223,-212.000000,2480.000000
224,-208.000000,2480.000000
225,-208.000000,2480.000000
226,-212.000000,2480.000000
227,-208.000000,2520.000000
228,-252.000000,2520.000000
229,-288.000000,2520.000000
230,-320.000000,2520.000000
231,-352.000000,2520.000000
232,-384.000000,2560.000000
233,-416.000000,2560.000000
234,-432.000000,2560.000000
235,-448.000000,2560.000000
236,-464.000000,2560.000000
237,-476.000000,2560.000000
238,-484.000000,2560.000000
239,-484.000000,2560.000000
240,-460.000000,2560.000000
241,-440.000000,2560.000000
242,-416.000000,2560.000000
243,-404.000000,2560.000000
244,-388.000000,2600.000000
245,-372.000000,2600.000000
246,-360.000000,2560.000000
247,-348.000000,2600.000000
248,-340.000000,2600.000000
249,-328.000000,2560.000000
250,-316.000000,2600.000000
251,-308.000000,2600.000000
252,-300.000000,2560.000000
253,-292.000000,2600.000000
254,-300.000000,2600.000000
255,-280.000000,2560.000000
256,-276.000000,2600.000000
257,-268.000000,2600.000000
258,-264.000000,2600.000000
259,-268.000000,2600.000000
260,-252.000000,2600.000000
261,-252.000000,2600.000000
262,-252.000000,2600.000000
263,-240.000000,2600.000000
264,-240.000000,2600.000000
265,-236.000000,2600.000000
266,-240.000000,2600.000000
267,-232.000000,2600.000000
268,-236.000000,2600.000000
269,-236.000000,2600.000000
270,-228.000000,2640.000000
271,-232.000000,2600.000000
272,-236.000000,2600.000000
273,-232.000000,2600.000000
274,-216.000000,2600.000000
275,-228.000000,2600.000000
276,-224.000000,2600.000000
277,-228.000000,2600.000000
278,-224.000000,2600.000000
279,-224.000000,2600.000000
280,-220.000000,2600.000000
281,-224.000000,2600.000000
282,-220.000000,2600.000000
283,-220.000000,2600.000000
284,-220.000000,2600.000000
285,-220.000000,2600.000000
286,-220.000000,2600.000000
287,-220.000000,2600.000000
288,-216.000000,2600.000000
289,-216.000000,2600.000000
290,-216.000000,2600.000000
291,-216.000000,2600.000000
292,-212.000000,2600.000000
293,-216.000000,2600.000000
294,-220.000000,2600.000000
295,-220.000000,2600.000000
296,-216.000000,2600.000000
297,-212.000000,2600.000000
298,-216.000000,2600.000000
299,-216.000000,2600.000000
300,-212.000000,2600.000000
301,-216.000000,2600.000000
302,-216.000000,2600.000000
303,-216.000000,2600.000000
304,-220.000000,2600.000000
305,-212.000000,2600.000000
306,-216.000000,2600.000000
307,-212.000000,2600.000000
308,-216.000000,2600.000000
309,-216.000000,2600.000000
310,-212.000000,2600.000000
311,-212.000000,2600.000000
312,-232.000000,2600.000000
313,-220.000000,2600.000000
314,-216.000000,2600.000000
315,-216.000000,2600.000000
316,-196.000000,2640.000000
317,-212.000000,2600.000000
318,-212.000000,2600.000000
319,-204.000000,2600.000000
320,-212.000000,2600.000000
321,-212.000000,2600.000000
322,-208.000000,2600.000000
323,-204.000000,2600.000000
324,-212.000000,2600.000000
325,-208.000000,2600.000000
326,-208.000000,2600.000000
327,-208.000000,2600.000000
328,-208.000000,2600.000000
329,-208.000000,2600.000000
330,-212.000000,2600.000000
331,-208.000000,2600.000000
332,-212.000000,2600.000000
333,-216.000000,2600.000000
334,-212.000000,2600.000000
335,-212.000000,2600.000000
336,-212.000000,2600.000000
337,-212.000000,2600.000000
338,-212.000000,2600.000000
339,-212.000000,2600.000000
340,-212.000000,2600.000000
341,-212.000000,2640.000000
342,-216.000000,2600.000000
343,-212.000000,2600.000000
344,-212.000000,2600.000000
345,-212.000000,2600.000000
346,-216.000000,2600.000000
347,-216.000000,2600.000000
348,-216.000000,2600.000000
349,-216.000000,2600.000000
350,-216.000000,2600.000000
351,-212.000000,2600.000000
352,-216.000000,2600.000000
353,-212.000000,2600.000000
354,-208.000000,2600.000000
355,-216.000000,2600.000000
356,-216.000000,2600.000000
357,-212.000000,2600.000000
358,-216.000000,2600.000000
359,-220.000000,2600.000000
360,-208.000000,2600.000000
361,-216.000000,2600.000000
362,-216.000000,2600.000000
363,-220.000000,2600.000000
364,-212.000000,2600.000000
365,-216.000000,2600.000000
366,-220.000000,2600.000000
367,-208.000000,2600.000000
368,-212.000000,2600.000000
369,-220.000000,2600.000000
370,-220.000000,2600.000000
371,-204.000000,2600.000000
372,-192.000000,2600.000000
373,-220.000000,2600.000000
374,-212.000000,2600.000000
375,-216.000000,2600.000000
376,-220.000000,2640.000000
377,-212.000000,2600.000000
378,-216.000000,2600.000000
379,-216.000000,2600.000000
380,-212.000000,2600.000000
381,-216.000000,2600.000000
382,-212.000000,2600.000000
383,-216.000000,2600.000000
384,-212.000000,2600.000000
385,-212.000000,2600.000000
386,-212.000000,2600.000000
387,-212.000000,2600.000000
388,-212.000000,2640.000000
389,-212.000000,2640.000000
390,-212.000000,2600.000000
391,-212.000000,2600.000000
392,-212.000000,2600.000000
393,-212.000000,2600.000000
394,-216.000000,2600.000000
395,-216.000000,2600.000000
396,-208.000000,2600.000000
397,-212.000000,2600.000000
398,-212.000000,2600.000000
399,-216.000000,2600.000000
400,-212.000000,2600.000000
401,-216.000000,2600.000000
402,-216.000000,2600.000000
403,-212.000000,2600.000000
404,-212.000000,2640.000000
405,-216.000000,2600.000000
406,-216.000000,2600.000000
407,-212.000000,2600.000000
408,-212.000000,2640.000000
409,-216.000000,2640.000000
410,-216.000000,2600.000000
411,-216.000000,2640.000000
412,-212.000000,2640.000000
413,-216.000000,2600.000000
414,-212.000000,2600.000000
415,-212.000000,2600.000000
416,-220.000000,2640.000000
417,-208.000000,2600.000000
418,-204.000000,2600.000000
419,-212.000000,2600.000000
420,-212.000000,2640.000000
421,-208.000000,2600.000000
422,-208.000000,2600.000000
423,-212.000000,2600.000000
424,-212.000000,2600.000000
425,-208.000000,2600.000000
426,-208.000000,2600.000000
427,-212.000000,2600.000000
428,-212.000000,2640.000000
429,-212.000000,2600.000000
430,-212.000000,2600.000000
431,-212.000000,2600.000000
432,-212.000000,2600.000000
433,-208.000000,2600.000000
434,-212.000000,2600.000000
435,-212.000000,2600.000000
436,-212.000000,2640.000000
437,-212.000000,2600.000000
438,-216.000000,2600.000000
439,-216.000000,2600.000000
440,-212.000000,2600.000000
441,-212.000000,2600.000000
442,-212.000000,2600.000000
443,-212.000000,2600.000000
444,-212.000000,2600.000000
445,-216.000000,2600.000000
446,-212.000000,2600.000000
447,-212.000000,2600.000000
448,-216.000000,2600.000000
449,-212.000000,2640.000000
450,-216.000000,2600.000000
451,-216.000000,2600.000000
452,-212.000000,2600.000000
453,-212.000000,2600.000000
454,-212.000000,2600.000000
455,-216.000000,2600.000000
456,-212.000000,2560.000000
457,-208.000000,2520.000000
458,-212.000000,2480.000000
459,-208.000000,2440.000000
460,-212.000000,2440.000000
461,-212.000000,2400.000000
462,-212.000000,2400.000000
463,-216.000000,2360.000000
464,-192.000000,2360.000000
465,-204.000000,2320.000000
466,-220.000000,2360.000000
467,-216.000000,2360.000000
468,-204.000000,2400.000000
469,-216.000000,2400.000000
470,-224.000000,2400.000000
471,-220.000000,2440.000000
472,-208.000000,2440.000000
473,-220.000000,2440.000000
474,-220.000000,2440.000000
475,-212.000000,2480.000000
476,-220.000000,2480.000000
477,-220.000000,2520.000000
478,-224.000000,2520.000000
479,-260.000000,2520.000000
480,-296.000000,2520.000000
481,-328.000000,2520.000000
482,-360.000000,2560.000000
483,-392.000000,2560.000000
484,-420.000000,2560.000000
485,-440.000000,2560.000000
486,-452.000000,2560.000000
487,-468.000000,2560.000000
488,-484.000000,2560.000000
489,-492.000000,2560.000000
490,-484.000000,2600.000000
491,-456.000000,2560.000000
492,-436.000000,2560.000000
493,-420.000000,2600.000000
494,-400.000000,2560.000000
495,-384.000000,2560.000000
496,-372.000000,2600.000000
497,-356.000000,2600.000000
498,-348.000000,2600.000000
499,-332.000000,2600.000000
500,-324.000000,2600.000000
501,-312.000000,2600.000000
502,-308.000000,2600.000000
503,-300.000000,2600.000000
504,-292.000000,2600.000000
505,-288.000000,2600.000000
506,-280.000000,2600.000000
507,-272.000000,2600.000000
508,-268.000000,2600.000000
509,-268.000000,2600.000000
510,-260.000000,2640.000000
511,-256.000000,2600.000000
512,-256.000000,2600.000000
513,-252.000000,2600.000000
514,-252.000000,2600.000000
515,-244.000000,2600.000000
516,-236.000000,2600.000000
517,-236.000000,2600.000000
518,-236.000000,2600.000000
519,-240.000000,2600.000000
520,-232.000000,2600.000000
521,-224.000000,2600.000000
522,-224.000000,2600.000000
523,-228.000000,2600.000000
524,-228.000000,2600.000000
525,-224.000000,2600.000000
526,-228.000000,2600.000000
527,-220.000000,2600.000000
528,-224.000000,2600.000000
529,-216.000000,2600.000000
530,-220.000000,2600.000000
531,-220.000000,2600.000000
532,-224.000000,2600.000000
533,-216.000000,2600.000000
534,-220.000000,2600.000000
535,-216.000000,2600.000000
536,-216.000000,2600.000000
537,-212.000000,2640.000000
538,-220.000000,2640.000000
539,-220.000000,2640.000000
540,-216.000000,2640.000000
541,-216.000000,2600.000000
542,-220.000000,2600.000000
543,-216.000000,2600.000000
544,-216.000000,2640.000000
545,-216.000000,2640.000000
546,-216.000000,2600.000000
547,-216.000000,2600.000000
548,-216.000000,2600.000000
549,-216.000000,2600.000000
550,-216.000000,2600.000000
551,-216.000000,2600.000000
552,-212.000000,2600.000000
553,-216.000000,2600.000000
554,-216.000000,2600.000000
555,-212.000000,2600.000000
556,-216.000000,2600.000000
557,-212.000000,2600.000000
558,-212.000000,2600.000000
559,-216.000000,2600.000000
560,-216.000000,2600.000000
561,-212.000000,2600.000000
562,-216.000000,2600.000000
563,-212.000000,2600.000000
564,-216.000000,2600.000000
565,-204.000000,2600.000000
566,-212.000000,2600.000000
567,-216.000000,2600.000000
568,-220.000000,2600.000000
569,-212.000000,2600.000000
570,-212.000000,2600.000000
571,-252.000000,2600.000000
572,-228.000000,2600.000000
573,-220.000000,2600.000000
574,-220.000000,2600.000000
575,-216.000000,2600.000000
576,-216.000000,2600.000000
577,-216.000000,2600.000000
578,-212.000000,2640.000000
579,-220.000000,2600.000000
580,-216.000000,2600.000000
581,-216.000000,2600.000000
582,-216.000000,2600.000000
583,-220.000000,2640.000000
584,-216.000000,2600.000000
585,-216.000000,2600.000000
586,-216.000000,2600.000000
587,-216.000000,2600.000000
588,-212.000000,2600.000000
589,-216.000000,2640.000000
590,-212.000000,2600.000000
591,-216.000000,2640.000000
592,-216.000000,2600.000000
593,-212.000000,2600.000000
594,-212.000000,2600.000000
595,-212.000000,2600.000000
596,-212.000000,2640.000000
597,-212.000000,2640.000000
598,-212.000000,2600.000000
599,-212.000000,2600.000000
600,-220.000000,2600.000000
601,-216.000000,2600.000000
602,-216.000000,2640.000000
603,-216.000000,2640.000000
604,-216.000000,2640.000000
605,-212.000000,2600.000000
606,-216.000000,2600.000000
607,-212.000000,2640.000000
608,-212.000000,2640.000000
609,-216.000000,2600.000000
610,-216.000000,2600.000000
611,-212.000000,2640.000000
612,-212.000000,2640.000000
613,-216.000000,2640.000000
614,-220.000000,2600.000000
615,-212.000000,2600.000000
616,-212.000000,2600.000000
617,-212.000000,2640.000000
618,-208.000000,2640.000000
619,-208.000000,2600.000000
620,-216.000000,2600.000000
621,-212.000000,2600.000000
622,-204.000000,2600.000000
623,-208.000000,2600.000000
624,-208.000000,2600.000000
625,-212.000000,2600.000000
626,-212.000000,2600.000000
627,-212.000000,2600.000000
628,-212.000000,2600.000000
629,-212.000000,2640.000000
630,-212.000000,2640.000000
631,-216.000000,2600.000000
632,-212.000000,2640.000000
633,-212.000000,2600.000000
634,-208.000000,2640.000000
635,-216.000000,2640.000000
636,-212.000000,2600.000000
637,-212.000000,2600.000000
638,-216.000000,2600.000000
639,-212.000000,2600.000000
640,-212.000000,2600.000000
641,-216.000000,2600.000000
642,-212.000000,2640.000000
643,-216.000000,2600.000000
644,-216.000000,2600.000000
645,-212.000000,2640.000000
646,-212.000000,2600.000000
647,-212.000000,2600.000000
648,-216.000000,2600.000000
649,-216.000000,2600.000000
650,-212.000000,2600.000000
651,-212.000000,2600.000000
652,-212.000000,2600.000000
653,-212.000000,2600.000000
654,-208.000000,2600.000000
655,-208.000000,2600.000000
656,-216.000000,2600.000000
657,-216.000000,2600.000000
658,-208.000000,2600.000000
659,-212.000000,2600.000000
660,-216.000000,2600.000000
661,-216.000000,2600.000000
662,-204.000000,2600.000000
663,-208.000000,2600.000000
664,-216.000000,2640.000000
665,-212.000000,2600.000000
666,-212.000000,2600.000000
667,-220.000000,2600.000000
668,-216.000000,2600.000000
669,-216.000000,2600.000000
670,-216.000000,2600.000000
671,-224.000000,2640.000000
672,-220.000000,2600.000000
673,-216.000000,2600.000000
674,-224.000000,2600.000000
675,-220.000000,2600.000000
676,-220.000000,2600.000000
677,-216.000000,2600.000000
678,-216.000000,2640.000000
679,-216.000000,2600.000000
680,-216.000000,2640.000000
681,-216.000000,2600.000000
682,-216.000000,2600.000000
683,-216.000000,2600.000000
684,-216.000000,2640.000000
685,-216.000000,2640.000000
686,-212.000000,2600.000000
687,-216.000000,2640.000000
688,-220.000000,2600.000000
689,-212.000000,2600.000000
690,-220.000000,2600.000000
691,-212.000000,2600.000000
692,-216.000000,2600.000000
693,-216.000000,2600.000000
694,-212.000000,2600.000000
695,-212.000000,2600.000000
696,-216.000000,2600.000000
697,-216.000000,2640.000000
698,-212.000000,2600.000000
699,-216.000000,2600.000000
700,-216.000000,2640.000000
701,-212.000000,2600.000000
702,-216.000000,2600.000000
703,-220.000000,2640.000000
704,-216.000000,2600.000000
705,-212.000000,2640.000000
706,-216.000000,2600.000000
707,-216.000000,2560.000000
