repport_data/power_optimization_measures/data_44_013.csv

Channel              :,CH1,CH2
Frequency            :,  ?,  ?
Period               :,  ?,  ?
PK-PK                :,880.0mV,1.280V
Probe attenuation    :,1X,1X
Voltage per ADC value:,2.500000mV,2.500000mV
Time interval        :,200.00000uS,200.00000uS

index,CH1_Voltage(mV),CH2_Voltage(mV)
1,-40.000000,-2240.000000
2,-40.000000,-2240.000000
3,-40.000000,-2240.000000
4,-40.000000,-2240.000000
5,-40.000000,-2200.000000
6,-40.000000,-2200.000000
7,-40.000000,-2240.000000
8,-40.000000,-2200.000000
9,-40.000000,-2200.000000
10,-40.000000,-2240.000000
11,-80.000000,-2240.000000
12,-40.000000,-2200.000000
13,-40.000000,-2200.000000
14,-80.000000,-2200.000000
15,-40.000000,-2240.000000
16,-40.000000,-2240.000000
17,-40.000000,-2200.000000
18,-40.000000,-2240.000000
19,-40.000000,-2240.000000
20,-40.000000,-2240.000000
21,-40.000000,-2240.000000
22,-80.000000,-2240.000000
23,-40.000000,-2240.000000
24,-40.000000,-2200.000000
25,-80.000000,-2240.000000
26,-40.000000,-2240.000000
27,-80.000000,-2240.000000
28,-40.000000,-2240.000000
29,-40.000000,-2240.000000
30,-40.000000,-2240.000000
31,-40.000000,-2240.000000
32,-40.000000,-2240.000000
33,-40.000000,-2240.000000
34,-40.000000,-2240.000000
35,-40.000000,-2240.000000
36,-80.000000,-2240.000000
37,-40.000000,-2240.000000
38,-40.000000,-2240.000000
39,-80.000000,-2240.000000
40,-40.000000,-2200.000000
41,-80.000000,-2240.000000
42,-80.000000,-2200.000000
43,-80.000000,-2240.000000
44,-40.000000,-2240.000000
45,-40.000000,-2200.000000
46,-40.000000,-2240.000000
47,-40.000000,-2240.000000
48,-40.000000,-2240.000000
49,-40.000000,-2240.000000
50,-40.000000,-2240.000000
51,-40.000000,-2240.000000
52,-80.000000,-2240.000000
53,-40.000000,-2240.000000
54,-80.000000,-2200.000000
55,-40.000000,-2200.000000
56,-40.000000,-2200.000000
57,-40.000000,-2240.000000
58,-40.000000,-2240.000000
59,-40.000000,-2240.000000
60,-40.000000,-2240.000000
61,-40.000000,-2200.000000
62,-40.000000,-2240.000000
63,-40.000000,-2240.000000
64,-40.000000,-2240.000000
65,-40.000000,-2240.000000
66,-40.000000,-2240.000000
67,-40.000000,-2240.000000
68,-40.000000,-2200.000000
69,-40.000000,-2240.000000
70,-40.000000,-2240.000000
71,-40.000000,-2240.000000
72,-40.000000,-2240.000000
73,-40.000000,-2240.000000
74,-80.000000,-2240.000000
75,-40.000000,-2200.000000
76,-40.000000,-2240.000000
77,-40.000000,-2240.000000
78,-40.000000,-2240.000000
79,-40.000000,-2240.000000
80,-40.000000,-2240.000000
81,-40.000000,-2240.000000
82,-40.000000,-2240.000000
83,-40.000000,-2240.000000
84,-40.000000,-2200.000000
85,-40.000000,-2240.000000
86,-40.000000,-2240.000000
87,-40.000000,-2240.000000
88,-40.000000,-2200.000000
89,-40.000000,-2240.000000
90,-40.000000,-2240.000000
91,-40.000000,-2240.000000
92,-40.000000,-2240.000000
93,-40.000000,-2240.000000
94,-40.000000,-2200.000000
95,-40.000000,-2200.000000
96,-40.000000,-2240.000000
97,-40.000000,-2240.000000
98,-80.000000,-2200.000000
99,-40.000000,-2240.000000
100,-40.000000,-2240.000000
101,-40.000000,-2240.000000
102,-40.000000,-2240.000000
103,-40.000000,-2200.000000
104,-40.000000,-2240.000000
105,-40.000000,-2200.000000
106,-40.000000,-2240.000000
107,-40.000000,-2240.000000
108,-40.000000,-2240.000000
109,-40.000000,-2240.000000
110,-40.000000,-2240.000000
111,-40.000000,-2240.000000
112,-40.000000,-2240.000000
113,-40.000000,-2240.000000
114,-40.000000,-2200.000000
115,-40.000000,-2240.000000
116,-40.000000,-2240.000000
117,-80.000000,-2240.000000
118,-80.000000,-2240.000000
119,-40.000000,-2240.000000
120,-40.000000,-2240.000000
121,-40.000000,-2200.000000
122,-40.000000,-2240.000000
123,-80.000000,-2240.000000
124,-40.000000,-2240.000000
125,-80.000000,-2240.000000
126,-40.000000,-2240.000000
127,-40.000000,-2240.000000
128,-40.000000,-2240.000000
129,-40.000000,-2240.000000
130,-40.000000,-2240.000000
131,-40.000000,-2240.000000
132,-40.000000,-2240.000000
133,-40.000000,-2240.000000
134,-40.000000,-2200.000000
135,-80.000000,-2240.000000
136,-40.000000,-2240.000000
137,-40.000000,-2240.000000
138,-40.000000,-2240.000000
139,-40.000000,-2240.000000
140,-40.000000,-2240.000000
141,-40.000000,-2240.000000
142,-40.000000,-2240.000000
143,-40.000000,-2240.000000
144,-40.000000,-2240.000000
145,-40.000000,-2200.000000
146,-40.000000,-2240.000000
147,-40.000000,-2240.000000
148,-80.000000,-2240.000000
149,-40.000000,-2240.000000
150,-80.000000,-2240.000000
151,-40.000000,-2240.000000
152,-40.000000,-2240.000000
153,-40.000000,-2240.000000
154,-40.000000,-2240.000000
155,-80.000000,-2200.000000
156,-40.000000,-2200.000000
157,-80.000000,-2240.000000
158,-80.000000,-2200.000000
159,-40.000000,-2200.000000
160,-40.000000,-2240.000000
161,-40.000000,-2240.000000
162,-40.000000,-2240.000000
163,-40.000000,-2240.000000
164,-40.000000,-2240.000000
165,-40.000000,-2200.000000
166,-80.000000,-2240.000000
167,-40.000000,-2240.000000
168,-40.000000,-2200.000000
169,-40.000000,-2240.000000
170,-40.000000,-2240.000000
171,-40.000000,-2200.000000
172,-40.000000,-2240.000000
173,-40.000000,-2240.000000
174,-40.000000,-2240.000000
175,-40.000000,-2240.000000
176,-40.000000,-2240.000000
177,-80.000000,-2240.000000
178,-40.000000,-2240.000000
179,-40.000000,-2240.000000
180,-40.000000,-2240.000000
181,-40.000000,-2240.000000
182,-40.000000,-2240.000000
183,-40.000000,-2240.000000
184,-40.000000,-2240.000000
185,-80.000000,-2240.000000
186,-40.000000,-2240.000000
187,-40.000000,-2240.000000
188,-40.000000,-2240.000000
189,-40.000000,-2240.000000
190,-80.000000,-2240.000000
191,-80.000000,-2240.000000
192,-40.000000,-2240.000000
193,-80.000000,-2200.000000
194,-80.000000,-2240.000000
195,-40.000000,-2240.000000
196,-40.000000,-2200.000000
197,-40.000000,-2200.000000
198,-40.000000,-2240.000000
199,-40.000000,-2240.000000
200,-80.000000,-2240.000000
201,-40.000000,-2240.000000
202,-40.000000,-2240.000000
203,-40.000000,-2240.000000
204,-40.000000,-2240.000000
205,-40.000000,-2240.000000
206,-40.000000,-2200.000000
207,-40.000000,-2200.000000
208,-80.000000,-2240.000000
209,-40.000000,-2240.000000
210,-40.000000,-2240.000000
211,-80.000000,-2240.000000
212,-40.000000,-2240.000000
213,-40.000000,-2240.000000
214,-40.000000,-2240.000000
215,-80.000000,-2240.000000
216,-40.000000,-2240.000000
217,-40.000000,-2240.000000
218,-40.000000,-2240.000000
219,-40.000000,-2240.000000
220,-40.000000,-2200.000000
221,-40.000000,-2200.000000
222,-40.000000,-2240.000000
223,-40.000000,-2240.000000
224,-80.000000,-2240.000000
225,-40.000000,-2240.000000
226,-40.000000,-2240.000000
227,-40.000000,-2240.000000
228,-40.000000,-2240.000000
229,-40.000000,-2240.000000
230,-40.000000,-2240.000000
231,-80.000000,-2200.000000
232,-40.000000,-2240.000000
233,-40.000000,-2200.000000
234,-80.000000,-2240.000000
235,-40.000000,-2200.000000
236,-80.000000,-2240.000000
237,-40.000000,-2200.000000
238,-40.000000,-2200.000000
239,-80.000000,-2240.000000
240,-40.000000,-2240.000000
241,-80.000000,-2240.000000
242,-80.000000,-2200.000000
243,-40.000000,-2240.000000
244,-40.000000,-2200.000000
245,-80.000000,-2240.000000
246,-40.000000,-2240.000000
247,-40.000000,-2200.000000
248,-40.000000,-2240.000000
249,-40.000000,-2200.000000
250,-40.000000,-2200.000000
251,-40.000000,-2240.000000
252,-80.000000,-2200.000000
253,-40.000000,-2200.000000
254,-40.000000,-2200.000000
255,-80.000000,-2240.000000
256,-40.000000,-2200.000000
257,-40.000000,-2200.000000
258,-40.000000,-2200.000000
259,-40.000000,-2200.000000
260,-80.000000,-2200.000000
261,-40.000000,-2200.000000
262,-40.000000,-2200.000000
263,-80.000000,-2200.000000
264,-80.000000,-2240.000000
265,-40.000000,-2200.000000
266,-40.000000,-2240.000000
267,-40.000000,-2200.000000
268,-40.000000,-2200.000000
269,-40.000000,-2200.000000
270,-80.000000,-2200.000000
271,-40.000000,-2200.000000
272,-40.000000,-2200.000000
273,-40.000000,-2200.000000
274,-40.000000,-2200.000000
275,-80.000000,-2200.000000
276,-40.000000,-2200.000000
277,-40.000000,-2200.000000
278,-40.000000,-2200.000000
279,-40.000000,-2200.000000
280,-40.000000,-2200.000000
281,-80.000000,-2200.000000
282,-40.000000,-2200.000000
283,-40.000000,-2200.000000
284,-40.000000,-2200.000000
285,-40.000000,-2200.000000
286,-40.000000,-2200.000000
287,-40.000000,-2200.000000
288,-40.000000,-2200.000000
289,-40.000000,-2200.000000
290,-40.000000,-2200.000000
291,-80.000000,-2200.000000
292,-40.000000,-2200.000000
293,-40.000000,-2200.000000
294,-40.000000,-2200.000000
295,-40.000000,-2200.000000
296,-40.000000,-2200.000000
297,-40.000000,-2200.000000
298,-40.000000,-2200.000000
299,-40.000000,-2200.000000
300,-40.000000,-2160.000000
301,-80.000000,-2200.000000
302,-40.000000,-2200.000000
303,-40.000000,-2200.000000
304,-40.000000,-2240.000000
305,-40.000000,-2200.000000
306,-40.000000,-2200.000000
307,-40.000000,-2200.000000
308,-80.000000,-2200.000000
309,-40.000000,-2200.000000
310,-40.000000,-2200.000000
311,-40.000000,-2200.000000
312,-40.000000,-2160.000000
313,-40.000000,-2200.000000
314,-80.000000,-2160.000000
315,-40.000000,-2200.000000
316,-40.000000,-2200.000000
317,-80.000000,-2200.000000
318,-40.000000,-2200.000000
319,-40.000000,-2160.000000
320,-40.000000,-2160.000000
321,-40.000000,-2200.000000
322,-40.000000,-2160.000000
323,-40.000000,-2200.000000
324,-40.000000,-2160.000000
325,-80.000000,-2160.000000
326,-80.000000,-2160.000000
327,-80.000000,-2160.000000
328,-40.000000,-2160.000000
329,-40.000000,-2160.000000
330,-40.000000,-2160.000000
331,-40.000000,-2160.000000
332,-40.000000,-2160.000000
333,-40.000000,-2160.000000
334,-40.000000,-2160.000000
335,-40.000000,-2160.000000
336,-40.000000,-2160.000000
337,-40.000000,-2120.000000
338,-40.000000,-2160.000000
339,-40.000000,-2160.000000
340,-40.000000,-2160.000000
341,-40.000000,-2160.000000
342,-40.000000,-2120.000000
343,-40.000000,-2160.000000
344,-40.000000,-2160.000000
345,-40.000000,-2160.000000
346,-40.000000,-2160.000000
347,-40.000000,-2120.000000
348,-40.000000,-2120.000000
349,-40.000000,-2120.000000
350,-40.000000,-2120.000000
351,-40.000000,-2120.000000
352,-40.000000,-2120.000000
353,-40.000000,-2160.000000
354,-40.000000,-2120.000000
355,-40.000000,-2120.000000
356,-40.000000,-2120.000000
357,-40.000000,-2120.000000
358,-80.000000,-2120.000000
359,-40.000000,-2160.000000
360,-40.000000,-2120.000000
361,-80.000000,-2120.000000
362,-40.000000,-2120.000000
363,-80.000000,-2120.000000
364,-40.000000,-2120.000000
365,-40.000000,-2120.000000
366,-80.000000,-2120.000000
367,-40.000000,-2120.000000
368,-40.000000,-2120.000000
369,-40.000000,-2120.000000
370,-40.000000,-2120.000000
371,-40.000000,-2120.000000
372,-40.000000,-2120.000000
373,-40.000000,-2120.000000
374,-40.000000,-2120.000000
375,-40.000000,-2080.000000
376,-40.000000,-2080.000000
377,-40.000000,-2120.000000
378,-40.000000,-2120.000000
379,-80.000000,-2080.000000
380,-40.000000,-2120.000000
381,-40.000000,-2080.000000
382,-40.000000,-2120.000000
383,-80.000000,-2080.000000
384,-40.000000,-2120.000000
385,-40.000000,-2080.000000
386,-40.000000,-2080.000000
387,-40.000000,-2120.000000
388,-40.000000,-2120.000000
389,-40.000000,-2120.000000
390,-40.000000,-2080.000000
391,-40.000000,-2120.000000
392,-40.000000,-2120.000000
393,-40.000000,-2080.000000
394,-40.000000,-2080.000000
395,-40.000000,-2080.000000
396,-40.000000,-2080.000000
397,-80.000000,-2080.000000
398,-40.000000,-2080.000000
399,-40.000000,-2080.000000
400,-40.000000,-2080.000000
401,-40.000000,-2080.000000
402,-40.000000,-2120.000000
403,-40.000000,-2080.000000
404,-40.000000,-2080.000000
405,-40.000000,-2080.000000
406,-40.000000,-2080.000000
407,-80.000000,-2080.000000
408,-80.000000,-2080.000000
409,-40.000000,-2080.000000
410,-40.000000,-2080.000000
411,-40.000000,-2080.000000
412,-40.000000,-2080.000000
413,-40.000000,-2080.000000
414,-40.000000,-2080.000000
415,-80.000000,-2080.000000
416,-80.000000,-2080.000000
417,-40.000000,-2080.000000
418,-40.000000,-2080.000000
419,-40.000000,-2080.000000
420,-80.000000,-2080.000000
421,-40.000000,-2080.000000
422,-40.000000,-2080.000000
423,-40.000000,-2080.000000
424,-40.000000,-2080.000000
425,-40.000000,-2080.000000
426,-40.000000,-2080.000000
427,-40.000000,-2080.000000
428,-40.000000,-2080.000000
429,-40.000000,-2040.000000
430,-40.000000,-2040.000000
431,-40.000000,-2080.000000
432,-40.000000,-2040.000000
433,-80.000000,-2040.000000
434,-40.000000,-2040.000000
435,-40.000000,-2080.000000
436,-40.000000,-2040.000000
437,-40.000000,-2040.000000
438,-40.000000,-2040.000000
439,-40.000000,-2080.000000
440,-40.000000,-2040.000000
441,-40.000000,-2040.000000
442,-40.000000,-2040.000000
443,-40.000000,-2040.000000
444,-40.000000,-2040.000000
445,-80.000000,-2040.000000
446,-40.000000,-2040.000000
447,-40.000000,-2040.000000
448,-40.000000,-2040.000000
449,-40.000000,-2040.000000
450,-40.000000,-2000.000000
451,-40.000000,-2040.000000
452,-40.000000,-2040.000000
453,-40.000000,-2040.000000
454,-40.000000,-2040.000000
455,-40.000000,-2000.000000
456,-40.000000,-2040.000000
457,-80.000000,-2040.000000
458,-40.000000,-2040.000000
459,-40.000000,-2040.000000
460,-40.000000,-2000.000000
461,-40.000000,-2040.000000
462,-40.000000,-2000.000000
463,-40.000000,-2040.000000
464,-80.000000,-2040.000000
465,-80.000000,-2040.000000
466,-40.000000,-2000.000000
467,-40.000000,-2000.000000
468,-40.000000,-2000.000000
469,-80.000000,-2040.000000
470,-40.000000,-2000.000000
471,-40.000000,-2000.000000
472,-40.000000,-2040.000000
473,-40.000000,-2000.000000
474,-80.000000,-2000.000000
475,-40.000000,-2000.000000
476,-40.000000,-2000.000000
477,-40.000000,-2000.000000
478,-40.000000,-2000.000000
479,-40.000000,-2000.000000
480,-40.000000,-2000.000000
481,-40.000000,-2000.000000
482,-40.000000,-2000.000000
483,-40.000000,-2000.000000
484,-40.000000,-2000.000000
485,-40.000000,-2000.000000
486,-80.000000,-1960.000000
487,-40.000000,-2000.000000
488,-80.000000,-2000.000000
489,-40.000000,-1960.000000
490,-40.000000,-2000.000000
491,-80.000000,-2000.000000
492,-40.000000,-2000.000000
493,-40.000000,-2000.000000
494,-40.000000,-2000.000000
495,-40.000000,-2000.000000
496,-80.000000,-2000.000000
497,-40.000000,-1960.000000
498,-40.000000,-1960.000000
499,-40.000000,-1960.000000
500,-40.000000,-2000.000000
501,-40.000000,-1960.000000
502,-80.000000,-2000.000000
503,-40.000000,-1960.000000
504,-40.000000,-1960.000000
505,-40.000000,-1960.000000
506,-40.000000,-1960.000000
507,-80.000000,-2000.000000
508,-40.000000,-1960.000000
509,-40.000000,-2000.000000
510,-40.000000,-1960.000000
511,-80.000000,-1960.000000
512,-40.000000,-1960.000000
513,-40.000000,-1960.000000
514,-80.000000,-1960.000000
515,-40.000000,-1960.000000
516,-40.000000,-1960.000000
517,-40.000000,-1960.000000
518,-40.000000,-1960.000000
519,-40.000000,-1960.000000
520,-80.000000,-1960.000000
521,-80.000000,-1960.000000
522,-40.000000,-1960.000000
523,-40.000000,-1960.000000
524,-40.000000,-1960.000000
525,-40.000000,-1960.000000
526,-80.000000,-1960.000000
527,-40.000000,-1920.000000
528,-40.000000,-1960.000000
529,-40.000000,-1960.000000
530,-40.000000,-1960.000000
531,-40.000000,-1960.000000
532,-40.000000,-1960.000000
533,-40.000000,-1960.000000
534,-40.000000,-1960.000000
535,-40.000000,-1960.000000
536,-40.000000,-1920.000000
537,-40.000000,-1960.000000
538,-40.000000,-1960.000000
539,-40.000000,-1960.000000
540,-40.000000,-1960.000000
541,-40.000000,-1960.000000
542,-40.000000,-1920.000000
543,-40.000000,-1920.000000
544,-40.000000,-1960.000000
545,-40.000000,-1920.000000
546,-40.000000,-1920.000000
547,-40.000000,-1920.000000
548,-40.000000,-1920.000000
549,-80.000000,-1920.000000
550,-40.000000,-1920.000000
551,-40.000000,-1920.000000
552,-40.000000,-1920.000000
553,-40.000000,-1920.000000
554,-40.000000,-1920.000000
555,-40.000000,-1920.000000
556,-40.000000,-1920.000000
557,-40.000000,-1920.000000
558,-40.000000,-1920.000000
559,0.000000,-1920.000000
560,-40.000000,-1920.000000
561,-40.000000,-1960.000000
562,-40.000000,-1880.000000
563,-40.000000,-1920.000000
564,-80.000000,-1920.000000
565,-40.000000,-1920.000000
566,-40.000000,-1920.000000
567,-40.000000,-1920.000000
568,-40.000000,-1920.000000
569,-40.000000,-1920.000000
570,-80.000000,-1920.000000
571,-40.000000,-1920.000000
572,-40.000000,-1880.000000
573,-40.000000,-1880.000000
574,-40.000000,-1920.000000
575,-40.000000,-1920.000000
576,-80.000000,-1880.000000
577,-40.000000,-1880.000000
578,-40.000000,-1920.000000
579,-40.000000,-1880.000000
580,-80.000000,-1920.000000
581,-40.000000,-1920.000000
582,-40.000000,-1880.000000
583,-40.000000,-1880.000000
584,-40.000000,-1880.000000
585,-40.000000,-1880.000000
586,-40.000000,-1880.000000
587,-40.000000,-1880.000000
588,-40.000000,-1880.000000
589,-40.000000,-1880.000000
590,-40.000000,-1880.000000
591,-80.000000,-1880.000000
592,-40.000000,-1880.000000
593,-40.000000,-1880.000000
594,-40.000000,-1880.000000
595,-40.000000,-1880.000000
596,-40.000000,-1880.000000
597,-40.000000,-1880.000000
598,-40.000000,-1880.000000
599,-40.000000,-1880.000000
600,-40.000000,-1880.000000
601,-80.000000,-1880.000000
602,-40.000000,-1880.000000
603,-40.000000,-1880.000000
604,-80.000000,-1840.000000
605,-40.000000,-1840.000000
606,-40.000000,-1880.000000
607,-40.000000,-1840.000000
608,-40.000000,-1880.000000
609,-40.000000,-1880.000000
610,-40.000000,-1880.000000
611,-40.000000,-1880.000000
612,-80.000000,-1840.000000
613,-40.000000,-1840.000000
614,-40.000000,-1840.000000
615,-40.000000,-1880.000000
616,-40.000000,-1840.000000
617,-80.000000,-1880.000000
618,-80.000000,-1840.000000
619,-40.000000,-1840.000000
620,-40.000000,-1840.000000
621,-40.000000,-1840.000000
622,-40.000000,-1840.000000
623,-40.000000,-1840.000000
624,-80.000000,-1840.000000
625,-80.000000,-1840.000000
626,-40.000000,-1840.000000
627,-40.000000,-1840.000000
628,-40.000000,-1840.000000
629,-40.000000,-1840.000000
630,-40.000000,-1840.000000
631,-40.000000,-1840.000000
632,-80.000000,-1840.000000
633,-40.000000,-1800.000000
634,-40.000000,-1840.000000
635,-40.000000,-1840.000000
636,-40.000000,-1840.000000
637,-40.000000,-1840.000000
638,-40.000000,-1840.000000
639,-40.000000,-1840.000000
640,-40.000000,-1840.000000
641,-40.000000,-1840.000000
642,-40.000000,-1840.000000
643,-40.000000,-1800.000000
644,-40.000000,-1840.000000
645,0.000000,-1840.000000
646,-40.000000,-1840.000000
647,-40.000000,-1840.000000
648,-40.000000,-1800.000000
649,-40.000000,-1840.000000
650,-40.000000,-1800.000000
651,-40.000000,-1800.000000
652,-40.000000,-1840.000000
653,-40.000000,-1800.000000
654,-40.000000,-1840.000000
655,-40.000000,-1800.000000
656,-40.000000,-1800.000000
657,-40.000000,-1800.000000
658,-40.000000,-1800.000000
659,-40.000000,-1800.000000
660,-40.000000,-1800.000000
661,-40.000000,-1800.000000
662,-40.000000,-1800.000000
663,-40.000000,-1840.000000
664,-40.000000,-1800.000000
665,0.000000,-1800.000000
666,-40.000000,-1840.000000
667,-40.000000,-1800.000000
668,-40.000000,-1800.000000
669,-80.000000,-1800.000000
670,-40.000000,-1800.000000
671,-40.000000,-1800.000000
672,-40.000000,-1800.000000
673,-40.000000,-1800.000000
674,-40.000000,-1800.000000
675,-80.000000,-1800.000000
676,-40.000000,-1800.000000
677,-40.000000,-1800.000000
678,-40.000000,-1800.000000
679,-40.000000,-1800.000000
680,-40.000000,-1760.000000
681,-40.000000,-1800.000000
682,-80.000000,-1800.000000
683,-40.000000,-1800.000000
684,-40.000000,-1760.000000
685,-40.000000,-1760.000000
686,-40.000000,-1800.000000
687,-40.000000,-1800.000000
688,-40.000000,-1760.000000
689,-80.000000,-1800.000000
690,-40.000000,-1800.000000
691,-40.000000,-1760.000000
692,-40.000000,-1800.000000
693,-40.000000,-1760.000000
694,-80.000000,-1760.000000
695,-40.000000,-1760.000000
696,-40.000000,-1760.000000
697,-40.000000,-1760.000000
698,-40.000000,-1760.000000
699,-40.000000,-1760.000000
700,-40.000000,-1760.000000
701,-40.000000,-1760.000000
702,-40.000000,-1800.000000
703,-40.000000,-1760.000000
704,-40.000000,-1760.000000
705,-80.000000,-1760.000000
706,-40.000000,-1760.000000
707,-40.000000,-1760.000000
