repport_data/power_optimization_measures/data_44_005.csv

Channel              :,CH1,CH2
Frequency            :,  ?,  ?
Period               :,  ?,  ?
PK-PK                :,700.0mV?,840.0mV
Probe attenuation    :,1X,1X
Voltage per ADC value:,0.250000mV,2.500000mV
Time interval        :,200.00000uS,200.00000uS

index,CH1_Voltage(mV),CH2_Voltage(mV)
1,128.000000,3000.000000
2,128.000000,3000.000000
3,128.000000,2960.000000
4,124.000000,2960.000000
5,124.000000,2960.000000
6,124.000000,2960.000000
7,124.000000,2960.000000
8,124.000000,2960.000000
9,124.000000,2960.000000
10,124.000000,2960.000000
11,124.000000,2960.000000
12,124.000000,2960.000000
13,124.000000,2960.000000
14,120.000000,2960.000000
15,124.000000,2960.000000
16,124.000000,2960.000000
17,124.000000,3000.000000
18,124.000000,3000.000000
19,124.000000,3000.000000
20,124.000000,2960.000000
21,124.000000,2960.000000
22,124.000000,3000.000000
23,124.000000,2960.000000
24,124.000000,2960.000000
25,124.000000,3000.000000
26,128.000000,3000.000000
27,124.000000,2960.000000
28,124.000000,3000.000000
29,132.000000,2960.000000
30,128.000000,3000.000000
31,124.000000,3000.000000
32,128.000000,2960.000000
33,128.000000,3000.000000
34,128.000000,2960.000000
35,128.000000,3000.000000
36,132.000000,3000.000000
37,164.000000,3000.000000
38,132.000000,2960.000000
39,132.000000,3000.000000
40,112.000000,3000.000000
41,132.000000,3000.000000
42,136.000000,3000.000000
43,132.000000,3000.000000
44,140.000000,3000.000000
45,136.000000,3000.000000
46,136.000000,3000.000000
47,132.000000,3000.000000
48,136.000000,3000.000000
49,140.000000,3000.000000
50,140.000000,3000.000000
51,140.000000,3000.000000
52,144.000000,3000.000000
53,140.000000,3000.000000
54,144.000000,2960.000000
55,140.000000,3000.000000
56,140.000000,3000.000000
57,144.000000,3000.000000
58,140.000000,3000.000000
59,144.000000,3000.000000
60,144.000000,3000.000000
61,144.000000,3000.000000
62,140.000000,3000.000000
63,144.000000,2960.000000
64,144.000000,3000.000000
65,144.000000,3000.000000
66,140.000000,3000.000000
67,140.000000,2960.000000
68,144.000000,2960.000000
69,144.000000,3000.000000
70,144.000000,3000.000000
71,144.000000,3000.000000
72,140.000000,3000.000000
73,144.000000,3000.000000
74,144.000000,3000.000000
75,144.000000,3000.000000
76,140.000000,3000.000000
77,144.000000,2960.000000
78,144.000000,2960.000000
79,148.000000,3000.000000
80,144.000000,3000.000000
81,148.000000,3000.000000
82,144.000000,3000.000000
83,144.000000,3000.000000
84,144.000000,3000.000000
85,144.000000,3000.000000
86,144.000000,2960.000000
87,140.000000,3000.000000
88,144.000000,2960.000000
89,144.000000,3000.000000
90,136.000000,3000.000000
91,144.000000,3000.000000
92,148.000000,3000.000000
93,140.000000,3000.000000
94,136.000000,3000.000000
95,140.000000,3000.000000
96,140.000000,3000.000000
97,140.000000,3000.000000
98,144.000000,2960.000000
99,140.000000,2960.000000
100,140.000000,3000.000000
101,140.000000,3000.000000
102,140.000000,2960.000000
103,140.000000,3000.000000
104,140.000000,3000.000000
105,140.000000,2960.000000
106,144.000000,2960.000000
107,140.000000,2960.000000
108,140.000000,3000.000000
109,140.000000,3000.000000
110,144.000000,2960.000000
111,144.000000,2960.000000
112,144.000000,2960.000000
113,144.000000,2960.000000
114,140.000000,2960.000000
115,140.000000,2960.000000
116,140.000000,2960.000000
117,140.000000,2960.000000
118,140.000000,2960.000000
119,140.000000,3000.000000
120,136.000000,3000.000000
121,136.000000,2960.000000
122,136.000000,2960.000000
123,136.000000,2960.000000
124,136.000000,2960.000000
125,136.000000,2960.000000
126,132.000000,3000.000000
127,132.000000,2960.000000
128,136.000000,2960.000000
129,132.000000,2960.000000
130,128.000000,2960.000000
131,132.000000,2960.000000
132,132.000000,2960.000000
133,124.000000,2960.000000
134,132.000000,3000.000000
135,128.000000,2960.000000
136,124.000000,2960.000000
137,128.000000,2960.000000
138,128.000000,2960.000000
139,132.000000,2960.000000
140,128.000000,2960.000000
141,128.000000,2960.000000
142,132.000000,2960.000000
143,128.000000,2960.000000
144,128.000000,2960.000000
145,128.000000,2960.000000
146,132.000000,2960.000000
147,132.000000,2960.000000
148,128.000000,2960.000000
149,132.000000,2960.000000
150,128.000000,2960.000000
151,128.000000,2960.000000
152,128.000000,3000.000000
153,128.000000,2960.000000
154,132.000000,3000.000000
155,132.000000,3000.000000
156,128.000000,2960.000000
157,128.000000,3000.000000
158,128.000000,3000.000000
159,128.000000,2960.000000
160,128.000000,2960.000000
161,128.000000,2960.000000
162,124.000000,2960.000000
163,128.000000,2960.000000
164,124.000000,2960.000000
165,128.000000,2960.000000
166,132.000000,2960.000000
167,128.000000,2960.000000
168,124.000000,2960.000000
169,128.000000,2960.000000
170,128.000000,2960.000000
171,128.000000,2960.000000
172,124.000000,2960.000000
173,128.000000,2960.000000
174,128.000000,2960.000000
175,128.000000,3000.000000
176,128.000000,2960.000000
177,128.000000,2960.000000
178,128.000000,2960.000000
179,128.000000,2960.000000
180,128.000000,2960.000000
181,128.000000,2960.000000
182,128.000000,3000.000000
183,120.000000,2960.000000
184,128.000000,3000.000000
185,132.000000,3000.000000
186,120.000000,2960.000000
187,132.000000,2960.000000
188,128.000000,3000.000000
189,128.000000,3000.000000
190,128.000000,2960.000000
191,128.000000,2960.000000
192,124.000000,3000.000000
193,124.000000,2960.000000
194,128.000000,2960.000000
195,128.000000,2960.000000
196,128.000000,2920.000000
197,124.000000,2960.000000
198,124.000000,2960.000000
199,124.000000,2960.000000
200,128.000000,2960.000000
201,128.000000,3000.000000
202,128.000000,3000.000000
203,128.000000,2960.000000
204,128.000000,3000.000000
205,128.000000,2960.000000
206,124.000000,2960.000000
207,124.000000,2960.000000
208,128.000000,2960.000000
209,124.000000,2960.000000
210,128.000000,2960.000000
211,128.000000,3000.000000
212,124.000000,2960.000000
213,124.000000,2960.000000
214,128.000000,2960.000000
215,120.000000,3000.000000
216,120.000000,2960.000000
217,124.000000,2960.000000
218,124.000000,3000.000000
219,120.000000,2960.000000
220,124.000000,2960.000000
221,124.000000,3000.000000
222,120.000000,2960.000000
223,120.000000,2960.000000
224,124.000000,3000.000000
225,124.000000,2960.000000
226,124.000000,3000.000000
227,128.000000,2960.000000
228,124.000000,3000.000000
229,124.000000,3000.000000
230,124.000000,2960.000000
231,124.000000,3000.000000
232,124.000000,2960.000000
233,128.000000,3000.000000
234,124.000000,3000.000000
235,128.000000,3000.000000
236,128.000000,3000.000000
237,128.000000,3000.000000
238,148.000000,3000.000000
239,128.000000,2960.000000
240,128.000000,3000.000000
241,128.000000,2960.000000
242,104.000000,3000.000000
243,132.000000,3000.000000
244,128.000000,3000.000000
245,140.000000,3000.000000
246,132.000000,2960.000000
247,132.000000,2960.000000
248,128.000000,3000.000000
249,136.000000,2960.000000
250,132.000000,3000.000000
251,136.000000,2960.000000
252,136.000000,3000.000000
253,136.000000,3000.000000
254,140.000000,3000.000000
255,140.000000,2960.000000
256,140.000000,3000.000000
257,140.000000,3000.000000
258,136.000000,3000.000000
259,136.000000,3000.000000
260,140.000000,3000.000000
261,140.000000,3000.000000
262,140.000000,3000.000000
263,140.000000,3000.000000
264,144.000000,3000.000000
265,144.000000,3000.000000
266,140.000000,3000.000000
267,144.000000,3000.000000
268,144.000000,3000.000000
269,144.000000,2960.000000
270,144.000000,2960.000000
271,140.000000,2960.000000
272,140.000000,2960.000000
273,140.000000,3000.000000
274,140.000000,3000.000000
275,140.000000,3000.000000
276,144.000000,2960.000000
277,144.000000,3000.000000
278,144.000000,3000.000000
279,144.000000,3000.000000
280,144.000000,3000.000000
281,140.000000,3000.000000
282,140.000000,3000.000000
283,144.000000,3000.000000
284,140.000000,3000.000000
285,144.000000,3000.000000
286,144.000000,3000.000000
287,156.000000,2960.000000
288,140.000000,3000.000000
289,140.000000,3000.000000
290,144.000000,3000.000000
291,136.000000,3000.000000
292,136.000000,3000.000000
293,140.000000,2960.000000
294,140.000000,2960.000000
295,140.000000,3000.000000
296,140.000000,3000.000000
297,144.000000,3000.000000
298,140.000000,3000.000000
299,140.000000,3000.000000
300,140.000000,3000.000000
301,140.000000,3000.000000
302,144.000000,3000.000000
303,144.000000,2960.000000
304,140.000000,2960.000000
305,140.000000,2960.000000
306,140.000000,2960.000000
307,140.000000,2960.000000
308,144.000000,2960.000000
309,140.000000,2960.000000
310,140.000000,2960.000000
311,140.000000,2960.000000
312,144.000000,2960.000000
313,144.000000,2960.000000
314,144.000000,3000.000000
315,144.000000,2960.000000
316,144.000000,2960.000000
317,144.000000,2960.000000
318,140.000000,3000.000000
319,144.000000,2960.000000
320,144.000000,2960.000000
321,140.000000,2960.000000
322,140.000000,2960.000000
323,136.000000,2960.000000
324,136.000000,2960.000000
325,132.000000,3000.000000
326,132.000000,3000.000000
327,136.000000,3000.000000
328,132.000000,2960.000000
329,132.000000,2960.000000
330,132.000000,3000.000000
331,132.000000,2960.000000
332,128.000000,2960.000000
333,132.000000,3000.000000
334,120.000000,2960.000000
335,128.000000,3000.000000
336,136.000000,3000.000000
337,128.000000,2960.000000
338,128.000000,2960.000000
339,132.000000,2960.000000
340,128.000000,2960.000000
341,132.000000,2960.000000
342,136.000000,2960.000000
343,136.000000,3000.000000
344,124.000000,2960.000000
345,128.000000,3000.000000
346,136.000000,2960.000000
347,132.000000,2960.000000
348,128.000000,2960.000000
349,128.000000,2960.000000
350,132.000000,2960.000000
351,128.000000,2960.000000
352,128.000000,2960.000000
353,128.000000,3000.000000
354,132.000000,2960.000000
355,128.000000,2960.000000
356,128.000000,2960.000000
357,128.000000,2960.000000
358,128.000000,3000.000000
359,128.000000,2960.000000
360,128.000000,3000.000000
361,124.000000,2960.000000
362,128.000000,3000.000000
363,128.000000,3000.000000
364,132.000000,3000.000000
365,120.000000,2960.000000
366,128.000000,2960.000000
367,124.000000,3000.000000
368,128.000000,2960.000000
369,128.000000,2960.000000
370,124.000000,2960.000000
371,128.000000,2960.000000
372,128.000000,2960.000000
373,128.000000,2960.000000
374,128.000000,2960.000000
375,128.000000,2960.000000
376,132.000000,2960.000000
377,128.000000,2960.000000
378,128.000000,2960.000000
379,128.000000,3000.000000
380,116.000000,3000.000000
381,132.000000,3000.000000
382,128.000000,2960.000000
383,128.000000,2960.000000
384,128.000000,2960.000000
385,132.000000,2960.000000
386,132.000000,2960.000000
387,124.000000,2960.000000
388,128.000000,3000.000000
389,132.000000,2960.000000
390,120.000000,3000.000000
391,120.000000,2960.000000
392,128.000000,2960.000000
393,124.000000,3000.000000
394,124.000000,2960.000000
395,124.000000,3000.000000
396,128.000000,2960.000000
397,120.000000,3000.000000
398,124.000000,2960.000000
399,124.000000,2960.000000
400,124.000000,2960.000000
401,124.000000,2960.000000
402,128.000000,2960.000000
403,128.000000,2960.000000
404,128.000000,2960.000000
405,124.000000,2960.000000
406,128.000000,2960.000000
407,128.000000,2960.000000
408,128.000000,2960.000000
409,128.000000,2960.000000
410,124.000000,2920.000000
411,124.000000,2960.000000
412,128.000000,2960.000000
413,124.000000,2960.000000
414,124.000000,2960.000000
415,124.000000,2960.000000
416,128.000000,3000.000000
417,124.000000,2960.000000
418,120.000000,3000.000000
419,124.000000,2960.000000
420,124.000000,3000.000000
421,124.000000,2960.000000
422,124.000000,2960.000000
423,124.000000,2960.000000
424,124.000000,2960.000000
425,124.000000,2960.000000
426,124.000000,2960.000000
427,124.000000,2960.000000
428,128.000000,2960.000000
429,124.000000,3000.000000
430,120.000000,2960.000000
431,124.000000,3000.000000
432,128.000000,2960.000000
433,124.000000,3000.000000
434,124.000000,2960.000000
435,128.000000,2960.000000
436,128.000000,2960.000000
437,124.000000,2960.000000
438,128.000000,3000.000000
439,136.000000,3000.000000
440,124.000000,3000.000000
441,132.000000,3000.000000
442,128.000000,2960.000000
443,112.000000,2960.000000
444,132.000000,3000.000000
445,132.000000,3000.000000
446,136.000000,2960.000000
447,132.000000,2960.000000
448,132.000000,3000.000000
449,132.000000,3000.000000
450,128.000000,3000.000000
451,132.000000,3000.000000
452,136.000000,3000.000000
453,136.000000,3000.000000
454,132.000000,3000.000000
455,136.000000,3000.000000
456,136.000000,3000.000000
457,136.000000,3000.000000
458,140.000000,2960.000000
459,136.000000,3000.000000
460,136.000000,2960.000000
461,136.000000,3000.000000
462,140.000000,3000.000000
463,140.000000,3000.000000
464,136.000000,3000.000000
465,140.000000,3000.000000
466,140.000000,2960.000000
467,136.000000,3000.000000
468,140.000000,2960.000000
469,144.000000,2960.000000
470,140.000000,3000.000000
471,140.000000,3000.000000
472,140.000000,3000.000000
473,140.000000,3000.000000
474,140.000000,3000.000000
475,140.000000,2960.000000
476,144.000000,3000.000000
477,140.000000,3000.000000
478,144.000000,3000.000000
479,144.000000,2960.000000
480,144.000000,2960.000000
481,144.000000,3000.000000
482,140.000000,3000.000000
483,140.000000,2960.000000
484,144.000000,3000.000000
485,144.000000,3000.000000
486,140.000000,3000.000000
487,136.000000,2960.000000
488,140.000000,3000.000000
489,140.000000,3000.000000
490,140.000000,3000.000000
491,152.000000,3000.000000
492,140.000000,3000.000000
493,140.000000,2960.000000
494,136.000000,3000.000000
495,140.000000,3000.000000
496,140.000000,3000.000000
497,144.000000,3000.000000
498,132.000000,2960.000000
499,140.000000,3000.000000
500,140.000000,3000.000000
501,140.000000,3000.000000
502,140.000000,2960.000000
503,140.000000,3000.000000
504,140.000000,3000.000000
505,144.000000,3000.000000
506,144.000000,3000.000000
507,140.000000,2960.000000
508,140.000000,2960.000000
509,144.000000,3000.000000
510,136.000000,2960.000000
511,144.000000,2960.000000
512,144.000000,3000.000000
513,140.000000,2960.000000
514,144.000000,3000.000000
515,144.000000,2960.000000
516,144.000000,2960.000000
517,144.000000,2960.000000
518,140.000000,2960.000000
519,144.000000,2960.000000
520,144.000000,2960.000000
521,144.000000,3000.000000
522,140.000000,2960.000000
523,140.000000,2960.000000
524,144.000000,3000.000000
525,140.000000,2960.000000
526,140.000000,3000.000000
527,136.000000,2960.000000
528,136.000000,2960.000000
529,132.000000,2960.000000
530,136.000000,2960.000000
531,136.000000,2960.000000
532,132.000000,2960.000000
533,128.000000,2960.000000
534,132.000000,3000.000000
535,132.000000,2960.000000
536,128.000000,2960.000000
537,132.000000,2960.000000
538,128.000000,3000.000000
539,132.000000,3000.000000
540,128.000000,2960.000000
541,132.000000,2960.000000
542,132.000000,2960.000000
543,132.000000,3000.000000
544,140.000000,2960.000000
545,132.000000,2960.000000
546,132.000000,2960.000000
547,128.000000,2960.000000
548,132.000000,2960.000000
549,128.000000,2960.000000
550,128.000000,2960.000000
551,128.000000,3000.000000
552,128.000000,2960.000000
553,132.000000,3000.000000
554,128.000000,3000.000000
555,124.000000,3000.000000
556,128.000000,2960.000000
557,128.000000,2960.000000
558,128.000000,3000.000000
559,128.000000,2960.000000
560,128.000000,2960.000000
561,128.000000,2960.000000
562,128.000000,2960.000000
563,128.000000,3000.000000
564,128.000000,2960.000000
565,128.000000,2960.000000
566,124.000000,3000.000000
567,128.000000,2960.000000
568,128.000000,2960.000000
569,124.000000,2960.000000
570,128.000000,2960.000000
571,128.000000,2960.000000
572,128.000000,2960.000000
573,128.000000,2960.000000
574,124.000000,2960.000000
575,128.000000,2960.000000
576,128.000000,2960.000000
577,128.000000,2960.000000
578,128.000000,2960.000000
579,124.000000,3000.000000
580,128.000000,2960.000000
581,128.000000,2960.000000
582,132.000000,2960.000000
583,124.000000,3000.000000
584,128.000000,2960.000000
585,124.000000,2960.000000
586,124.000000,2960.000000
587,132.000000,2960.000000
588,128.000000,3000.000000
589,120.000000,2960.000000
590,128.000000,2960.000000
591,128.000000,2960.000000
592,124.000000,2960.000000
593,124.000000,3000.000000
594,132.000000,2960.000000
595,124.000000,2960.000000
596,124.000000,2960.000000
597,128.000000,2960.000000
598,124.000000,2960.000000
599,120.000000,2960.000000
600,124.000000,3000.000000
601,128.000000,2960.000000
602,128.000000,3000.000000
603,128.000000,2960.000000
604,128.000000,3000.000000
605,124.000000,3000.000000
606,128.000000,2960.000000
607,128.000000,3000.000000
608,128.000000,3000.000000
609,132.000000,2960.000000
610,128.000000,2960.000000
611,128.000000,3000.000000
612,128.000000,2960.000000
613,128.000000,2960.000000
614,124.000000,2960.000000
615,128.000000,2960.000000
616,124.000000,2960.000000
617,124.000000,3000.000000
618,124.000000,3000.000000
619,128.000000,3000.000000
620,124.000000,2960.000000
621,120.000000,3000.000000
622,120.000000,3000.000000
623,124.000000,2960.000000
624,124.000000,2960.000000
625,120.000000,2960.000000
626,124.000000,3000.000000
627,124.000000,2960.000000
628,120.000000,3000.000000
629,120.000000,3000.000000
630,124.000000,2960.000000
631,124.000000,3000.000000
632,124.000000,2960.000000
633,128.000000,2960.000000
634,124.000000,3000.000000
635,124.000000,3000.000000
636,136.000000,2960.000000
637,132.000000,3000.000000
638,128.000000,2960.000000
639,128.000000,3000.000000
640,140.000000,3000.000000
641,136.000000,3000.000000
642,132.000000,2960.000000
643,132.000000,2960.000000
644,132.000000,3000.000000
645,132.000000,3000.000000
646,132.000000,3000.000000
647,132.000000,3000.000000
648,132.000000,3000.000000
649,132.000000,3000.000000
650,136.000000,3000.000000
651,132.000000,3000.000000
652,128.000000,3000.000000
653,128.000000,2960.000000
654,128.000000,3000.000000
655,128.000000,3000.000000
656,132.000000,2960.000000
657,132.000000,3000.000000
658,132.000000,3000.000000
659,136.000000,3000.000000
660,136.000000,3000.000000
661,136.000000,3000.000000
662,136.000000,3000.000000
663,140.000000,3000.000000
664,136.000000,3000.000000
665,136.000000,3000.000000
666,136.000000,3000.000000
667,140.000000,3000.000000
668,140.000000,3000.000000
669,140.000000,2960.000000
670,140.000000,2960.000000
671,140.000000,3000.000000
672,144.000000,2960.000000
673,140.000000,3000.000000
674,144.000000,3000.000000
675,140.000000,3000.000000
676,140.000000,3000.000000
677,140.000000,3000.000000
678,140.000000,3000.000000
679,144.000000,3000.000000
680,140.000000,3000.000000
681,136.000000,3000.000000
682,140.000000,3000.000000
683,144.000000,3000.000000
684,144.000000,2960.000000
685,136.000000,3000.000000
686,144.000000,2960.000000
687,144.000000,3000.000000
688,136.000000,3000.000000
689,140.000000,3000.000000
690,144.000000,3000.000000
691,112.000000,3000.000000
692,140.000000,3000.000000
693,136.000000,3000.000000
694,140.000000,3000.000000
695,136.000000,3000.000000
696,136.000000,3000.000000
697,140.000000,3000.000000
698,140.000000,3000.000000
699,140.000000,3000.000000
700,140.000000,2960.000000
701,140.000000,3000.000000
702,136.000000,3000.000000
703,144.000000,3000.000000
704,140.000000,3000.000000
705,136.000000,3000.000000
706,144.000000,3000.000000
707,144.000000,2960.000000
708,144.000000,3000.000000
709,140.000000,2960.000000
710,140.000000,3000.000000
711,144.000000,2960.000000
712,144.000000,2960.000000
713,144.000000,2960.000000
714,144.000000,2960.000000
715,144.000000,2960.000000
716,148.000000,2960.000000
717,140.000000,3000.000000
718,140.000000,2960.000000
719,144.000000,2960.000000
720,144.000000,2960.000000
721,140.000000,3000.000000
722,144.000000,3000.000000
723,140.000000,3000.000000
724,140.000000,2960.000000
725,140.000000,2960.000000
726,144.000000,2960.000000
727,144.000000,2960.000000
728,140.000000,3000.000000
729,136.000000,3000.000000
730,140.000000,2960.000000
731,132.000000,2960.000000
732,136.000000,2960.000000
733,136.000000,2960.000000
