repport_data/power_optimized_final/data_43_002.csv

Channel              :,CH1,CH2
Frequency            :,  ?,  ?
Period               :,  ?,  ?
PK-PK                :,748.0mV?,1.000V
Probe attenuation    :,1X,1X
Voltage per ADC value:,0.250000mV,2.500000mV
Time interval        :,200.00000uS,200.00000uS

index,CH1_Voltage(mV),CH2_Voltage(mV)
1,144.000000,1840.000000
2,144.000000,1840.000000
3,148.000000,1840.000000
4,144.000000,1840.000000
5,148.000000,1840.000000
6,140.000000,1840.000000
7,144.000000,1840.000000
8,136.000000,1840.000000
9,144.000000,1840.000000
10,144.000000,1840.000000
11,144.000000,1840.000000
12,144.000000,1840.000000
13,144.000000,1880.000000
14,140.000000,1840.000000
15,144.000000,1840.000000
16,140.000000,1840.000000
17,140.000000,1840.000000
18,144.000000,1840.000000
19,140.000000,1880.000000
20,140.000000,1840.000000
21,144.000000,1840.000000
22,140.000000,1840.000000
23,144.000000,1840.000000
24,140.000000,1840.000000
25,144.000000,1840.000000
26,140.000000,1880.000000
27,140.000000,1880.000000
28,140.000000,1840.000000
29,140.000000,1880.000000
30,120.000000,1840.000000
31,140.000000,1880.000000
32,140.000000,1840.000000
33,140.000000,1880.000000
34,140.000000,1840.000000
35,144.000000,1880.000000
36,144.000000,1840.000000
37,144.000000,1840.000000
38,144.000000,1880.000000
39,140.000000,1840.000000
40,148.000000,1840.000000
41,144.000000,1880.000000
42,148.000000,1840.000000
43,148.000000,1880.000000
44,144.000000,1880.000000
45,144.000000,1840.000000
46,148.000000,1840.000000
47,144.000000,1840.000000
48,148.000000,1880.000000
49,148.000000,1880.000000
50,148.000000,1840.000000
51,144.000000,1840.000000
52,148.000000,1840.000000
53,148.000000,1880.000000
54,156.000000,1840.000000
55,148.000000,1880.000000
56,152.000000,1880.000000
57,144.000000,1840.000000
58,156.000000,1840.000000
59,152.000000,1880.000000
60,156.000000,1840.000000
61,156.000000,1840.000000
62,156.000000,1840.000000
63,152.000000,1880.000000
64,160.000000,1840.000000
65,156.000000,1880.000000
66,156.000000,1840.000000
67,156.000000,1880.000000
68,160.000000,1840.000000
69,156.000000,1840.000000
70,160.000000,1840.000000
71,160.000000,1880.000000
72,156.000000,1840.000000
73,160.000000,1840.000000
74,156.000000,1880.000000
75,156.000000,1840.000000
76,160.000000,1880.000000
77,156.000000,1880.000000
78,156.000000,1840.000000
79,160.000000,1840.000000
80,160.000000,1880.000000
81,164.000000,1840.000000
82,156.000000,1840.000000
83,156.000000,1840.000000
84,160.000000,1840.000000
85,156.000000,1880.000000
86,160.000000,1880.000000
87,160.000000,1840.000000
88,160.000000,1880.000000
89,160.000000,1880.000000
90,164.000000,1840.000000
91,160.000000,1840.000000
92,156.000000,1840.000000
93,160.000000,1840.000000
94,160.000000,1880.000000
95,148.000000,1840.000000
96,164.000000,1880.000000
97,164.000000,1880.000000
98,156.000000,1840.000000
99,156.000000,1880.000000
100,160.000000,1880.000000
101,156.000000,1880.000000
102,156.000000,1880.000000
103,156.000000,1840.000000
104,128.000000,1840.000000
105,156.000000,1840.000000
106,160.000000,1880.000000
107,168.000000,1840.000000
108,156.000000,1840.000000
109,156.000000,1840.000000
110,160.000000,1880.000000
111,156.000000,1880.000000
112,156.000000,1880.000000
113,156.000000,1840.000000
114,156.000000,1880.000000
115,160.000000,1880.000000
116,160.000000,1880.000000
117,160.000000,1840.000000
118,160.000000,1880.000000
119,160.000000,1880.000000
120,164.000000,1880.000000
121,156.000000,1880.000000
122,160.000000,1880.000000
123,160.000000,1880.000000
124,160.000000,1880.000000
125,160.000000,1880.000000
126,160.000000,1880.000000
127,160.000000,1840.000000
128,156.000000,1880.000000
129,160.000000,1880.000000
130,160.000000,1840.000000
131,160.000000,1880.000000
132,160.000000,1880.000000
133,160.000000,1880.000000
134,160.000000,1880.000000
135,160.000000,1880.000000
136,160.000000,1880.000000
137,160.000000,1880.000000
138,160.000000,1880.000000
139,160.000000,1880.000000
140,160.000000,1880.000000
141,160.000000,1880.000000
142,160.000000,1880.000000
143,156.000000,1840.000000
144,156.000000,1880.000000
145,156.000000,1880.000000
146,160.000000,1880.000000
147,160.000000,1880.000000
148,156.000000,1880.000000
149,156.000000,1840.000000
150,160.000000,1840.000000
151,164.000000,1840.000000
152,160.000000,1880.000000
153,160.000000,1880.000000
154,160.000000,1880.000000
155,160.000000,1880.000000
156,160.000000,1880.000000
157,164.000000,1880.000000
158,160.000000,1840.000000
159,164.000000,1880.000000
160,164.000000,1880.000000
161,164.000000,1840.000000
162,160.000000,1840.000000
163,160.000000,1880.000000
164,160.000000,1880.000000
165,160.000000,1880.000000
166,160.000000,1840.000000
167,160.000000,1840.000000
168,156.000000,1880.000000
169,160.000000,1880.000000
170,164.000000,1880.000000
171,160.000000,1880.000000
172,160.000000,1880.000000
173,160.000000,1840.000000
174,160.000000,1840.000000
175,160.000000,1840.000000
176,156.000000,1880.000000
177,160.000000,1840.000000
178,160.000000,1840.000000
179,160.000000,1880.000000
180,160.000000,1840.000000
181,164.000000,1840.000000
182,164.000000,1880.000000
183,160.000000,1840.000000
184,160.000000,1840.000000
185,160.000000,1840.000000
186,160.000000,1840.000000
187,160.000000,1880.000000
188,164.000000,1840.000000
189,160.000000,1880.000000
190,160.000000,1840.000000
191,164.000000,1840.000000
192,160.000000,1840.000000
193,160.000000,1840.000000
194,160.000000,1840.000000
195,156.000000,1840.000000
196,160.000000,1840.000000
197,160.000000,1840.000000
198,164.000000,1840.000000
199,160.000000,1840.000000
200,160.000000,1840.000000
201,160.000000,1840.000000
202,164.000000,1840.000000
203,156.000000,1840.000000
204,156.000000,1880.000000
205,156.000000,1840.000000
206,160.000000,1840.000000
207,156.000000,1840.000000
208,160.000000,1840.000000
209,156.000000,1840.000000
210,160.000000,1840.000000
211,152.000000,1840.000000
212,160.000000,1840.000000
213,152.000000,1840.000000
214,152.000000,1840.000000
215,152.000000,1840.000000
216,152.000000,1840.000000
217,152.000000,1840.000000
218,152.000000,1840.000000
219,152.000000,1880.000000
220,152.000000,1840.000000
221,148.000000,1840.000000
222,148.000000,1840.000000
223,148.000000,1840.000000
224,148.000000,1840.000000
225,148.000000,1840.000000
226,148.000000,1840.000000
227,144.000000,1840.000000
228,148.000000,1840.000000
229,148.000000,1840.000000
230,148.000000,1840.000000
231,144.000000,1840.000000
232,144.000000,1840.000000
233,144.000000,1840.000000
234,144.000000,1840.000000
235,144.000000,1840.000000
236,144.000000,1840.000000
237,144.000000,1840.000000
238,148.000000,1840.000000
239,144.000000,1840.000000
240,144.000000,1880.000000
241,144.000000,1840.000000
242,144.000000,1840.000000
243,144.000000,1840.000000
244,148.000000,1840.000000
245,144.000000,1840.000000
246,148.000000,1840.000000
247,140.000000,1840.000000
248,148.000000,1840.000000
249,144.000000,1840.000000
250,144.000000,1840.000000
251,148.000000,1840.000000
252,148.000000,1840.000000
253,148.000000,1840.000000
254,144.000000,1840.000000
255,156.000000,1840.000000
256,144.000000,1840.000000
257,152.000000,1840.000000
258,144.000000,1840.000000
259,148.000000,1840.000000
260,144.000000,1840.000000
261,144.000000,1840.000000
262,144.000000,1840.000000
263,148.000000,1840.000000
264,144.000000,1880.000000
265,144.000000,1880.000000
266,144.000000,1840.000000
267,144.000000,1880.000000
268,148.000000,1840.000000
269,144.000000,1840.000000
270,144.000000,1840.000000
271,148.000000,1840.000000
272,144.000000,1840.000000
273,148.000000,1840.000000
274,144.000000,1840.000000
275,144.000000,1840.000000
276,144.000000,1840.000000
277,144.000000,1840.000000
278,144.000000,1840.000000
279,144.000000,1840.000000
280,144.000000,1840.000000
281,144.000000,1840.000000
282,148.000000,1840.000000
283,148.000000,1840.000000
284,144.000000,1840.000000
285,144.000000,1840.000000
286,140.000000,1840.000000
287,148.000000,1840.000000
288,148.000000,1840.000000
289,144.000000,1840.000000
290,144.000000,1840.000000
291,144.000000,1840.000000
292,144.000000,1840.000000
293,144.000000,1840.000000
294,148.000000,1840.000000
295,148.000000,1840.000000
296,144.000000,1840.000000
297,148.000000,1840.000000
298,144.000000,1840.000000
299,148.000000,1840.000000
300,148.000000,1880.000000
301,144.000000,1840.000000
302,148.000000,1840.000000
303,148.000000,1840.000000
304,152.000000,1840.000000
305,144.000000,1840.000000
306,140.000000,1840.000000
307,140.000000,1840.000000
308,140.000000,1840.000000
309,140.000000,1840.000000
310,140.000000,1840.000000
311,140.000000,1840.000000
312,140.000000,1840.000000
313,140.000000,1840.000000
314,140.000000,1880.000000
315,144.000000,1840.000000
316,140.000000,1840.000000
317,140.000000,1840.000000
318,140.000000,1840.000000
319,144.000000,1880.000000
320,140.000000,1840.000000
321,144.000000,1840.000000
322,144.000000,1880.000000
323,140.000000,1880.000000
324,140.000000,1880.000000
325,140.000000,1880.000000
326,144.000000,1880.000000
327,144.000000,1880.000000
328,140.000000,1840.000000
329,140.000000,1880.000000
330,144.000000,1840.000000
331,144.000000,1840.000000
332,144.000000,1880.000000
333,144.000000,1880.000000
334,144.000000,1840.000000
335,140.000000,1840.000000
336,148.000000,1840.000000
337,144.000000,1840.000000
338,144.000000,1880.000000
339,144.000000,1840.000000
340,144.000000,1840.000000
341,144.000000,1880.000000
342,144.000000,1880.000000
343,148.000000,1880.000000
344,144.000000,1880.000000
345,144.000000,1880.000000
346,148.000000,1880.000000
347,144.000000,1880.000000
348,144.000000,1840.000000
349,148.000000,1840.000000
350,148.000000,1840.000000
351,152.000000,1880.000000
352,156.000000,1880.000000
353,152.000000,1880.000000
354,152.000000,1880.000000
355,156.000000,1880.000000
356,156.000000,1880.000000
357,156.000000,1880.000000
358,160.000000,1840.000000
359,156.000000,1880.000000
360,160.000000,1880.000000
361,156.000000,1880.000000
362,160.000000,1880.000000
363,156.000000,1880.000000
364,160.000000,1840.000000
365,160.000000,1840.000000
366,160.000000,1880.000000
367,160.000000,1880.000000
368,160.000000,1880.000000
369,160.000000,1880.000000
370,160.000000,1880.000000
371,160.000000,1880.000000
372,160.000000,1880.000000
373,156.000000,1880.000000
374,160.000000,1840.000000
375,160.000000,1880.000000
376,160.000000,1840.000000
377,160.000000,1880.000000
378,156.000000,1880.000000
379,160.000000,1840.000000
380,160.000000,1880.000000
381,160.000000,1880.000000
382,160.000000,1840.000000
383,160.000000,1880.000000
384,164.000000,1840.000000
385,156.000000,1880.000000
386,164.000000,1840.000000
387,160.000000,1880.000000
388,160.000000,1840.000000
389,160.000000,1880.000000
390,160.000000,1880.000000
391,160.000000,1880.000000
392,160.000000,1880.000000
393,160.000000,1880.000000
394,160.000000,1840.000000
395,160.000000,1880.000000
396,160.000000,1880.000000
397,164.000000,1880.000000
398,156.000000,1880.000000
399,156.000000,1840.000000
400,156.000000,1880.000000
401,160.000000,1880.000000
402,156.000000,1880.000000
403,160.000000,1840.000000
404,160.000000,1880.000000
405,160.000000,1840.000000
406,156.000000,1880.000000
407,152.000000,1840.000000
408,156.000000,1840.000000
409,156.000000,1840.000000
410,156.000000,1880.000000
411,156.000000,1880.000000
412,160.000000,1880.000000
413,160.000000,1880.000000
414,156.000000,1840.000000
415,156.000000,1880.000000
416,156.000000,1880.000000
417,156.000000,1880.000000
418,160.000000,1880.000000
419,160.000000,1880.000000
420,160.000000,1880.000000
421,160.000000,1880.000000
422,164.000000,1840.000000
423,156.000000,1880.000000
424,160.000000,1880.000000
425,156.000000,1880.000000
426,160.000000,1880.000000
427,160.000000,1880.000000
428,160.000000,1840.000000
429,160.000000,1840.000000
430,160.000000,1840.000000
431,160.000000,1880.000000
432,160.000000,1880.000000
433,164.000000,1880.000000
434,160.000000,1840.000000
435,160.000000,1880.000000
436,156.000000,1840.000000
437,160.000000,1840.000000
438,160.000000,1880.000000
439,160.000000,1880.000000
440,156.000000,1880.000000
441,160.000000,1880.000000
442,160.000000,1880.000000
443,156.000000,1840.000000
444,160.000000,1840.000000
445,160.000000,1880.000000
446,156.000000,1840.000000
447,160.000000,1880.000000
448,160.000000,1880.000000
449,160.000000,1840.000000
450,164.000000,1880.000000
451,148.000000,1880.000000
452,160.000000,1880.000000
453,160.000000,1880.000000
454,236.000000,1880.000000
455,164.000000,1840.000000
456,168.000000,1840.000000
457,164.000000,1840.000000
458,164.000000,1840.000000
459,160.000000,1880.000000
460,164.000000,1880.000000
461,160.000000,1840.000000
462,164.000000,1880.000000
463,156.000000,1880.000000
464,160.000000,1880.000000
465,160.000000,1840.000000
466,164.000000,1840.000000
467,156.000000,1880.000000
468,160.000000,1880.000000
469,160.000000,1880.000000
470,160.000000,1880.000000
471,160.000000,1880.000000
472,160.000000,1880.000000
473,160.000000,1880.000000
474,160.000000,1840.000000
475,160.000000,1880.000000
476,164.000000,1880.000000
477,160.000000,1880.000000
478,160.000000,1840.000000
479,160.000000,1880.000000
480,156.000000,1880.000000
481,160.000000,1880.000000
482,160.000000,1840.000000
483,156.000000,1840.000000
484,160.000000,1840.000000
485,160.000000,1840.000000
486,160.000000,1880.000000
487,160.000000,1840.000000
488,156.000000,1840.000000
489,160.000000,1840.000000
490,160.000000,1840.000000
491,160.000000,1840.000000
492,160.000000,1840.000000
493,160.000000,1840.000000
494,160.000000,1840.000000
495,160.000000,1840.000000
496,160.000000,1840.000000
497,160.000000,1840.000000
498,160.000000,1840.000000
499,160.000000,1840.000000
500,160.000000,1840.000000
501,164.000000,1840.000000
502,152.000000,1840.000000
503,160.000000,1840.000000
504,160.000000,1840.000000
505,160.000000,1840.000000
506,156.000000,1840.000000
507,184.000000,1840.000000
508,160.000000,1840.000000
509,152.000000,1840.000000
510,156.000000,1840.000000
511,152.000000,1880.000000
512,148.000000,1840.000000
513,148.000000,1840.000000
514,148.000000,1840.000000
515,148.000000,1880.000000
516,148.000000,1840.000000
517,148.000000,1840.000000
518,148.000000,1840.000000
519,148.000000,1840.000000
520,148.000000,1840.000000
521,144.000000,1840.000000
522,148.000000,1840.000000
523,148.000000,1840.000000
524,144.000000,1840.000000
525,148.000000,1840.000000
526,148.000000,1840.000000
527,148.000000,1840.000000
528,144.000000,1840.000000
529,148.000000,1880.000000
530,144.000000,1880.000000
531,148.000000,1840.000000
532,144.000000,1840.000000
533,148.000000,1840.000000
534,144.000000,1880.000000
535,148.000000,1880.000000
536,144.000000,1840.000000
537,144.000000,1880.000000
538,144.000000,1840.000000
539,144.000000,1880.000000
540,144.000000,1880.000000
541,144.000000,1840.000000
542,148.000000,1880.000000
543,144.000000,1840.000000
544,140.000000,1840.000000
545,144.000000,1840.000000
546,144.000000,1880.000000
547,144.000000,1880.000000
548,144.000000,1840.000000
549,144.000000,1840.000000
550,140.000000,1840.000000
551,148.000000,1840.000000
552,144.000000,1840.000000
553,144.000000,1840.000000
554,144.000000,1840.000000
555,144.000000,1840.000000
556,148.000000,1840.000000
557,144.000000,1840.000000
558,144.000000,1840.000000
559,148.000000,1840.000000
560,148.000000,1840.000000
561,144.000000,1880.000000
562,152.000000,1840.000000
563,148.000000,1840.000000
564,148.000000,1840.000000
565,148.000000,1840.000000
566,148.000000,1840.000000
567,144.000000,1840.000000
568,144.000000,1840.000000
569,148.000000,1840.000000
570,144.000000,1840.000000
571,144.000000,1840.000000
572,144.000000,1840.000000
573,144.000000,1840.000000
574,144.000000,1840.000000
575,144.000000,1840.000000
576,148.000000,1800.000000
577,144.000000,1880.000000
578,152.000000,1840.000000
579,148.000000,1840.000000
580,144.000000,1840.000000
581,144.000000,1840.000000
582,148.000000,1840.000000
583,144.000000,1840.000000
584,144.000000,1840.000000
585,140.000000,1840.000000
586,148.000000,1840.000000
587,144.000000,1840.000000
588,148.000000,1840.000000
589,148.000000,1840.000000
590,148.000000,1840.000000
591,148.000000,1840.000000
592,148.000000,1840.000000
593,148.000000,1880.000000
594,152.000000,1840.000000
595,148.000000,1840.000000
596,148.000000,1880.000000
597,144.000000,1840.000000
598,148.000000,1840.000000
599,140.000000,1840.000000
600,144.000000,1840.000000
601,144.000000,1840.000000
602,148.000000,1840.000000
603,148.000000,1840.000000
604,144.000000,1880.000000
605,136.000000,1840.000000
606,144.000000,1840.000000
607,140.000000,1840.000000
608,144.000000,1880.000000
609,136.000000,1840.000000
610,140.000000,1840.000000
611,140.000000,1840.000000
612,140.000000,1840.000000
613,140.000000,1840.000000
614,140.000000,1840.000000
615,140.000000,1840.000000
616,140.000000,1840.000000
617,136.000000,1880.000000
618,140.000000,1840.000000
619,136.000000,1880.000000
620,140.000000,1880.000000
621,140.000000,1880.000000
622,144.000000,1840.000000
623,144.000000,1840.000000
624,144.000000,1840.000000
625,144.000000,1840.000000
626,144.000000,1880.000000
627,144.000000,1840.000000
628,144.000000,1880.000000
629,140.000000,1880.000000
630,144.000000,1880.000000
631,144.000000,1880.000000
632,144.000000,1880.000000
633,144.000000,1880.000000
634,148.000000,1840.000000
635,148.000000,1880.000000
636,144.000000,1880.000000
637,144.000000,1880.000000
638,144.000000,1840.000000
639,144.000000,1880.000000
640,148.000000,1880.000000
641,144.000000,1840.000000
642,144.000000,1880.000000
643,148.000000,1880.000000
644,148.000000,1840.000000
645,148.000000,1880.000000
646,152.000000,1840.000000
647,152.000000,1840.000000
648,148.000000,1880.000000
649,152.000000,1880.000000
650,152.000000,1880.000000
651,152.000000,1840.000000
652,152.000000,1880.000000
653,156.000000,1880.000000
654,148.000000,1880.000000
655,156.000000,1880.000000
656,160.000000,1840.000000
657,172.000000,1840.000000
658,168.000000,1840.000000
659,160.000000,1840.000000
660,160.000000,1880.000000
661,168.000000,1880.000000
662,160.000000,1880.000000
663,160.000000,1840.000000
664,164.000000,1840.000000
665,160.000000,1840.000000
666,160.000000,1840.000000
667,164.000000,1880.000000
668,164.000000,1880.000000
669,160.000000,1840.000000
670,160.000000,1880.000000
671,160.000000,1880.000000
672,160.000000,1840.000000
673,164.000000,1840.000000
674,160.000000,1840.000000
675,160.000000,1840.000000
676,160.000000,1840.000000
677,164.000000,1880.000000
678,160.000000,1840.000000
679,160.000000,1880.000000
680,160.000000,1840.000000
681,160.000000,1840.000000
682,156.000000,1840.000000
683,160.000000,1880.000000
684,160.000000,1840.000000
685,160.000000,1840.000000
686,160.000000,1880.000000
687,160.000000,1880.000000
688,160.000000,1880.000000
689,160.000000,1840.000000
690,160.000000,1880.000000
691,156.000000,1880.000000
692,160.000000,1840.000000
693,160.000000,1880.000000
694,160.000000,1880.000000
695,160.000000,1840.000000
696,160.000000,1880.000000
697,156.000000,1880.000000
698,164.000000,1840.000000
699,156.000000,1880.000000
700,160.000000,1880.000000
701,156.000000,1840.000000
702,160.000000,1880.000000
703,156.000000,1880.000000
704,156.000000,1840.000000
705,152.000000,1840.000000
706,160.000000,1840.000000
707,156.000000,1840.000000
708,156.000000,1880.000000
709,160.000000,1880.000000
710,164.000000,1840.000000
711,160.000000,1840.000000
712,160.000000,1880.000000
713,156.000000,1840.000000
714,156.000000,1880.000000
715,156.000000,1840.000000
716,156.000000,1840.000000
717,156.000000,1840.000000
718,156.000000,1840.000000
719,156.000000,1840.000000
720,156.000000,1840.000000
721,156.000000,1880.000000
722,160.000000,1880.000000
723,160.000000,1840.000000
724,160.000000,1880.000000
725,160.000000,1840.000000
726,156.000000,1840.000000
727,160.000000,1840.000000
728,160.000000,1880.000000
729,160.000000,1880.000000
730,160.000000,1880.000000
731,168.000000,1880.000000
732,160.000000,1880.000000
733,160.000000,1880.000000
