repport_data/power_optimized_final/data_43_004.csv

Channel              :,CH1,CH2
Frequency            :,  ?,  ?
Period               :,  ?,  ?
PK-PK                :,716.0mV?,1.040V
Probe attenuation    :,1X,1X
Voltage per ADC value:,0.250000mV,2.500000mV
Time interval        :,200.00000uS,200.00000uS

index,CH1_Voltage(mV),CH2_Voltage(mV)
1,144.000000,1840.000000
2,144.000000,1840.000000
3,128.000000,1880.000000
4,148.000000,1840.000000
5,144.000000,1840.000000
6,140.000000,1840.000000
7,144.000000,1840.000000
8,144.000000,1840.000000
9,144.000000,1840.000000
10,148.000000,1880.000000
11,144.000000,1840.000000
12,144.000000,1840.000000
13,148.000000,1840.000000
14,144.000000,1840.000000
15,144.000000,1840.000000
16,148.000000,1840.000000
17,144.000000,1840.000000
18,144.000000,1840.000000
19,148.000000,1840.000000
20,148.000000,1840.000000
21,144.000000,1840.000000
22,152.000000,1840.000000
23,148.000000,1840.000000
24,148.000000,1840.000000
25,144.000000,1880.000000
26,144.000000,1880.000000
27,144.000000,1840.000000
28,144.000000,1840.000000
29,144.000000,1880.000000
30,148.000000,1840.000000
31,144.000000,1880.000000
32,148.000000,1840.000000
33,148.000000,1840.000000
34,148.000000,1840.000000
35,144.000000,1840.000000
36,148.000000,1880.000000
37,148.000000,1840.000000
38,144.000000,1840.000000
39,152.000000,1840.000000
40,140.000000,1880.000000
41,144.000000,1840.000000
42,144.000000,1840.000000
43,144.000000,1840.000000
44,140.000000,1840.000000
45,144.000000,1840.000000
46,144.000000,1840.000000
47,140.000000,1840.000000
48,140.000000,1840.000000
49,140.000000,1840.000000
50,140.000000,1840.000000
51,140.000000,1840.000000
52,140.000000,1840.000000
53,140.000000,1840.000000
54,140.000000,1880.000000
55,140.000000,1840.000000
56,140.000000,1880.000000
57,144.000000,1840.000000
58,140.000000,1840.000000
59,140.000000,1840.000000
60,140.000000,1880.000000
61,140.000000,1880.000000
62,140.000000,1840.000000
63,140.000000,1880.000000
64,140.000000,1840.000000
65,144.000000,1880.000000
66,144.000000,1880.000000
67,140.000000,1880.000000
68,140.000000,1880.000000
69,144.000000,1880.000000
70,140.000000,1880.000000
71,144.000000,1880.000000
72,140.000000,1840.000000
73,144.000000,1880.000000
74,144.000000,1880.000000
75,140.000000,1880.000000
76,136.000000,1880.000000
77,140.000000,1880.000000
78,144.000000,1880.000000
79,144.000000,1880.000000
80,144.000000,1880.000000
81,148.000000,1880.000000
82,144.000000,1880.000000
83,148.000000,1840.000000
84,148.000000,1880.000000
85,144.000000,1840.000000
86,148.000000,1880.000000
87,144.000000,1880.000000
88,148.000000,1880.000000
89,164.000000,1880.000000
90,144.000000,1880.000000
91,152.000000,1880.000000
92,152.000000,1880.000000
93,156.000000,1840.000000
94,156.000000,1880.000000
95,160.000000,1880.000000
96,160.000000,1880.000000
97,156.000000,1880.000000
98,156.000000,1880.000000
99,160.000000,1880.000000
100,156.000000,1840.000000
101,160.000000,1880.000000
102,160.000000,1880.000000
103,156.000000,1880.000000
104,156.000000,1840.000000
105,160.000000,1880.000000
106,156.000000,1880.000000
107,156.000000,1840.000000
108,160.000000,1880.000000
109,160.000000,1840.000000
110,156.000000,1840.000000
111,156.000000,1880.000000
112,160.000000,1880.000000
113,160.000000,1880.000000
114,160.000000,1880.000000
115,160.000000,1840.000000
116,160.000000,1840.000000
117,160.000000,1880.000000
118,160.000000,1880.000000
119,160.000000,1840.000000
120,160.000000,1880.000000
121,156.000000,1880.000000
122,160.000000,1880.000000
123,160.000000,1880.000000
124,160.000000,1880.000000
125,160.000000,1880.000000
126,156.000000,1840.000000
127,160.000000,1880.000000
128,160.000000,1880.000000
129,160.000000,1880.000000
130,156.000000,1880.000000
131,160.000000,1840.000000
132,160.000000,1880.000000
133,160.000000,1840.000000
134,160.000000,1840.000000
135,160.000000,1840.000000
136,160.000000,1840.000000
137,160.000000,1840.000000
138,164.000000,1840.000000
139,160.000000,1840.000000
140,160.000000,1880.000000
141,184.000000,1840.000000
142,156.000000,1880.000000
143,156.000000,1840.000000
144,192.000000,1840.000000
145,148.000000,1880.000000
146,164.000000,1840.000000
147,156.000000,1840.000000
148,160.000000,1840.000000
149,156.000000,1840.000000
150,156.000000,1840.000000
151,156.000000,1880.000000
152,156.000000,1840.000000
153,160.000000,1840.000000
154,160.000000,1840.000000
155,156.000000,1840.000000
156,160.000000,1840.000000
157,160.000000,1840.000000
158,160.000000,1840.000000
159,160.000000,1840.000000
160,160.000000,1840.000000
161,156.000000,1880.000000
162,160.000000,1840.000000
163,156.000000,1840.000000
164,156.000000,1880.000000
165,160.000000,1880.000000
166,156.000000,1840.000000
167,152.000000,1840.000000
168,152.000000,1840.000000
169,148.000000,1840.000000
170,152.000000,1880.000000
171,152.000000,1840.000000
172,148.000000,1840.000000
173,148.000000,1840.000000
174,148.000000,1840.000000
175,148.000000,1840.000000
176,148.000000,1880.000000
177,144.000000,1840.000000
178,148.000000,1840.000000
179,144.000000,1840.000000
180,144.000000,1840.000000
181,144.000000,1840.000000
182,144.000000,1840.000000
183,144.000000,1840.000000
184,144.000000,1840.000000
185,144.000000,1840.000000
186,148.000000,1840.000000
187,144.000000,1840.000000
188,144.000000,1840.000000
189,144.000000,1880.000000
190,144.000000,1840.000000
191,148.000000,1840.000000
192,148.000000,1840.000000
193,144.000000,1840.000000
194,152.000000,1880.000000
195,144.000000,1840.000000
196,148.000000,1840.000000
197,144.000000,1840.000000
198,148.000000,1880.000000
199,148.000000,1880.000000
200,148.000000,1840.000000
201,148.000000,1840.000000
202,144.000000,1840.000000
203,148.000000,1840.000000
204,144.000000,1880.000000
205,144.000000,1840.000000
206,144.000000,1840.000000
207,144.000000,1840.000000
208,144.000000,1880.000000
209,148.000000,1840.000000
210,148.000000,1840.000000
211,148.000000,1840.000000
212,144.000000,1840.000000
213,144.000000,1840.000000
214,144.000000,1840.000000
215,144.000000,1840.000000
216,148.000000,1840.000000
217,148.000000,1840.000000
218,144.000000,1880.000000
219,144.000000,1840.000000
220,140.000000,1880.000000
221,144.000000,1840.000000
222,144.000000,1880.000000
223,144.000000,1840.000000
224,144.000000,1840.000000
225,144.000000,1880.000000
226,144.000000,1840.000000
227,144.000000,1840.000000
228,144.000000,1840.000000
229,148.000000,1880.000000
230,144.000000,1840.000000
231,148.000000,1840.000000
232,148.000000,1840.000000
233,148.000000,1840.000000
234,148.000000,1840.000000
235,148.000000,1840.000000
236,144.000000,1840.000000
237,148.000000,1840.000000
238,140.000000,1840.000000
239,148.000000,1840.000000
240,144.000000,1840.000000
241,144.000000,1840.000000
242,140.000000,1840.000000
243,144.000000,1840.000000
244,140.000000,1840.000000
245,148.000000,1840.000000
246,144.000000,1840.000000
247,140.000000,1840.000000
248,144.000000,1840.000000
249,144.000000,1840.000000
250,144.000000,1880.000000
251,144.000000,1840.000000
252,144.000000,1880.000000
253,148.000000,1880.000000
254,144.000000,1840.000000
255,144.000000,1840.000000
256,144.000000,1840.000000
257,148.000000,1840.000000
258,144.000000,1840.000000
259,140.000000,1840.000000
260,140.000000,1840.000000
261,140.000000,1840.000000
262,140.000000,1880.000000
263,144.000000,1880.000000
264,144.000000,1840.000000
265,140.000000,1840.000000
266,140.000000,1840.000000
267,140.000000,1840.000000
268,144.000000,1880.000000
269,144.000000,1880.000000
270,144.000000,1840.000000
271,140.000000,1880.000000
272,140.000000,1880.000000
273,144.000000,1840.000000
274,140.000000,1880.000000
275,144.000000,1880.000000
276,136.000000,1880.000000
277,140.000000,1880.000000
278,140.000000,1880.000000
279,140.000000,1880.000000
280,144.000000,1880.000000
281,144.000000,1840.000000
282,144.000000,1840.000000
283,144.000000,1840.000000
284,140.000000,1880.000000
285,144.000000,1840.000000
286,140.000000,1840.000000
287,144.000000,1840.000000
288,144.000000,1880.000000
289,144.000000,1840.000000
290,148.000000,1880.000000
291,148.000000,1880.000000
292,144.000000,1880.000000
293,148.000000,1840.000000
294,152.000000,1880.000000
295,148.000000,1840.000000
296,156.000000,1880.000000
297,152.000000,1840.000000
298,152.000000,1880.000000
299,152.000000,1880.000000
300,152.000000,1880.000000
301,156.000000,1880.000000
302,152.000000,1880.000000
303,156.000000,1880.000000
304,152.000000,1880.000000
305,156.000000,1880.000000
306,156.000000,1880.000000
307,152.000000,1840.000000
308,156.000000,1880.000000
309,160.000000,1880.000000
310,156.000000,1840.000000
311,156.000000,1840.000000
312,156.000000,1840.000000
313,160.000000,1840.000000
314,156.000000,1840.000000
315,156.000000,1880.000000
316,156.000000,1880.000000
317,160.000000,1880.000000
318,156.000000,1840.000000
319,156.000000,1840.000000
320,160.000000,1880.000000
321,156.000000,1840.000000
322,160.000000,1880.000000
323,156.000000,1880.000000
324,160.000000,1880.000000
325,160.000000,1840.000000
326,156.000000,1880.000000
327,160.000000,1880.000000
328,160.000000,1840.000000
329,160.000000,1880.000000
330,160.000000,1880.000000
331,160.000000,1880.000000
332,160.000000,1880.000000
333,156.000000,1880.000000
334,160.000000,1880.000000
335,160.000000,1880.000000
336,156.000000,1880.000000
337,160.000000,1880.000000
338,160.000000,1880.000000
339,160.000000,1880.000000
340,160.000000,1840.000000
341,152.000000,1880.000000
342,160.000000,1840.000000
343,160.000000,1880.000000
344,160.000000,1840.000000
345,156.000000,1880.000000
346,156.000000,1880.000000
347,156.000000,1880.000000
348,156.000000,1880.000000
349,164.000000,1840.000000
350,156.000000,1840.000000
351,156.000000,1840.000000
352,156.000000,1880.000000
353,160.000000,1840.000000
354,160.000000,1840.000000
355,156.000000,1840.000000
356,156.000000,1840.000000
357,156.000000,1840.000000
358,156.000000,1840.000000
359,160.000000,1840.000000
360,156.000000,1880.000000
361,156.000000,1880.000000
362,156.000000,1880.000000
363,160.000000,1840.000000
364,160.000000,1840.000000
365,156.000000,1880.000000
366,160.000000,1840.000000
367,160.000000,1840.000000
368,160.000000,1840.000000
369,160.000000,1840.000000
370,164.000000,1840.000000
371,160.000000,1840.000000
372,160.000000,1840.000000
373,160.000000,1840.000000
374,156.000000,1880.000000
375,156.000000,1880.000000
376,152.000000,1840.000000
377,152.000000,1840.000000
378,148.000000,1840.000000
379,152.000000,1840.000000
380,148.000000,1840.000000
381,148.000000,1840.000000
382,152.000000,1840.000000
383,152.000000,1880.000000
384,144.000000,1840.000000
385,148.000000,1880.000000
386,148.000000,1840.000000
387,148.000000,1840.000000
388,144.000000,1840.000000
389,148.000000,1840.000000
390,148.000000,1840.000000
391,148.000000,1840.000000
392,148.000000,1840.000000
393,144.000000,1840.000000
394,144.000000,1840.000000
395,148.000000,1840.000000
396,148.000000,1840.000000
397,148.000000,1840.000000
398,148.000000,1880.000000
399,152.000000,1880.000000
400,144.000000,1880.000000
401,148.000000,1840.000000
402,148.000000,1840.000000
403,144.000000,1880.000000
404,148.000000,1840.000000
405,152.000000,1840.000000
406,148.000000,1840.000000
407,148.000000,1840.000000
408,144.000000,1840.000000
409,144.000000,1840.000000
410,144.000000,1840.000000
411,144.000000,1840.000000
412,148.000000,1840.000000
413,144.000000,1840.000000
414,148.000000,1840.000000
415,144.000000,1880.000000
416,144.000000,1840.000000
417,148.000000,1840.000000
418,144.000000,1880.000000
419,144.000000,1840.000000
420,144.000000,1840.000000
421,148.000000,1840.000000
422,144.000000,1840.000000
423,144.000000,1840.000000
424,140.000000,1840.000000
425,136.000000,1840.000000
426,144.000000,1840.000000
427,144.000000,1840.000000
428,140.000000,1840.000000
429,144.000000,1840.000000
430,148.000000,1880.000000
431,144.000000,1840.000000
432,144.000000,1840.000000
433,144.000000,1880.000000
434,136.000000,1840.000000
435,144.000000,1840.000000
436,144.000000,1840.000000
437,148.000000,1840.000000
438,144.000000,1840.000000
439,144.000000,1840.000000
440,144.000000,1840.000000
441,144.000000,1840.000000
442,140.000000,1840.000000
443,140.000000,1840.000000
444,140.000000,1840.000000
445,144.000000,1840.000000
446,148.000000,1840.000000
447,144.000000,1840.000000
448,156.000000,1840.000000
449,144.000000,1840.000000
450,144.000000,1840.000000
451,140.000000,1880.000000
452,144.000000,1840.000000
453,144.000000,1840.000000
454,144.000000,1880.000000
455,144.000000,1840.000000
456,144.000000,1840.000000
457,148.000000,1880.000000
458,144.000000,1840.000000
459,144.000000,1880.000000
460,144.000000,1840.000000
461,144.000000,1840.000000
462,144.000000,1840.000000
463,144.000000,1840.000000
464,148.000000,1880.000000
465,144.000000,1840.000000
466,144.000000,1840.000000
467,144.000000,1840.000000
468,144.000000,1880.000000
469,144.000000,1840.000000
470,144.000000,1840.000000
471,140.000000,1840.000000
472,144.000000,1840.000000
473,144.000000,1840.000000
474,144.000000,1840.000000
475,140.000000,1880.000000
476,140.000000,1840.000000
477,140.000000,1840.000000
478,140.000000,1880.000000
479,140.000000,1880.000000
480,144.000000,1840.000000
481,140.000000,1880.000000
482,140.000000,1880.000000
483,140.000000,1880.000000
484,148.000000,1840.000000
485,140.000000,1880.000000
486,140.000000,1840.000000
487,140.000000,1840.000000
488,140.000000,1840.000000
489,140.000000,1840.000000
490,148.000000,1880.000000
491,132.000000,1880.000000
492,148.000000,1840.000000
493,144.000000,1880.000000
494,152.000000,1880.000000
495,148.000000,1880.000000
496,148.000000,1840.000000
497,160.000000,1880.000000
498,148.000000,1840.000000
499,148.000000,1840.000000
500,136.000000,1880.000000
501,144.000000,1880.000000
502,148.000000,1880.000000
503,152.000000,1880.000000
504,152.000000,1880.000000
505,144.000000,1840.000000
506,148.000000,1880.000000
507,148.000000,1840.000000
508,148.000000,1880.000000
509,148.000000,1880.000000
510,148.000000,1880.000000
511,152.000000,1880.000000
512,152.000000,1840.000000
513,152.000000,1840.000000
514,152.000000,1880.000000
515,152.000000,1880.000000
516,152.000000,1880.000000
517,148.000000,1880.000000
518,156.000000,1880.000000
519,152.000000,1880.000000
520,156.000000,1880.000000
521,156.000000,1840.000000
522,160.000000,1840.000000
523,156.000000,1880.000000
524,156.000000,1880.000000
525,156.000000,1880.000000
526,156.000000,1880.000000
527,160.000000,1880.000000
528,156.000000,1880.000000
529,156.000000,1880.000000
530,156.000000,1880.000000
531,156.000000,1880.000000
532,156.000000,1880.000000
533,156.000000,1880.000000
534,156.000000,1880.000000
535,160.000000,1880.000000
536,156.000000,1840.000000
537,160.000000,1840.000000
538,160.000000,1880.000000
539,152.000000,1880.000000
540,156.000000,1840.000000
541,156.000000,1880.000000
542,156.000000,1880.000000
543,156.000000,1880.000000
544,156.000000,1880.000000
545,156.000000,1840.000000
546,152.000000,1880.000000
547,160.000000,1880.000000
548,160.000000,1880.000000
549,156.000000,1840.000000
550,156.000000,1880.000000
551,156.000000,1880.000000
552,156.000000,1840.000000
553,156.000000,1840.000000
554,156.000000,1840.000000
555,156.000000,1840.000000
556,156.000000,1880.000000
557,156.000000,1880.000000
558,160.000000,1840.000000
559,156.000000,1880.000000
560,160.000000,1840.000000
561,164.000000,1840.000000
562,160.000000,1840.000000
563,160.000000,1840.000000
564,160.000000,1840.000000
565,160.000000,1880.000000
566,160.000000,1840.000000
567,160.000000,1840.000000
568,160.000000,1840.000000
569,160.000000,1840.000000
570,156.000000,1840.000000
571,160.000000,1880.000000
572,160.000000,1880.000000
573,160.000000,1880.000000
574,160.000000,1880.000000
575,160.000000,1880.000000
576,160.000000,1840.000000
577,160.000000,1880.000000
578,160.000000,1840.000000
579,160.000000,1840.000000
580,164.000000,1840.000000
581,160.000000,1840.000000
582,160.000000,1840.000000
583,160.000000,1880.000000
584,156.000000,1840.000000
585,156.000000,1840.000000
586,152.000000,1840.000000
587,156.000000,1880.000000
588,152.000000,1840.000000
589,152.000000,1840.000000
590,156.000000,1840.000000
591,152.000000,1840.000000
592,152.000000,1840.000000
593,148.000000,1880.000000
594,152.000000,1880.000000
595,148.000000,1840.000000
596,152.000000,1880.000000
597,152.000000,1840.000000
598,148.000000,1840.000000
599,148.000000,1880.000000
600,152.000000,1840.000000
601,148.000000,1840.000000
602,148.000000,1840.000000
603,152.000000,1840.000000
604,148.000000,1840.000000
605,148.000000,1840.000000
606,144.000000,1880.000000
607,144.000000,1840.000000
608,148.000000,1880.000000
609,148.000000,1840.000000
610,148.000000,1880.000000
611,148.000000,1880.000000
612,144.000000,1840.000000
613,144.000000,1840.000000
614,144.000000,1880.000000
615,148.000000,1840.000000
616,144.000000,1880.000000
617,148.000000,1840.000000
618,144.000000,1840.000000
619,148.000000,1840.000000
620,148.000000,1840.000000
621,144.000000,1840.000000
622,144.000000,1840.000000
623,140.000000,1840.000000
624,144.000000,1840.000000
625,144.000000,1840.000000
626,144.000000,1840.000000
627,144.000000,1840.000000
628,144.000000,1880.000000
629,144.000000,1840.000000
630,144.000000,1840.000000
631,144.000000,1840.000000
632,144.000000,1840.000000
633,144.000000,1840.000000
634,144.000000,1840.000000
635,148.000000,1840.000000
636,144.000000,1880.000000
637,148.000000,1880.000000
638,144.000000,1840.000000
639,144.000000,1840.000000
640,144.000000,1840.000000
641,144.000000,1880.000000
642,144.000000,1840.000000
643,148.000000,1840.000000
644,144.000000,1840.000000
645,144.000000,1880.000000
646,144.000000,1880.000000
647,140.000000,1840.000000
648,144.000000,1840.000000
649,144.000000,1840.000000
650,144.000000,1880.000000
651,144.000000,1840.000000
652,140.000000,1840.000000
653,144.000000,1840.000000
654,140.000000,1840.000000
655,144.000000,1880.000000
656,144.000000,1840.000000
657,144.000000,1840.000000
658,144.000000,1840.000000
659,144.000000,1840.000000
660,144.000000,1840.000000
661,144.000000,1840.000000
662,144.000000,1840.000000
663,144.000000,1840.000000
664,144.000000,1840.000000
665,148.000000,1840.000000
666,144.000000,1840.000000
667,148.000000,1840.000000
668,148.000000,1840.000000
669,148.000000,1840.000000
670,140.000000,1840.000000
671,144.000000,1840.000000
672,144.000000,1880.000000
673,148.000000,1840.000000
674,144.000000,1840.000000
675,144.000000,1840.000000
676,140.000000,1840.000000
677,144.000000,1840.000000
678,148.000000,1840.000000
679,144.000000,1840.000000
680,144.000000,1840.000000
681,140.000000,1840.000000
682,144.000000,1880.000000
683,144.000000,1840.000000
684,144.000000,1840.000000
685,136.000000,1840.000000
686,144.000000,1840.000000
687,140.000000,1840.000000
688,140.000000,1840.000000
689,144.000000,1880.000000
690,140.000000,1880.000000
691,144.000000,1880.000000
692,140.000000,1880.000000
693,148.000000,1840.000000
694,152.000000,1880.000000
695,140.000000,1840.000000
696,140.000000,1840.000000
697,140.000000,1880.000000
698,140.000000,1840.000000
699,144.000000,1880.000000
700,148.000000,1840.000000
701,144.000000,1880.000000
702,144.000000,1840.000000
703,148.000000,1880.000000
704,148.000000,1840.000000
705,148.000000,1880.000000
706,148.000000,1840.000000
707,148.000000,1880.000000
708,148.000000,1880.000000
709,144.000000,1880.000000
710,148.000000,1880.000000
711,148.000000,1840.000000
712,148.000000,1880.000000
713,148.000000,1880.000000
714,148.000000,1880.000000
715,152.000000,1880.000000
716,148.000000,1880.000000
717,144.000000,1840.000000
718,148.000000,1840.000000
719,148.000000,1840.000000
720,148.000000,1840.000000
721,148.000000,1880.000000
722,148.000000,1880.000000
723,152.000000,1880.000000
724,152.000000,1880.000000
725,152.000000,1840.000000
726,152.000000,1880.000000
727,152.000000,1840.000000
728,156.000000,1880.000000
729,156.000000,1880.000000
730,152.000000,1840.000000
731,156.000000,1880.000000
732,156.000000,1840.000000
733,156.000000,1840.000000
