repport_data/power_optimized_final/data_43_001.csv

Channel              :,CH1,CH2
Frequency            :,  ?,  ?
Period               :,  ?,  ?
PK-PK                :,728.0mV?,1.040V
Probe attenuation    :,1X,1X
Voltage per ADC value:,0.250000mV,2.500000mV
Time interval        :,200.00000uS,200.00000uS

index,CH1_Voltage(mV),CH2_Voltage(mV)
1,156.000000,1840.000000
2,156.000000,1840.000000
3,156.000000,1840.000000
4,160.000000,1840.000000
5,156.000000,1840.000000
6,156.000000,1840.000000
7,164.000000,1840.000000
8,160.000000,1840.000000
9,156.000000,1840.000000
10,160.000000,1840.000000
11,164.000000,1840.000000
12,160.000000,1840.000000
13,160.000000,1840.000000
14,160.000000,1840.000000
15,156.000000,1840.000000
16,160.000000,1840.000000
17,156.000000,1840.000000
18,164.000000,1840.000000
19,160.000000,1840.000000
20,160.000000,1840.000000
21,160.000000,1840.000000
22,164.000000,1840.000000
23,152.000000,1840.000000
24,164.000000,1840.000000
25,152.000000,1840.000000
26,160.000000,1840.000000
27,156.000000,1840.000000
28,156.000000,1840.000000
29,156.000000,1840.000000
30,156.000000,1840.000000
31,160.000000,1840.000000
32,160.000000,1840.000000
33,160.000000,1840.000000
34,160.000000,1840.000000
35,156.000000,1880.000000
36,156.000000,1840.000000
37,156.000000,1840.000000
38,156.000000,1840.000000
39,160.000000,1840.000000
40,160.000000,1840.000000
41,160.000000,1880.000000
42,156.000000,1840.000000
43,160.000000,1840.000000
44,160.000000,1840.000000
45,160.000000,1840.000000
46,160.000000,1840.000000
47,164.000000,1840.000000
48,156.000000,1840.000000
49,160.000000,1840.000000
50,156.000000,1840.000000
51,156.000000,1840.000000
52,160.000000,1880.000000
53,152.000000,1840.000000
54,160.000000,1840.000000
55,160.000000,1840.000000
56,160.000000,1840.000000
57,156.000000,1840.000000
58,160.000000,1840.000000
59,160.000000,1840.000000
60,156.000000,1800.000000
61,164.000000,1840.000000
62,156.000000,1800.000000
63,156.000000,1840.000000
64,160.000000,1840.000000
65,160.000000,1840.000000
66,160.000000,1840.000000
67,164.000000,1840.000000
68,160.000000,1840.000000
69,160.000000,1840.000000
70,184.000000,1840.000000
71,148.000000,1840.000000
72,172.000000,1840.000000
73,164.000000,1840.000000
74,160.000000,1840.000000
75,164.000000,1840.000000
76,188.000000,1840.000000
77,160.000000,1840.000000
78,176.000000,1800.000000
79,160.000000,1840.000000
80,160.000000,1800.000000
81,164.000000,1840.000000
82,160.000000,1840.000000
83,164.000000,1840.000000
84,160.000000,1840.000000
85,160.000000,1840.000000
86,160.000000,1840.000000
87,160.000000,1840.000000
88,164.000000,1800.000000
89,164.000000,1840.000000
90,160.000000,1840.000000
91,160.000000,1800.000000
92,160.000000,1800.000000
93,164.000000,1840.000000
94,160.000000,1840.000000
95,160.000000,1800.000000
96,156.000000,1840.000000
97,156.000000,1840.000000
98,156.000000,1840.000000
99,156.000000,1840.000000
100,148.000000,1800.000000
101,152.000000,1840.000000
102,152.000000,1840.000000
103,152.000000,1840.000000
104,148.000000,1840.000000
105,152.000000,1840.000000
106,148.000000,1840.000000
107,148.000000,1840.000000
108,148.000000,1840.000000
109,148.000000,1840.000000
110,144.000000,1800.000000
111,144.000000,1840.000000
112,144.000000,1840.000000
113,144.000000,1840.000000
114,148.000000,1800.000000
115,144.000000,1840.000000
116,144.000000,1840.000000
117,144.000000,1840.000000
118,148.000000,1840.000000
119,148.000000,1840.000000
120,144.000000,1840.000000
121,144.000000,1840.000000
122,144.000000,1840.000000
123,140.000000,1840.000000
124,144.000000,1800.000000
125,136.000000,1840.000000
126,140.000000,1840.000000
127,140.000000,1840.000000
128,144.000000,1840.000000
129,140.000000,1840.000000
130,144.000000,1800.000000
131,140.000000,1840.000000
132,140.000000,1840.000000
133,136.000000,1840.000000
134,144.000000,1840.000000
135,140.000000,1840.000000
136,144.000000,1840.000000
137,144.000000,1840.000000
138,144.000000,1840.000000
139,144.000000,1840.000000
140,140.000000,1840.000000
141,144.000000,1840.000000
142,140.000000,1840.000000
143,144.000000,1840.000000
144,140.000000,1840.000000
145,148.000000,1840.000000
146,140.000000,1840.000000
147,144.000000,1840.000000
148,144.000000,1840.000000
149,144.000000,1840.000000
150,140.000000,1840.000000
151,144.000000,1840.000000
152,148.000000,1840.000000
153,144.000000,1840.000000
154,148.000000,1840.000000
155,148.000000,1840.000000
156,144.000000,1840.000000
157,144.000000,1840.000000
158,148.000000,1840.000000
159,148.000000,1800.000000
160,148.000000,1840.000000
161,144.000000,1800.000000
162,144.000000,1840.000000
163,144.000000,1840.000000
164,136.000000,1840.000000
165,140.000000,1800.000000
166,144.000000,1840.000000
167,144.000000,1840.000000
168,144.000000,1840.000000
169,144.000000,1800.000000
170,144.000000,1840.000000
171,144.000000,1800.000000
172,148.000000,1840.000000
173,140.000000,1840.000000
174,144.000000,1840.000000
175,148.000000,1840.000000
176,144.000000,1800.000000
177,148.000000,1800.000000
178,152.000000,1840.000000
179,148.000000,1840.000000
180,148.000000,1840.000000
181,152.000000,1840.000000
182,148.000000,1840.000000
183,148.000000,1840.000000
184,148.000000,1840.000000
185,148.000000,1840.000000
186,148.000000,1840.000000
187,148.000000,1840.000000
188,144.000000,1840.000000
189,144.000000,1840.000000
190,144.000000,1840.000000
191,144.000000,1800.000000
192,144.000000,1840.000000
193,144.000000,1840.000000
194,144.000000,1840.000000
195,144.000000,1840.000000
196,140.000000,1800.000000
197,144.000000,1840.000000
198,144.000000,1840.000000
199,144.000000,1840.000000
200,144.000000,1840.000000
201,140.000000,1840.000000
202,140.000000,1840.000000
203,144.000000,1840.000000
204,140.000000,1840.000000
205,140.000000,1840.000000
206,140.000000,1840.000000
207,140.000000,1840.000000
208,140.000000,1840.000000
209,144.000000,1840.000000
210,144.000000,1840.000000
211,144.000000,1840.000000
212,140.000000,1840.000000
213,140.000000,1840.000000
214,144.000000,1840.000000
215,144.000000,1840.000000
216,144.000000,1840.000000
217,144.000000,1840.000000
218,148.000000,1840.000000
219,144.000000,1840.000000
220,144.000000,1840.000000
221,136.000000,1840.000000
222,144.000000,1880.000000
223,144.000000,1840.000000
224,152.000000,1840.000000
225,148.000000,1840.000000
226,148.000000,1840.000000
227,144.000000,1840.000000
228,144.000000,1840.000000
229,144.000000,1840.000000
230,144.000000,1840.000000
231,144.000000,1840.000000
232,144.000000,1840.000000
233,144.000000,1840.000000
234,144.000000,1840.000000
235,152.000000,1880.000000
236,148.000000,1880.000000
237,152.000000,1840.000000
238,152.000000,1840.000000
239,156.000000,1840.000000
240,152.000000,1840.000000
241,156.000000,1840.000000
242,156.000000,1840.000000
243,156.000000,1840.000000
244,156.000000,1840.000000
245,156.000000,1840.000000
246,156.000000,1840.000000
247,156.000000,1840.000000
248,156.000000,1840.000000
249,156.000000,1840.000000
250,152.000000,1840.000000
251,156.000000,1840.000000
252,160.000000,1840.000000
253,160.000000,1880.000000
254,156.000000,1840.000000
255,156.000000,1880.000000
256,160.000000,1840.000000
257,160.000000,1840.000000
258,160.000000,1840.000000
259,160.000000,1840.000000
260,160.000000,1840.000000
261,156.000000,1840.000000
262,156.000000,1840.000000
263,160.000000,1840.000000
264,160.000000,1840.000000
265,160.000000,1840.000000
266,160.000000,1840.000000
267,156.000000,1840.000000
268,160.000000,1840.000000
269,160.000000,1840.000000
270,160.000000,1840.000000
271,156.000000,1880.000000
272,160.000000,1840.000000
273,160.000000,1840.000000
274,160.000000,1840.000000
275,160.000000,1840.000000
276,160.000000,1840.000000
277,152.000000,1840.000000
278,164.000000,1840.000000
279,160.000000,1840.000000
280,160.000000,1840.000000
281,160.000000,1840.000000
282,160.000000,1840.000000
283,160.000000,1840.000000
284,160.000000,1840.000000
285,160.000000,1840.000000
286,160.000000,1840.000000
287,164.000000,1840.000000
288,160.000000,1840.000000
289,160.000000,1840.000000
290,160.000000,1840.000000
291,160.000000,1840.000000
292,160.000000,1840.000000
293,160.000000,1840.000000
294,160.000000,1840.000000
295,160.000000,1840.000000
296,160.000000,1840.000000
297,160.000000,1840.000000
298,160.000000,1840.000000
299,160.000000,1840.000000
300,164.000000,1840.000000
301,160.000000,1840.000000
302,160.000000,1840.000000
303,160.000000,1840.000000
304,160.000000,1840.000000
305,160.000000,1840.000000
306,164.000000,1840.000000
307,156.000000,1840.000000
308,160.000000,1840.000000
309,160.000000,1840.000000
310,160.000000,1840.000000
311,164.000000,1840.000000
312,160.000000,1840.000000
313,160.000000,1840.000000
314,160.000000,1840.000000
315,160.000000,1840.000000
316,164.000000,1840.000000
317,156.000000,1840.000000
318,164.000000,1840.000000
319,160.000000,1840.000000
320,160.000000,1840.000000
321,160.000000,1840.000000
322,160.000000,1840.000000
323,160.000000,1840.000000
324,156.000000,1840.000000
325,156.000000,1840.000000
326,152.000000,1840.000000
327,156.000000,1840.000000
328,156.000000,1840.000000
329,160.000000,1840.000000
330,156.000000,1840.000000
331,160.000000,1840.000000
332,156.000000,1840.000000
333,156.000000,1840.000000
334,160.000000,1840.000000
335,156.000000,1840.000000
336,160.000000,1840.000000
337,160.000000,1840.000000
338,160.000000,1840.000000
339,160.000000,1840.000000
340,160.000000,1840.000000
341,156.000000,1840.000000
342,160.000000,1840.000000
343,160.000000,1840.000000
344,160.000000,1840.000000
345,156.000000,1840.000000
346,156.000000,1840.000000
347,160.000000,1840.000000
348,156.000000,1840.000000
349,156.000000,1840.000000
350,160.000000,1840.000000
351,156.000000,1880.000000
352,160.000000,1840.000000
353,156.000000,1840.000000
354,156.000000,1840.000000
355,160.000000,1840.000000
356,156.000000,1800.000000
357,160.000000,1840.000000
358,160.000000,1840.000000
359,156.000000,1840.000000
360,160.000000,1840.000000
361,160.000000,1840.000000
362,160.000000,1840.000000
363,160.000000,1840.000000
364,160.000000,1840.000000
365,160.000000,1840.000000
366,160.000000,1840.000000
367,160.000000,1800.000000
368,160.000000,1840.000000
369,160.000000,1840.000000
370,160.000000,1840.000000
371,160.000000,1840.000000
372,160.000000,1840.000000
373,160.000000,1840.000000
374,160.000000,1800.000000
375,160.000000,1840.000000
376,160.000000,1840.000000
377,164.000000,1840.000000
378,160.000000,1840.000000
379,160.000000,1840.000000
380,160.000000,1840.000000
381,164.000000,1840.000000
382,160.000000,1840.000000
383,160.000000,1840.000000
384,160.000000,1840.000000
385,160.000000,1840.000000
386,160.000000,1840.000000
387,164.000000,1840.000000
388,160.000000,1800.000000
389,156.000000,1840.000000
390,156.000000,1840.000000
391,156.000000,1840.000000
392,152.000000,1800.000000
393,156.000000,1840.000000
394,152.000000,1840.000000
395,152.000000,1840.000000
396,156.000000,1840.000000
397,152.000000,1840.000000
398,152.000000,1840.000000
399,152.000000,1800.000000
400,148.000000,1840.000000
401,148.000000,1840.000000
402,148.000000,1840.000000
403,144.000000,1840.000000
404,144.000000,1840.000000
405,144.000000,1800.000000
406,144.000000,1840.000000
407,144.000000,1840.000000
408,144.000000,1840.000000
409,144.000000,1840.000000
410,144.000000,1800.000000
411,144.000000,1840.000000
412,148.000000,1840.000000
413,144.000000,1840.000000
414,144.000000,1840.000000
415,144.000000,1800.000000
416,144.000000,1840.000000
417,144.000000,1840.000000
418,144.000000,1840.000000
419,136.000000,1840.000000
420,144.000000,1800.000000
421,144.000000,1840.000000
422,144.000000,1840.000000
423,128.000000,1840.000000
424,132.000000,1840.000000
425,140.000000,1840.000000
426,176.000000,1800.000000
427,128.000000,1840.000000
428,140.000000,1840.000000
429,144.000000,1840.000000
430,136.000000,1800.000000
431,140.000000,1840.000000
432,148.000000,1840.000000
433,140.000000,1800.000000
434,144.000000,1840.000000
435,140.000000,1840.000000
436,144.000000,1840.000000
437,144.000000,1840.000000
438,144.000000,1840.000000
439,144.000000,1840.000000
440,144.000000,1840.000000
441,144.000000,1800.000000
442,144.000000,1840.000000
443,144.000000,1840.000000
444,148.000000,1800.000000
445,144.000000,1840.000000
446,144.000000,1840.000000
447,144.000000,1840.000000
448,144.000000,1840.000000
449,148.000000,1840.000000
450,144.000000,1800.000000
451,144.000000,1840.000000
452,144.000000,1840.000000
453,144.000000,1800.000000
454,144.000000,1840.000000
455,144.000000,1840.000000
456,140.000000,1800.000000
457,148.000000,1840.000000
458,144.000000,1840.000000
459,148.000000,1840.000000
460,144.000000,1800.000000
461,144.000000,1840.000000
462,148.000000,1840.000000
463,144.000000,1840.000000
464,144.000000,1840.000000
465,144.000000,1840.000000
466,148.000000,1840.000000
467,144.000000,1800.000000
468,148.000000,1840.000000
469,148.000000,1840.000000
470,148.000000,1840.000000
471,144.000000,1840.000000
472,144.000000,1840.000000
473,152.000000,1800.000000
474,148.000000,1840.000000
475,144.000000,1840.000000
476,144.000000,1840.000000
477,152.000000,1800.000000
478,148.000000,1840.000000
479,152.000000,1800.000000
480,144.000000,1840.000000
481,148.000000,1840.000000
482,168.000000,1840.000000
483,152.000000,1840.000000
484,148.000000,1840.000000
485,144.000000,1840.000000
486,140.000000,1840.000000
487,144.000000,1840.000000
488,140.000000,1840.000000
489,144.000000,1800.000000
490,140.000000,1840.000000
491,144.000000,1840.000000
492,140.000000,1840.000000
493,140.000000,1840.000000
494,144.000000,1840.000000
495,140.000000,1840.000000
496,144.000000,1840.000000
497,144.000000,1800.000000
498,144.000000,1840.000000
499,140.000000,1840.000000
500,140.000000,1840.000000
501,140.000000,1840.000000
502,144.000000,1840.000000
503,144.000000,1840.000000
504,140.000000,1840.000000
505,144.000000,1840.000000
506,144.000000,1840.000000
507,148.000000,1840.000000
508,148.000000,1840.000000
509,144.000000,1840.000000
510,144.000000,1840.000000
511,144.000000,1840.000000
512,148.000000,1840.000000
513,148.000000,1840.000000
514,144.000000,1840.000000
515,144.000000,1840.000000
516,148.000000,1840.000000
517,144.000000,1840.000000
518,144.000000,1840.000000
519,144.000000,1840.000000
520,140.000000,1840.000000
521,148.000000,1840.000000
522,144.000000,1840.000000
523,148.000000,1840.000000
524,140.000000,1840.000000
525,144.000000,1840.000000
526,144.000000,1840.000000
527,148.000000,1840.000000
528,148.000000,1880.000000
529,156.000000,1840.000000
530,144.000000,1840.000000
531,148.000000,1840.000000
532,148.000000,1840.000000
533,152.000000,1840.000000
534,152.000000,1840.000000
535,152.000000,1840.000000
536,152.000000,1840.000000
537,156.000000,1840.000000
538,152.000000,1840.000000
539,156.000000,1840.000000
540,156.000000,1840.000000
541,156.000000,1840.000000
542,156.000000,1840.000000
543,156.000000,1840.000000
544,160.000000,1840.000000
545,156.000000,1840.000000
546,160.000000,1840.000000
547,160.000000,1840.000000
548,156.000000,1840.000000
549,156.000000,1840.000000
550,156.000000,1840.000000
551,160.000000,1840.000000
552,160.000000,1840.000000
553,160.000000,1880.000000
554,156.000000,1840.000000
555,160.000000,1840.000000
556,156.000000,1840.000000
557,160.000000,1840.000000
558,156.000000,1840.000000
559,160.000000,1840.000000
560,160.000000,1840.000000
561,160.000000,1840.000000
562,156.000000,1840.000000
563,164.000000,1840.000000
564,160.000000,1840.000000
565,160.000000,1840.000000
566,160.000000,1880.000000
567,160.000000,1840.000000
568,160.000000,1840.000000
569,160.000000,1840.000000
570,160.000000,1880.000000
571,160.000000,1840.000000
572,160.000000,1840.000000
573,164.000000,1840.000000
574,160.000000,1840.000000
575,160.000000,1840.000000
576,160.000000,1840.000000
577,160.000000,1840.000000
578,164.000000,1840.000000
579,164.000000,1840.000000
580,160.000000,1840.000000
581,160.000000,1840.000000
582,160.000000,1840.000000
583,160.000000,1840.000000
584,164.000000,1840.000000
585,160.000000,1840.000000
586,164.000000,1840.000000
587,160.000000,1840.000000
588,160.000000,1840.000000
589,160.000000,1840.000000
590,156.000000,1840.000000
591,160.000000,1840.000000
592,160.000000,1840.000000
593,164.000000,1880.000000
594,160.000000,1840.000000
595,164.000000,1840.000000
596,160.000000,1840.000000
597,164.000000,1840.000000
598,164.000000,1840.000000
599,160.000000,1840.000000
600,160.000000,1840.000000
601,160.000000,1840.000000
602,160.000000,1840.000000
603,160.000000,1840.000000
604,164.000000,1840.000000
605,164.000000,1840.000000
606,156.000000,1840.000000
607,160.000000,1840.000000
608,160.000000,1840.000000
609,160.000000,1840.000000
610,160.000000,1840.000000
611,160.000000,1840.000000
612,160.000000,1840.000000
613,160.000000,1840.000000
614,160.000000,1840.000000
615,160.000000,1840.000000
616,160.000000,1840.000000
617,160.000000,1840.000000
618,164.000000,1840.000000
619,160.000000,1840.000000
620,160.000000,1840.000000
621,148.000000,1840.000000
622,168.000000,1840.000000
623,152.000000,1840.000000
624,156.000000,1880.000000
625,160.000000,1840.000000
626,148.000000,1840.000000
627,156.000000,1840.000000
628,160.000000,1840.000000
629,156.000000,1840.000000
630,160.000000,1840.000000
631,156.000000,1840.000000
632,156.000000,1840.000000
633,156.000000,1840.000000
634,156.000000,1840.000000
635,156.000000,1840.000000
636,160.000000,1880.000000
637,160.000000,1840.000000
638,160.000000,1840.000000
639,156.000000,1840.000000
640,160.000000,1800.000000
641,160.000000,1840.000000
642,160.000000,1840.000000
643,160.000000,1840.000000
644,164.000000,1840.000000
645,156.000000,1840.000000
646,160.000000,1840.000000
647,160.000000,1840.000000
648,160.000000,1840.000000
649,156.000000,1840.000000
650,160.000000,1840.000000
651,160.000000,1840.000000
652,156.000000,1840.000000
653,160.000000,1840.000000
654,160.000000,1840.000000
655,160.000000,1840.000000
656,160.000000,1840.000000
657,160.000000,1840.000000
658,160.000000,1840.000000
659,156.000000,1840.000000
660,160.000000,1840.000000
661,160.000000,1840.000000
662,160.000000,1800.000000
663,164.000000,1840.000000
664,160.000000,1840.000000
665,160.000000,1800.000000
666,160.000000,1840.000000
667,160.000000,1840.000000
668,156.000000,1840.000000
669,160.000000,1840.000000
670,160.000000,1840.000000
671,164.000000,1840.000000
672,160.000000,1840.000000
673,160.000000,1840.000000
674,160.000000,1840.000000
675,164.000000,1840.000000
676,160.000000,1800.000000
677,160.000000,1840.000000
678,160.000000,1840.000000
679,160.000000,1840.000000
680,160.000000,1840.000000
681,160.000000,1840.000000
682,160.000000,1840.000000
683,160.000000,1840.000000
684,160.000000,1800.000000
685,156.000000,1840.000000
686,160.000000,1840.000000
687,156.000000,1840.000000
688,156.000000,1840.000000
689,152.000000,1800.000000
690,152.000000,1840.000000
691,152.000000,1840.000000
692,152.000000,1840.000000
693,144.000000,1840.000000
694,148.000000,1840.000000
695,148.000000,1840.000000
696,152.000000,1840.000000
697,144.000000,1840.000000
698,148.000000,1800.000000
699,144.000000,1840.000000
700,144.000000,1800.000000
701,144.000000,1840.000000
702,148.000000,1840.000000
703,144.000000,1840.000000
704,144.000000,1800.000000
705,148.000000,1840.000000
706,148.000000,1800.000000
707,148.000000,1840.000000
708,144.000000,1840.000000
709,148.000000,1800.000000
710,148.000000,1840.000000
711,148.000000,1840.000000
712,144.000000,1840.000000
713,144.000000,1800.000000
714,148.000000,1840.000000
715,144.000000,1840.000000
716,144.000000,1840.000000
717,148.000000,1840.000000
718,144.000000,1800.000000
719,148.000000,1840.000000
720,144.000000,1840.000000
721,144.000000,1840.000000
722,144.000000,1840.000000
723,144.000000,1840.000000
724,140.000000,1840.000000
725,144.000000,1840.000000
726,140.000000,1800.000000
727,144.000000,1840.000000
728,140.000000,1840.000000
729,140.000000,1840.000000
730,140.000000,1840.000000
731,140.000000,1840.000000
732,140.000000,1840.000000
733,144.000000,1840.000000
