repport_data/power_optimized_final/data_43_003.csv

Channel              :,CH1,CH2
Frequency            :,  ?,  ?
Period               :,  ?,  ?
PK-PK                :,704.0mV?,1.000V
Probe attenuation    :,1X,1X
Voltage per ADC value:,0.250000mV,2.500000mV
Time interval        :,200.00000uS,200.00000uS

index,CH1_Voltage(mV),CH2_Voltage(mV)
1,144.000000,1840.000000
2,144.000000,1840.000000
3,140.000000,1840.000000
4,140.000000,1840.000000
5,144.000000,1840.000000
6,144.000000,1800.000000
7,144.000000,1840.000000
8,148.000000,1840.000000
9,144.000000,1840.000000
10,144.000000,1840.000000
11,144.000000,1840.000000
12,144.000000,1840.000000
13,148.000000,1840.000000
14,148.000000,1840.000000
15,144.000000,1840.000000
16,148.000000,1840.000000
17,148.000000,1800.000000
18,148.000000,1840.000000
19,148.000000,1840.000000
20,148.000000,1840.000000
21,148.000000,1840.000000
22,144.000000,1800.000000
23,148.000000,1800.000000
24,148.000000,1800.000000
25,144.000000,1840.000000
26,144.000000,1800.000000
27,148.000000,1840.000000
28,136.000000,1840.000000
29,140.000000,1840.000000
30,140.000000,1800.000000
31,144.000000,1800.000000
32,144.000000,1800.000000
33,144.000000,1840.000000
34,140.000000,1840.000000
35,144.000000,1800.000000
36,140.000000,1840.000000
37,148.000000,1840.000000
38,144.000000,1800.000000
39,144.000000,1840.000000
40,144.000000,1800.000000
41,144.000000,1800.000000
42,144.000000,1840.000000
43,144.000000,1800.000000
44,140.000000,1840.000000
45,144.000000,1840.000000
46,144.000000,1840.000000
47,144.000000,1840.000000
48,144.000000,1800.000000
49,144.000000,1840.000000
50,144.000000,1840.000000
51,148.000000,1800.000000
52,144.000000,1840.000000
53,144.000000,1840.000000
54,144.000000,1840.000000
55,144.000000,1840.000000
56,148.000000,1840.000000
57,148.000000,1840.000000
58,144.000000,1800.000000
59,148.000000,1840.000000
60,144.000000,1840.000000
61,144.000000,1800.000000
62,144.000000,1840.000000
63,148.000000,1840.000000
64,144.000000,1840.000000
65,148.000000,1840.000000
66,144.000000,1840.000000
67,152.000000,1840.000000
68,148.000000,1840.000000
69,156.000000,1840.000000
70,152.000000,1840.000000
71,152.000000,1840.000000
72,152.000000,1840.000000
73,152.000000,1840.000000
74,152.000000,1840.000000
75,148.000000,1840.000000
76,152.000000,1840.000000
77,152.000000,1840.000000
78,156.000000,1840.000000
79,156.000000,1840.000000
80,168.000000,1840.000000
81,156.000000,1840.000000
82,160.000000,1840.000000
83,160.000000,1840.000000
84,136.000000,1840.000000
85,160.000000,1880.000000
86,156.000000,1840.000000
87,156.000000,1840.000000
88,156.000000,1840.000000
89,156.000000,1840.000000
90,160.000000,1840.000000
91,160.000000,1840.000000
92,160.000000,1840.000000
93,156.000000,1840.000000
94,156.000000,1840.000000
95,156.000000,1840.000000
96,160.000000,1840.000000
97,160.000000,1840.000000
98,160.000000,1840.000000
99,156.000000,1840.000000
100,160.000000,1840.000000
101,156.000000,1840.000000
102,156.000000,1840.000000
103,160.000000,1840.000000
104,156.000000,1840.000000
105,156.000000,1840.000000
106,156.000000,1840.000000
107,160.000000,1840.000000
108,164.000000,1840.000000
109,156.000000,1840.000000
110,160.000000,1840.000000
111,160.000000,1840.000000
112,160.000000,1840.000000
113,164.000000,1840.000000
114,160.000000,1840.000000
115,164.000000,1840.000000
116,160.000000,1840.000000
117,160.000000,1840.000000
118,160.000000,1880.000000
119,156.000000,1840.000000
120,160.000000,1840.000000
121,164.000000,1840.000000
122,160.000000,1840.000000
123,160.000000,1840.000000
124,156.000000,1840.000000
125,160.000000,1840.000000
126,160.000000,1840.000000
127,160.000000,1840.000000
128,160.000000,1840.000000
129,156.000000,1840.000000
130,160.000000,1840.000000
131,160.000000,1840.000000
132,160.000000,1840.000000
133,164.000000,1840.000000
134,160.000000,1840.000000
135,160.000000,1840.000000
136,164.000000,1840.000000
137,148.000000,1840.000000
138,164.000000,1840.000000
139,160.000000,1840.000000
140,156.000000,1840.000000
141,176.000000,1840.000000
142,160.000000,1840.000000
143,164.000000,1840.000000
144,164.000000,1840.000000
145,160.000000,1840.000000
146,164.000000,1840.000000
147,164.000000,1840.000000
148,164.000000,1840.000000
149,160.000000,1840.000000
150,160.000000,1840.000000
151,164.000000,1840.000000
152,164.000000,1840.000000
153,156.000000,1840.000000
154,160.000000,1840.000000
155,164.000000,1840.000000
156,160.000000,1840.000000
157,160.000000,1840.000000
158,160.000000,1840.000000
159,160.000000,1840.000000
160,164.000000,1840.000000
161,160.000000,1840.000000
162,156.000000,1840.000000
163,160.000000,1840.000000
164,160.000000,1800.000000
165,160.000000,1840.000000
166,160.000000,1840.000000
167,160.000000,1840.000000
168,160.000000,1840.000000
169,156.000000,1840.000000
170,160.000000,1840.000000
171,164.000000,1840.000000
172,156.000000,1840.000000
173,160.000000,1840.000000
174,160.000000,1840.000000
175,160.000000,1840.000000
176,160.000000,1840.000000
177,160.000000,1840.000000
178,160.000000,1840.000000
179,160.000000,1840.000000
180,148.000000,1840.000000
181,160.000000,1840.000000
182,156.000000,1840.000000
183,160.000000,1840.000000
184,156.000000,1840.000000
185,160.000000,1840.000000
186,156.000000,1840.000000
187,156.000000,1840.000000
188,160.000000,1840.000000
189,156.000000,1840.000000
190,156.000000,1840.000000
191,160.000000,1840.000000
192,156.000000,1840.000000
193,160.000000,1840.000000
194,156.000000,1840.000000
195,156.000000,1840.000000
196,160.000000,1800.000000
197,160.000000,1840.000000
198,160.000000,1840.000000
199,164.000000,1840.000000
200,160.000000,1840.000000
201,160.000000,1840.000000
202,160.000000,1840.000000
203,160.000000,1840.000000
204,156.000000,1840.000000
205,160.000000,1840.000000
206,160.000000,1840.000000
207,160.000000,1840.000000
208,156.000000,1840.000000
209,160.000000,1840.000000
210,160.000000,1840.000000
211,160.000000,1840.000000
212,160.000000,1840.000000
213,160.000000,1840.000000
214,160.000000,1800.000000
215,160.000000,1840.000000
216,164.000000,1840.000000
217,160.000000,1800.000000
218,160.000000,1800.000000
219,156.000000,1840.000000
220,156.000000,1840.000000
221,156.000000,1840.000000
222,160.000000,1840.000000
223,156.000000,1840.000000
224,164.000000,1840.000000
225,160.000000,1800.000000
226,160.000000,1840.000000
227,156.000000,1800.000000
228,160.000000,1840.000000
229,152.000000,1800.000000
230,160.000000,1840.000000
231,152.000000,1840.000000
232,152.000000,1800.000000
233,144.000000,1840.000000
234,156.000000,1840.000000
235,148.000000,1840.000000
236,152.000000,1840.000000
237,140.000000,1840.000000
238,148.000000,1840.000000
239,148.000000,1840.000000
240,148.000000,1800.000000
241,152.000000,1800.000000
242,144.000000,1840.000000
243,148.000000,1840.000000
244,148.000000,1840.000000
245,148.000000,1840.000000
246,148.000000,1800.000000
247,148.000000,1840.000000
248,148.000000,1840.000000
249,144.000000,1840.000000
250,148.000000,1840.000000
251,144.000000,1840.000000
252,144.000000,1840.000000
253,148.000000,1840.000000
254,144.000000,1840.000000
255,144.000000,1840.000000
256,148.000000,1840.000000
257,148.000000,1800.000000
258,144.000000,1840.000000
259,144.000000,1800.000000
260,144.000000,1840.000000
261,148.000000,1800.000000
262,144.000000,1800.000000
263,144.000000,1840.000000
264,144.000000,1800.000000
265,144.000000,1840.000000
266,148.000000,1840.000000
267,144.000000,1840.000000
268,148.000000,1840.000000
269,144.000000,1840.000000
270,148.000000,1840.000000
271,144.000000,1800.000000
272,148.000000,1840.000000
273,144.000000,1840.000000
274,144.000000,1840.000000
275,144.000000,1840.000000
276,136.000000,1840.000000
277,144.000000,1840.000000
278,144.000000,1840.000000
279,144.000000,1800.000000
280,144.000000,1840.000000
281,140.000000,1840.000000
282,136.000000,1840.000000
283,144.000000,1840.000000
284,128.000000,1840.000000
285,144.000000,1800.000000
286,144.000000,1840.000000
287,144.000000,1840.000000
288,140.000000,1840.000000
289,144.000000,1840.000000
290,140.000000,1840.000000
291,144.000000,1840.000000
292,140.000000,1840.000000
293,148.000000,1840.000000
294,144.000000,1840.000000
295,144.000000,1840.000000
296,144.000000,1800.000000
297,148.000000,1840.000000
298,144.000000,1800.000000
299,148.000000,1840.000000
300,144.000000,1800.000000
301,140.000000,1840.000000
302,144.000000,1800.000000
303,144.000000,1800.000000
304,144.000000,1840.000000
305,148.000000,1800.000000
306,144.000000,1800.000000
307,144.000000,1840.000000
308,144.000000,1800.000000
309,144.000000,1840.000000
310,144.000000,1840.000000
311,148.000000,1840.000000
312,144.000000,1840.000000
313,144.000000,1840.000000
314,148.000000,1840.000000
315,144.000000,1840.000000
316,148.000000,1800.000000
317,144.000000,1840.000000
318,144.000000,1840.000000
319,148.000000,1840.000000
320,144.000000,1840.000000
321,144.000000,1840.000000
322,144.000000,1840.000000
323,144.000000,1840.000000
324,148.000000,1840.000000
325,144.000000,1800.000000
326,144.000000,1800.000000
327,144.000000,1800.000000
328,140.000000,1800.000000
329,148.000000,1800.000000
330,144.000000,1840.000000
331,144.000000,1840.000000
332,140.000000,1800.000000
333,144.000000,1800.000000
334,140.000000,1840.000000
335,144.000000,1840.000000
336,144.000000,1840.000000
337,148.000000,1800.000000
338,148.000000,1800.000000
339,140.000000,1840.000000
340,192.000000,1840.000000
341,148.000000,1800.000000
342,144.000000,1840.000000
343,144.000000,1840.000000
344,136.000000,1840.000000
345,144.000000,1840.000000
346,148.000000,1840.000000
347,148.000000,1840.000000
348,144.000000,1840.000000
349,148.000000,1840.000000
350,148.000000,1840.000000
351,148.000000,1840.000000
352,148.000000,1840.000000
353,148.000000,1840.000000
354,148.000000,1840.000000
355,148.000000,1840.000000
356,148.000000,1840.000000
357,148.000000,1840.000000
358,148.000000,1840.000000
359,148.000000,1800.000000
360,144.000000,1840.000000
361,144.000000,1840.000000
362,152.000000,1840.000000
363,152.000000,1840.000000
364,152.000000,1840.000000
365,148.000000,1840.000000
366,152.000000,1840.000000
367,152.000000,1840.000000
368,152.000000,1840.000000
369,156.000000,1840.000000
370,156.000000,1840.000000
371,152.000000,1840.000000
372,156.000000,1840.000000
373,156.000000,1840.000000
374,156.000000,1840.000000
375,152.000000,1840.000000
376,156.000000,1840.000000
377,156.000000,1840.000000
378,164.000000,1840.000000
379,152.000000,1840.000000
380,156.000000,1840.000000
381,152.000000,1840.000000
382,156.000000,1840.000000
383,152.000000,1840.000000
384,156.000000,1840.000000
385,152.000000,1840.000000
386,156.000000,1840.000000
387,152.000000,1840.000000
388,160.000000,1840.000000
389,156.000000,1840.000000
390,156.000000,1840.000000
391,152.000000,1840.000000
392,156.000000,1840.000000
393,156.000000,1840.000000
394,160.000000,1840.000000
395,160.000000,1840.000000
396,160.000000,1840.000000
397,156.000000,1840.000000
398,160.000000,1880.000000
399,160.000000,1840.000000
400,160.000000,1840.000000
401,160.000000,1840.000000
402,156.000000,1840.000000
403,160.000000,1840.000000
404,156.000000,1880.000000
405,160.000000,1840.000000
406,160.000000,1840.000000
407,160.000000,1840.000000
408,160.000000,1840.000000
409,160.000000,1840.000000
410,160.000000,1840.000000
411,164.000000,1840.000000
412,156.000000,1840.000000
413,160.000000,1840.000000
414,156.000000,1840.000000
415,160.000000,1840.000000
416,160.000000,1840.000000
417,160.000000,1840.000000
418,156.000000,1840.000000
419,156.000000,1840.000000
420,156.000000,1840.000000
421,156.000000,1840.000000
422,160.000000,1840.000000
423,160.000000,1840.000000
424,156.000000,1840.000000
425,160.000000,1840.000000
426,160.000000,1840.000000
427,160.000000,1840.000000
428,160.000000,1840.000000
429,160.000000,1840.000000
430,160.000000,1840.000000
431,160.000000,1840.000000
432,164.000000,1840.000000
433,164.000000,1840.000000
434,160.000000,1800.000000
435,164.000000,1840.000000
436,164.000000,1840.000000
437,164.000000,1840.000000
438,160.000000,1840.000000
439,164.000000,1840.000000
440,164.000000,1840.000000
441,160.000000,1840.000000
442,160.000000,1840.000000
443,160.000000,1840.000000
444,164.000000,1840.000000
445,160.000000,1840.000000
446,160.000000,1840.000000
447,160.000000,1840.000000
448,160.000000,1840.000000
449,160.000000,1840.000000
450,160.000000,1800.000000
451,160.000000,1840.000000
452,160.000000,1840.000000
453,164.000000,1840.000000
454,156.000000,1840.000000
455,160.000000,1840.000000
456,160.000000,1840.000000
457,160.000000,1840.000000
458,160.000000,1840.000000
459,156.000000,1840.000000
460,160.000000,1840.000000
461,160.000000,1840.000000
462,164.000000,1840.000000
463,160.000000,1840.000000
464,160.000000,1840.000000
465,156.000000,1840.000000
466,164.000000,1840.000000
467,160.000000,1840.000000
468,160.000000,1840.000000
469,156.000000,1840.000000
470,156.000000,1840.000000
471,160.000000,1840.000000
472,160.000000,1800.000000
473,160.000000,1840.000000
474,156.000000,1840.000000
475,160.000000,1840.000000
476,152.000000,1840.000000
477,160.000000,1880.000000
478,160.000000,1840.000000
479,160.000000,1840.000000
480,152.000000,1800.000000
481,160.000000,1840.000000
482,156.000000,1840.000000
483,164.000000,1840.000000
484,160.000000,1840.000000
485,168.000000,1840.000000
486,152.000000,1840.000000
487,148.000000,1800.000000
488,156.000000,1840.000000
489,156.000000,1840.000000
490,156.000000,1840.000000
491,152.000000,1840.000000
492,160.000000,1840.000000
493,156.000000,1840.000000
494,160.000000,1800.000000
495,160.000000,1840.000000
496,160.000000,1840.000000
497,160.000000,1840.000000
498,156.000000,1840.000000
499,160.000000,1840.000000
500,160.000000,1840.000000
501,160.000000,1840.000000
502,160.000000,1840.000000
503,160.000000,1840.000000
504,160.000000,1840.000000
505,164.000000,1840.000000
506,164.000000,1840.000000
507,160.000000,1840.000000
508,160.000000,1840.000000
509,160.000000,1800.000000
510,160.000000,1840.000000
511,160.000000,1840.000000
512,160.000000,1840.000000
513,160.000000,1840.000000
514,160.000000,1840.000000
515,156.000000,1840.000000
516,160.000000,1840.000000
517,160.000000,1800.000000
518,160.000000,1840.000000
519,156.000000,1840.000000
520,156.000000,1840.000000
521,156.000000,1840.000000
522,152.000000,1840.000000
523,156.000000,1840.000000
524,156.000000,1840.000000
525,152.000000,1840.000000
526,152.000000,1800.000000
527,148.000000,1800.000000
528,148.000000,1800.000000
529,148.000000,1800.000000
530,148.000000,1840.000000
531,148.000000,1800.000000
532,148.000000,1840.000000
533,152.000000,1840.000000
534,148.000000,1800.000000
535,148.000000,1840.000000
536,148.000000,1840.000000
537,152.000000,1840.000000
538,148.000000,1840.000000
539,148.000000,1840.000000
540,148.000000,1840.000000
541,148.000000,1800.000000
542,148.000000,1840.000000
543,148.000000,1840.000000
544,148.000000,1840.000000
545,144.000000,1840.000000
546,148.000000,1840.000000
547,148.000000,1840.000000
548,148.000000,1840.000000
549,144.000000,1800.000000
550,148.000000,1840.000000
551,148.000000,1800.000000
552,148.000000,1840.000000
553,152.000000,1840.000000
554,144.000000,1840.000000
555,144.000000,1800.000000
556,144.000000,1800.000000
557,144.000000,1840.000000
558,144.000000,1840.000000
559,144.000000,1840.000000
560,144.000000,1840.000000
561,144.000000,1800.000000
562,152.000000,1840.000000
563,144.000000,1840.000000
564,144.000000,1840.000000
565,144.000000,1840.000000
566,144.000000,1800.000000
567,140.000000,1840.000000
568,148.000000,1840.000000
569,144.000000,1840.000000
570,144.000000,1800.000000
571,148.000000,1840.000000
572,144.000000,1840.000000
573,148.000000,1840.000000
574,140.000000,1800.000000
575,144.000000,1840.000000
576,140.000000,1840.000000
577,140.000000,1840.000000
578,144.000000,1840.000000
579,144.000000,1840.000000
580,144.000000,1800.000000
581,144.000000,1800.000000
582,144.000000,1840.000000
583,144.000000,1840.000000
584,144.000000,1840.000000
585,140.000000,1840.000000
586,144.000000,1840.000000
587,140.000000,1800.000000
588,140.000000,1840.000000
589,144.000000,1840.000000
590,144.000000,1840.000000
591,140.000000,1840.000000
592,140.000000,1800.000000
593,140.000000,1840.000000
594,148.000000,1840.000000
595,144.000000,1840.000000
596,140.000000,1840.000000
597,144.000000,1800.000000
598,144.000000,1840.000000
599,144.000000,1840.000000
600,144.000000,1840.000000
601,140.000000,1800.000000
602,144.000000,1840.000000
603,148.000000,1840.000000
604,144.000000,1800.000000
605,144.000000,1800.000000
606,148.000000,1800.000000
607,144.000000,1840.000000
608,144.000000,1800.000000
609,148.000000,1840.000000
610,148.000000,1840.000000
611,148.000000,1800.000000
612,148.000000,1840.000000
613,148.000000,1840.000000
614,144.000000,1840.000000
615,144.000000,1840.000000
616,144.000000,1840.000000
617,140.000000,1840.000000
618,136.000000,1840.000000
619,140.000000,1800.000000
620,140.000000,1840.000000
621,144.000000,1800.000000
622,144.000000,1840.000000
623,140.000000,1840.000000
624,140.000000,1840.000000
625,136.000000,1840.000000
626,144.000000,1840.000000
627,140.000000,1800.000000
628,144.000000,1840.000000
629,148.000000,1840.000000
630,144.000000,1840.000000
631,144.000000,1840.000000
632,144.000000,1840.000000
633,144.000000,1840.000000
634,140.000000,1840.000000
635,144.000000,1800.000000
636,148.000000,1840.000000
637,148.000000,1840.000000
638,148.000000,1840.000000
639,148.000000,1840.000000
640,152.000000,1840.000000
641,144.000000,1840.000000
642,148.000000,1840.000000
643,148.000000,1840.000000
644,148.000000,1840.000000
645,148.000000,1840.000000
646,148.000000,1840.000000
647,152.000000,1840.000000
648,144.000000,1880.000000
649,144.000000,1840.000000
650,148.000000,1840.000000
651,144.000000,1840.000000
652,148.000000,1840.000000
653,144.000000,1840.000000
654,144.000000,1840.000000
655,152.000000,1840.000000
656,148.000000,1840.000000
657,148.000000,1840.000000
658,148.000000,1840.000000
659,148.000000,1840.000000
660,148.000000,1840.000000
661,152.000000,1840.000000
662,152.000000,1840.000000
663,156.000000,1840.000000
664,156.000000,1840.000000
665,156.000000,1840.000000
666,156.000000,1840.000000
667,156.000000,1840.000000
668,156.000000,1840.000000
669,156.000000,1840.000000
670,156.000000,1840.000000
671,156.000000,1880.000000
672,156.000000,1840.000000
673,160.000000,1840.000000
674,160.000000,1840.000000
675,160.000000,1840.000000
676,152.000000,1840.000000
677,160.000000,1840.000000
678,160.000000,1840.000000
679,164.000000,1840.000000
680,156.000000,1840.000000
681,160.000000,1840.000000
682,156.000000,1840.000000
683,160.000000,1840.000000
684,160.000000,1840.000000
685,140.000000,1840.000000
686,148.000000,1840.000000
687,152.000000,1840.000000
688,156.000000,1840.000000
689,152.000000,1840.000000
690,152.000000,1840.000000
691,156.000000,1840.000000
692,156.000000,1840.000000
693,160.000000,1840.000000
694,156.000000,1840.000000
695,156.000000,1840.000000
696,160.000000,1840.000000
697,156.000000,1840.000000
698,156.000000,1840.000000
699,160.000000,1840.000000
700,160.000000,1840.000000
701,160.000000,1840.000000
702,160.000000,1840.000000
703,160.000000,1800.000000
704,160.000000,1840.000000
705,164.000000,1840.000000
706,160.000000,1840.000000
707,160.000000,1840.000000
708,160.000000,1840.000000
709,160.000000,1840.000000
710,160.000000,1840.000000
711,164.000000,1840.000000
712,160.000000,1840.000000
713,160.000000,1840.000000
714,160.000000,1840.000000
715,160.000000,1840.000000
716,160.000000,1840.000000
717,160.000000,1840.000000
718,160.000000,1840.000000
719,156.000000,1840.000000
720,160.000000,1840.000000
721,160.000000,1840.000000
722,160.000000,1840.000000
723,160.000000,1840.000000
724,160.000000,1840.000000
725,160.000000,1840.000000
726,160.000000,1840.000000
727,160.000000,1840.000000
728,156.000000,1840.000000
729,160.000000,1840.000000
730,160.000000,1840.000000
731,160.000000,1840.000000
732,160.000000,1840.000000
733,160.000000,1840.000000
