repport_data/power_optimized_final/data_43_000.csv

Channel              :,CH1,CH2
Frequency            :,  ?,  ?
Period               :,  ?,  ?
PK-PK                :,740.0mV?,960.0mV
Probe attenuation    :,1X,1X
Voltage per ADC value:,0.250000mV,2.500000mV
Time interval        :,200.00000uS,200.00000uS

index,CH1_Voltage(mV),CH2_Voltage(mV)
1,164.000000,1880.000000
2,164.000000,1880.000000
3,156.000000,1880.000000
4,160.000000,1880.000000
5,160.000000,1880.000000
6,160.000000,1880.000000
7,160.000000,1880.000000
8,156.000000,1920.000000
9,160.000000,1880.000000
10,160.000000,1880.000000
11,156.000000,1880.000000
12,156.000000,1880.000000
13,156.000000,1880.000000
14,160.000000,1880.000000
15,156.000000,1880.000000
16,160.000000,1880.000000
17,160.000000,1880.000000
18,160.000000,1880.000000
19,160.000000,1880.000000
20,160.000000,1880.000000
21,156.000000,1880.000000
22,160.000000,1880.000000
23,156.000000,1880.000000
24,160.000000,1880.000000
25,160.000000,1880.000000
26,160.000000,1880.000000
27,160.000000,1880.000000
28,160.000000,1880.000000
29,160.000000,1880.000000
30,156.000000,1880.000000
31,160.000000,1880.000000
32,160.000000,1880.000000
33,152.000000,1880.000000
34,156.000000,1880.000000
35,160.000000,1880.000000
36,152.000000,1880.000000
37,160.000000,1880.000000
38,160.000000,1880.000000
39,140.000000,1880.000000
40,152.000000,1880.000000
41,160.000000,1880.000000
42,160.000000,1880.000000
43,160.000000,1880.000000
44,160.000000,1880.000000
45,156.000000,1880.000000
46,160.000000,1880.000000
47,160.000000,1880.000000
48,156.000000,1880.000000
49,164.000000,1840.000000
50,156.000000,1880.000000
51,160.000000,1880.000000
52,160.000000,1840.000000
53,160.000000,1880.000000
54,160.000000,1880.000000
55,156.000000,1880.000000
56,160.000000,1880.000000
57,160.000000,1880.000000
58,156.000000,1880.000000
59,156.000000,1880.000000
60,160.000000,1880.000000
61,152.000000,1840.000000
62,160.000000,1840.000000
63,160.000000,1880.000000
64,160.000000,1880.000000
65,160.000000,1880.000000
66,160.000000,1880.000000
67,156.000000,1880.000000
68,160.000000,1880.000000
69,160.000000,1840.000000
70,160.000000,1840.000000
71,160.000000,1840.000000
72,160.000000,1880.000000
73,160.000000,1880.000000
74,160.000000,1880.000000
75,160.000000,1880.000000
76,160.000000,1880.000000
77,160.000000,1840.000000
78,160.000000,1880.000000
79,156.000000,1840.000000
80,156.000000,1880.000000
81,156.000000,1880.000000
82,152.000000,1840.000000
83,152.000000,1840.000000
84,148.000000,1840.000000
85,156.000000,1880.000000
86,152.000000,1840.000000
87,152.000000,1880.000000
88,148.000000,1880.000000
89,156.000000,1880.000000
90,148.000000,1840.000000
91,140.000000,1880.000000
92,144.000000,1880.000000
93,148.000000,1880.000000
94,148.000000,1880.000000
95,136.000000,1880.000000
96,148.000000,1840.000000
97,148.000000,1840.000000
98,148.000000,1840.000000
99,144.000000,1880.000000
100,148.000000,1880.000000
101,148.000000,1880.000000
102,144.000000,1880.000000
103,144.000000,1840.000000
104,148.000000,1880.000000
105,148.000000,1880.000000
106,148.000000,1840.000000
107,148.000000,1840.000000
108,148.000000,1840.000000
109,148.000000,1840.000000
110,144.000000,1840.000000
111,144.000000,1840.000000
112,148.000000,1840.000000
113,148.000000,1840.000000
114,148.000000,1840.000000
115,148.000000,1880.000000
116,144.000000,1880.000000
117,140.000000,1840.000000
118,140.000000,1840.000000
119,144.000000,1840.000000
120,144.000000,1840.000000
121,144.000000,1840.000000
122,144.000000,1880.000000
123,144.000000,1840.000000
124,144.000000,1840.000000
125,144.000000,1880.000000
126,140.000000,1840.000000
127,144.000000,1880.000000
128,140.000000,1880.000000
129,144.000000,1880.000000
130,144.000000,1880.000000
131,144.000000,1840.000000
132,144.000000,1880.000000
133,148.000000,1840.000000
134,140.000000,1840.000000
135,144.000000,1840.000000
136,144.000000,1840.000000
137,144.000000,1840.000000
138,140.000000,1880.000000
139,144.000000,1880.000000
140,140.000000,1880.000000
141,148.000000,1880.000000
142,140.000000,1840.000000
143,140.000000,1880.000000
144,140.000000,1880.000000
145,140.000000,1880.000000
146,144.000000,1880.000000
147,144.000000,1880.000000
148,144.000000,1880.000000
149,144.000000,1880.000000
150,144.000000,1880.000000
151,144.000000,1880.000000
152,144.000000,1840.000000
153,140.000000,1840.000000
154,144.000000,1880.000000
155,144.000000,1840.000000
156,140.000000,1880.000000
157,144.000000,1880.000000
158,140.000000,1880.000000
159,144.000000,1880.000000
160,148.000000,1840.000000
161,148.000000,1880.000000
162,144.000000,1840.000000
163,144.000000,1840.000000
164,144.000000,1880.000000
165,144.000000,1880.000000
166,148.000000,1840.000000
167,144.000000,1880.000000
168,148.000000,1840.000000
169,144.000000,1880.000000
170,144.000000,1880.000000
171,144.000000,1880.000000
172,140.000000,1880.000000
173,144.000000,1880.000000
174,144.000000,1880.000000
175,140.000000,1880.000000
176,144.000000,1880.000000
177,144.000000,1880.000000
178,144.000000,1840.000000
179,144.000000,1840.000000
180,144.000000,1880.000000
181,144.000000,1880.000000
182,144.000000,1880.000000
183,144.000000,1840.000000
184,144.000000,1880.000000
185,148.000000,1880.000000
186,140.000000,1840.000000
187,144.000000,1880.000000
188,144.000000,1880.000000
189,144.000000,1880.000000
190,144.000000,1880.000000
191,148.000000,1880.000000
192,148.000000,1880.000000
193,140.000000,1880.000000
194,144.000000,1880.000000
195,144.000000,1880.000000
196,148.000000,1880.000000
197,144.000000,1880.000000
198,144.000000,1880.000000
199,144.000000,1840.000000
200,148.000000,1880.000000
201,148.000000,1880.000000
202,148.000000,1880.000000
203,148.000000,1880.000000
204,148.000000,1880.000000
205,148.000000,1880.000000
206,148.000000,1840.000000
207,148.000000,1880.000000
208,148.000000,1880.000000
209,144.000000,1880.000000
210,144.000000,1880.000000
211,148.000000,1880.000000
212,148.000000,1880.000000
213,148.000000,1880.000000
214,144.000000,1880.000000
215,148.000000,1880.000000
216,148.000000,1880.000000
217,148.000000,1880.000000
218,152.000000,1840.000000
219,152.000000,1840.000000
220,148.000000,1880.000000
221,152.000000,1880.000000
222,152.000000,1880.000000
223,152.000000,1880.000000
224,152.000000,1880.000000
225,152.000000,1880.000000
226,152.000000,1880.000000
227,152.000000,1880.000000
228,156.000000,1880.000000
229,156.000000,1880.000000
230,152.000000,1880.000000
231,156.000000,1880.000000
232,152.000000,1880.000000
233,156.000000,1880.000000
234,148.000000,1880.000000
235,144.000000,1880.000000
236,156.000000,1880.000000
237,128.000000,1880.000000
238,172.000000,1840.000000
239,156.000000,1880.000000
240,156.000000,1880.000000
241,144.000000,1880.000000
242,152.000000,1880.000000
243,152.000000,1880.000000
244,156.000000,1880.000000
245,156.000000,1880.000000
246,156.000000,1880.000000
247,160.000000,1880.000000
248,156.000000,1840.000000
249,160.000000,1880.000000
250,160.000000,1880.000000
251,160.000000,1880.000000
252,160.000000,1840.000000
253,160.000000,1880.000000
254,160.000000,1880.000000
255,160.000000,1840.000000
256,160.000000,1880.000000
257,156.000000,1880.000000
258,160.000000,1880.000000
259,156.000000,1880.000000
260,160.000000,1840.000000
261,156.000000,1880.000000
262,160.000000,1920.000000
263,160.000000,1880.000000
264,156.000000,1880.000000
265,160.000000,1880.000000
266,160.000000,1880.000000
267,160.000000,1880.000000
268,160.000000,1880.000000
269,156.000000,1880.000000
270,164.000000,1880.000000
271,160.000000,1880.000000
272,160.000000,1880.000000
273,156.000000,1880.000000
274,160.000000,1880.000000
275,160.000000,1880.000000
276,160.000000,1920.000000
277,160.000000,1880.000000
278,160.000000,1880.000000
279,160.000000,1880.000000
280,160.000000,1880.000000
281,160.000000,1880.000000
282,160.000000,1880.000000
283,160.000000,1920.000000
284,156.000000,1880.000000
285,160.000000,1880.000000
286,156.000000,1880.000000
287,160.000000,1880.000000
288,160.000000,1880.000000
289,160.000000,1880.000000
290,160.000000,1880.000000
291,160.000000,1880.000000
292,164.000000,1880.000000
293,164.000000,1880.000000
294,128.000000,1880.000000
295,160.000000,1880.000000
296,156.000000,1880.000000
297,160.000000,1880.000000
298,160.000000,1880.000000
299,160.000000,1880.000000
300,160.000000,1880.000000
301,160.000000,1880.000000
302,160.000000,1840.000000
303,160.000000,1880.000000
304,160.000000,1840.000000
305,160.000000,1880.000000
306,160.000000,1880.000000
307,160.000000,1880.000000
308,160.000000,1880.000000
309,160.000000,1880.000000
310,160.000000,1840.000000
311,156.000000,1880.000000
312,164.000000,1840.000000
313,160.000000,1880.000000
314,160.000000,1880.000000
315,164.000000,1880.000000
316,156.000000,1880.000000
317,160.000000,1880.000000
318,160.000000,1880.000000
319,160.000000,1840.000000
320,160.000000,1880.000000
321,160.000000,1880.000000
322,156.000000,1840.000000
323,160.000000,1880.000000
324,156.000000,1880.000000
325,160.000000,1880.000000
326,156.000000,1880.000000
327,160.000000,1880.000000
328,160.000000,1880.000000
329,160.000000,1880.000000
330,160.000000,1880.000000
331,156.000000,1840.000000
332,156.000000,1880.000000
333,160.000000,1880.000000
334,160.000000,1840.000000
335,156.000000,1880.000000
336,156.000000,1880.000000
337,156.000000,1880.000000
338,156.000000,1880.000000
339,156.000000,1880.000000
340,156.000000,1880.000000
341,148.000000,1880.000000
342,156.000000,1880.000000
343,160.000000,1880.000000
344,156.000000,1880.000000
345,160.000000,1840.000000
346,156.000000,1880.000000
347,156.000000,1880.000000
348,160.000000,1880.000000
349,160.000000,1880.000000
350,160.000000,1840.000000
351,156.000000,1840.000000
352,160.000000,1880.000000
353,160.000000,1840.000000
354,160.000000,1840.000000
355,156.000000,1880.000000
356,160.000000,1880.000000
357,160.000000,1840.000000
358,160.000000,1880.000000
359,156.000000,1880.000000
360,160.000000,1880.000000
361,160.000000,1880.000000
362,156.000000,1880.000000
363,160.000000,1880.000000
364,156.000000,1880.000000
365,156.000000,1880.000000
366,156.000000,1840.000000
367,160.000000,1880.000000
368,156.000000,1880.000000
369,160.000000,1840.000000
370,160.000000,1880.000000
371,160.000000,1880.000000
372,160.000000,1880.000000
373,156.000000,1840.000000
374,156.000000,1840.000000
375,152.000000,1840.000000
376,152.000000,1840.000000
377,176.000000,1840.000000
378,152.000000,1840.000000
379,156.000000,1840.000000
380,152.000000,1840.000000
381,156.000000,1880.000000
382,152.000000,1880.000000
383,152.000000,1840.000000
384,148.000000,1880.000000
385,148.000000,1880.000000
386,156.000000,1840.000000
387,148.000000,1880.000000
388,148.000000,1880.000000
389,148.000000,1880.000000
390,148.000000,1840.000000
391,148.000000,1880.000000
392,152.000000,1840.000000
393,148.000000,1840.000000
394,148.000000,1880.000000
395,144.000000,1880.000000
396,148.000000,1880.000000
397,148.000000,1840.000000
398,144.000000,1880.000000
399,144.000000,1840.000000
400,144.000000,1840.000000
401,152.000000,1840.000000
402,144.000000,1880.000000
403,148.000000,1880.000000
404,148.000000,1880.000000
405,144.000000,1840.000000
406,144.000000,1880.000000
407,144.000000,1880.000000
408,144.000000,1880.000000
409,140.000000,1880.000000
410,148.000000,1840.000000
411,144.000000,1840.000000
412,144.000000,1840.000000
413,148.000000,1880.000000
414,148.000000,1880.000000
415,144.000000,1840.000000
416,144.000000,1840.000000
417,148.000000,1840.000000
418,144.000000,1880.000000
419,144.000000,1840.000000
420,144.000000,1840.000000
421,148.000000,1880.000000
422,144.000000,1840.000000
423,144.000000,1840.000000
424,144.000000,1880.000000
425,148.000000,1880.000000
426,144.000000,1840.000000
427,140.000000,1880.000000
428,148.000000,1840.000000
429,148.000000,1880.000000
430,144.000000,1880.000000
431,148.000000,1880.000000
432,144.000000,1880.000000
433,144.000000,1880.000000
434,136.000000,1840.000000
435,140.000000,1840.000000
436,144.000000,1880.000000
437,144.000000,1840.000000
438,152.000000,1880.000000
439,152.000000,1840.000000
440,136.000000,1840.000000
441,156.000000,1840.000000
442,136.000000,1880.000000
443,140.000000,1880.000000
444,140.000000,1840.000000
445,144.000000,1880.000000
446,140.000000,1880.000000
447,144.000000,1840.000000
448,144.000000,1880.000000
449,144.000000,1880.000000
450,144.000000,1880.000000
451,144.000000,1840.000000
452,148.000000,1880.000000
453,144.000000,1880.000000
454,144.000000,1840.000000
455,144.000000,1880.000000
456,148.000000,1840.000000
457,148.000000,1880.000000
458,144.000000,1880.000000
459,144.000000,1880.000000
460,144.000000,1880.000000
461,148.000000,1880.000000
462,144.000000,1840.000000
463,148.000000,1840.000000
464,144.000000,1880.000000
465,144.000000,1880.000000
466,148.000000,1840.000000
467,148.000000,1840.000000
468,144.000000,1840.000000
469,144.000000,1880.000000
470,144.000000,1840.000000
471,144.000000,1840.000000
472,144.000000,1880.000000
473,140.000000,1880.000000
474,140.000000,1880.000000
475,140.000000,1880.000000
476,144.000000,1880.000000
477,144.000000,1880.000000
478,144.000000,1880.000000
479,144.000000,1880.000000
480,140.000000,1880.000000
481,144.000000,1880.000000
482,140.000000,1880.000000
483,140.000000,1880.000000
484,144.000000,1880.000000
485,136.000000,1880.000000
486,140.000000,1880.000000
487,140.000000,1880.000000
488,144.000000,1880.000000
489,140.000000,1880.000000
490,144.000000,1880.000000
491,144.000000,1880.000000
492,152.000000,1880.000000
493,148.000000,1880.000000
494,148.000000,1880.000000
495,144.000000,1880.000000
496,148.000000,1880.000000
497,148.000000,1880.000000
498,148.000000,1880.000000
499,148.000000,1880.000000
500,144.000000,1880.000000
501,148.000000,1880.000000
502,144.000000,1880.000000
503,144.000000,1880.000000
504,148.000000,1880.000000
505,144.000000,1880.000000
506,144.000000,1880.000000
507,148.000000,1840.000000
508,144.000000,1880.000000
509,144.000000,1880.000000
510,148.000000,1880.000000
511,148.000000,1880.000000
512,152.000000,1880.000000
513,152.000000,1880.000000
514,152.000000,1880.000000
515,152.000000,1880.000000
516,156.000000,1880.000000
517,152.000000,1880.000000
518,152.000000,1880.000000
519,156.000000,1880.000000
520,156.000000,1880.000000
521,156.000000,1880.000000
522,160.000000,1880.000000
523,156.000000,1880.000000
524,160.000000,1880.000000
525,160.000000,1880.000000
526,160.000000,1880.000000
527,156.000000,1880.000000
528,160.000000,1880.000000
529,156.000000,1840.000000
530,160.000000,1880.000000
531,160.000000,1880.000000
532,160.000000,1880.000000
533,156.000000,1840.000000
534,160.000000,1880.000000
535,156.000000,1880.000000
536,160.000000,1880.000000
537,152.000000,1880.000000
538,160.000000,1880.000000
539,152.000000,1880.000000
540,156.000000,1880.000000
541,156.000000,1880.000000
542,156.000000,1880.000000
543,160.000000,1880.000000
544,156.000000,1880.000000
545,156.000000,1880.000000
546,156.000000,1880.000000
547,156.000000,1880.000000
548,156.000000,1880.000000
549,152.000000,1880.000000
550,156.000000,1880.000000
551,160.000000,1880.000000
552,156.000000,1880.000000
553,156.000000,1880.000000
554,156.000000,1880.000000
555,160.000000,1880.000000
556,156.000000,1880.000000
557,160.000000,1880.000000
558,156.000000,1880.000000
559,160.000000,1880.000000
560,156.000000,1840.000000
561,160.000000,1880.000000
562,160.000000,1880.000000
563,160.000000,1880.000000
564,164.000000,1880.000000
565,160.000000,1880.000000
566,156.000000,1880.000000
567,160.000000,1880.000000
568,160.000000,1880.000000
569,160.000000,1880.000000
570,156.000000,1880.000000
571,160.000000,1880.000000
572,160.000000,1880.000000
573,160.000000,1880.000000
574,160.000000,1880.000000
575,160.000000,1880.000000
576,156.000000,1880.000000
577,164.000000,1880.000000
578,160.000000,1880.000000
579,160.000000,1880.000000
580,160.000000,1880.000000
581,160.000000,1880.000000
582,160.000000,1880.000000
583,160.000000,1880.000000
584,144.000000,1880.000000
585,156.000000,1880.000000
586,160.000000,1880.000000
587,180.000000,1880.000000
588,164.000000,1880.000000
589,164.000000,1880.000000
590,164.000000,1880.000000
591,160.000000,1880.000000
592,164.000000,1840.000000
593,164.000000,1880.000000
594,160.000000,1880.000000
595,160.000000,1880.000000
596,160.000000,1880.000000
597,160.000000,1880.000000
598,160.000000,1880.000000
599,164.000000,1880.000000
600,160.000000,1880.000000
601,160.000000,1880.000000
602,160.000000,1880.000000
603,160.000000,1880.000000
604,164.000000,1880.000000
605,160.000000,1880.000000
606,160.000000,1880.000000
607,164.000000,1880.000000
608,164.000000,1880.000000
609,156.000000,1880.000000
610,160.000000,1880.000000
611,160.000000,1880.000000
612,160.000000,1880.000000
613,160.000000,1880.000000
614,160.000000,1880.000000
615,164.000000,1880.000000
616,160.000000,1880.000000
617,160.000000,1880.000000
618,160.000000,1880.000000
619,164.000000,1880.000000
620,164.000000,1840.000000
621,156.000000,1880.000000
622,160.000000,1880.000000
623,160.000000,1880.000000
624,160.000000,1880.000000
625,160.000000,1880.000000
626,160.000000,1880.000000
627,160.000000,1880.000000
628,164.000000,1880.000000
629,160.000000,1880.000000
630,164.000000,1880.000000
631,156.000000,1880.000000
632,160.000000,1880.000000
633,160.000000,1880.000000
634,172.000000,1880.000000
635,160.000000,1880.000000
636,164.000000,1880.000000
637,152.000000,1880.000000
638,164.000000,1880.000000
639,156.000000,1880.000000
640,156.000000,1880.000000
641,160.000000,1880.000000
642,156.000000,1880.000000
643,164.000000,1880.000000
644,156.000000,1840.000000
645,156.000000,1840.000000
646,156.000000,1880.000000
647,156.000000,1880.000000
648,156.000000,1880.000000
649,156.000000,1880.000000
650,156.000000,1880.000000
651,160.000000,1840.000000
652,156.000000,1840.000000
653,160.000000,1840.000000
654,156.000000,1880.000000
655,160.000000,1840.000000
656,160.000000,1880.000000
657,160.000000,1840.000000
658,156.000000,1840.000000
659,160.000000,1880.000000
660,160.000000,1880.000000
661,160.000000,1880.000000
662,160.000000,1880.000000
663,160.000000,1880.000000
664,160.000000,1840.000000
665,164.000000,1840.000000
666,160.000000,1840.000000
667,160.000000,1880.000000
668,160.000000,1880.000000
669,156.000000,1880.000000
670,152.000000,1880.000000
671,156.000000,1880.000000
672,152.000000,1840.000000
673,152.000000,1880.000000
674,152.000000,1840.000000
675,148.000000,1840.000000
676,152.000000,1880.000000
677,148.000000,1840.000000
678,144.000000,1840.000000
679,148.000000,1880.000000
680,148.000000,1880.000000
681,148.000000,1840.000000
682,148.000000,1880.000000
683,144.000000,1880.000000
684,144.000000,1840.000000
685,144.000000,1840.000000
686,148.000000,1840.000000
687,148.000000,1880.000000
688,148.000000,1880.000000
689,144.000000,1880.000000
690,148.000000,1880.000000
691,148.000000,1880.000000
692,148.000000,1880.000000
693,144.000000,1840.000000
694,148.000000,1880.000000
695,148.000000,1880.000000
696,148.000000,1840.000000
697,148.000000,1880.000000
698,148.000000,1840.000000
699,148.000000,1880.000000
700,140.000000,1880.000000
701,148.000000,1880.000000
702,144.000000,1880.000000
703,148.000000,1880.000000
704,144.000000,1880.000000
705,144.000000,1840.000000
706,144.000000,1840.000000
707,144.000000,1880.000000
708,144.000000,1840.000000
709,148.000000,1840.000000
710,148.000000,1840.000000
711,140.000000,1880.000000
712,144.000000,1880.000000
713,144.000000,1840.000000
714,144.000000,1840.000000
715,144.000000,1840.000000
716,144.000000,1880.000000
717,144.000000,1840.000000
718,148.000000,1840.000000
719,148.000000,1840.000000
720,140.000000,1840.000000
721,144.000000,1880.000000
722,144.000000,1840.000000
723,144.000000,1880.000000
724,144.000000,1880.000000
725,144.000000,1880.000000
726,144.000000,1840.000000
727,144.000000,1840.000000
728,144.000000,1880.000000
729,144.000000,1840.000000
730,148.000000,1840.000000
731,148.000000,1840.000000
732,148.000000,1880.000000
733,144.000000,1840.000000
