repport_data/test_graphs/data_63_009.csv

Channel              :,CH1,CH2
Frequency            :,  ?,  ?
Period               :,  ?,  ?
PK-PK                :,1.040V,1.064V
Probe attenuation    :,1X,1X
Voltage per ADC value:,2.500000mV,0.500000mV
Time interval        :,200.00000uS,200.00000uS

index,CH1_Voltage(mV),CH2_Voltage(mV)
1,-2800.000000,-312.000000
2,-2800.000000,-312.000000
3,-2800.000000,-320.000000
4,-2800.000000,-312.000000
5,-2800.000000,-312.000000
6,-2800.000000,-312.000000
7,-2800.000000,-312.000000
8,-2800.000000,-312.000000
9,-2800.000000,-312.000000
10,-2800.000000,-312.000000
11,-2800.000000,-312.000000
12,-2800.000000,-312.000000
13,-2800.000000,-312.000000
14,-2800.000000,-312.000000
15,-2800.000000,-312.000000
16,-2800.000000,-312.000000
17,-2800.000000,-312.000000
18,-2800.000000,-312.000000
19,-2800.000000,-312.000000
20,-2800.000000,-312.000000
21,-2800.000000,-312.000000
22,-2800.000000,-312.000000
23,-2800.000000,-312.000000
24,-2800.000000,-312.000000
25,-2800.000000,-312.000000
26,-2800.000000,-312.000000
27,-2800.000000,-312.000000
28,-2800.000000,-312.000000
29,-2800.000000,-312.000000
30,-2800.000000,-312.000000
31,-2800.000000,-312.000000
32,-2800.000000,-304.000000
33,-2800.000000,-304.000000
34,-2800.000000,-304.000000
35,-2800.000000,-304.000000
36,-2800.000000,-304.000000
37,-2800.000000,-304.000000
38,-2800.000000,-304.000000
39,-2800.000000,-304.000000
40,-2800.000000,-304.000000
41,-2800.000000,-304.000000
42,-2800.000000,-304.000000
43,-2800.000000,-312.000000
44,-2800.000000,-304.000000
45,-2800.000000,-304.000000
46,-2800.000000,-304.000000
47,-2800.000000,-304.000000
48,-2800.000000,-304.000000
49,-2800.000000,-304.000000
50,-2800.000000,-304.000000
51,-2800.000000,-304.000000
52,-2800.000000,-304.000000
53,-2800.000000,-304.000000
54,-2800.000000,-296.000000
55,-2800.000000,-304.000000
56,-2800.000000,-304.000000
57,-2800.000000,-304.000000
58,-2800.000000,-304.000000
59,-2800.000000,-312.000000
60,-2800.000000,-304.000000
61,-2800.000000,-304.000000
62,-2800.000000,-304.000000
63,-2800.000000,-304.000000
64,-2800.000000,-304.000000
65,-2800.000000,-304.000000
66,-2800.000000,-304.000000
67,-2800.000000,-304.000000
68,-2800.000000,-304.000000
69,-2800.000000,-304.000000
70,-2800.000000,-304.000000
71,-2800.000000,-304.000000
72,-2800.000000,-304.000000
73,-2800.000000,-304.000000
74,-2800.000000,-304.000000
75,-2800.000000,-304.000000
76,-2800.000000,-304.000000
77,-2800.000000,-312.000000
78,-2800.000000,-304.000000
79,-2800.000000,-304.000000
80,-2760.000000,-304.000000
81,-2800.000000,-304.000000
82,-2800.000000,-304.000000
83,-2760.000000,-304.000000
84,-2800.000000,-304.000000
85,-2800.000000,-304.000000
86,-2800.000000,-304.000000
87,-2800.000000,-304.000000
88,-2760.000000,-312.000000
89,-2800.000000,-304.000000
90,-2800.000000,-304.000000
91,-2800.000000,-304.000000
92,-2800.000000,-304.000000
93,-2800.000000,-304.000000
94,-2800.000000,-304.000000
95,-2800.000000,-304.000000
96,-2800.000000,-304.000000
97,-2800.000000,-312.000000
98,-2760.000000,-312.000000
99,-2800.000000,-304.000000
100,-2760.000000,-304.000000
101,-2800.000000,-312.000000
102,-2800.000000,-336.000000
103,-2800.000000,-304.000000
104,-2800.000000,-312.000000
105,-2800.000000,-312.000000
106,-2800.000000,-312.000000
107,-2800.000000,-312.000000
108,-2800.000000,-304.000000
109,-2800.000000,-296.000000
110,-2800.000000,-304.000000
111,-2800.000000,-312.000000
112,-2760.000000,-312.000000
113,-2760.000000,-312.000000
114,-2800.000000,-312.000000
115,-2800.000000,-312.000000
116,-2800.000000,-312.000000
117,-2800.000000,-312.000000
118,-2760.000000,-312.000000
119,-2800.000000,-312.000000
120,-2800.000000,-312.000000
121,-2800.000000,-312.000000
122,-2800.000000,-312.000000
123,-2800.000000,-304.000000
124,-2800.000000,-304.000000
125,-2800.000000,-312.000000
126,-2800.000000,-304.000000
127,-2800.000000,-304.000000
128,-2800.000000,-312.000000
129,-2800.000000,-312.000000
130,-2800.000000,-312.000000
131,-2800.000000,-304.000000
132,-2800.000000,-312.000000
133,-2760.000000,-312.000000
134,-2840.000000,-312.000000
135,-2760.000000,-312.000000
136,-2800.000000,-304.000000
137,-2800.000000,-304.000000
138,-2800.000000,-312.000000
139,-2800.000000,-312.000000
140,-2800.000000,-312.000000
141,-2800.000000,-312.000000
142,-2800.000000,-312.000000
143,-2800.000000,-312.000000
144,-2800.000000,-312.000000
145,-2800.000000,-312.000000
146,-2800.000000,-304.000000
147,-2800.000000,-312.000000
148,-2800.000000,-312.000000
149,-2800.000000,-312.000000
150,-2800.000000,-304.000000
151,-2800.000000,-304.000000
152,-2800.000000,-304.000000
153,-2800.000000,-312.000000
154,-2800.000000,-304.000000
155,-2800.000000,-304.000000
156,-2800.000000,-312.000000
157,-2800.000000,-304.000000
158,-2800.000000,-304.000000
159,-2800.000000,-312.000000
160,-2800.000000,-304.000000
161,-2800.000000,-304.000000
162,-2800.000000,-312.000000
163,-2800.000000,-312.000000
164,-2800.000000,-304.000000
165,-2800.000000,-312.000000
166,-2800.000000,-304.000000
167,-2800.000000,-304.000000
168,-2800.000000,-312.000000
169,-2800.000000,-312.000000
170,-2800.000000,-304.000000
171,-2800.000000,-312.000000
172,-2800.000000,-312.000000
173,-2800.000000,-312.000000
174,-2800.000000,-312.000000
175,-2800.000000,-304.000000
176,-2800.000000,-304.000000
177,-2800.000000,-312.000000
178,-2800.000000,-312.000000
179,-2800.000000,-312.000000
180,-2800.000000,-312.000000
181,-2800.000000,-312.000000
182,-2760.000000,-304.000000
183,-2800.000000,-312.000000
184,-2800.000000,-312.000000
185,-2800.000000,-312.000000
186,-2800.000000,-312.000000
187,-2800.000000,-312.000000
188,-2800.000000,-304.000000
189,-2800.000000,-312.000000
190,-2800.000000,-312.000000
191,-2800.000000,-312.000000
192,-2800.000000,-312.000000
193,-2800.000000,-312.000000
194,-2800.000000,-312.000000
195,-2800.000000,-312.000000
196,-2800.000000,-312.000000
197,-2800.000000,-312.000000
198,-2800.000000,-312.000000
199,-2800.000000,-312.000000
200,-2800.000000,-312.000000
201,-2800.000000,-304.000000
202,-2800.000000,-312.000000
203,-2800.000000,-312.000000
204,-2800.000000,-312.000000
205,-2800.000000,-312.000000
206,-2800.000000,-312.000000
207,-2800.000000,-320.000000
208,-2800.000000,-312.000000
209,-2800.000000,-312.000000
210,-2800.000000,-312.000000
211,-2800.000000,-312.000000
212,-2800.000000,-312.000000
213,-2800.000000,-312.000000
214,-2800.000000,-312.000000
215,-2800.000000,-312.000000
216,-2800.000000,-312.000000
217,-2800.000000,-312.000000
218,-2760.000000,-312.000000
219,-2800.000000,-312.000000
220,-2800.000000,-312.000000
221,-2800.000000,-312.000000
222,-2800.000000,-312.000000
223,-2800.000000,-304.000000
224,-2800.000000,-320.000000
225,-2800.000000,-312.000000
226,-2800.000000,-312.000000
227,-2800.000000,-312.000000
228,-2800.000000,-304.000000
229,-2800.000000,-304.000000
230,-2800.000000,-304.000000
231,-2800.000000,-312.000000
232,-2800.000000,-304.000000
233,-2800.000000,-304.000000
234,-2800.000000,-304.000000
235,-2800.000000,-304.000000
236,-2800.000000,-304.000000
237,-2800.000000,-304.000000
238,-2800.000000,-304.000000
239,-2800.000000,-304.000000
240,-2800.000000,-304.000000
241,-2800.000000,-304.000000
242,-2800.000000,-304.000000
243,-2800.000000,-304.000000
244,-2800.000000,-304.000000
245,-2800.000000,-304.000000
246,-2760.000000,-304.000000
247,-2800.000000,-304.000000
248,-2800.000000,-304.000000
249,-2800.000000,-304.000000
250,-2760.000000,-304.000000
251,-2800.000000,-304.000000
252,-2800.000000,-296.000000
253,-2800.000000,-304.000000
254,-2800.000000,-296.000000
255,-2760.000000,-304.000000
256,-2800.000000,-296.000000
257,-2800.000000,-296.000000
258,-2800.000000,-304.000000
259,-2800.000000,-304.000000
260,-2800.000000,-304.000000
261,-2800.000000,-304.000000
262,-2800.000000,-304.000000
263,-2760.000000,-304.000000
264,-2760.000000,-304.000000
265,-2800.000000,-304.000000
266,-2800.000000,-304.000000
267,-2800.000000,-296.000000
268,-2800.000000,-304.000000
269,-2800.000000,-296.000000
270,-2800.000000,-296.000000
271,-2800.000000,-296.000000
272,-2800.000000,-304.000000
273,-2800.000000,-304.000000
274,-2800.000000,-296.000000
275,-2800.000000,-296.000000
276,-2800.000000,-296.000000
277,-2800.000000,-296.000000
278,-2760.000000,-296.000000
279,-2760.000000,-296.000000
280,-2800.000000,-296.000000
281,-2800.000000,-304.000000
282,-2760.000000,-304.000000
283,-2800.000000,-296.000000
284,-2800.000000,-304.000000
285,-2800.000000,-296.000000
286,-2800.000000,-296.000000
287,-2800.000000,-296.000000
288,-2800.000000,-304.000000
289,-2800.000000,-304.000000
290,-2800.000000,-304.000000
291,-2800.000000,-296.000000
292,-2800.000000,-296.000000
293,-2800.000000,-296.000000
294,-2760.000000,-304.000000
295,-2800.000000,-296.000000
296,-2760.000000,-304.000000
297,-2800.000000,-304.000000
298,-2800.000000,-304.000000
299,-2760.000000,-304.000000
300,-2760.000000,-304.000000
301,-2760.000000,-312.000000
302,-2800.000000,-304.000000
303,-2800.000000,-304.000000
304,-2800.000000,-280.000000
305,-2800.000000,-312.000000
306,-2760.000000,-304.000000
307,-2800.000000,-304.000000
308,-2800.000000,-304.000000
309,-2800.000000,-304.000000
310,-2800.000000,-304.000000
311,-2800.000000,-304.000000
312,-2800.000000,-304.000000
313,-2800.000000,-304.000000
314,-2800.000000,-304.000000
315,-2760.000000,-312.000000
316,-2800.000000,-304.000000
317,-2760.000000,-304.000000
318,-2800.000000,-304.000000
319,-2800.000000,-304.000000
320,-2800.000000,-304.000000
321,-2760.000000,-304.000000
322,-2800.000000,-304.000000
323,-2760.000000,-304.000000
324,-2800.000000,-304.000000
325,-2800.000000,-304.000000
326,-2800.000000,-304.000000
327,-2800.000000,-304.000000
328,-2800.000000,-304.000000
329,-2760.000000,-304.000000
330,-2760.000000,-304.000000
331,-2760.000000,-304.000000
332,-2800.000000,-296.000000
333,-2800.000000,-304.000000
334,-2760.000000,-304.000000
335,-2800.000000,-296.000000
336,-2800.000000,-304.000000
337,-2800.000000,-304.000000
338,-2760.000000,-304.000000
339,-2800.000000,-304.000000
340,-2800.000000,-304.000000
341,-2800.000000,-304.000000
342,-2800.000000,-304.000000
343,-2760.000000,-304.000000
344,-2800.000000,-304.000000
345,-2800.000000,-304.000000
346,-2800.000000,-304.000000
347,-2800.000000,-296.000000
348,-2800.000000,-296.000000
349,-2800.000000,-304.000000
350,-2800.000000,-304.000000
351,-2800.000000,-296.000000
352,-2800.000000,-296.000000
353,-2760.000000,-304.000000
354,-2800.000000,-296.000000
355,-2760.000000,-272.000000
356,-2800.000000,-304.000000
357,-2800.000000,-296.000000
358,-2760.000000,-296.000000
359,-2800.000000,-296.000000
360,-2800.000000,-296.000000
361,-2760.000000,-304.000000
362,-2760.000000,-304.000000
363,-2800.000000,-304.000000
364,-2800.000000,-304.000000
365,-2760.000000,-304.000000
366,-2800.000000,-296.000000
367,-2800.000000,-296.000000
368,-2800.000000,-304.000000
369,-2760.000000,-304.000000
370,-2760.000000,-304.000000
371,-2800.000000,-304.000000
372,-2800.000000,-304.000000
373,-2800.000000,-304.000000
374,-2760.000000,-304.000000
375,-2760.000000,-304.000000
376,-2800.000000,-304.000000
377,-2800.000000,-304.000000
378,-2800.000000,-304.000000
379,-2800.000000,-296.000000
380,-2760.000000,-296.000000
381,-2800.000000,-304.000000
382,-2800.000000,-304.000000
383,-2800.000000,-304.000000
384,-2800.000000,-304.000000
385,-2800.000000,-304.000000
386,-2760.000000,-304.000000
387,-2800.000000,-296.000000
388,-2800.000000,-304.000000
389,-2800.000000,-296.000000
390,-2800.000000,-304.000000
391,-2800.000000,-296.000000
392,-2800.000000,-296.000000
393,-2760.000000,-296.000000
394,-2760.000000,-304.000000
395,-2760.000000,-304.000000
396,-2800.000000,-304.000000
397,-2800.000000,-304.000000
398,-2800.000000,-304.000000
399,-2760.000000,-304.000000
400,-2760.000000,-304.000000
401,-2760.000000,-304.000000
402,-2800.000000,-304.000000
403,-2760.000000,-304.000000
404,-2800.000000,-312.000000
405,-2800.000000,-304.000000
406,-2800.000000,-304.000000
407,-2800.000000,-304.000000
408,-2760.000000,-304.000000
409,-2800.000000,-304.000000
410,-2760.000000,-304.000000
411,-2800.000000,-312.000000
412,-2800.000000,-312.000000
413,-2760.000000,-304.000000
414,-2760.000000,-304.000000
415,-2800.000000,-304.000000
416,-2760.000000,-304.000000
417,-2800.000000,-304.000000
418,-2800.000000,-304.000000
419,-2800.000000,-304.000000
420,-2760.000000,-296.000000
421,-2760.000000,-296.000000
422,-2800.000000,-304.000000
423,-2800.000000,-304.000000
424,-2800.000000,-296.000000
425,-2800.000000,-304.000000
426,-2800.000000,-304.000000
427,-2800.000000,-304.000000
428,-2800.000000,-304.000000
429,-2800.000000,-304.000000
430,-2800.000000,-304.000000
431,-2760.000000,-304.000000
432,-2800.000000,-304.000000
433,-2800.000000,-304.000000
434,-2800.000000,-304.000000
435,-2800.000000,-304.000000
436,-2800.000000,-296.000000
437,-2800.000000,-304.000000
438,-2800.000000,-304.000000
439,-2800.000000,-304.000000
440,-2800.000000,-304.000000
441,-2800.000000,-304.000000
442,-2800.000000,-304.000000
443,-2800.000000,-304.000000
444,-2760.000000,-304.000000
445,-2800.000000,-304.000000
446,-2800.000000,-304.000000
447,-2800.000000,-304.000000
448,-2760.000000,-304.000000
449,-2760.000000,-296.000000
450,-2800.000000,-304.000000
451,-2760.000000,-304.000000
452,-2760.000000,-288.000000
453,-2760.000000,-296.000000
454,-2800.000000,-296.000000
455,-2760.000000,-296.000000
456,-2800.000000,-304.000000
457,-2800.000000,-304.000000
458,-2760.000000,-304.000000
459,-2760.000000,-296.000000
460,-2760.000000,-296.000000
461,-2800.000000,-296.000000
462,-2800.000000,-296.000000
463,-2800.000000,-304.000000
464,-2800.000000,-304.000000
465,-2800.000000,-296.000000
466,-2800.000000,-304.000000
467,-2800.000000,-304.000000
468,-2800.000000,-304.000000
469,-2800.000000,-304.000000
470,-2760.000000,-304.000000
471,-2800.000000,-296.000000
472,-2800.000000,-296.000000
473,-2760.000000,-304.000000
474,-2760.000000,-304.000000
475,-2800.000000,-304.000000
476,-2760.000000,-304.000000
477,-2760.000000,-296.000000
478,-2800.000000,-304.000000
479,-2800.000000,-304.000000
480,-2800.000000,-304.000000
481,-2800.000000,-296.000000
482,-2760.000000,-304.000000
483,-2800.000000,-304.000000
484,-2800.000000,-304.000000
485,-2800.000000,-304.000000
486,-2760.000000,-304.000000
487,-2800.000000,-304.000000
488,-2800.000000,-304.000000
489,-2760.000000,-304.000000
490,-2800.000000,-304.000000
491,-2760.000000,-304.000000
492,-2800.000000,-304.000000
493,-2800.000000,-304.000000
494,-2800.000000,-296.000000
495,-2760.000000,-296.000000
496,-2800.000000,-296.000000
497,-2800.000000,-296.000000
498,-2800.000000,-304.000000
499,-2760.000000,-304.000000
500,-2760.000000,-304.000000
501,-2800.000000,-304.000000
502,-2800.000000,-304.000000
503,-2760.000000,-304.000000
504,-2800.000000,-304.000000
505,-2800.000000,-304.000000
506,-2800.000000,-304.000000
507,-2800.000000,-304.000000
508,-2760.000000,-312.000000
509,-2800.000000,-304.000000
510,-2800.000000,-312.000000
511,-2800.000000,-304.000000
512,-2800.000000,-304.000000
513,-2760.000000,-304.000000
514,-2800.000000,-304.000000
515,-2800.000000,-304.000000
516,-2760.000000,-304.000000
517,-2760.000000,-304.000000
518,-2800.000000,-296.000000
519,-2800.000000,-304.000000
520,-2800.000000,-304.000000
521,-2800.000000,-304.000000
522,-2800.000000,-304.000000
523,-2800.000000,-304.000000
524,-2760.000000,-304.000000
525,-2800.000000,-296.000000
526,-2800.000000,-296.000000
527,-2800.000000,-304.000000
528,-2760.000000,-296.000000
529,-2800.000000,-304.000000
530,-2800.000000,-304.000000
531,-2800.000000,-304.000000
532,-2760.000000,-304.000000
533,-2800.000000,-304.000000
534,-2760.000000,-304.000000
535,-2760.000000,-304.000000
536,-2800.000000,-304.000000
537,-2760.000000,-304.000000
538,-2800.000000,-304.000000
539,-2800.000000,-304.000000
540,-2800.000000,-304.000000
541,-2760.000000,-304.000000
542,-2800.000000,-304.000000
543,-2760.000000,-304.000000
544,-2800.000000,-304.000000
545,-2800.000000,-304.000000
546,-2800.000000,-304.000000
547,-2760.000000,-304.000000
548,-2800.000000,-304.000000
549,-2760.000000,-304.000000
550,-2800.000000,-312.000000
551,-2760.000000,-296.000000
552,-2800.000000,-296.000000
553,-2800.000000,-304.000000
554,-2800.000000,-304.000000
555,-2760.000000,-296.000000
556,-2800.000000,-312.000000
557,-2800.000000,-304.000000
558,-2760.000000,-296.000000
559,-2800.000000,-296.000000
560,-2760.000000,-304.000000
561,-2800.000000,-304.000000
562,-2760.000000,-304.000000
563,-2800.000000,-312.000000
564,-2800.000000,-304.000000
565,-2760.000000,-304.000000
566,-2800.000000,-304.000000
567,-2800.000000,-304.000000
568,-2800.000000,-304.000000
569,-2800.000000,-304.000000
570,-2800.000000,-296.000000
571,-2760.000000,-296.000000
572,-2800.000000,-296.000000
573,-2800.000000,-304.000000
574,-2760.000000,-304.000000
575,-2800.000000,-304.000000
576,-2800.000000,-304.000000
577,-2800.000000,-304.000000
578,-2760.000000,-304.000000
579,-2800.000000,-296.000000
580,-2800.000000,-304.000000
581,-2800.000000,-296.000000
582,-2800.000000,-296.000000
583,-2800.000000,-296.000000
584,-2800.000000,-304.000000
585,-2800.000000,-304.000000
586,-2760.000000,-304.000000
587,-2800.000000,-304.000000
588,-2760.000000,-296.000000
589,-2800.000000,-304.000000
590,-2760.000000,-304.000000
591,-2760.000000,-304.000000
592,-2800.000000,-304.000000
593,-2800.000000,-304.000000
594,-2760.000000,-304.000000
595,-2760.000000,-304.000000
596,-2800.000000,-304.000000
597,-2760.000000,-304.000000
598,-2800.000000,-304.000000
599,-2800.000000,-304.000000
600,-2760.000000,-304.000000
601,-2800.000000,-304.000000
602,-2800.000000,-304.000000
603,-2800.000000,-304.000000
604,-2800.000000,-304.000000
605,-2760.000000,-304.000000
606,-2800.000000,-304.000000
607,-2800.000000,-304.000000
608,-2800.000000,-304.000000
609,-2800.000000,-304.000000
610,-2760.000000,-304.000000
611,-2800.000000,-304.000000
612,-2800.000000,-304.000000
613,-2800.000000,-304.000000
614,-2760.000000,-304.000000
615,-2800.000000,-304.000000
616,-2800.000000,-304.000000
617,-2800.000000,-304.000000
618,-2800.000000,-304.000000
619,-2800.000000,-304.000000
620,-2800.000000,-304.000000
621,-2800.000000,-304.000000
622,-2760.000000,-304.000000
623,-2760.000000,-304.000000
624,-2800.000000,-296.000000
625,-2800.000000,-304.000000
626,-2760.000000,-304.000000
627,-2800.000000,-304.000000
628,-2800.000000,-304.000000
629,-2760.000000,-304.000000
630,-2800.000000,-304.000000
631,-2800.000000,-304.000000
632,-2800.000000,-304.000000
633,-2800.000000,-304.000000
634,-2800.000000,-304.000000
635,-2800.000000,-304.000000
636,-2800.000000,-304.000000
637,-2800.000000,-304.000000
638,-2800.000000,-304.000000
639,-2760.000000,-312.000000
640,-2800.000000,-304.000000
641,-2800.000000,-304.000000
642,-2800.000000,-304.000000
643,-2800.000000,-304.000000
644,-2800.000000,-304.000000
645,-2800.000000,-304.000000
646,-2760.000000,-304.000000
647,-2800.000000,-296.000000
648,-2800.000000,-296.000000
649,-2800.000000,-296.000000
650,-2800.000000,-304.000000
651,-2800.000000,-296.000000
652,-2760.000000,-304.000000
653,-2800.000000,-296.000000
654,-2800.000000,-296.000000
655,-2760.000000,-296.000000
656,-2800.000000,-296.000000
657,-2800.000000,-296.000000
658,-2800.000000,-304.000000
659,-2800.000000,-296.000000
660,-2800.000000,-296.000000
661,-2800.000000,-296.000000
662,-2800.000000,-304.000000
663,-2800.000000,-304.000000
664,-2800.000000,-296.000000
665,-2800.000000,-304.000000
666,-2760.000000,-304.000000
667,-2760.000000,-304.000000
668,-2800.000000,-304.000000
669,-2800.000000,-304.000000
670,-2760.000000,-304.000000
671,-2800.000000,-304.000000
672,-2800.000000,-304.000000
673,-2800.000000,-304.000000
674,-2800.000000,-304.000000
675,-2800.000000,-296.000000
676,-2800.000000,-304.000000
677,-2800.000000,-296.000000
678,-2800.000000,-296.000000
679,-2800.000000,-304.000000
680,-2800.000000,-304.000000
681,-2800.000000,-304.000000
682,-2760.000000,-296.000000
683,-2800.000000,-296.000000
