repport_data/test_graphs/data_63_004.csv

Channel              :,CH1,CH2
Frequency            :,  ?,  ?
Period               :,  ?,  ?
PK-PK                :,1.000V,984.0mV
Probe attenuation    :,1X,1X
Voltage per ADC value:,2.500000mV,0.500000mV
Time interval        :,400.00000uS,400.00000uS

index,CH1_Voltage(mV),CH2_Voltage(mV)
1,-1240.000000,576.000000
2,-1240.000000,576.000000
3,-1240.000000,568.000000
4,-1240.000000,568.000000
5,-1240.000000,568.000000
6,-1240.000000,568.000000
7,-1240.000000,576.000000
8,-1240.000000,576.000000
9,-1240.000000,568.000000
10,-1240.000000,576.000000
11,-1240.000000,576.000000
12,-1240.000000,568.000000
13,-1240.000000,576.000000
14,-1240.000000,576.000000
15,-1240.000000,568.000000
16,-1240.000000,568.000000
17,-1240.000000,568.000000
18,-1240.000000,568.000000
19,-1240.000000,568.000000
20,-1240.000000,568.000000
21,-1240.000000,576.000000
22,-1240.000000,568.000000
23,-1240.000000,568.000000
24,-1240.000000,568.000000
25,-1240.000000,568.000000
26,-1240.000000,568.000000
27,-1240.000000,568.000000
28,-1240.000000,568.000000
29,-1240.000000,568.000000
30,-1240.000000,576.000000
31,-1240.000000,568.000000
32,-1280.000000,552.000000
33,-1240.000000,576.000000
34,-1280.000000,568.000000
35,-1240.000000,520.000000
36,-1280.000000,568.000000
37,-1240.000000,560.000000
38,-1240.000000,568.000000
39,-1240.000000,560.000000
40,-1240.000000,568.000000
41,-1240.000000,560.000000
42,-1280.000000,568.000000
43,-1240.000000,568.000000
44,-1240.000000,568.000000
45,-1240.000000,568.000000
46,-1240.000000,568.000000
47,-1240.000000,568.000000
48,-1240.000000,568.000000
49,-1240.000000,568.000000
50,-1240.000000,568.000000
51,-1280.000000,568.000000
52,-1240.000000,568.000000
53,-1240.000000,568.000000
54,-1240.000000,568.000000
55,-1240.000000,568.000000
56,-1240.000000,568.000000
57,-1240.000000,568.000000
58,-1240.000000,568.000000
59,-1240.000000,568.000000
60,-1240.000000,568.000000
61,-1240.000000,568.000000
62,-1240.000000,568.000000
63,-1240.000000,576.000000
64,-1200.000000,632.000000
65,-1240.000000,576.000000
66,-1240.000000,568.000000
67,-1240.000000,576.000000
68,-1240.000000,568.000000
69,-1240.000000,568.000000
70,-1240.000000,568.000000
71,-1240.000000,568.000000
72,-1240.000000,568.000000
73,-1240.000000,568.000000
74,-1240.000000,568.000000
75,-1240.000000,568.000000
76,-1240.000000,576.000000
77,-1280.000000,568.000000
78,-1280.000000,568.000000
79,-1240.000000,568.000000
80,-1240.000000,568.000000
81,-1240.000000,568.000000
82,-1280.000000,568.000000
83,-1240.000000,568.000000
84,-1240.000000,568.000000
85,-1240.000000,568.000000
86,-1240.000000,568.000000
87,-1240.000000,568.000000
88,-1240.000000,568.000000
89,-1240.000000,568.000000
90,-1240.000000,568.000000
91,-1240.000000,568.000000
92,-1240.000000,568.000000
93,-1240.000000,568.000000
94,-1240.000000,568.000000
95,-1240.000000,568.000000
96,-1240.000000,568.000000
97,-1240.000000,568.000000
98,-1240.000000,568.000000
99,-1240.000000,568.000000
100,-1240.000000,568.000000
101,-1240.000000,568.000000
102,-1240.000000,568.000000
103,-1240.000000,568.000000
104,-1240.000000,568.000000
105,-1240.000000,568.000000
106,-1240.000000,568.000000
107,-1240.000000,568.000000
108,-1240.000000,568.000000
109,-1240.000000,568.000000
110,-1240.000000,568.000000
111,-1240.000000,568.000000
112,-1240.000000,568.000000
113,-1240.000000,568.000000
114,-1240.000000,576.000000
115,-1240.000000,568.000000
116,-1240.000000,568.000000
117,-1240.000000,576.000000
118,-1240.000000,568.000000
119,-1240.000000,568.000000
120,-1240.000000,568.000000
121,-1240.000000,568.000000
122,-1240.000000,576.000000
123,-1240.000000,568.000000
124,-1240.000000,568.000000
125,-1240.000000,576.000000
126,-1240.000000,568.000000
127,-1240.000000,568.000000
128,-1240.000000,568.000000
129,-1240.000000,568.000000
130,-1240.000000,568.000000
131,-1240.000000,576.000000
132,-1240.000000,568.000000
133,-1240.000000,568.000000
134,-1240.000000,568.000000
135,-1240.000000,568.000000
136,-1200.000000,568.000000
137,-1240.000000,568.000000
138,-1240.000000,568.000000
139,-1240.000000,568.000000
140,-1240.000000,568.000000
141,-1240.000000,568.000000
142,-1240.000000,576.000000
143,-1240.000000,568.000000
144,-1240.000000,576.000000
145,-1240.000000,568.000000
146,-1240.000000,568.000000
147,-1240.000000,568.000000
148,-1320.000000,568.000000
149,-1440.000000,488.000000
150,-1520.000000,376.000000
151,-1600.000000,280.000000
152,-1680.000000,208.000000
153,-1720.000000,136.000000
154,-1760.000000,80.000000
155,-1800.000000,32.000000
156,-1840.000000,-8.000000
157,-1880.000000,-40.000000
158,-1920.000000,-80.000000
159,-1920.000000,-104.000000
160,-1960.000000,-128.000000
161,-1960.000000,-144.000000
162,-1960.000000,-160.000000
163,-2000.000000,-176.000000
164,-1960.000000,-184.000000
165,-2000.000000,-168.000000
166,-2040.000000,-200.000000
167,-2000.000000,-208.000000
168,-2040.000000,-216.000000
169,-2040.000000,-216.000000
170,-2040.000000,-224.000000
171,-2040.000000,-224.000000
172,-2040.000000,-232.000000
173,-2040.000000,-232.000000
174,-2040.000000,-240.000000
175,-2040.000000,-240.000000
176,-2040.000000,-240.000000
177,-2040.000000,-240.000000
178,-2040.000000,-240.000000
179,-2080.000000,-248.000000
180,-2040.000000,-248.000000
181,-2080.000000,-256.000000
182,-2080.000000,-248.000000
183,-2080.000000,-248.000000
184,-2040.000000,-248.000000
185,-2080.000000,-248.000000
186,-2040.000000,-248.000000
187,-2040.000000,-248.000000
188,-2040.000000,-248.000000
189,-2080.000000,-256.000000
190,-2040.000000,-248.000000
191,-2040.000000,-256.000000
192,-2040.000000,-256.000000
193,-2080.000000,-256.000000
194,-2040.000000,-256.000000
195,-2080.000000,-256.000000
196,-2080.000000,-264.000000
197,-2080.000000,-256.000000
198,-2040.000000,-248.000000
199,-2040.000000,-248.000000
200,-2080.000000,-248.000000
201,-2080.000000,-256.000000
202,-2080.000000,-256.000000
203,-2080.000000,-264.000000
204,-2080.000000,-256.000000
205,-2040.000000,-256.000000
206,-2040.000000,-256.000000
207,-2080.000000,-256.000000
208,-2040.000000,-256.000000
209,-2080.000000,-256.000000
210,-2040.000000,-256.000000
211,-2080.000000,-256.000000
212,-2080.000000,-248.000000
213,-2040.000000,-248.000000
214,-2040.000000,-256.000000
215,-2040.000000,-248.000000
216,-2080.000000,-256.000000
217,-2080.000000,-256.000000
218,-2080.000000,-256.000000
219,-2080.000000,-264.000000
220,-2080.000000,-264.000000
221,-2080.000000,-272.000000
222,-2080.000000,-280.000000
223,-2120.000000,-288.000000
224,-2080.000000,-288.000000
225,-2080.000000,-288.000000
226,-2080.000000,-288.000000
227,-2080.000000,-288.000000
228,-2120.000000,-296.000000
229,-2080.000000,-296.000000
230,-2080.000000,-288.000000
231,-2080.000000,-280.000000
232,-2080.000000,-280.000000
233,-2080.000000,-280.000000
234,-2080.000000,-272.000000
235,-2080.000000,-272.000000
236,-2080.000000,-272.000000
237,-2080.000000,-272.000000
238,-2080.000000,-280.000000
239,-2080.000000,-272.000000
240,-2080.000000,-280.000000
241,-2080.000000,-272.000000
242,-2080.000000,-272.000000
243,-2080.000000,-272.000000
244,-2080.000000,-272.000000
245,-2080.000000,-272.000000
246,-2080.000000,-272.000000
247,-2080.000000,-264.000000
248,-2080.000000,-264.000000
249,-2080.000000,-264.000000
250,-2080.000000,-264.000000
251,-2080.000000,-264.000000
252,-2080.000000,-264.000000
253,-2080.000000,-264.000000
254,-2080.000000,-264.000000
255,-2080.000000,-272.000000
256,-2080.000000,-272.000000
257,-2080.000000,-272.000000
258,-2080.000000,-264.000000
259,-2080.000000,-264.000000
260,-2080.000000,-264.000000
261,-2080.000000,-264.000000
262,-2040.000000,-264.000000
263,-2080.000000,-256.000000
264,-2080.000000,-264.000000
265,-2080.000000,-264.000000
266,-2080.000000,-288.000000
267,-2080.000000,-288.000000
268,-2120.000000,-296.000000
269,-2120.000000,-304.000000
270,-2120.000000,-304.000000
271,-2120.000000,-312.000000
272,-2120.000000,-312.000000
273,-2120.000000,-320.000000
274,-2120.000000,-320.000000
275,-2120.000000,-320.000000
276,-2120.000000,-328.000000
277,-2120.000000,-320.000000
278,-2120.000000,-328.000000
279,-2120.000000,-328.000000
280,-2120.000000,-328.000000
281,-2160.000000,-328.000000
282,-2120.000000,-328.000000
283,-2120.000000,-328.000000
284,-2120.000000,-328.000000
285,-2160.000000,-328.000000
286,-2120.000000,-328.000000
287,-2160.000000,-336.000000
288,-2160.000000,-336.000000
289,-2160.000000,-336.000000
290,-2160.000000,-336.000000
291,-2160.000000,-336.000000
292,-2120.000000,-336.000000
293,-2160.000000,-336.000000
294,-2160.000000,-336.000000
295,-2120.000000,-328.000000
296,-2120.000000,-336.000000
297,-2160.000000,-328.000000
298,-2160.000000,-336.000000
299,-2120.000000,-328.000000
300,-2160.000000,-328.000000
301,-2160.000000,-328.000000
302,-2160.000000,-328.000000
303,-2120.000000,-336.000000
304,-2160.000000,-336.000000
305,-2120.000000,-336.000000
306,-2120.000000,-336.000000
307,-2120.000000,-336.000000
308,-2160.000000,-336.000000
309,-2120.000000,-336.000000
310,-2120.000000,-336.000000
311,-2120.000000,-336.000000
312,-2120.000000,-336.000000
313,-2120.000000,-328.000000
314,-2120.000000,-328.000000
315,-2120.000000,-328.000000
316,-2160.000000,-328.000000
317,-2160.000000,-328.000000
318,-2120.000000,-328.000000
319,-2160.000000,-328.000000
320,-2160.000000,-336.000000
321,-2120.000000,-328.000000
322,-2160.000000,-336.000000
323,-2120.000000,-328.000000
324,-2120.000000,-336.000000
325,-2160.000000,-328.000000
326,-2120.000000,-336.000000
327,-2160.000000,-336.000000
328,-2120.000000,-328.000000
329,-2160.000000,-328.000000
330,-2120.000000,-336.000000
331,-2160.000000,-280.000000
332,-2120.000000,-328.000000
333,-2120.000000,-328.000000
334,-2160.000000,-328.000000
335,-2120.000000,-336.000000
336,-2160.000000,-336.000000
337,-2120.000000,-336.000000
338,-2160.000000,-336.000000
339,-2160.000000,-336.000000
340,-2160.000000,-336.000000
341,-2120.000000,-336.000000
342,-2160.000000,-336.000000
343,-2160.000000,-336.000000
344,-2120.000000,-344.000000
345,-2160.000000,-336.000000
346,-2120.000000,-336.000000
347,-2120.000000,-336.000000
348,-2160.000000,-336.000000
349,-2160.000000,-336.000000
350,-2120.000000,-336.000000
351,-2120.000000,-336.000000
352,-2120.000000,-336.000000
353,-2160.000000,-336.000000
354,-2160.000000,-336.000000
355,-2160.000000,-336.000000
356,-2160.000000,-336.000000
357,-2160.000000,-328.000000
358,-2160.000000,-328.000000
359,-2120.000000,-336.000000
360,-2120.000000,-336.000000
361,-2120.000000,-336.000000
362,-2120.000000,-336.000000
363,-2120.000000,-336.000000
364,-2160.000000,-336.000000
365,-2120.000000,-336.000000
366,-2120.000000,-328.000000
367,-2120.000000,-328.000000
368,-2120.000000,-328.000000
369,-2160.000000,-328.000000
370,-2160.000000,-328.000000
371,-2160.000000,-328.000000
372,-2120.000000,-336.000000
373,-2120.000000,-328.000000
374,-2120.000000,-336.000000
375,-2160.000000,-336.000000
376,-2120.000000,-336.000000
377,-2160.000000,-336.000000
378,-2120.000000,-328.000000
379,-2160.000000,-328.000000
380,-2160.000000,-328.000000
381,-2160.000000,-336.000000
382,-2120.000000,-336.000000
383,-2120.000000,-328.000000
384,-2120.000000,-336.000000
385,-2120.000000,-328.000000
386,-2120.000000,-336.000000
387,-2120.000000,-336.000000
388,-2120.000000,-336.000000
389,-2160.000000,-336.000000
390,-2120.000000,-336.000000
391,-2120.000000,-328.000000
392,-2120.000000,-336.000000
393,-2120.000000,-336.000000
394,-2160.000000,-328.000000
395,-2160.000000,-328.000000
396,-2120.000000,-328.000000
397,-2120.000000,-328.000000
398,-2120.000000,-336.000000
399,-2160.000000,-328.000000
400,-2160.000000,-336.000000
401,-2160.000000,-336.000000
402,-2120.000000,-336.000000
403,-2160.000000,-336.000000
404,-2120.000000,-328.000000
405,-2120.000000,-336.000000
406,-2120.000000,-336.000000
407,-2120.000000,-336.000000
408,-2120.000000,-336.000000
409,-2160.000000,-336.000000
410,-2120.000000,-336.000000
411,-2160.000000,-336.000000
412,-2120.000000,-328.000000
413,-2120.000000,-336.000000
414,-2120.000000,-336.000000
415,-2120.000000,-328.000000
416,-2160.000000,-328.000000
417,-2120.000000,-328.000000
418,-2160.000000,-336.000000
419,-2120.000000,-336.000000
420,-2120.000000,-328.000000
421,-2120.000000,-328.000000
422,-2160.000000,-328.000000
423,-2120.000000,-328.000000
424,-2160.000000,-336.000000
425,-2120.000000,-336.000000
426,-2120.000000,-328.000000
427,-2120.000000,-328.000000
428,-2120.000000,-336.000000
429,-2160.000000,-328.000000
430,-2120.000000,-328.000000
431,-2160.000000,-328.000000
432,-2120.000000,-336.000000
433,-2120.000000,-328.000000
434,-2120.000000,-328.000000
435,-2120.000000,-328.000000
436,-2120.000000,-336.000000
437,-2160.000000,-336.000000
438,-2160.000000,-336.000000
439,-2160.000000,-336.000000
440,-2160.000000,-336.000000
441,-2120.000000,-336.000000
442,-2160.000000,-336.000000
443,-2120.000000,-336.000000
444,-2160.000000,-336.000000
445,-2120.000000,-336.000000
446,-2120.000000,-336.000000
447,-2160.000000,-336.000000
448,-2120.000000,-328.000000
449,-2120.000000,-328.000000
450,-2160.000000,-328.000000
451,-2120.000000,-336.000000
452,-2120.000000,-336.000000
453,-2160.000000,-336.000000
454,-2120.000000,-336.000000
455,-2120.000000,-336.000000
456,-2160.000000,-328.000000
457,-2120.000000,-336.000000
458,-2160.000000,-336.000000
459,-2160.000000,-336.000000
460,-2120.000000,-336.000000
461,-2160.000000,-328.000000
462,-2120.000000,-328.000000
463,-2160.000000,-320.000000
464,-2120.000000,-336.000000
465,-2120.000000,-344.000000
466,-2160.000000,-328.000000
467,-2120.000000,-328.000000
468,-2120.000000,-328.000000
469,-2160.000000,-328.000000
470,-2120.000000,-328.000000
471,-2120.000000,-328.000000
472,-2160.000000,-336.000000
473,-2120.000000,-336.000000
474,-2120.000000,-336.000000
475,-2160.000000,-336.000000
476,-2120.000000,-336.000000
477,-2160.000000,-336.000000
478,-2120.000000,-328.000000
479,-2120.000000,-336.000000
480,-2120.000000,-336.000000
481,-2120.000000,-328.000000
482,-2120.000000,-336.000000
483,-2160.000000,-336.000000
484,-2120.000000,-328.000000
485,-2160.000000,-328.000000
486,-2120.000000,-336.000000
487,-2160.000000,-336.000000
488,-2120.000000,-336.000000
489,-2160.000000,-328.000000
490,-2120.000000,-336.000000
491,-2120.000000,-328.000000
492,-2160.000000,-336.000000
493,-2160.000000,-328.000000
494,-2120.000000,-336.000000
495,-2120.000000,-328.000000
496,-2120.000000,-328.000000
497,-2160.000000,-336.000000
498,-2120.000000,-336.000000
499,-2120.000000,-336.000000
500,-2120.000000,-328.000000
501,-2120.000000,-336.000000
502,-2120.000000,-336.000000
503,-2160.000000,-328.000000
504,-2120.000000,-336.000000
505,-2120.000000,-328.000000
506,-2160.000000,-336.000000
507,-2160.000000,-336.000000
508,-2160.000000,-336.000000
509,-2160.000000,-336.000000
510,-2160.000000,-336.000000
511,-2120.000000,-336.000000
512,-2160.000000,-328.000000
513,-2120.000000,-328.000000
514,-2160.000000,-328.000000
515,-2120.000000,-328.000000
516,-2120.000000,-328.000000
517,-2160.000000,-328.000000
518,-2160.000000,-328.000000
519,-2120.000000,-328.000000
520,-2160.000000,-328.000000
521,-2120.000000,-336.000000
522,-2160.000000,-328.000000
523,-2160.000000,-336.000000
524,-2120.000000,-328.000000
525,-2160.000000,-328.000000
526,-2120.000000,-328.000000
527,-2160.000000,-336.000000
528,-2120.000000,-328.000000
529,-2120.000000,-336.000000
530,-2160.000000,-328.000000
531,-2160.000000,-328.000000
532,-2120.000000,-328.000000
533,-2120.000000,-336.000000
534,-2120.000000,-336.000000
535,-2120.000000,-336.000000
536,-2160.000000,-328.000000
537,-2160.000000,-336.000000
538,-2120.000000,-336.000000
539,-2160.000000,-328.000000
540,-2160.000000,-336.000000
541,-2160.000000,-336.000000
542,-2160.000000,-336.000000
543,-2120.000000,-336.000000
544,-2120.000000,-336.000000
545,-2160.000000,-336.000000
546,-2160.000000,-328.000000
547,-2120.000000,-328.000000
548,-2120.000000,-328.000000
549,-2120.000000,-328.000000
550,-2160.000000,-328.000000
551,-2160.000000,-336.000000
552,-2120.000000,-336.000000
553,-2160.000000,-328.000000
554,-2120.000000,-336.000000
555,-2160.000000,-336.000000
556,-2160.000000,-328.000000
557,-2120.000000,-328.000000
558,-2160.000000,-336.000000
559,-2160.000000,-328.000000
560,-2120.000000,-336.000000
561,-2120.000000,-328.000000
562,-2160.000000,-328.000000
563,-2120.000000,-328.000000
564,-2160.000000,-320.000000
565,-2120.000000,-328.000000
566,-2120.000000,-336.000000
567,-2160.000000,-328.000000
568,-2160.000000,-336.000000
569,-2160.000000,-328.000000
570,-2120.000000,-328.000000
571,-2160.000000,-328.000000
572,-2120.000000,-336.000000
573,-2120.000000,-336.000000
574,-2160.000000,-328.000000
575,-2160.000000,-336.000000
576,-2160.000000,-328.000000
577,-2160.000000,-328.000000
578,-2160.000000,-336.000000
579,-2160.000000,-328.000000
580,-2160.000000,-328.000000
581,-2120.000000,-336.000000
582,-2120.000000,-328.000000
583,-2160.000000,-336.000000
584,-2160.000000,-336.000000
585,-2160.000000,-328.000000
586,-2120.000000,-328.000000
587,-2160.000000,-328.000000
588,-2120.000000,-336.000000
589,-2120.000000,-336.000000
590,-2120.000000,-328.000000
591,-2120.000000,-304.000000
592,-2120.000000,-328.000000
593,-2160.000000,-328.000000
594,-2160.000000,-336.000000
595,-2160.000000,-336.000000
596,-2120.000000,-336.000000
597,-2120.000000,-336.000000
598,-2120.000000,-336.000000
599,-2160.000000,-336.000000
600,-2120.000000,-336.000000
601,-2160.000000,-336.000000
602,-2160.000000,-336.000000
603,-2120.000000,-336.000000
604,-2160.000000,-336.000000
605,-2160.000000,-336.000000
606,-2160.000000,-328.000000
607,-2120.000000,-328.000000
608,-2120.000000,-328.000000
609,-2160.000000,-328.000000
610,-2120.000000,-328.000000
611,-2120.000000,-336.000000
612,-2120.000000,-328.000000
613,-2120.000000,-336.000000
614,-2160.000000,-328.000000
615,-2120.000000,-328.000000
616,-2120.000000,-328.000000
617,-2160.000000,-328.000000
618,-2160.000000,-328.000000
619,-2120.000000,-328.000000
620,-2160.000000,-328.000000
621,-2160.000000,-328.000000
622,-2120.000000,-328.000000
623,-2120.000000,-328.000000
624,-2120.000000,-328.000000
625,-2120.000000,-328.000000
626,-2120.000000,-328.000000
627,-2160.000000,-328.000000
628,-2160.000000,-328.000000
629,-2120.000000,-336.000000
630,-2160.000000,-336.000000
631,-2120.000000,-328.000000
632,-2120.000000,-336.000000
633,-2160.000000,-336.000000
634,-2120.000000,-336.000000
635,-2160.000000,-336.000000
636,-2160.000000,-336.000000
637,-2160.000000,-336.000000
638,-2160.000000,-336.000000
639,-2120.000000,-336.000000
640,-2160.000000,-336.000000
641,-2120.000000,-336.000000
642,-2160.000000,-336.000000
643,-2160.000000,-336.000000
644,-2120.000000,-336.000000
645,-2160.000000,-336.000000
646,-2160.000000,-328.000000
647,-2160.000000,-336.000000
648,-2160.000000,-328.000000
649,-2120.000000,-336.000000
650,-2120.000000,-336.000000
651,-2160.000000,-336.000000
652,-2120.000000,-336.000000
653,-2160.000000,-336.000000
654,-2120.000000,-336.000000
655,-2120.000000,-328.000000
656,-2160.000000,-336.000000
657,-2120.000000,-336.000000
658,-2120.000000,-328.000000
659,-2120.000000,-328.000000
660,-2160.000000,-328.000000
661,-2160.000000,-336.000000
662,-2120.000000,-336.000000
663,-2160.000000,-336.000000
664,-2120.000000,-328.000000
665,-2160.000000,-336.000000
666,-2120.000000,-336.000000
667,-2160.000000,-336.000000
668,-2160.000000,-328.000000
669,-2160.000000,-328.000000
670,-2120.000000,-328.000000
671,-2120.000000,-328.000000
672,-2120.000000,-336.000000
673,-2160.000000,-336.000000
674,-2120.000000,-328.000000
675,-2160.000000,-336.000000
676,-2160.000000,-328.000000
677,-2160.000000,-336.000000
678,-2120.000000,-336.000000
679,-2160.000000,-336.000000
680,-2120.000000,-328.000000
681,-2160.000000,-336.000000
682,-2160.000000,-328.000000
683,-2120.000000,-336.000000
684,-2160.000000,-328.000000
685,-2160.000000,-328.000000
686,-2160.000000,-336.000000
687,-2160.000000,-328.000000
688,-2120.000000,-336.000000
