repport_data/pow_reoptimization_6_report_3_levels/data_59_003.csv

Channel              :,CH1,CH2
Frequency            :,  ?,  ?
Period               :,  ?,  ?
PK-PK                :,816.0mV,120.0mV
Probe attenuation    :,1X,1X
Voltage per ADC value:,0.500000mV,2.500000mV
Time interval        :,200.00000uS,200.00000uS

index,CH1_Voltage(mV),CH2_Voltage(mV)
1,-496.000000,3080.000000
2,-496.000000,3080.000000
3,-496.000000,3040.000000
4,-496.000000,3040.000000
5,-496.000000,3040.000000
6,-496.000000,3040.000000
7,-496.000000,3040.000000
8,-496.000000,3040.000000
9,-488.000000,3040.000000
10,-488.000000,3040.000000
11,-496.000000,3080.000000
12,-496.000000,3040.000000
13,-504.000000,3040.000000
14,-496.000000,3080.000000
15,-496.000000,3080.000000
16,-496.000000,3040.000000
17,-496.000000,3080.000000
18,-496.000000,3080.000000
19,-496.000000,3040.000000
20,-504.000000,3080.000000
21,-496.000000,3040.000000
22,-496.000000,3080.000000
23,-496.000000,3080.000000
24,-496.000000,3040.000000
25,-496.000000,3080.000000
26,-504.000000,3040.000000
27,-496.000000,3040.000000
28,-496.000000,3080.000000
29,-504.000000,3040.000000
30,-504.000000,3040.000000
31,-504.000000,3040.000000
32,-504.000000,3080.000000
33,-504.000000,3080.000000
34,-504.000000,3080.000000
35,-504.000000,3040.000000
36,-504.000000,3080.000000
37,-504.000000,3080.000000
38,-504.000000,3040.000000
39,-504.000000,3040.000000
40,-504.000000,3040.000000
41,-504.000000,3080.000000
42,-512.000000,3080.000000
43,-512.000000,3080.000000
44,-512.000000,3040.000000
45,-512.000000,3040.000000
46,-504.000000,3040.000000
47,-504.000000,3080.000000
48,-512.000000,3080.000000
49,-512.000000,3040.000000
50,-512.000000,3040.000000
51,-512.000000,3040.000000
52,-504.000000,3040.000000
53,-512.000000,3080.000000
54,-512.000000,3040.000000
55,-512.000000,3080.000000
56,-504.000000,3040.000000
57,-512.000000,3080.000000
58,-504.000000,3080.000000
59,-504.000000,3040.000000
60,-504.000000,3080.000000
61,-512.000000,3080.000000
62,-512.000000,3080.000000
63,-504.000000,3040.000000
64,-504.000000,3040.000000
65,-512.000000,3080.000000
66,-512.000000,3080.000000
67,-504.000000,3080.000000
68,-512.000000,3080.000000
69,-512.000000,3080.000000
70,-512.000000,3080.000000
71,-512.000000,3040.000000
72,-512.000000,3040.000000
73,-512.000000,3040.000000
74,-512.000000,3040.000000
75,-512.000000,3040.000000
76,-520.000000,3040.000000
77,-512.000000,3040.000000
78,-512.000000,3040.000000
79,-512.000000,3040.000000
80,-512.000000,3080.000000
81,-504.000000,3040.000000
82,-512.000000,3080.000000
83,-512.000000,3040.000000
84,-504.000000,3040.000000
85,-512.000000,3040.000000
86,-512.000000,3040.000000
87,-512.000000,3080.000000
88,-512.000000,3040.000000
89,-512.000000,3080.000000
90,-512.000000,3040.000000
91,-512.000000,3080.000000
92,-512.000000,3040.000000
93,-512.000000,3080.000000
94,-512.000000,3040.000000
95,-512.000000,3040.000000
96,-512.000000,3040.000000
97,-504.000000,3040.000000
98,-512.000000,3040.000000
99,-504.000000,3080.000000
100,-504.000000,3080.000000
101,-504.000000,3040.000000
102,-504.000000,3080.000000
103,-496.000000,3080.000000
104,-504.000000,3040.000000
105,-504.000000,3080.000000
106,-504.000000,3040.000000
107,-496.000000,3040.000000
108,-496.000000,3040.000000
109,-504.000000,3040.000000
110,-496.000000,3040.000000
111,-504.000000,3040.000000
112,-496.000000,3080.000000
113,-504.000000,3080.000000
114,-496.000000,3080.000000
115,-496.000000,3080.000000
116,-496.000000,3040.000000
117,-504.000000,3080.000000
118,-496.000000,3040.000000
119,-496.000000,3040.000000
120,-496.000000,3040.000000
121,-496.000000,3080.000000
122,-496.000000,3040.000000
123,-496.000000,3040.000000
124,-488.000000,3080.000000
125,-488.000000,3040.000000
126,-496.000000,3080.000000
127,-496.000000,3080.000000
128,-496.000000,3080.000000
129,-496.000000,3080.000000
130,-496.000000,3080.000000
131,-496.000000,3080.000000
132,-496.000000,3040.000000
133,-496.000000,3040.000000
134,-496.000000,3080.000000
135,-496.000000,3040.000000
136,-496.000000,3040.000000
137,-496.000000,3040.000000
138,-496.000000,3080.000000
139,-496.000000,3040.000000
140,-496.000000,3040.000000
141,-496.000000,3080.000000
142,-496.000000,3080.000000
143,-496.000000,3040.000000
144,-496.000000,3040.000000
145,-496.000000,3040.000000
146,-496.000000,3080.000000
147,-496.000000,3040.000000
148,-496.000000,3080.000000
149,-504.000000,3080.000000
150,-496.000000,3080.000000
151,-496.000000,3040.000000
152,-496.000000,3040.000000
153,-496.000000,3080.000000
154,-496.000000,3040.000000
155,-496.000000,3080.000000
156,-496.000000,3080.000000
157,-496.000000,3040.000000
158,-488.000000,3080.000000
159,-496.000000,3080.000000
160,-504.000000,3040.000000
161,-496.000000,3080.000000
162,-496.000000,3040.000000
163,-496.000000,3040.000000
164,-496.000000,3040.000000
165,-488.000000,3080.000000
166,-496.000000,3040.000000
167,-496.000000,3080.000000
168,-496.000000,3080.000000
169,-496.000000,3040.000000
170,-496.000000,3080.000000
171,-496.000000,3040.000000
172,-496.000000,3080.000000
173,-496.000000,3040.000000
174,-496.000000,3080.000000
175,-504.000000,3080.000000
176,-496.000000,3080.000000
177,-496.000000,3080.000000
178,-496.000000,3080.000000
179,-504.000000,3040.000000
180,-504.000000,3080.000000
181,-496.000000,3040.000000
182,-496.000000,3080.000000
183,-496.000000,3080.000000
184,-496.000000,3040.000000
185,-496.000000,3040.000000
186,-496.000000,3040.000000
187,-488.000000,3040.000000
188,-488.000000,3080.000000
189,-496.000000,3080.000000
190,-488.000000,3080.000000
191,-496.000000,3080.000000
192,-496.000000,3080.000000
193,-496.000000,3080.000000
194,-496.000000,3080.000000
195,-496.000000,3040.000000
196,-488.000000,3080.000000
197,-496.000000,3040.000000
198,-496.000000,3080.000000
199,-488.000000,3040.000000
200,-496.000000,3080.000000
201,-496.000000,3080.000000
202,-496.000000,3040.000000
203,-488.000000,3040.000000
204,-496.000000,3040.000000
205,-488.000000,3080.000000
206,-488.000000,3080.000000
207,-496.000000,3040.000000
208,-488.000000,3040.000000
209,-488.000000,3040.000000
210,-496.000000,3040.000000
211,-488.000000,3040.000000
212,-496.000000,3080.000000
213,-496.000000,3040.000000
214,-496.000000,3040.000000
215,-496.000000,3040.000000
216,-488.000000,3040.000000
217,-496.000000,3040.000000
218,-496.000000,3080.000000
219,-496.000000,3040.000000
220,-496.000000,3080.000000
221,-488.000000,3080.000000
222,-496.000000,3040.000000
223,-496.000000,3040.000000
224,-496.000000,3040.000000
225,-496.000000,3040.000000
226,-496.000000,3040.000000
227,-496.000000,3080.000000
228,-496.000000,3040.000000
229,-496.000000,3040.000000
230,-496.000000,3080.000000
231,-504.000000,3080.000000
232,-496.000000,3040.000000
233,-496.000000,3080.000000
234,-496.000000,3040.000000
235,-504.000000,3040.000000
236,-496.000000,3080.000000
237,-504.000000,3080.000000
238,-496.000000,3080.000000
239,-496.000000,3040.000000
240,-496.000000,3040.000000
241,-496.000000,3040.000000
242,-496.000000,3040.000000
243,-496.000000,3080.000000
244,-496.000000,3040.000000
245,-496.000000,3040.000000
246,-496.000000,3040.000000
247,-496.000000,3040.000000
248,-488.000000,3080.000000
249,-496.000000,3040.000000
250,-496.000000,3040.000000
251,-488.000000,3080.000000
252,-496.000000,3040.000000
253,-496.000000,3040.000000
254,-496.000000,3040.000000
255,-496.000000,3080.000000
256,-496.000000,3040.000000
257,-504.000000,3040.000000
258,-496.000000,3080.000000
259,-496.000000,3040.000000
260,-496.000000,3040.000000
261,-496.000000,3040.000000
262,-496.000000,3040.000000
263,-472.000000,3040.000000
264,-504.000000,3080.000000
265,-496.000000,3040.000000
266,-496.000000,3040.000000
267,-496.000000,3040.000000
268,-496.000000,3040.000000
269,-496.000000,3040.000000
270,-496.000000,3040.000000
271,-496.000000,3040.000000
272,-496.000000,3040.000000
273,-496.000000,3040.000000
274,-496.000000,3040.000000
275,-496.000000,3080.000000
276,-496.000000,3080.000000
277,-488.000000,3080.000000
278,-496.000000,3080.000000
279,-488.000000,3040.000000
280,-496.000000,3040.000000
281,-496.000000,3080.000000
282,-488.000000,3040.000000
283,-496.000000,3040.000000
284,-496.000000,3040.000000
285,-496.000000,3040.000000
286,-480.000000,3040.000000
287,-472.000000,3080.000000
288,-472.000000,3040.000000
289,-472.000000,3040.000000
290,-472.000000,3080.000000
291,-472.000000,3080.000000
292,-472.000000,3040.000000
293,-464.000000,3040.000000
294,-464.000000,3040.000000
295,-464.000000,3080.000000
296,-464.000000,3080.000000
297,-464.000000,3040.000000
298,-464.000000,3040.000000
299,-456.000000,3040.000000
300,-456.000000,3080.000000
301,-456.000000,3080.000000
302,-424.000000,3040.000000
303,-408.000000,3040.000000
304,-392.000000,3040.000000
305,-376.000000,3080.000000
306,-360.000000,3040.000000
307,-344.000000,3080.000000
308,-328.000000,3080.000000
309,-320.000000,3080.000000
310,-312.000000,3080.000000
311,-312.000000,3080.000000
312,-288.000000,3040.000000
313,-280.000000,3040.000000
314,-288.000000,3040.000000
315,-264.000000,3040.000000
316,-264.000000,3040.000000
317,-264.000000,3040.000000
318,-256.000000,3080.000000
319,-248.000000,3040.000000
320,-248.000000,3080.000000
321,-240.000000,3080.000000
322,-232.000000,3080.000000
323,-232.000000,3080.000000
324,-232.000000,3040.000000
325,-224.000000,3080.000000
326,-224.000000,3080.000000
327,-224.000000,3080.000000
328,-216.000000,3080.000000
329,-216.000000,3080.000000
330,-216.000000,3040.000000
331,-216.000000,3080.000000
332,-216.000000,3040.000000
333,-216.000000,3040.000000
334,-216.000000,3080.000000
335,-208.000000,3040.000000
336,-208.000000,3040.000000
337,-208.000000,3080.000000
338,-208.000000,3080.000000
339,-208.000000,3040.000000
340,-200.000000,3040.000000
341,-200.000000,3040.000000
342,-200.000000,3040.000000
343,-200.000000,3040.000000
344,-200.000000,3040.000000
345,-200.000000,3080.000000
346,-200.000000,3080.000000
347,-200.000000,3080.000000
348,-192.000000,3040.000000
349,-200.000000,3080.000000
350,-200.000000,3080.000000
351,-200.000000,3040.000000
352,-192.000000,3040.000000
353,-200.000000,3080.000000
354,-200.000000,3080.000000
355,-200.000000,3040.000000
356,-192.000000,3080.000000
357,-192.000000,3040.000000
358,-192.000000,3040.000000
359,-200.000000,3040.000000
360,-192.000000,3040.000000
361,-192.000000,3080.000000
362,-200.000000,3040.000000
363,-192.000000,3040.000000
364,-200.000000,3080.000000
365,-192.000000,3040.000000
366,-192.000000,3040.000000
367,-200.000000,3080.000000
368,-200.000000,3080.000000
369,-192.000000,3040.000000
370,-192.000000,3040.000000
371,-192.000000,3080.000000
372,-200.000000,3040.000000
373,-200.000000,3080.000000
374,-200.000000,3040.000000
375,-192.000000,3040.000000
376,-192.000000,3040.000000
377,-192.000000,3040.000000
378,-192.000000,3080.000000
379,-192.000000,3040.000000
380,-192.000000,3040.000000
381,-192.000000,3080.000000
382,-192.000000,3080.000000
383,-192.000000,3040.000000
384,-160.000000,3040.000000
385,-136.000000,3040.000000
386,-112.000000,3080.000000
387,-80.000000,3040.000000
388,-64.000000,3080.000000
389,-40.000000,3040.000000
390,-24.000000,3040.000000
391,-16.000000,3080.000000
392,8.000000,3080.000000
393,24.000000,3080.000000
394,32.000000,3040.000000
395,48.000000,3040.000000
396,56.000000,3040.000000
397,64.000000,3080.000000
398,80.000000,3080.000000
399,80.000000,3040.000000
400,104.000000,3040.000000
401,104.000000,3080.000000
402,120.000000,3040.000000
403,128.000000,3080.000000
404,128.000000,3080.000000
405,136.000000,3040.000000
406,144.000000,3040.000000
407,144.000000,3040.000000
408,152.000000,3080.000000
409,152.000000,3080.000000
410,168.000000,3080.000000
411,168.000000,3080.000000
412,176.000000,3080.000000
413,176.000000,3080.000000
414,176.000000,3080.000000
415,184.000000,3080.000000
416,184.000000,3040.000000
417,184.000000,3080.000000
418,192.000000,3040.000000
419,200.000000,3040.000000
420,200.000000,3040.000000
421,208.000000,3080.000000
422,200.000000,3040.000000
423,200.000000,3040.000000
424,208.000000,3040.000000
425,208.000000,3040.000000
426,208.000000,3040.000000
427,208.000000,3080.000000
428,216.000000,3080.000000
429,216.000000,3080.000000
430,216.000000,3040.000000
431,216.000000,3080.000000
432,216.000000,3080.000000
433,216.000000,3040.000000
434,216.000000,3080.000000
435,216.000000,3040.000000
436,216.000000,3040.000000
437,216.000000,3040.000000
438,216.000000,3040.000000
439,216.000000,3040.000000
440,216.000000,3040.000000
441,216.000000,3040.000000
442,224.000000,3040.000000
443,224.000000,3080.000000
444,216.000000,3080.000000
445,224.000000,3040.000000
446,224.000000,3040.000000
447,224.000000,3040.000000
448,224.000000,3040.000000
449,224.000000,3080.000000
450,224.000000,3040.000000
451,224.000000,3080.000000
452,208.000000,3080.000000
453,224.000000,3040.000000
454,224.000000,3080.000000
455,224.000000,3040.000000
456,232.000000,3040.000000
457,224.000000,3080.000000
458,224.000000,3040.000000
459,216.000000,3040.000000
460,224.000000,3040.000000
461,224.000000,3040.000000
462,224.000000,3040.000000
463,224.000000,3080.000000
464,216.000000,3080.000000
465,232.000000,3040.000000
466,232.000000,3080.000000
467,232.000000,3040.000000
468,232.000000,3080.000000
469,232.000000,3080.000000
470,232.000000,3080.000000
471,240.000000,3080.000000
472,232.000000,3040.000000
473,240.000000,3040.000000
474,240.000000,3080.000000
475,240.000000,3040.000000
476,232.000000,3040.000000
477,240.000000,3040.000000
478,240.000000,3040.000000
479,240.000000,3080.000000
480,240.000000,3080.000000
481,240.000000,3080.000000
482,240.000000,3040.000000
483,240.000000,3040.000000
484,240.000000,3080.000000
485,240.000000,3040.000000
486,240.000000,3040.000000
487,248.000000,3040.000000
488,240.000000,3040.000000
489,248.000000,3040.000000
490,240.000000,3080.000000
491,240.000000,3040.000000
492,240.000000,3080.000000
493,240.000000,3040.000000
494,248.000000,3040.000000
495,248.000000,3040.000000
496,240.000000,3080.000000
497,248.000000,3080.000000
498,248.000000,3080.000000
499,248.000000,3040.000000
500,248.000000,3040.000000
501,248.000000,3080.000000
502,248.000000,3040.000000
503,248.000000,3040.000000
504,248.000000,3080.000000
505,248.000000,3080.000000
506,248.000000,3040.000000
507,248.000000,3040.000000
508,248.000000,3040.000000
509,240.000000,3040.000000
510,248.000000,3040.000000
511,248.000000,3080.000000
512,240.000000,3080.000000
513,224.000000,3040.000000
514,240.000000,3040.000000
515,240.000000,3040.000000
516,256.000000,3040.000000
517,272.000000,3080.000000
518,248.000000,3080.000000
519,248.000000,3040.000000
520,248.000000,3040.000000
521,248.000000,3040.000000
522,248.000000,3040.000000
523,248.000000,3080.000000
524,248.000000,3040.000000
525,248.000000,3080.000000
526,248.000000,3040.000000
527,248.000000,3040.000000
528,240.000000,3040.000000
529,248.000000,3040.000000
530,240.000000,3080.000000
531,248.000000,3040.000000
532,248.000000,3080.000000
533,248.000000,3040.000000
534,248.000000,3040.000000
535,248.000000,3040.000000
536,248.000000,3040.000000
537,248.000000,3040.000000
538,256.000000,3040.000000
539,256.000000,3080.000000
540,248.000000,3080.000000
541,248.000000,3040.000000
542,248.000000,3080.000000
543,248.000000,3040.000000
544,248.000000,3040.000000
545,248.000000,3080.000000
546,240.000000,3080.000000
547,248.000000,3080.000000
548,240.000000,3040.000000
549,240.000000,3040.000000
550,240.000000,3080.000000
551,240.000000,3040.000000
552,248.000000,3080.000000
553,240.000000,3040.000000
554,248.000000,3040.000000
555,248.000000,3040.000000
556,240.000000,3080.000000
557,248.000000,3080.000000
558,248.000000,3080.000000
559,248.000000,3040.000000
560,248.000000,3080.000000
561,240.000000,3080.000000
562,240.000000,3040.000000
563,240.000000,3040.000000
564,240.000000,3040.000000
565,248.000000,3040.000000
566,248.000000,3040.000000
567,248.000000,3080.000000
568,248.000000,3080.000000
569,248.000000,3080.000000
570,248.000000,3080.000000
571,248.000000,3080.000000
572,248.000000,3040.000000
573,248.000000,3040.000000
574,248.000000,3040.000000
575,248.000000,3040.000000
576,248.000000,3040.000000
577,248.000000,3040.000000
578,240.000000,3040.000000
579,240.000000,3040.000000
580,248.000000,3080.000000
581,248.000000,3080.000000
582,248.000000,3080.000000
583,248.000000,3080.000000
584,248.000000,3080.000000
585,240.000000,3040.000000
586,248.000000,3040.000000
587,248.000000,3080.000000
588,248.000000,3080.000000
589,248.000000,3080.000000
590,248.000000,3040.000000
591,240.000000,3080.000000
592,240.000000,3080.000000
593,240.000000,3040.000000
594,240.000000,3040.000000
595,248.000000,3080.000000
596,248.000000,3040.000000
597,248.000000,3040.000000
598,248.000000,3040.000000
599,248.000000,3040.000000
600,248.000000,3040.000000
601,248.000000,3040.000000
602,248.000000,3040.000000
603,248.000000,3040.000000
604,248.000000,3040.000000
605,248.000000,3040.000000
606,240.000000,3080.000000
607,248.000000,3080.000000
608,248.000000,3040.000000
609,248.000000,3080.000000
610,256.000000,3040.000000
611,240.000000,3080.000000
612,248.000000,3040.000000
613,240.000000,3040.000000
614,248.000000,3040.000000
615,248.000000,3040.000000
616,240.000000,3040.000000
617,248.000000,3080.000000
618,248.000000,3080.000000
619,240.000000,3080.000000
620,248.000000,3040.000000
621,248.000000,3040.000000
622,240.000000,3040.000000
623,248.000000,3080.000000
624,248.000000,3040.000000
625,248.000000,3080.000000
626,248.000000,3040.000000
627,248.000000,3040.000000
628,248.000000,3040.000000
629,248.000000,3040.000000
630,248.000000,3080.000000
631,248.000000,3080.000000
632,248.000000,3080.000000
633,248.000000,3080.000000
634,248.000000,3040.000000
635,248.000000,3080.000000
636,248.000000,3040.000000
637,248.000000,3080.000000
638,248.000000,3080.000000
639,248.000000,3040.000000
640,248.000000,3080.000000
641,248.000000,3040.000000
642,248.000000,3080.000000
643,248.000000,3080.000000
644,240.000000,3080.000000
645,248.000000,3040.000000
646,248.000000,3080.000000
647,208.000000,3040.000000
648,248.000000,3000.000000
649,248.000000,3080.000000
650,240.000000,3080.000000
651,248.000000,3040.000000
652,248.000000,3080.000000
653,248.000000,3040.000000
654,248.000000,3040.000000
655,248.000000,3040.000000
656,256.000000,3040.000000
657,248.000000,3080.000000
658,240.000000,3080.000000
659,240.000000,3080.000000
660,240.000000,3080.000000
661,240.000000,3080.000000
662,248.000000,3040.000000
663,248.000000,3040.000000
664,240.000000,3040.000000
665,248.000000,3040.000000
666,240.000000,3080.000000
667,240.000000,3040.000000
668,240.000000,3080.000000
669,240.000000,3040.000000
670,240.000000,3040.000000
671,248.000000,3040.000000
672,248.000000,3080.000000
673,240.000000,3040.000000
674,248.000000,3080.000000
675,248.000000,3040.000000
676,248.000000,3040.000000
677,240.000000,3040.000000
678,248.000000,3040.000000
679,240.000000,3040.000000
680,240.000000,3080.000000
681,248.000000,3080.000000
682,240.000000,3080.000000
683,240.000000,3080.000000
684,248.000000,3040.000000
685,248.000000,3040.000000
686,240.000000,3080.000000
687,240.000000,3080.000000
688,248.000000,3080.000000
689,240.000000,3040.000000
690,240.000000,3080.000000
691,240.000000,3040.000000
692,248.000000,3040.000000
693,248.000000,3040.000000
694,248.000000,3040.000000
695,248.000000,3040.000000
696,240.000000,3080.000000
697,240.000000,3080.000000
698,240.000000,3040.000000
699,240.000000,3040.000000
700,248.000000,3080.000000
701,240.000000,3040.000000
702,240.000000,3080.000000
703,240.000000,3080.000000
704,240.000000,3040.000000
705,240.000000,3040.000000
706,264.000000,3080.000000
707,248.000000,3080.000000
708,248.000000,3040.000000
709,248.000000,3040.000000
710,232.000000,3080.000000
711,248.000000,3040.000000
712,240.000000,3080.000000
713,248.000000,3040.000000
714,248.000000,3080.000000
715,240.000000,3040.000000
716,256.000000,3080.000000
717,224.000000,3080.000000
718,248.000000,3040.000000
719,240.000000,3040.000000
