repport_data/pow_reoptimization_6_report_3_levels/data_59_001.csv

Channel              :,CH1,CH2
Frequency            :,  ?,  ?
Period               :,  ?,  ?
PK-PK                :,960.0mV,120.0mV
Probe attenuation    :,1X,1X
Voltage per ADC value:,0.500000mV,2.500000mV
Time interval        :,200.00000uS,200.00000uS

index,CH1_Voltage(mV),CH2_Voltage(mV)
1,-168.000000,3040.000000
2,-168.000000,3040.000000
3,-168.000000,3080.000000
4,-168.000000,3080.000000
5,-176.000000,3040.000000
6,-176.000000,3040.000000
7,-168.000000,3040.000000
8,-176.000000,3080.000000
9,-168.000000,3040.000000
10,-168.000000,3080.000000
11,-168.000000,3040.000000
12,-176.000000,3080.000000
13,-168.000000,3040.000000
14,-168.000000,3040.000000
15,-168.000000,3040.000000
16,-168.000000,3080.000000
17,-176.000000,3080.000000
18,-176.000000,3040.000000
19,-168.000000,3040.000000
20,-168.000000,3080.000000
21,-176.000000,3080.000000
22,-168.000000,3080.000000
23,-168.000000,3040.000000
24,-168.000000,3040.000000
25,-168.000000,3080.000000
26,-176.000000,3040.000000
27,-168.000000,3080.000000
28,-168.000000,3040.000000
29,-168.000000,3040.000000
30,-168.000000,3040.000000
31,-168.000000,3040.000000
32,-168.000000,3040.000000
33,-168.000000,3080.000000
34,-176.000000,3040.000000
35,-168.000000,3040.000000
36,-176.000000,3040.000000
37,-176.000000,3080.000000
38,-168.000000,3040.000000
39,-168.000000,3040.000000
40,-168.000000,3040.000000
41,-168.000000,3040.000000
42,-168.000000,3080.000000
43,-176.000000,3040.000000
44,-168.000000,3040.000000
45,-168.000000,3040.000000
46,-168.000000,3040.000000
47,-168.000000,3040.000000
48,-168.000000,3040.000000
49,-168.000000,3040.000000
50,-168.000000,3040.000000
51,-168.000000,3040.000000
52,-168.000000,3040.000000
53,-176.000000,3040.000000
54,-168.000000,3040.000000
55,-168.000000,3040.000000
56,-168.000000,3040.000000
57,-168.000000,3040.000000
58,-176.000000,3080.000000
59,-168.000000,3040.000000
60,-168.000000,3040.000000
61,-176.000000,3040.000000
62,-176.000000,3040.000000
63,-176.000000,3040.000000
64,-168.000000,3040.000000
65,-168.000000,3080.000000
66,-168.000000,3080.000000
67,-168.000000,3040.000000
68,-168.000000,3040.000000
69,-176.000000,3080.000000
70,-176.000000,3080.000000
71,-168.000000,3040.000000
72,-176.000000,3040.000000
73,-168.000000,3080.000000
74,-168.000000,3040.000000
75,-168.000000,3080.000000
76,-168.000000,3080.000000
77,-168.000000,3040.000000
78,-168.000000,3040.000000
79,-168.000000,3040.000000
80,-168.000000,3040.000000
81,-168.000000,3080.000000
82,-168.000000,3040.000000
83,-168.000000,3040.000000
84,-168.000000,3080.000000
85,-168.000000,3040.000000
86,-168.000000,3080.000000
87,-168.000000,3080.000000
88,-168.000000,3080.000000
89,-168.000000,3080.000000
90,-168.000000,3040.000000
91,-168.000000,3040.000000
92,-168.000000,3040.000000
93,-168.000000,3040.000000
94,-168.000000,3040.000000
95,-168.000000,3040.000000
96,-168.000000,3040.000000
97,-168.000000,3040.000000
98,-168.000000,3080.000000
99,-176.000000,3040.000000
100,-168.000000,3000.000000
101,-168.000000,3040.000000
102,-168.000000,3080.000000
103,-168.000000,3040.000000
104,-176.000000,3040.000000
105,-168.000000,3040.000000
106,-176.000000,3040.000000
107,-168.000000,3040.000000
108,-168.000000,3040.000000
109,-168.000000,3080.000000
110,-168.000000,3080.000000
111,-168.000000,3040.000000
112,-168.000000,3040.000000
113,-168.000000,3040.000000
114,-168.000000,3040.000000
115,-168.000000,3080.000000
116,-168.000000,3080.000000
117,-160.000000,3080.000000
118,-176.000000,3040.000000
119,-168.000000,3040.000000
120,-168.000000,3040.000000
121,-192.000000,3040.000000
122,-176.000000,3040.000000
123,-168.000000,3080.000000
124,-168.000000,3080.000000
125,-168.000000,3040.000000
126,-168.000000,3080.000000
127,-144.000000,3040.000000
128,-104.000000,3040.000000
129,-80.000000,3040.000000
130,-48.000000,3080.000000
131,-8.000000,3080.000000
132,16.000000,3040.000000
133,48.000000,3040.000000
134,56.000000,3040.000000
135,72.000000,3040.000000
136,80.000000,3040.000000
137,96.000000,3080.000000
138,104.000000,3040.000000
139,80.000000,3040.000000
140,64.000000,3040.000000
141,48.000000,3040.000000
142,24.000000,3080.000000
143,8.000000,3040.000000
144,-8.000000,3040.000000
145,-24.000000,3040.000000
146,-40.000000,3040.000000
147,-48.000000,3040.000000
148,-56.000000,3040.000000
149,-64.000000,3040.000000
150,-72.000000,3040.000000
151,-80.000000,3040.000000
152,-88.000000,3040.000000
153,-96.000000,3040.000000
154,-104.000000,3080.000000
155,-112.000000,3040.000000
156,-120.000000,3040.000000
157,-120.000000,3080.000000
158,-128.000000,3040.000000
159,-128.000000,3040.000000
160,-128.000000,3080.000000
161,-136.000000,3040.000000
162,-136.000000,3080.000000
163,-136.000000,3080.000000
164,-144.000000,3040.000000
165,-144.000000,3040.000000
166,-144.000000,3080.000000
167,-152.000000,3040.000000
168,-152.000000,3040.000000
169,-152.000000,3040.000000
170,-152.000000,3040.000000
171,-152.000000,3040.000000
172,-136.000000,3040.000000
173,-160.000000,3040.000000
174,-160.000000,3040.000000
175,-144.000000,3040.000000
176,-168.000000,3080.000000
177,-168.000000,3040.000000
178,-160.000000,3040.000000
179,-160.000000,3040.000000
180,-168.000000,3040.000000
181,-160.000000,3040.000000
182,-168.000000,3080.000000
183,-168.000000,3040.000000
184,-168.000000,3040.000000
185,-160.000000,3040.000000
186,-160.000000,3040.000000
187,-168.000000,3040.000000
188,-168.000000,3040.000000
189,-168.000000,3040.000000
190,-168.000000,3040.000000
191,-168.000000,3080.000000
192,-168.000000,3040.000000
193,-168.000000,3040.000000
194,-168.000000,3040.000000
195,-168.000000,3040.000000
196,-168.000000,3080.000000
197,-168.000000,3040.000000
198,-168.000000,3040.000000
199,-168.000000,3040.000000
200,-168.000000,3080.000000
201,-168.000000,3040.000000
202,-176.000000,3080.000000
203,-168.000000,3040.000000
204,-176.000000,3040.000000
205,-168.000000,3040.000000
206,-168.000000,3040.000000
207,-168.000000,3040.000000
208,-168.000000,3080.000000
209,-168.000000,3040.000000
210,-168.000000,3040.000000
211,-168.000000,3040.000000
212,-168.000000,3040.000000
213,-168.000000,3080.000000
214,-168.000000,3040.000000
215,-168.000000,3040.000000
216,-168.000000,3040.000000
217,-168.000000,3040.000000
218,-168.000000,3040.000000
219,-176.000000,3080.000000
220,-176.000000,3040.000000
221,-176.000000,3040.000000
222,-168.000000,3080.000000
223,-168.000000,3040.000000
224,-168.000000,3040.000000
225,-176.000000,3040.000000
226,-168.000000,3040.000000
227,-168.000000,3080.000000
228,-168.000000,3080.000000
229,-176.000000,3040.000000
230,-168.000000,3040.000000
231,-168.000000,3040.000000
232,-176.000000,3040.000000
233,-176.000000,3040.000000
234,-168.000000,3040.000000
235,-168.000000,3040.000000
236,-168.000000,3040.000000
237,-168.000000,3080.000000
238,-168.000000,3080.000000
239,-168.000000,3040.000000
240,-176.000000,3040.000000
241,-168.000000,3040.000000
242,-168.000000,3040.000000
243,-168.000000,3040.000000
244,-168.000000,3040.000000
245,-168.000000,3040.000000
246,-168.000000,3040.000000
247,-168.000000,3040.000000
248,-176.000000,3040.000000
249,-176.000000,3040.000000
250,-168.000000,3080.000000
251,-168.000000,3040.000000
252,-168.000000,3040.000000
253,-168.000000,3080.000000
254,-176.000000,3040.000000
255,-176.000000,3040.000000
256,-168.000000,3080.000000
257,-168.000000,3040.000000
258,-168.000000,3040.000000
259,-168.000000,3080.000000
260,-168.000000,3040.000000
261,-168.000000,3040.000000
262,-176.000000,3080.000000
263,-168.000000,3040.000000
264,-168.000000,3040.000000
265,-168.000000,3080.000000
266,-168.000000,3040.000000
267,-168.000000,3040.000000
268,-176.000000,3040.000000
269,-168.000000,3040.000000
270,-176.000000,3040.000000
271,-168.000000,3040.000000
272,-176.000000,3040.000000
273,-176.000000,3040.000000
274,-168.000000,3080.000000
275,-168.000000,3040.000000
276,-168.000000,3040.000000
277,-168.000000,3040.000000
278,-168.000000,3080.000000
279,-168.000000,3040.000000
280,-168.000000,3080.000000
281,-176.000000,3040.000000
282,-168.000000,3080.000000
283,-168.000000,3040.000000
284,-176.000000,3040.000000
285,-168.000000,3040.000000
286,-168.000000,3040.000000
287,-176.000000,3040.000000
288,-176.000000,3040.000000
289,-176.000000,3040.000000
290,-168.000000,3040.000000
291,-168.000000,3080.000000
292,-176.000000,3080.000000
293,-168.000000,3080.000000
294,-168.000000,3080.000000
295,-168.000000,3040.000000
296,-176.000000,3080.000000
297,-168.000000,3040.000000
298,-168.000000,3080.000000
299,-168.000000,3080.000000
300,-168.000000,3040.000000
301,-168.000000,3040.000000
302,-168.000000,3040.000000
303,-168.000000,3080.000000
304,-168.000000,3040.000000
305,-168.000000,3040.000000
306,-168.000000,3040.000000
307,-176.000000,3040.000000
308,-168.000000,3080.000000
309,-168.000000,3040.000000
310,-168.000000,3080.000000
311,-168.000000,3040.000000
312,-168.000000,3080.000000
313,-168.000000,3040.000000
314,-168.000000,3080.000000
315,-168.000000,3040.000000
316,-168.000000,3040.000000
317,-168.000000,3080.000000
318,-168.000000,3040.000000
319,-152.000000,3040.000000
320,-168.000000,3040.000000
321,-176.000000,3080.000000
322,-176.000000,3040.000000
323,-168.000000,3040.000000
324,-160.000000,3080.000000
325,-168.000000,3080.000000
326,-168.000000,3080.000000
327,-168.000000,3040.000000
328,-176.000000,3040.000000
329,-176.000000,3040.000000
330,-168.000000,3040.000000
331,-168.000000,3040.000000
332,-168.000000,3040.000000
333,-168.000000,3080.000000
334,-168.000000,3040.000000
335,-168.000000,3040.000000
336,-168.000000,3080.000000
337,-168.000000,3040.000000
338,-176.000000,3040.000000
339,-168.000000,3040.000000
340,-168.000000,3040.000000
341,-168.000000,3040.000000
342,-168.000000,3080.000000
343,-168.000000,3080.000000
344,-168.000000,3080.000000
345,-168.000000,3040.000000
346,-168.000000,3040.000000
347,-168.000000,3080.000000
348,-168.000000,3040.000000
349,-168.000000,3080.000000
350,-176.000000,3040.000000
351,-168.000000,3040.000000
352,-168.000000,3040.000000
353,-168.000000,3040.000000
354,-168.000000,3040.000000
355,-168.000000,3080.000000
356,-176.000000,3080.000000
357,-168.000000,3040.000000
358,-168.000000,3040.000000
359,-168.000000,3040.000000
360,-168.000000,3080.000000
361,-168.000000,3040.000000
362,-168.000000,3040.000000
363,-168.000000,3040.000000
364,-168.000000,3080.000000
365,-168.000000,3040.000000
366,-176.000000,3040.000000
367,-168.000000,3040.000000
368,-168.000000,3040.000000
369,-176.000000,3080.000000
370,-168.000000,3040.000000
371,-168.000000,3040.000000
372,-176.000000,3040.000000
373,-200.000000,3040.000000
374,-168.000000,3040.000000
375,-168.000000,3040.000000
376,-168.000000,3040.000000
377,-176.000000,3040.000000
378,-136.000000,3080.000000
379,-104.000000,3080.000000
380,-64.000000,3040.000000
381,-32.000000,3080.000000
382,0.000000,3040.000000
383,24.000000,3040.000000
384,48.000000,3080.000000
385,64.000000,3080.000000
386,80.000000,3080.000000
387,88.000000,3080.000000
388,96.000000,3080.000000
389,104.000000,3040.000000
390,80.000000,3040.000000
391,56.000000,3080.000000
392,40.000000,3040.000000
393,24.000000,3040.000000
394,0.000000,3040.000000
395,-8.000000,3040.000000
396,-24.000000,3040.000000
397,-40.000000,3080.000000
398,-40.000000,3040.000000
399,-56.000000,3080.000000
400,-64.000000,3040.000000
401,-72.000000,3040.000000
402,-88.000000,3040.000000
403,-88.000000,3040.000000
404,-96.000000,3040.000000
405,-96.000000,3040.000000
406,-112.000000,3040.000000
407,-112.000000,3080.000000
408,-120.000000,3080.000000
409,-120.000000,3040.000000
410,-136.000000,3040.000000
411,-136.000000,3040.000000
412,-136.000000,3040.000000
413,-136.000000,3040.000000
414,-136.000000,3040.000000
415,-144.000000,3040.000000
416,-144.000000,3040.000000
417,-144.000000,3080.000000
418,-144.000000,3080.000000
419,-152.000000,3040.000000
420,-152.000000,3080.000000
421,-160.000000,3040.000000
422,-152.000000,3040.000000
423,-152.000000,3080.000000
424,-160.000000,3040.000000
425,-160.000000,3080.000000
426,-160.000000,3040.000000
427,-160.000000,3040.000000
428,-160.000000,3040.000000
429,-168.000000,3040.000000
430,-160.000000,3080.000000
431,-160.000000,3040.000000
432,-168.000000,3040.000000
433,-160.000000,3080.000000
434,-168.000000,3080.000000
435,-160.000000,3040.000000
436,-160.000000,3040.000000
437,-160.000000,3040.000000
438,-176.000000,3040.000000
439,-168.000000,3080.000000
440,-168.000000,3040.000000
441,-168.000000,3040.000000
442,-168.000000,3080.000000
443,-168.000000,3040.000000
444,-160.000000,3080.000000
445,-168.000000,3040.000000
446,-168.000000,3080.000000
447,-176.000000,3080.000000
448,-176.000000,3040.000000
449,-176.000000,3040.000000
450,-168.000000,3040.000000
451,-168.000000,3040.000000
452,-168.000000,3080.000000
453,-168.000000,3040.000000
454,-168.000000,3080.000000
455,-168.000000,3040.000000
456,-168.000000,3040.000000
457,-168.000000,3040.000000
458,-168.000000,3040.000000
459,-168.000000,3040.000000
460,-168.000000,3080.000000
461,-176.000000,3040.000000
462,-168.000000,3040.000000
463,-168.000000,3080.000000
464,-168.000000,3040.000000
465,-168.000000,3040.000000
466,-168.000000,3080.000000
467,-168.000000,3040.000000
468,-176.000000,3040.000000
469,-176.000000,3040.000000
470,-168.000000,3040.000000
471,-168.000000,3040.000000
472,-168.000000,3040.000000
473,-168.000000,3040.000000
474,-168.000000,3040.000000
475,-168.000000,3040.000000
476,-168.000000,3040.000000
477,-168.000000,3040.000000
478,-176.000000,3080.000000
479,-168.000000,3080.000000
480,-176.000000,3040.000000
481,-168.000000,3040.000000
482,-168.000000,3040.000000
483,-168.000000,3040.000000
484,-168.000000,3080.000000
485,-168.000000,3080.000000
486,-168.000000,3040.000000
487,-168.000000,3040.000000
488,-168.000000,3040.000000
489,-176.000000,3040.000000
490,-168.000000,3040.000000
491,-168.000000,3040.000000
492,-168.000000,3040.000000
493,-168.000000,3040.000000
494,-168.000000,3040.000000
495,-176.000000,3080.000000
496,-168.000000,3040.000000
497,-176.000000,3040.000000
498,-168.000000,3040.000000
499,-176.000000,3040.000000
500,-168.000000,3040.000000
501,-168.000000,3040.000000
502,-168.000000,3040.000000
503,-176.000000,3040.000000
504,-168.000000,3040.000000
505,-168.000000,3080.000000
506,-168.000000,3040.000000
507,-184.000000,3040.000000
508,-168.000000,3040.000000
509,-168.000000,3080.000000
510,-168.000000,3040.000000
511,-168.000000,3080.000000
512,-168.000000,3040.000000
513,-176.000000,3080.000000
514,-168.000000,3040.000000
515,-168.000000,3040.000000
516,-168.000000,3040.000000
517,-168.000000,3080.000000
518,-168.000000,3080.000000
519,-176.000000,3040.000000
520,-168.000000,3080.000000
521,-176.000000,3040.000000
522,-176.000000,3040.000000
523,-176.000000,3040.000000
524,-176.000000,3040.000000
525,-168.000000,3040.000000
526,-168.000000,3080.000000
527,-176.000000,3080.000000
528,-168.000000,3040.000000
529,-168.000000,3080.000000
530,-176.000000,3040.000000
531,-168.000000,3080.000000
532,-176.000000,3040.000000
533,-168.000000,3080.000000
534,-168.000000,3040.000000
535,-168.000000,3040.000000
536,-176.000000,3040.000000
537,-168.000000,3040.000000
538,-168.000000,3080.000000
539,-168.000000,3080.000000
540,-168.000000,3040.000000
541,-168.000000,3040.000000
542,-168.000000,3080.000000
543,-168.000000,3080.000000
544,-176.000000,3040.000000
545,-168.000000,3040.000000
546,-168.000000,3080.000000
547,-176.000000,3080.000000
548,-168.000000,3080.000000
549,-168.000000,3080.000000
550,-168.000000,3040.000000
551,-168.000000,3080.000000
552,-176.000000,3040.000000
553,-168.000000,3040.000000
554,-176.000000,3040.000000
555,-168.000000,3040.000000
556,-168.000000,3040.000000
557,-168.000000,3040.000000
558,-176.000000,3040.000000
559,-168.000000,3040.000000
560,-168.000000,3040.000000
561,-176.000000,3080.000000
562,-168.000000,3040.000000
563,-176.000000,3040.000000
564,-168.000000,3040.000000
565,-168.000000,3040.000000
566,-168.000000,3080.000000
567,-176.000000,3040.000000
568,-168.000000,3040.000000
569,-152.000000,3080.000000
570,-168.000000,3040.000000
571,-168.000000,3040.000000
572,-168.000000,3080.000000
573,-192.000000,3040.000000
574,-168.000000,3080.000000
575,-168.000000,3040.000000
576,-168.000000,3080.000000
577,-168.000000,3040.000000
578,-168.000000,3080.000000
579,-176.000000,3040.000000
580,-168.000000,3040.000000
581,-168.000000,3040.000000
582,-168.000000,3080.000000
583,-176.000000,3040.000000
584,-176.000000,3040.000000
585,-176.000000,3080.000000
586,-176.000000,3040.000000
587,-168.000000,3080.000000
588,-168.000000,3040.000000
589,-168.000000,3040.000000
590,-168.000000,3080.000000
591,-168.000000,3040.000000
592,-168.000000,3040.000000
593,-168.000000,3040.000000
594,-168.000000,3080.000000
595,-168.000000,3080.000000
596,-168.000000,3040.000000
597,-168.000000,3040.000000
598,-168.000000,3040.000000
599,-168.000000,3040.000000
600,-168.000000,3080.000000
601,-176.000000,3040.000000
602,-176.000000,3080.000000
603,-168.000000,3040.000000
604,-168.000000,3080.000000
605,-168.000000,3040.000000
606,-168.000000,3040.000000
607,-176.000000,3040.000000
608,-168.000000,3040.000000
609,-160.000000,3040.000000
610,-168.000000,3040.000000
611,-168.000000,3040.000000
612,-168.000000,3040.000000
613,-176.000000,3080.000000
614,-176.000000,3040.000000
615,-168.000000,3080.000000
616,-168.000000,3040.000000
617,-176.000000,3040.000000
618,-168.000000,3040.000000
619,-168.000000,3040.000000
620,-168.000000,3080.000000
621,-176.000000,3040.000000
622,-168.000000,3080.000000
623,-160.000000,3040.000000
624,-168.000000,3040.000000
625,-168.000000,3040.000000
626,-168.000000,3080.000000
627,-168.000000,3040.000000
628,-168.000000,3040.000000
629,-128.000000,3040.000000
630,-96.000000,3080.000000
631,-56.000000,3040.000000
632,-32.000000,3040.000000
633,0.000000,3040.000000
634,32.000000,3040.000000
635,48.000000,3040.000000
636,72.000000,3040.000000
637,80.000000,3080.000000
638,88.000000,3080.000000
639,104.000000,3040.000000
640,104.000000,3080.000000
641,80.000000,3080.000000
642,56.000000,3040.000000
643,32.000000,3040.000000
644,24.000000,3040.000000
645,0.000000,3040.000000
646,-8.000000,3040.000000
647,-24.000000,3080.000000
648,-40.000000,3080.000000
649,-48.000000,3080.000000
650,-56.000000,3040.000000
651,-72.000000,3080.000000
652,-72.000000,3040.000000
653,-88.000000,3040.000000
654,-88.000000,3040.000000
655,-104.000000,3040.000000
656,-112.000000,3040.000000
657,-112.000000,3080.000000
658,-120.000000,3040.000000
659,-120.000000,3040.000000
660,-128.000000,3080.000000
661,-128.000000,3040.000000
662,-136.000000,3040.000000
663,-136.000000,3040.000000
664,-144.000000,3040.000000
665,-144.000000,3040.000000
666,-144.000000,3040.000000
667,-144.000000,3040.000000
668,-152.000000,3040.000000
669,-152.000000,3040.000000
670,-152.000000,3080.000000
671,-152.000000,3080.000000
672,-160.000000,3040.000000
673,-160.000000,3080.000000
674,-160.000000,3080.000000
675,-160.000000,3080.000000
676,-160.000000,3040.000000
677,-160.000000,3080.000000
678,-168.000000,3040.000000
679,-160.000000,3040.000000
680,-160.000000,3040.000000
681,-160.000000,3040.000000
682,-168.000000,3040.000000
683,-168.000000,3040.000000
684,-168.000000,3040.000000
685,-168.000000,3080.000000
686,-160.000000,3040.000000
687,-168.000000,3040.000000
688,-168.000000,3040.000000
689,-168.000000,3040.000000
690,-168.000000,3040.000000
691,-168.000000,3040.000000
692,-168.000000,3040.000000
693,-168.000000,3040.000000
694,-168.000000,3080.000000
695,-168.000000,3040.000000
696,-168.000000,3040.000000
697,-168.000000,3040.000000
698,-168.000000,3080.000000
699,-176.000000,3080.000000
700,-168.000000,3080.000000
701,-168.000000,3040.000000
702,-168.000000,3040.000000
703,-168.000000,3080.000000
704,-168.000000,3040.000000
705,-176.000000,3040.000000
706,-168.000000,3040.000000
707,-168.000000,3040.000000
708,-176.000000,3080.000000
709,-168.000000,3080.000000
710,-168.000000,3040.000000
711,-168.000000,3040.000000
