repport_data/pow_reoptimization_6_report_3_levels/data_59_002.csv

Channel              :,CH1,CH2
Frequency            :,  ?,  ?
Period               :,  ?,  ?
PK-PK                :,832.0mV,120.0mV
Probe attenuation    :,1X,1X
Voltage per ADC value:,0.500000mV,2.500000mV
Time interval        :,200.00000uS,200.00000uS

index,CH1_Voltage(mV),CH2_Voltage(mV)
1,-512.000000,3040.000000
2,-512.000000,3040.000000
3,-512.000000,3040.000000
4,-512.000000,3040.000000
5,-512.000000,3040.000000
6,-512.000000,3040.000000
7,-504.000000,3080.000000
8,-512.000000,3040.000000
9,-504.000000,3080.000000
10,-504.000000,3040.000000
11,-504.000000,3080.000000
12,-512.000000,3040.000000
13,-512.000000,3080.000000
14,-512.000000,3040.000000
15,-512.000000,3080.000000
16,-512.000000,3040.000000
17,-512.000000,3080.000000
18,-512.000000,3080.000000
19,-512.000000,3040.000000
20,-512.000000,3040.000000
21,-512.000000,3080.000000
22,-512.000000,3040.000000
23,-520.000000,3080.000000
24,-512.000000,3040.000000
25,-512.000000,3080.000000
26,-512.000000,3040.000000
27,-504.000000,3040.000000
28,-512.000000,3040.000000
29,-512.000000,3080.000000
30,-512.000000,3040.000000
31,-520.000000,3040.000000
32,-520.000000,3080.000000
33,-520.000000,3080.000000
34,-512.000000,3080.000000
35,-520.000000,3040.000000
36,-520.000000,3080.000000
37,-520.000000,3080.000000
38,-520.000000,3080.000000
39,-520.000000,3040.000000
40,-528.000000,3040.000000
41,-520.000000,3080.000000
42,-520.000000,3080.000000
43,-528.000000,3080.000000
44,-528.000000,3080.000000
45,-528.000000,3080.000000
46,-520.000000,3080.000000
47,-528.000000,3040.000000
48,-528.000000,3040.000000
49,-528.000000,3040.000000
50,-528.000000,3040.000000
51,-528.000000,3080.000000
52,-528.000000,3040.000000
53,-528.000000,3080.000000
54,-528.000000,3080.000000
55,-528.000000,3080.000000
56,-528.000000,3080.000000
57,-528.000000,3080.000000
58,-528.000000,3040.000000
59,-528.000000,3040.000000
60,-528.000000,3080.000000
61,-528.000000,3040.000000
62,-528.000000,3080.000000
63,-528.000000,3080.000000
64,-528.000000,3080.000000
65,-536.000000,3040.000000
66,-528.000000,3040.000000
67,-528.000000,3080.000000
68,-528.000000,3040.000000
69,-528.000000,3080.000000
70,-528.000000,3080.000000
71,-528.000000,3080.000000
72,-528.000000,3040.000000
73,-528.000000,3080.000000
74,-528.000000,3080.000000
75,-528.000000,3080.000000
76,-528.000000,3040.000000
77,-528.000000,3040.000000
78,-528.000000,3040.000000
79,-528.000000,3040.000000
80,-528.000000,3040.000000
81,-528.000000,3080.000000
82,-520.000000,3040.000000
83,-528.000000,3080.000000
84,-528.000000,3080.000000
85,-528.000000,3040.000000
86,-528.000000,3080.000000
87,-528.000000,3080.000000
88,-528.000000,3080.000000
89,-528.000000,3080.000000
90,-528.000000,3080.000000
91,-528.000000,3040.000000
92,-528.000000,3080.000000
93,-528.000000,3080.000000
94,-528.000000,3040.000000
95,-528.000000,3040.000000
96,-528.000000,3040.000000
97,-528.000000,3080.000000
98,-528.000000,3040.000000
99,-520.000000,3040.000000
100,-528.000000,3040.000000
101,-528.000000,3040.000000
102,-528.000000,3040.000000
103,-520.000000,3080.000000
104,-520.000000,3040.000000
105,-528.000000,3080.000000
106,-520.000000,3080.000000
107,-528.000000,3040.000000
108,-520.000000,3080.000000
109,-520.000000,3080.000000
110,-520.000000,3040.000000
111,-520.000000,3040.000000
112,-520.000000,3080.000000
113,-520.000000,3080.000000
114,-520.000000,3040.000000
115,-520.000000,3080.000000
116,-512.000000,3040.000000
117,-512.000000,3040.000000
118,-512.000000,3040.000000
119,-512.000000,3040.000000
120,-520.000000,3080.000000
121,-512.000000,3040.000000
122,-512.000000,3080.000000
123,-512.000000,3080.000000
124,-512.000000,3040.000000
125,-512.000000,3080.000000
126,-512.000000,3040.000000
127,-512.000000,3080.000000
128,-512.000000,3080.000000
129,-512.000000,3080.000000
130,-512.000000,3080.000000
131,-512.000000,3080.000000
132,-512.000000,3080.000000
133,-520.000000,3080.000000
134,-512.000000,3080.000000
135,-520.000000,3080.000000
136,-512.000000,3040.000000
137,-512.000000,3040.000000
138,-512.000000,3080.000000
139,-512.000000,3080.000000
140,-512.000000,3080.000000
141,-512.000000,3080.000000
142,-512.000000,3080.000000
143,-512.000000,3080.000000
144,-512.000000,3040.000000
145,-512.000000,3080.000000
146,-512.000000,3040.000000
147,-512.000000,3040.000000
148,-512.000000,3040.000000
149,-512.000000,3080.000000
150,-504.000000,3040.000000
151,-512.000000,3080.000000
152,-512.000000,3080.000000
153,-512.000000,3080.000000
154,-512.000000,3080.000000
155,-512.000000,3040.000000
156,-512.000000,3080.000000
157,-512.000000,3040.000000
158,-512.000000,3080.000000
159,-520.000000,3040.000000
160,-512.000000,3080.000000
161,-512.000000,3080.000000
162,-512.000000,3080.000000
163,-520.000000,3080.000000
164,-512.000000,3080.000000
165,-512.000000,3080.000000
166,-504.000000,3040.000000
167,-512.000000,3080.000000
168,-512.000000,3080.000000
169,-504.000000,3040.000000
170,-496.000000,3040.000000
171,-520.000000,3040.000000
172,-512.000000,3040.000000
173,-512.000000,3040.000000
174,-520.000000,3080.000000
175,-512.000000,3040.000000
176,-512.000000,3040.000000
177,-512.000000,3040.000000
178,-512.000000,3040.000000
179,-512.000000,3080.000000
180,-520.000000,3080.000000
181,-520.000000,3040.000000
182,-520.000000,3040.000000
183,-512.000000,3040.000000
184,-520.000000,3040.000000
185,-512.000000,3080.000000
186,-520.000000,3080.000000
187,-512.000000,3080.000000
188,-520.000000,3080.000000
189,-520.000000,3040.000000
190,-512.000000,3080.000000
191,-520.000000,3040.000000
192,-512.000000,3080.000000
193,-504.000000,3080.000000
194,-512.000000,3080.000000
195,-512.000000,3040.000000
196,-512.000000,3080.000000
197,-512.000000,3080.000000
198,-520.000000,3080.000000
199,-512.000000,3040.000000
200,-512.000000,3080.000000
201,-512.000000,3080.000000
202,-512.000000,3080.000000
203,-504.000000,3040.000000
204,-504.000000,3080.000000
205,-512.000000,3080.000000
206,-504.000000,3080.000000
207,-512.000000,3040.000000
208,-512.000000,3080.000000
209,-504.000000,3080.000000
210,-512.000000,3040.000000
211,-504.000000,3040.000000
212,-512.000000,3080.000000
213,-504.000000,3040.000000
214,-512.000000,3040.000000
215,-512.000000,3080.000000
216,-512.000000,3040.000000
217,-512.000000,3040.000000
218,-512.000000,3080.000000
219,-512.000000,3080.000000
220,-512.000000,3040.000000
221,-512.000000,3040.000000
222,-512.000000,3040.000000
223,-512.000000,3080.000000
224,-528.000000,3040.000000
225,-512.000000,3080.000000
226,-512.000000,3040.000000
227,-512.000000,3040.000000
228,-512.000000,3080.000000
229,-512.000000,3080.000000
230,-512.000000,3080.000000
231,-512.000000,3040.000000
232,-512.000000,3080.000000
233,-512.000000,3080.000000
234,-512.000000,3040.000000
235,-512.000000,3040.000000
236,-512.000000,3080.000000
237,-520.000000,3040.000000
238,-520.000000,3080.000000
239,-520.000000,3080.000000
240,-520.000000,3040.000000
241,-520.000000,3040.000000
242,-520.000000,3040.000000
243,-520.000000,3080.000000
244,-520.000000,3040.000000
245,-528.000000,3080.000000
246,-528.000000,3040.000000
247,-520.000000,3040.000000
248,-528.000000,3040.000000
249,-528.000000,3080.000000
250,-528.000000,3040.000000
251,-528.000000,3040.000000
252,-528.000000,3040.000000
253,-528.000000,3040.000000
254,-528.000000,3040.000000
255,-528.000000,3040.000000
256,-528.000000,3080.000000
257,-528.000000,3040.000000
258,-528.000000,3080.000000
259,-536.000000,3080.000000
260,-528.000000,3040.000000
261,-528.000000,3080.000000
262,-528.000000,3080.000000
263,-528.000000,3040.000000
264,-528.000000,3040.000000
265,-528.000000,3040.000000
266,-520.000000,3040.000000
267,-528.000000,3080.000000
268,-528.000000,3040.000000
269,-528.000000,3080.000000
270,-528.000000,3080.000000
271,-520.000000,3080.000000
272,-528.000000,3040.000000
273,-528.000000,3080.000000
274,-528.000000,3080.000000
275,-528.000000,3080.000000
276,-528.000000,3040.000000
277,-528.000000,3080.000000
278,-528.000000,3040.000000
279,-528.000000,3080.000000
280,-528.000000,3080.000000
281,-528.000000,3080.000000
282,-528.000000,3040.000000
283,-528.000000,3080.000000
284,-528.000000,3080.000000
285,-528.000000,3080.000000
286,-528.000000,3040.000000
287,-528.000000,3080.000000
288,-528.000000,3040.000000
289,-528.000000,3040.000000
290,-528.000000,3080.000000
291,-528.000000,3080.000000
292,-528.000000,3040.000000
293,-528.000000,3080.000000
294,-528.000000,3040.000000
295,-528.000000,3040.000000
296,-528.000000,3040.000000
297,-528.000000,3080.000000
298,-528.000000,3080.000000
299,-528.000000,3080.000000
300,-536.000000,3040.000000
301,-528.000000,3040.000000
302,-528.000000,3080.000000
303,-528.000000,3080.000000
304,-528.000000,3040.000000
305,-528.000000,3040.000000
306,-528.000000,3040.000000
307,-528.000000,3080.000000
308,-528.000000,3080.000000
309,-528.000000,3080.000000
310,-528.000000,3080.000000
311,-528.000000,3080.000000
312,-520.000000,3080.000000
313,-520.000000,3040.000000
314,-520.000000,3040.000000
315,-520.000000,3080.000000
316,-520.000000,3040.000000
317,-520.000000,3040.000000
318,-520.000000,3040.000000
319,-520.000000,3040.000000
320,-520.000000,3040.000000
321,-512.000000,3040.000000
322,-512.000000,3080.000000
323,-520.000000,3080.000000
324,-512.000000,3080.000000
325,-512.000000,3080.000000
326,-504.000000,3080.000000
327,-512.000000,3080.000000
328,-504.000000,3080.000000
329,-512.000000,3040.000000
330,-512.000000,3080.000000
331,-512.000000,3040.000000
332,-512.000000,3040.000000
333,-512.000000,3080.000000
334,-512.000000,3080.000000
335,-512.000000,3080.000000
336,-512.000000,3040.000000
337,-512.000000,3080.000000
338,-512.000000,3040.000000
339,-512.000000,3080.000000
340,-512.000000,3040.000000
341,-512.000000,3080.000000
342,-512.000000,3080.000000
343,-512.000000,3080.000000
344,-512.000000,3080.000000
345,-512.000000,3080.000000
346,-512.000000,3080.000000
347,-512.000000,3040.000000
348,-512.000000,3040.000000
349,-512.000000,3080.000000
350,-512.000000,3080.000000
351,-512.000000,3040.000000
352,-512.000000,3080.000000
353,-512.000000,3040.000000
354,-512.000000,3040.000000
355,-512.000000,3040.000000
356,-512.000000,3080.000000
357,-512.000000,3040.000000
358,-504.000000,3080.000000
359,-512.000000,3080.000000
360,-512.000000,3080.000000
361,-512.000000,3080.000000
362,-512.000000,3080.000000
363,-512.000000,3040.000000
364,-504.000000,3040.000000
365,-512.000000,3040.000000
366,-512.000000,3040.000000
367,-520.000000,3080.000000
368,-512.000000,3080.000000
369,-512.000000,3080.000000
370,-512.000000,3080.000000
371,-512.000000,3080.000000
372,-512.000000,3080.000000
373,-512.000000,3040.000000
374,-512.000000,3080.000000
375,-520.000000,3080.000000
376,-512.000000,3080.000000
377,-520.000000,3040.000000
378,-520.000000,3080.000000
379,-512.000000,3040.000000
380,-512.000000,3040.000000
381,-512.000000,3040.000000
382,-512.000000,3080.000000
383,-512.000000,3040.000000
384,-512.000000,3040.000000
385,-504.000000,3080.000000
386,-520.000000,3080.000000
387,-512.000000,3080.000000
388,-520.000000,3040.000000
389,-512.000000,3080.000000
390,-512.000000,3080.000000
391,-512.000000,3080.000000
392,-512.000000,3040.000000
393,-512.000000,3080.000000
394,-512.000000,3080.000000
395,-512.000000,3040.000000
396,-512.000000,3040.000000
397,-512.000000,3080.000000
398,-512.000000,3080.000000
399,-512.000000,3080.000000
400,-512.000000,3080.000000
401,-504.000000,3080.000000
402,-512.000000,3080.000000
403,-504.000000,3040.000000
404,-512.000000,3080.000000
405,-512.000000,3040.000000
406,-512.000000,3080.000000
407,-512.000000,3080.000000
408,-504.000000,3040.000000
409,-512.000000,3040.000000
410,-504.000000,3080.000000
411,-512.000000,3080.000000
412,-504.000000,3080.000000
413,-504.000000,3040.000000
414,-512.000000,3080.000000
415,-512.000000,3080.000000
416,-512.000000,3040.000000
417,-512.000000,3040.000000
418,-504.000000,3080.000000
419,-504.000000,3040.000000
420,-496.000000,3080.000000
421,-512.000000,3080.000000
422,-512.000000,3040.000000
423,-504.000000,3040.000000
424,-512.000000,3040.000000
425,-512.000000,3080.000000
426,-512.000000,3040.000000
427,-512.000000,3040.000000
428,-512.000000,3040.000000
429,-512.000000,3080.000000
430,-512.000000,3080.000000
431,-512.000000,3080.000000
432,-512.000000,3080.000000
433,-512.000000,3080.000000
434,-512.000000,3040.000000
435,-512.000000,3040.000000
436,-512.000000,3080.000000
437,-512.000000,3080.000000
438,-512.000000,3080.000000
439,-512.000000,3040.000000
440,-520.000000,3040.000000
441,-520.000000,3040.000000
442,-520.000000,3040.000000
443,-520.000000,3040.000000
444,-520.000000,3040.000000
445,-520.000000,3080.000000
446,-528.000000,3040.000000
447,-520.000000,3040.000000
448,-528.000000,3080.000000
449,-528.000000,3040.000000
450,-520.000000,3080.000000
451,-520.000000,3040.000000
452,-520.000000,3080.000000
453,-528.000000,3040.000000
454,-520.000000,3040.000000
455,-520.000000,3080.000000
456,-528.000000,3040.000000
457,-528.000000,3080.000000
458,-520.000000,3080.000000
459,-528.000000,3080.000000
460,-528.000000,3040.000000
461,-528.000000,3040.000000
462,-528.000000,3080.000000
463,-528.000000,3080.000000
464,-528.000000,3040.000000
465,-528.000000,3040.000000
466,-528.000000,3040.000000
467,-528.000000,3040.000000
468,-528.000000,3080.000000
469,-528.000000,3080.000000
470,-528.000000,3080.000000
471,-528.000000,3080.000000
472,-520.000000,3040.000000
473,-528.000000,3080.000000
474,-528.000000,3040.000000
475,-528.000000,3040.000000
476,-528.000000,3080.000000
477,-528.000000,3080.000000
478,-528.000000,3080.000000
479,-528.000000,3080.000000
480,-528.000000,3080.000000
481,-528.000000,3080.000000
482,-528.000000,3040.000000
483,-528.000000,3080.000000
484,-528.000000,3080.000000
485,-528.000000,3080.000000
486,-528.000000,3040.000000
487,-528.000000,3080.000000
488,-528.000000,3080.000000
489,-528.000000,3040.000000
490,-528.000000,3080.000000
491,-528.000000,3040.000000
492,-528.000000,3080.000000
493,-528.000000,3080.000000
494,-528.000000,3040.000000
495,-528.000000,3080.000000
496,-528.000000,3040.000000
497,-528.000000,3040.000000
498,-520.000000,3080.000000
499,-528.000000,3040.000000
500,-528.000000,3080.000000
501,-528.000000,3080.000000
502,-528.000000,3040.000000
503,-536.000000,3040.000000
504,-528.000000,3080.000000
505,-528.000000,3040.000000
506,-536.000000,3080.000000
507,-528.000000,3040.000000
508,-528.000000,3040.000000
509,-528.000000,3040.000000
510,-528.000000,3080.000000
511,-528.000000,3080.000000
512,-528.000000,3080.000000
513,-520.000000,3080.000000
514,-528.000000,3040.000000
515,-520.000000,3080.000000
516,-520.000000,3080.000000
517,-520.000000,3040.000000
518,-520.000000,3080.000000
519,-520.000000,3040.000000
520,-512.000000,3040.000000
521,-520.000000,3040.000000
522,-520.000000,3080.000000
523,-512.000000,3080.000000
524,-512.000000,3040.000000
525,-520.000000,3080.000000
526,-512.000000,3040.000000
527,-512.000000,3080.000000
528,-512.000000,3040.000000
529,-512.000000,3080.000000
530,-512.000000,3040.000000
531,-512.000000,3040.000000
532,-512.000000,3040.000000
533,-512.000000,3040.000000
534,-512.000000,3080.000000
535,-512.000000,3040.000000
536,-512.000000,3080.000000
537,-512.000000,3080.000000
538,-512.000000,3080.000000
539,-512.000000,3080.000000
540,-512.000000,3080.000000
541,-512.000000,3040.000000
542,-512.000000,3080.000000
543,-512.000000,3040.000000
544,-512.000000,3040.000000
545,-512.000000,3040.000000
546,-504.000000,3040.000000
547,-504.000000,3080.000000
548,-512.000000,3080.000000
549,-512.000000,3080.000000
550,-520.000000,3040.000000
551,-512.000000,3040.000000
552,-512.000000,3080.000000
553,-512.000000,3040.000000
554,-512.000000,3040.000000
555,-512.000000,3040.000000
556,-512.000000,3080.000000
557,-512.000000,3080.000000
558,-512.000000,3040.000000
559,-512.000000,3080.000000
560,-512.000000,3040.000000
561,-512.000000,3040.000000
562,-512.000000,3040.000000
563,-520.000000,3080.000000
564,-520.000000,3080.000000
565,-512.000000,3040.000000
566,-512.000000,3040.000000
567,-512.000000,3080.000000
568,-544.000000,3040.000000
569,-512.000000,3040.000000
570,-512.000000,3080.000000
571,-512.000000,3080.000000
572,-512.000000,3080.000000
573,-520.000000,3080.000000
574,-512.000000,3080.000000
575,-512.000000,3040.000000
576,-512.000000,3040.000000
577,-512.000000,3080.000000
578,-512.000000,3080.000000
579,-512.000000,3040.000000
580,-512.000000,3040.000000
581,-512.000000,3040.000000
582,-512.000000,3040.000000
583,-504.000000,3040.000000
584,-512.000000,3080.000000
585,-512.000000,3080.000000
586,-512.000000,3080.000000
587,-512.000000,3080.000000
588,-512.000000,3040.000000
589,-512.000000,3080.000000
590,-512.000000,3080.000000
591,-512.000000,3040.000000
592,-512.000000,3080.000000
593,-512.000000,3040.000000
594,-512.000000,3080.000000
595,-512.000000,3040.000000
596,-520.000000,3080.000000
597,-512.000000,3040.000000
598,-512.000000,3040.000000
599,-512.000000,3080.000000
600,-512.000000,3040.000000
601,-512.000000,3040.000000
602,-512.000000,3040.000000
603,-504.000000,3040.000000
604,-512.000000,3080.000000
605,-512.000000,3040.000000
606,-504.000000,3080.000000
607,-512.000000,3040.000000
608,-512.000000,3040.000000
609,-504.000000,3040.000000
610,-512.000000,3040.000000
611,-504.000000,3040.000000
612,-504.000000,3080.000000
613,-512.000000,3080.000000
614,-512.000000,3080.000000
615,-512.000000,3080.000000
616,-504.000000,3080.000000
617,-512.000000,3080.000000
618,-504.000000,3040.000000
619,-480.000000,3040.000000
620,-512.000000,3080.000000
621,-504.000000,3080.000000
622,-512.000000,3040.000000
623,-512.000000,3080.000000
624,-504.000000,3080.000000
625,-512.000000,3080.000000
626,-520.000000,3080.000000
627,-512.000000,3080.000000
628,-512.000000,3080.000000
629,-512.000000,3080.000000
630,-512.000000,3080.000000
631,-512.000000,3040.000000
632,-520.000000,3080.000000
633,-512.000000,3080.000000
634,-512.000000,3040.000000
635,-520.000000,3080.000000
636,-520.000000,3080.000000
637,-512.000000,3080.000000
638,-512.000000,3040.000000
639,-520.000000,3080.000000
640,-512.000000,3080.000000
641,-512.000000,3080.000000
642,-520.000000,3080.000000
643,-520.000000,3080.000000
644,-512.000000,3040.000000
645,-512.000000,3080.000000
646,-520.000000,3040.000000
647,-520.000000,3080.000000
648,-528.000000,3080.000000
649,-520.000000,3080.000000
650,-520.000000,3080.000000
651,-520.000000,3080.000000
652,-520.000000,3080.000000
653,-520.000000,3080.000000
654,-520.000000,3040.000000
655,-520.000000,3080.000000
656,-528.000000,3040.000000
657,-520.000000,3040.000000
658,-528.000000,3040.000000
659,-528.000000,3040.000000
660,-528.000000,3080.000000
661,-528.000000,3080.000000
662,-528.000000,3080.000000
663,-528.000000,3080.000000
664,-520.000000,3040.000000
665,-528.000000,3080.000000
666,-528.000000,3080.000000
667,-528.000000,3080.000000
668,-528.000000,3080.000000
669,-528.000000,3040.000000
670,-528.000000,3040.000000
671,-528.000000,3080.000000
672,-520.000000,3040.000000
673,-528.000000,3080.000000
674,-528.000000,3080.000000
675,-528.000000,3080.000000
676,-528.000000,3040.000000
677,-528.000000,3040.000000
678,-528.000000,3080.000000
679,-528.000000,3080.000000
680,-528.000000,3080.000000
681,-528.000000,3080.000000
682,-528.000000,3040.000000
683,-528.000000,3080.000000
684,-520.000000,3080.000000
685,-528.000000,3040.000000
686,-528.000000,3040.000000
687,-528.000000,3080.000000
688,-520.000000,3080.000000
689,-528.000000,3080.000000
690,-528.000000,3040.000000
691,-528.000000,3040.000000
692,-528.000000,3080.000000
693,-528.000000,3080.000000
694,-528.000000,3080.000000
695,-528.000000,3040.000000
696,-528.000000,3080.000000
697,-528.000000,3080.000000
698,-528.000000,3080.000000
699,-528.000000,3040.000000
700,-528.000000,3080.000000
701,-528.000000,3040.000000
702,-528.000000,3040.000000
703,-528.000000,3040.000000
704,-528.000000,3040.000000
705,-528.000000,3040.000000
706,-528.000000,3040.000000
707,-536.000000,3080.000000
