repport_data/pow_reoptimization_6_report_3_levels/data_59_005.csv

Channel              :,CH1,CH2
Frequency            :,  ?,  ?
Period               :,  ?,  ?
PK-PK                :,784.0mV,80.00mV
Probe attenuation    :,1X,1X
Voltage per ADC value:,0.500000mV,2.500000mV
Time interval        :,200.00000uS,200.00000uS

index,CH1_Voltage(mV),CH2_Voltage(mV)
1,-552.000000,3080.000000
2,-552.000000,3080.000000
3,-552.000000,3080.000000
4,-552.000000,3040.000000
5,-552.000000,3040.000000
6,-552.000000,3080.000000
7,-552.000000,3040.000000
8,-552.000000,3040.000000
9,-552.000000,3040.000000
10,-552.000000,3040.000000
11,-552.000000,3080.000000
12,-544.000000,3040.000000
13,-552.000000,3040.000000
14,-544.000000,3040.000000
15,-552.000000,3040.000000
16,-552.000000,3040.000000
17,-552.000000,3080.000000
18,-552.000000,3040.000000
19,-560.000000,3040.000000
20,-552.000000,3040.000000
21,-552.000000,3040.000000
22,-552.000000,3080.000000
23,-552.000000,3040.000000
24,-544.000000,3040.000000
25,-552.000000,3080.000000
26,-552.000000,3080.000000
27,-552.000000,3040.000000
28,-552.000000,3080.000000
29,-544.000000,3080.000000
30,-552.000000,3040.000000
31,-552.000000,3040.000000
32,-552.000000,3040.000000
33,-552.000000,3040.000000
34,-552.000000,3040.000000
35,-552.000000,3040.000000
36,-552.000000,3040.000000
37,-544.000000,3040.000000
38,-552.000000,3080.000000
39,-552.000000,3040.000000
40,-552.000000,3080.000000
41,-552.000000,3080.000000
42,-552.000000,3040.000000
43,-552.000000,3080.000000
44,-552.000000,3040.000000
45,-552.000000,3040.000000
46,-552.000000,3040.000000
47,-552.000000,3040.000000
48,-552.000000,3040.000000
49,-552.000000,3040.000000
50,-544.000000,3040.000000
51,-544.000000,3080.000000
52,-544.000000,3040.000000
53,-544.000000,3040.000000
54,-544.000000,3080.000000
55,-544.000000,3080.000000
56,-544.000000,3040.000000
57,-544.000000,3040.000000
58,-544.000000,3040.000000
59,-544.000000,3040.000000
60,-544.000000,3080.000000
61,-544.000000,3040.000000
62,-544.000000,3040.000000
63,-552.000000,3080.000000
64,-552.000000,3040.000000
65,-552.000000,3040.000000
66,-552.000000,3040.000000
67,-552.000000,3040.000000
68,-552.000000,3080.000000
69,-552.000000,3040.000000
70,-552.000000,3040.000000
71,-552.000000,3040.000000
72,-552.000000,3040.000000
73,-552.000000,3040.000000
74,-552.000000,3040.000000
75,-552.000000,3080.000000
76,-552.000000,3040.000000
77,-552.000000,3080.000000
78,-552.000000,3040.000000
79,-552.000000,3080.000000
80,-552.000000,3040.000000
81,-552.000000,3040.000000
82,-552.000000,3040.000000
83,-552.000000,3040.000000
84,-552.000000,3040.000000
85,-552.000000,3080.000000
86,-552.000000,3040.000000
87,-552.000000,3040.000000
88,-552.000000,3040.000000
89,-552.000000,3040.000000
90,-552.000000,3040.000000
91,-544.000000,3040.000000
92,-552.000000,3080.000000
93,-552.000000,3040.000000
94,-552.000000,3080.000000
95,-544.000000,3040.000000
96,-552.000000,3040.000000
97,-552.000000,3040.000000
98,-544.000000,3040.000000
99,-552.000000,3040.000000
100,-552.000000,3080.000000
101,-552.000000,3040.000000
102,-552.000000,3080.000000
103,-552.000000,3040.000000
104,-552.000000,3040.000000
105,-552.000000,3040.000000
106,-552.000000,3040.000000
107,-552.000000,3040.000000
108,-552.000000,3080.000000
109,-552.000000,3080.000000
110,-552.000000,3040.000000
111,-552.000000,3040.000000
112,-552.000000,3040.000000
113,-552.000000,3040.000000
114,-552.000000,3040.000000
115,-552.000000,3040.000000
116,-552.000000,3040.000000
117,-552.000000,3040.000000
118,-552.000000,3040.000000
119,-552.000000,3080.000000
120,-552.000000,3040.000000
121,-552.000000,3080.000000
122,-552.000000,3080.000000
123,-552.000000,3040.000000
124,-544.000000,3040.000000
125,-544.000000,3040.000000
126,-552.000000,3040.000000
127,-544.000000,3040.000000
128,-544.000000,3040.000000
129,-552.000000,3080.000000
130,-544.000000,3040.000000
131,-544.000000,3040.000000
132,-544.000000,3040.000000
133,-552.000000,3040.000000
134,-544.000000,3040.000000
135,-552.000000,3040.000000
136,-544.000000,3040.000000
137,-544.000000,3080.000000
138,-552.000000,3080.000000
139,-552.000000,3040.000000
140,-544.000000,3040.000000
141,-552.000000,3040.000000
142,-544.000000,3040.000000
143,-560.000000,3040.000000
144,-552.000000,3080.000000
145,-552.000000,3040.000000
146,-584.000000,3040.000000
147,-568.000000,3040.000000
148,-552.000000,3040.000000
149,-552.000000,3040.000000
150,-552.000000,3040.000000
151,-552.000000,3040.000000
152,-560.000000,3040.000000
153,-552.000000,3080.000000
154,-552.000000,3040.000000
155,-552.000000,3040.000000
156,-552.000000,3080.000000
157,-552.000000,3040.000000
158,-552.000000,3040.000000
159,-552.000000,3000.000000
160,-552.000000,3040.000000
161,-552.000000,3040.000000
162,-552.000000,3040.000000
163,-552.000000,3040.000000
164,-552.000000,3040.000000
165,-552.000000,3080.000000
166,-544.000000,3080.000000
167,-552.000000,3040.000000
168,-552.000000,3040.000000
169,-544.000000,3040.000000
170,-552.000000,3040.000000
171,-552.000000,3040.000000
172,-552.000000,3040.000000
173,-552.000000,3040.000000
174,-552.000000,3040.000000
175,-552.000000,3040.000000
176,-544.000000,3040.000000
177,-552.000000,3040.000000
178,-552.000000,3040.000000
179,-552.000000,3040.000000
180,-552.000000,3080.000000
181,-552.000000,3040.000000
182,-552.000000,3040.000000
183,-552.000000,3080.000000
184,-552.000000,3040.000000
185,-552.000000,3040.000000
186,-552.000000,3040.000000
187,-552.000000,3080.000000
188,-552.000000,3040.000000
189,-552.000000,3040.000000
190,-552.000000,3040.000000
191,-552.000000,3040.000000
192,-552.000000,3040.000000
193,-552.000000,3080.000000
194,-552.000000,3040.000000
195,-552.000000,3040.000000
196,-544.000000,3080.000000
197,-552.000000,3040.000000
198,-552.000000,3040.000000
199,-544.000000,3080.000000
200,-552.000000,3040.000000
201,-552.000000,3040.000000
202,-544.000000,3040.000000
203,-544.000000,3080.000000
204,-552.000000,3040.000000
205,-552.000000,3040.000000
206,-544.000000,3040.000000
207,-544.000000,3080.000000
208,-544.000000,3040.000000
209,-544.000000,3040.000000
210,-552.000000,3040.000000
211,-552.000000,3040.000000
212,-552.000000,3040.000000
213,-544.000000,3040.000000
214,-552.000000,3040.000000
215,-552.000000,3040.000000
216,-552.000000,3040.000000
217,-552.000000,3040.000000
218,-552.000000,3080.000000
219,-552.000000,3040.000000
220,-552.000000,3040.000000
221,-552.000000,3040.000000
222,-552.000000,3040.000000
223,-552.000000,3040.000000
224,-552.000000,3040.000000
225,-552.000000,3040.000000
226,-552.000000,3040.000000
227,-552.000000,3040.000000
228,-552.000000,3040.000000
229,-552.000000,3040.000000
230,-552.000000,3040.000000
231,-552.000000,3040.000000
232,-552.000000,3040.000000
233,-552.000000,3040.000000
234,-552.000000,3040.000000
235,-544.000000,3040.000000
236,-552.000000,3040.000000
237,-552.000000,3040.000000
238,-552.000000,3040.000000
239,-552.000000,3040.000000
240,-552.000000,3040.000000
241,-544.000000,3040.000000
242,-544.000000,3040.000000
243,-552.000000,3040.000000
244,-552.000000,3080.000000
245,-552.000000,3040.000000
246,-552.000000,3040.000000
247,-552.000000,3040.000000
248,-552.000000,3040.000000
249,-552.000000,3040.000000
250,-544.000000,3040.000000
251,-552.000000,3040.000000
252,-552.000000,3080.000000
253,-552.000000,3040.000000
254,-552.000000,3040.000000
255,-552.000000,3040.000000
256,-552.000000,3040.000000
257,-552.000000,3040.000000
258,-552.000000,3040.000000
259,-552.000000,3040.000000
260,-552.000000,3040.000000
261,-552.000000,3040.000000
262,-552.000000,3040.000000
263,-552.000000,3040.000000
264,-552.000000,3040.000000
265,-552.000000,3040.000000
266,-552.000000,3040.000000
267,-552.000000,3040.000000
268,-544.000000,3040.000000
269,-552.000000,3040.000000
270,-544.000000,3040.000000
271,-544.000000,3040.000000
272,-544.000000,3040.000000
273,-552.000000,3080.000000
274,-544.000000,3080.000000
275,-552.000000,3040.000000
276,-544.000000,3040.000000
277,-552.000000,3040.000000
278,-544.000000,3040.000000
279,-544.000000,3040.000000
280,-544.000000,3040.000000
281,-552.000000,3040.000000
282,-544.000000,3040.000000
283,-544.000000,3040.000000
284,-552.000000,3040.000000
285,-544.000000,3040.000000
286,-544.000000,3040.000000
287,-552.000000,3080.000000
288,-552.000000,3040.000000
289,-544.000000,3040.000000
290,-552.000000,3040.000000
291,-552.000000,3040.000000
292,-552.000000,3040.000000
293,-552.000000,3040.000000
294,-544.000000,3040.000000
295,-552.000000,3040.000000
296,-552.000000,3040.000000
297,-552.000000,3040.000000
298,-552.000000,3040.000000
299,-552.000000,3040.000000
300,-552.000000,3040.000000
301,-552.000000,3040.000000
302,-552.000000,3040.000000
303,-552.000000,3040.000000
304,-552.000000,3040.000000
305,-552.000000,3040.000000
306,-552.000000,3080.000000
307,-552.000000,3080.000000
308,-552.000000,3040.000000
309,-552.000000,3040.000000
310,-552.000000,3080.000000
311,-552.000000,3080.000000
312,-552.000000,3040.000000
313,-552.000000,3080.000000
314,-552.000000,3040.000000
315,-552.000000,3080.000000
316,-552.000000,3040.000000
317,-552.000000,3040.000000
318,-552.000000,3040.000000
319,-552.000000,3040.000000
320,-552.000000,3040.000000
321,-552.000000,3040.000000
322,-544.000000,3040.000000
323,-544.000000,3040.000000
324,-552.000000,3040.000000
325,-552.000000,3040.000000
326,-552.000000,3040.000000
327,-552.000000,3040.000000
328,-552.000000,3080.000000
329,-552.000000,3040.000000
330,-544.000000,3040.000000
331,-544.000000,3040.000000
332,-552.000000,3040.000000
333,-552.000000,3040.000000
334,-552.000000,3040.000000
335,-552.000000,3040.000000
336,-552.000000,3080.000000
337,-544.000000,3080.000000
338,-552.000000,3040.000000
339,-552.000000,3040.000000
340,-552.000000,3040.000000
341,-544.000000,3040.000000
342,-552.000000,3040.000000
343,-552.000000,3080.000000
344,-552.000000,3040.000000
345,-552.000000,3040.000000
346,-552.000000,3040.000000
347,-528.000000,3080.000000
348,-544.000000,3040.000000
349,-544.000000,3080.000000
350,-544.000000,3040.000000
351,-544.000000,3040.000000
352,-544.000000,3040.000000
353,-544.000000,3040.000000
354,-544.000000,3040.000000
355,-552.000000,3040.000000
356,-544.000000,3040.000000
357,-544.000000,3040.000000
358,-544.000000,3040.000000
359,-544.000000,3040.000000
360,-552.000000,3040.000000
361,-552.000000,3040.000000
362,-544.000000,3040.000000
363,-552.000000,3080.000000
364,-552.000000,3040.000000
365,-552.000000,3040.000000
366,-552.000000,3040.000000
367,-552.000000,3040.000000
368,-552.000000,3080.000000
369,-552.000000,3040.000000
370,-552.000000,3040.000000
371,-552.000000,3080.000000
372,-552.000000,3080.000000
373,-544.000000,3040.000000
374,-552.000000,3040.000000
375,-552.000000,3040.000000
376,-552.000000,3040.000000
377,-552.000000,3040.000000
378,-552.000000,3040.000000
379,-544.000000,3080.000000
380,-552.000000,3040.000000
381,-552.000000,3080.000000
382,-552.000000,3040.000000
383,-552.000000,3040.000000
384,-552.000000,3040.000000
385,-544.000000,3080.000000
386,-552.000000,3040.000000
387,-552.000000,3040.000000
388,-552.000000,3080.000000
389,-552.000000,3040.000000
390,-552.000000,3040.000000
391,-552.000000,3040.000000
392,-544.000000,3040.000000
393,-552.000000,3040.000000
394,-544.000000,3040.000000
395,-568.000000,3080.000000
396,-544.000000,3040.000000
397,-544.000000,3080.000000
398,-520.000000,3040.000000
399,-552.000000,3040.000000
400,-544.000000,3040.000000
401,-552.000000,3040.000000
402,-552.000000,3040.000000
403,-552.000000,3080.000000
404,-552.000000,3080.000000
405,-552.000000,3080.000000
406,-544.000000,3040.000000
407,-544.000000,3040.000000
408,-552.000000,3040.000000
409,-552.000000,3080.000000
410,-552.000000,3040.000000
411,-544.000000,3040.000000
412,-552.000000,3040.000000
413,-552.000000,3040.000000
414,-552.000000,3040.000000
415,-552.000000,3040.000000
416,-552.000000,3080.000000
417,-552.000000,3040.000000
418,-552.000000,3080.000000
419,-552.000000,3000.000000
420,-552.000000,3040.000000
421,-552.000000,3040.000000
422,-552.000000,3040.000000
423,-552.000000,3040.000000
424,-552.000000,3040.000000
425,-552.000000,3040.000000
426,-544.000000,3040.000000
427,-544.000000,3040.000000
428,-544.000000,3040.000000
429,-544.000000,3040.000000
430,-544.000000,3040.000000
431,-544.000000,3040.000000
432,-544.000000,3040.000000
433,-544.000000,3080.000000
434,-544.000000,3040.000000
435,-544.000000,3080.000000
436,-552.000000,3040.000000
437,-552.000000,3040.000000
438,-544.000000,3040.000000
439,-552.000000,3040.000000
440,-552.000000,3040.000000
441,-552.000000,3040.000000
442,-552.000000,3040.000000
443,-552.000000,3040.000000
444,-552.000000,3040.000000
445,-552.000000,3040.000000
446,-552.000000,3040.000000
447,-552.000000,3040.000000
448,-552.000000,3040.000000
449,-552.000000,3040.000000
450,-552.000000,3080.000000
451,-544.000000,3080.000000
452,-552.000000,3040.000000
453,-552.000000,3040.000000
454,-552.000000,3040.000000
455,-552.000000,3040.000000
456,-552.000000,3040.000000
457,-552.000000,3000.000000
458,-552.000000,3040.000000
459,-552.000000,3040.000000
460,-552.000000,3040.000000
461,-552.000000,3040.000000
462,-544.000000,3040.000000
463,-552.000000,3040.000000
464,-552.000000,3040.000000
465,-552.000000,3040.000000
466,-552.000000,3080.000000
467,-552.000000,3040.000000
468,-552.000000,3040.000000
469,-544.000000,3040.000000
470,-552.000000,3040.000000
471,-552.000000,3040.000000
472,-552.000000,3040.000000
473,-552.000000,3080.000000
474,-552.000000,3040.000000
475,-552.000000,3040.000000
476,-552.000000,3080.000000
477,-552.000000,3040.000000
478,-552.000000,3040.000000
479,-552.000000,3040.000000
480,-552.000000,3040.000000
481,-552.000000,3040.000000
482,-552.000000,3040.000000
483,-552.000000,3040.000000
484,-552.000000,3040.000000
485,-552.000000,3040.000000
486,-552.000000,3040.000000
487,-552.000000,3040.000000
488,-544.000000,3040.000000
489,-552.000000,3080.000000
490,-552.000000,3080.000000
491,-552.000000,3080.000000
492,-552.000000,3040.000000
493,-552.000000,3040.000000
494,-552.000000,3040.000000
495,-552.000000,3040.000000
496,-544.000000,3040.000000
497,-544.000000,3040.000000
498,-552.000000,3040.000000
499,-552.000000,3040.000000
500,-544.000000,3040.000000
501,-544.000000,3040.000000
502,-544.000000,3040.000000
503,-544.000000,3040.000000
504,-544.000000,3040.000000
505,-552.000000,3040.000000
506,-544.000000,3040.000000
507,-544.000000,3040.000000
508,-544.000000,3040.000000
509,-544.000000,3040.000000
510,-544.000000,3080.000000
511,-544.000000,3040.000000
512,-544.000000,3040.000000
513,-552.000000,3040.000000
514,-552.000000,3040.000000
515,-552.000000,3040.000000
516,-552.000000,3040.000000
517,-552.000000,3040.000000
518,-552.000000,3040.000000
519,-552.000000,3040.000000
520,-552.000000,3040.000000
521,-552.000000,3040.000000
522,-552.000000,3040.000000
523,-552.000000,3080.000000
524,-552.000000,3040.000000
525,-552.000000,3040.000000
526,-552.000000,3000.000000
527,-552.000000,3040.000000
528,-552.000000,3040.000000
529,-544.000000,3040.000000
530,-552.000000,3040.000000
531,-544.000000,3040.000000
532,-552.000000,3040.000000
533,-552.000000,3040.000000
534,-552.000000,3040.000000
535,-552.000000,3040.000000
536,-552.000000,3040.000000
537,-552.000000,3040.000000
538,-552.000000,3040.000000
539,-552.000000,3040.000000
540,-552.000000,3040.000000
541,-552.000000,3040.000000
542,-544.000000,3040.000000
543,-552.000000,3040.000000
544,-552.000000,3040.000000
545,-552.000000,3040.000000
546,-552.000000,3040.000000
547,-552.000000,3040.000000
548,-552.000000,3040.000000
549,-552.000000,3080.000000
550,-552.000000,3040.000000
551,-544.000000,3040.000000
552,-560.000000,3040.000000
553,-552.000000,3040.000000
554,-544.000000,3040.000000
555,-552.000000,3040.000000
556,-552.000000,3080.000000
557,-552.000000,3040.000000
558,-552.000000,3040.000000
559,-552.000000,3040.000000
560,-552.000000,3040.000000
561,-552.000000,3040.000000
562,-552.000000,3040.000000
563,-552.000000,3040.000000
564,-552.000000,3040.000000
565,-552.000000,3040.000000
566,-552.000000,3080.000000
567,-552.000000,3040.000000
568,-552.000000,3040.000000
569,-552.000000,3040.000000
570,-552.000000,3080.000000
571,-544.000000,3040.000000
572,-552.000000,3040.000000
573,-544.000000,3040.000000
574,-552.000000,3040.000000
575,-536.000000,3040.000000
576,-544.000000,3040.000000
577,-544.000000,3040.000000
578,-544.000000,3080.000000
579,-544.000000,3040.000000
580,-544.000000,3080.000000
581,-544.000000,3040.000000
582,-552.000000,3080.000000
583,-544.000000,3080.000000
584,-552.000000,3040.000000
585,-552.000000,3040.000000
586,-552.000000,3080.000000
587,-552.000000,3040.000000
588,-552.000000,3040.000000
589,-552.000000,3080.000000
590,-552.000000,3040.000000
591,-552.000000,3040.000000
592,-544.000000,3080.000000
593,-528.000000,3080.000000
594,-544.000000,3040.000000
595,-552.000000,3040.000000
596,-576.000000,3040.000000
597,-544.000000,3080.000000
598,-552.000000,3080.000000
599,-552.000000,3040.000000
600,-552.000000,3040.000000
601,-552.000000,3040.000000
602,-552.000000,3040.000000
603,-536.000000,3080.000000
604,-552.000000,3080.000000
605,-552.000000,3040.000000
606,-552.000000,3040.000000
607,-544.000000,3040.000000
608,-552.000000,3080.000000
609,-552.000000,3040.000000
610,-552.000000,3040.000000
611,-552.000000,3040.000000
612,-544.000000,3040.000000
613,-552.000000,3040.000000
614,-552.000000,3040.000000
615,-552.000000,3040.000000
616,-552.000000,3040.000000
617,-552.000000,3040.000000
618,-552.000000,3040.000000
619,-552.000000,3040.000000
620,-552.000000,3040.000000
621,-552.000000,3040.000000
622,-552.000000,3040.000000
623,-552.000000,3040.000000
624,-552.000000,3040.000000
625,-552.000000,3040.000000
626,-552.000000,3040.000000
627,-544.000000,3080.000000
628,-552.000000,3040.000000
629,-552.000000,3040.000000
630,-552.000000,3040.000000
631,-552.000000,3040.000000
632,-552.000000,3080.000000
633,-544.000000,3040.000000
634,-552.000000,3040.000000
635,-552.000000,3040.000000
636,-552.000000,3080.000000
637,-552.000000,3040.000000
638,-552.000000,3040.000000
639,-552.000000,3040.000000
640,-552.000000,3080.000000
641,-544.000000,3080.000000
642,-544.000000,3040.000000
643,-552.000000,3040.000000
644,-544.000000,3040.000000
645,-544.000000,3040.000000
646,-552.000000,3080.000000
647,-552.000000,3040.000000
648,-552.000000,3080.000000
649,-544.000000,3040.000000
650,-544.000000,3040.000000
651,-552.000000,3040.000000
652,-552.000000,3040.000000
653,-544.000000,3040.000000
654,-544.000000,3040.000000
655,-544.000000,3040.000000
656,-544.000000,3040.000000
657,-544.000000,3040.000000
658,-544.000000,3040.000000
659,-544.000000,3080.000000
660,-552.000000,3040.000000
661,-544.000000,3040.000000
662,-544.000000,3040.000000
663,-552.000000,3040.000000
664,-552.000000,3040.000000
665,-552.000000,3040.000000
666,-552.000000,3040.000000
667,-552.000000,3080.000000
668,-552.000000,3040.000000
669,-552.000000,3040.000000
670,-552.000000,3040.000000
671,-560.000000,3080.000000
672,-552.000000,3040.000000
673,-544.000000,3040.000000
674,-552.000000,3040.000000
675,-552.000000,3040.000000
676,-544.000000,3080.000000
677,-552.000000,3040.000000
678,-552.000000,3080.000000
679,-552.000000,3080.000000
680,-552.000000,3040.000000
681,-552.000000,3040.000000
682,-552.000000,3040.000000
683,-552.000000,3040.000000
684,-544.000000,3040.000000
685,-552.000000,3040.000000
686,-552.000000,3040.000000
687,-552.000000,3040.000000
688,-544.000000,3040.000000
689,-552.000000,3080.000000
690,-544.000000,3040.000000
691,-544.000000,3040.000000
692,-552.000000,3080.000000
693,-552.000000,3080.000000
694,-552.000000,3080.000000
695,-552.000000,3040.000000
696,-552.000000,3040.000000
697,-552.000000,3040.000000
698,-552.000000,3080.000000
699,-552.000000,3040.000000
700,-552.000000,3040.000000
701,-552.000000,3040.000000
702,-552.000000,3040.000000
703,-552.000000,3040.000000
704,-552.000000,3040.000000
705,-552.000000,3080.000000
706,-552.000000,3080.000000
707,-552.000000,3040.000000
