repport_data/pow_reoptimization_6_report_3_levels/data_59_000.csv

Channel              :,CH1,CH2
Frequency            :,  ?,  ?
Period               :,  ?,  ?
PK-PK                :,992.0mV,160.0mV
Probe attenuation    :,1X,1X
Voltage per ADC value:,0.500000mV,2.500000mV
Time interval        :,200.00000uS,200.00000uS

index,CH1_Voltage(mV),CH2_Voltage(mV)
1,752.000000,3080.000000
2,752.000000,3080.000000
3,744.000000,3040.000000
4,736.000000,3040.000000
5,728.000000,3040.000000
6,728.000000,3040.000000
7,720.000000,3040.000000
8,712.000000,3040.000000
9,712.000000,3040.000000
10,704.000000,3080.000000
11,704.000000,3040.000000
12,704.000000,3040.000000
13,696.000000,3040.000000
14,696.000000,3080.000000
15,696.000000,3040.000000
16,688.000000,3040.000000
17,680.000000,3040.000000
18,672.000000,3040.000000
19,680.000000,3080.000000
20,680.000000,3040.000000
21,680.000000,3080.000000
22,672.000000,3080.000000
23,672.000000,3040.000000
24,672.000000,3040.000000
25,664.000000,3040.000000
26,664.000000,3080.000000
27,664.000000,3040.000000
28,664.000000,3040.000000
29,664.000000,3080.000000
30,656.000000,3040.000000
31,656.000000,3040.000000
32,648.000000,3080.000000
33,656.000000,3040.000000
34,656.000000,3040.000000
35,656.000000,3080.000000
36,656.000000,3080.000000
37,656.000000,3040.000000
38,648.000000,3040.000000
39,648.000000,3040.000000
40,640.000000,3040.000000
41,648.000000,3080.000000
42,648.000000,3040.000000
43,640.000000,3040.000000
44,648.000000,3080.000000
45,648.000000,3040.000000
46,640.000000,3040.000000
47,640.000000,3040.000000
48,648.000000,3040.000000
49,640.000000,3040.000000
50,648.000000,3080.000000
51,640.000000,3040.000000
52,640.000000,3040.000000
53,640.000000,3040.000000
54,640.000000,3040.000000
55,640.000000,3040.000000
56,632.000000,3040.000000
57,640.000000,3040.000000
58,640.000000,3080.000000
59,640.000000,3040.000000
60,640.000000,3040.000000
61,640.000000,3040.000000
62,632.000000,3080.000000
63,640.000000,3040.000000
64,640.000000,3080.000000
65,656.000000,3040.000000
66,640.000000,3040.000000
67,640.000000,3040.000000
68,640.000000,3040.000000
69,632.000000,3040.000000
70,632.000000,3040.000000
71,640.000000,3040.000000
72,640.000000,3040.000000
73,640.000000,3080.000000
74,632.000000,3040.000000
75,656.000000,3080.000000
76,672.000000,3080.000000
77,680.000000,3080.000000
78,664.000000,3040.000000
79,664.000000,3040.000000
80,664.000000,3040.000000
81,664.000000,3040.000000
82,664.000000,3080.000000
83,664.000000,3040.000000
84,664.000000,3040.000000
85,656.000000,3040.000000
86,648.000000,3040.000000
87,648.000000,3040.000000
88,648.000000,3040.000000
89,656.000000,3080.000000
90,648.000000,3080.000000
91,648.000000,3040.000000
92,648.000000,3080.000000
93,648.000000,3040.000000
94,656.000000,3040.000000
95,656.000000,3040.000000
96,656.000000,3080.000000
97,656.000000,3040.000000
98,656.000000,3040.000000
99,648.000000,3040.000000
100,656.000000,3040.000000
101,656.000000,3040.000000
102,648.000000,3080.000000
103,648.000000,3040.000000
104,648.000000,3040.000000
105,648.000000,3080.000000
106,648.000000,3040.000000
107,648.000000,3080.000000
108,648.000000,3040.000000
109,648.000000,3080.000000
110,648.000000,3040.000000
111,648.000000,3040.000000
112,648.000000,3080.000000
113,640.000000,3040.000000
114,640.000000,3040.000000
115,648.000000,3040.000000
116,640.000000,3040.000000
117,640.000000,3040.000000
118,648.000000,3080.000000
119,640.000000,3040.000000
120,632.000000,3040.000000
121,640.000000,3040.000000
122,656.000000,3040.000000
123,648.000000,3040.000000
124,568.000000,3040.000000
125,512.000000,3040.000000
126,464.000000,3040.000000
127,400.000000,3040.000000
128,368.000000,3080.000000
129,336.000000,3040.000000
130,288.000000,3080.000000
131,256.000000,3040.000000
132,224.000000,3040.000000
133,184.000000,3040.000000
134,168.000000,3040.000000
135,144.000000,3040.000000
136,120.000000,3040.000000
137,96.000000,3040.000000
138,72.000000,3040.000000
139,56.000000,3040.000000
140,40.000000,3040.000000
141,24.000000,3040.000000
142,8.000000,3040.000000
143,-8.000000,3040.000000
144,-8.000000,3040.000000
145,-24.000000,3080.000000
146,-32.000000,3040.000000
147,-48.000000,3080.000000
148,-56.000000,3040.000000
149,-64.000000,3080.000000
150,-72.000000,3040.000000
151,-80.000000,3040.000000
152,-80.000000,3040.000000
153,-88.000000,3040.000000
154,-96.000000,3080.000000
155,-104.000000,3040.000000
156,-104.000000,3040.000000
157,-112.000000,3040.000000
158,-120.000000,3040.000000
159,-120.000000,3080.000000
160,-128.000000,3080.000000
161,-128.000000,3040.000000
162,-136.000000,3080.000000
163,-136.000000,3080.000000
164,-136.000000,3080.000000
165,-144.000000,3040.000000
166,-136.000000,3040.000000
167,-144.000000,3040.000000
168,-144.000000,3040.000000
169,-144.000000,3040.000000
170,-144.000000,3080.000000
171,-152.000000,3040.000000
172,-152.000000,3040.000000
173,-152.000000,3040.000000
174,-152.000000,3040.000000
175,-152.000000,3080.000000
176,-152.000000,3040.000000
177,-152.000000,3040.000000
178,-152.000000,3040.000000
179,-160.000000,3080.000000
180,-152.000000,3040.000000
181,-152.000000,3080.000000
182,-160.000000,3080.000000
183,-160.000000,3080.000000
184,-168.000000,3080.000000
185,-168.000000,3080.000000
186,-160.000000,3080.000000
187,-160.000000,3040.000000
188,-160.000000,3040.000000
189,-160.000000,3040.000000
190,-168.000000,3040.000000
191,-168.000000,3040.000000
192,-168.000000,3040.000000
193,-160.000000,3040.000000
194,-160.000000,3040.000000
195,-160.000000,3040.000000
196,-160.000000,3040.000000
197,-160.000000,3040.000000
198,-168.000000,3080.000000
199,-160.000000,3040.000000
200,-168.000000,3040.000000
201,-168.000000,3080.000000
202,-168.000000,3040.000000
203,-168.000000,3040.000000
204,-168.000000,3040.000000
205,-168.000000,3040.000000
206,-160.000000,3040.000000
207,-168.000000,3040.000000
208,-168.000000,3080.000000
209,-168.000000,3040.000000
210,-168.000000,3040.000000
211,-168.000000,3040.000000
212,-168.000000,3040.000000
213,-168.000000,3040.000000
214,-168.000000,3080.000000
215,-168.000000,3040.000000
216,-168.000000,3080.000000
217,-160.000000,3080.000000
218,-160.000000,3040.000000
219,-160.000000,3040.000000
220,-168.000000,3080.000000
221,-168.000000,3040.000000
222,-168.000000,3080.000000
223,-168.000000,3080.000000
224,-168.000000,3040.000000
225,-168.000000,3040.000000
226,-160.000000,3080.000000
227,-160.000000,3080.000000
228,-168.000000,3040.000000
229,-168.000000,3080.000000
230,-160.000000,3040.000000
231,-160.000000,3080.000000
232,-168.000000,3040.000000
233,-168.000000,3040.000000
234,-168.000000,3040.000000
235,-168.000000,3040.000000
236,-160.000000,3040.000000
237,-168.000000,3040.000000
238,-168.000000,3040.000000
239,-168.000000,3080.000000
240,-168.000000,3040.000000
241,-168.000000,3040.000000
242,-160.000000,3040.000000
243,-168.000000,3040.000000
244,-168.000000,3040.000000
245,-168.000000,3040.000000
246,-160.000000,3040.000000
247,-168.000000,3040.000000
248,-168.000000,3080.000000
249,-160.000000,3080.000000
250,-160.000000,3080.000000
251,-168.000000,3080.000000
252,-168.000000,3080.000000
253,-160.000000,3040.000000
254,-168.000000,3080.000000
255,-168.000000,3040.000000
256,-168.000000,3040.000000
257,-168.000000,3040.000000
258,-160.000000,3040.000000
259,-168.000000,3040.000000
260,-168.000000,3080.000000
261,-168.000000,3080.000000
262,-160.000000,3040.000000
263,-168.000000,3080.000000
264,-168.000000,3080.000000
265,-168.000000,3080.000000
266,-168.000000,3040.000000
267,-168.000000,3080.000000
268,-168.000000,3040.000000
269,-168.000000,3080.000000
270,-168.000000,3040.000000
271,-168.000000,3080.000000
272,-168.000000,3040.000000
273,-168.000000,3080.000000
274,-168.000000,3080.000000
275,-168.000000,3040.000000
276,-160.000000,3040.000000
277,-160.000000,3080.000000
278,-168.000000,3080.000000
279,-168.000000,3080.000000
280,-168.000000,3040.000000
281,-168.000000,3040.000000
282,-168.000000,3080.000000
283,-168.000000,3080.000000
284,-168.000000,3040.000000
285,-168.000000,3040.000000
286,-168.000000,3040.000000
287,-160.000000,3040.000000
288,-168.000000,3040.000000
289,-168.000000,3040.000000
290,-168.000000,3080.000000
291,-160.000000,3040.000000
292,-168.000000,3040.000000
293,-168.000000,3040.000000
294,-168.000000,3040.000000
295,-168.000000,3040.000000
296,-160.000000,3080.000000
297,-160.000000,3040.000000
298,-168.000000,3040.000000
299,-168.000000,3080.000000
300,-168.000000,3080.000000
301,-160.000000,3080.000000
302,-168.000000,3080.000000
303,-168.000000,3040.000000
304,-160.000000,3040.000000
305,-160.000000,3040.000000
306,-168.000000,3040.000000
307,-168.000000,3040.000000
308,-168.000000,3080.000000
309,-168.000000,3040.000000
310,-168.000000,3040.000000
311,-168.000000,3040.000000
312,-168.000000,3040.000000
313,-168.000000,3040.000000
314,-160.000000,3080.000000
315,-168.000000,3080.000000
316,-168.000000,3080.000000
317,-168.000000,3080.000000
318,-168.000000,3040.000000
319,-168.000000,3040.000000
320,-160.000000,3080.000000
321,-168.000000,3040.000000
322,-168.000000,3040.000000
323,-152.000000,3040.000000
324,-176.000000,3040.000000
325,-168.000000,3080.000000
326,-160.000000,3080.000000
327,-160.000000,3040.000000
328,-160.000000,3080.000000
329,-168.000000,3040.000000
330,-168.000000,3040.000000
331,-160.000000,3040.000000
332,-168.000000,3080.000000
333,-160.000000,3040.000000
334,-160.000000,3040.000000
335,-168.000000,3040.000000
336,-168.000000,3080.000000
337,-168.000000,3080.000000
338,-168.000000,3080.000000
339,-168.000000,3080.000000
340,-168.000000,3040.000000
341,-168.000000,3040.000000
342,-168.000000,3080.000000
343,-160.000000,3040.000000
344,-160.000000,3040.000000
345,-168.000000,3040.000000
346,-160.000000,3040.000000
347,-168.000000,3040.000000
348,-168.000000,3040.000000
349,-168.000000,3080.000000
350,-168.000000,3040.000000
351,-160.000000,3040.000000
352,-168.000000,3040.000000
353,-160.000000,3080.000000
354,-160.000000,3040.000000
355,-168.000000,3040.000000
356,-168.000000,3040.000000
357,-168.000000,3040.000000
358,-160.000000,3040.000000
359,-168.000000,3040.000000
360,-168.000000,3040.000000
361,-168.000000,3040.000000
362,-160.000000,3040.000000
363,-160.000000,3040.000000
364,-168.000000,3040.000000
365,-168.000000,3040.000000
366,-168.000000,3040.000000
367,-168.000000,3040.000000
368,-168.000000,3080.000000
369,-160.000000,3080.000000
370,-168.000000,3040.000000
371,-168.000000,3080.000000
372,-168.000000,3040.000000
373,-168.000000,3040.000000
374,-160.000000,3040.000000
375,-120.000000,3040.000000
376,-96.000000,3040.000000
377,-56.000000,3040.000000
378,-24.000000,3080.000000
379,8.000000,3080.000000
380,32.000000,3040.000000
381,56.000000,3040.000000
382,72.000000,3040.000000
383,88.000000,3040.000000
384,96.000000,3040.000000
385,104.000000,3040.000000
386,104.000000,3040.000000
387,72.000000,3040.000000
388,56.000000,3040.000000
389,40.000000,3040.000000
390,16.000000,3040.000000
391,0.000000,3080.000000
392,-16.000000,3080.000000
393,-24.000000,3040.000000
394,-32.000000,3040.000000
395,-40.000000,3040.000000
396,-48.000000,3040.000000
397,-64.000000,3080.000000
398,-72.000000,3080.000000
399,-80.000000,3040.000000
400,-88.000000,3040.000000
401,-96.000000,3040.000000
402,-104.000000,3040.000000
403,-104.000000,3040.000000
404,-112.000000,3080.000000
405,-120.000000,3040.000000
406,-120.000000,3040.000000
407,-128.000000,3040.000000
408,-128.000000,3040.000000
409,-136.000000,3080.000000
410,-136.000000,3040.000000
411,-136.000000,3080.000000
412,-136.000000,3040.000000
413,-144.000000,3080.000000
414,-144.000000,3080.000000
415,-144.000000,3040.000000
416,-144.000000,3040.000000
417,-152.000000,3040.000000
418,-152.000000,3040.000000
419,-144.000000,3080.000000
420,-152.000000,3040.000000
421,-144.000000,3040.000000
422,-152.000000,3040.000000
423,-160.000000,3040.000000
424,-152.000000,3040.000000
425,-152.000000,3080.000000
426,-160.000000,3040.000000
427,-160.000000,3080.000000
428,-160.000000,3040.000000
429,-160.000000,3080.000000
430,-160.000000,3080.000000
431,-160.000000,3080.000000
432,-160.000000,3040.000000
433,-160.000000,3080.000000
434,-168.000000,3040.000000
435,-160.000000,3040.000000
436,-160.000000,3040.000000
437,-168.000000,3040.000000
438,-160.000000,3040.000000
439,-160.000000,3040.000000
440,-160.000000,3080.000000
441,-168.000000,3040.000000
442,-160.000000,3040.000000
443,-168.000000,3040.000000
444,-160.000000,3040.000000
445,-168.000000,3080.000000
446,-160.000000,3040.000000
447,-160.000000,3080.000000
448,-160.000000,3080.000000
449,-160.000000,3080.000000
450,-168.000000,3080.000000
451,-160.000000,3040.000000
452,-160.000000,3080.000000
453,-160.000000,3040.000000
454,-168.000000,3080.000000
455,-160.000000,3040.000000
456,-160.000000,3080.000000
457,-168.000000,3040.000000
458,-168.000000,3080.000000
459,-160.000000,3040.000000
460,-168.000000,3040.000000
461,-160.000000,3040.000000
462,-160.000000,3040.000000
463,-160.000000,3080.000000
464,-168.000000,3040.000000
465,-168.000000,3080.000000
466,-168.000000,3080.000000
467,-160.000000,3040.000000
468,-160.000000,3040.000000
469,-168.000000,3040.000000
470,-168.000000,3040.000000
471,-168.000000,3040.000000
472,-168.000000,3040.000000
473,-168.000000,3080.000000
474,-168.000000,3040.000000
475,-168.000000,3040.000000
476,-160.000000,3040.000000
477,-168.000000,3080.000000
478,-168.000000,3040.000000
479,-160.000000,3040.000000
480,-160.000000,3080.000000
481,-168.000000,3040.000000
482,-168.000000,3080.000000
483,-168.000000,3040.000000
484,-160.000000,3040.000000
485,-160.000000,3080.000000
486,-168.000000,3040.000000
487,-160.000000,3040.000000
488,-160.000000,3040.000000
489,-160.000000,3080.000000
490,-160.000000,3080.000000
491,-168.000000,3040.000000
492,-168.000000,3080.000000
493,-168.000000,3080.000000
494,-168.000000,3080.000000
495,-160.000000,3040.000000
496,-160.000000,3040.000000
497,-160.000000,3040.000000
498,-168.000000,3040.000000
499,-160.000000,3040.000000
500,-168.000000,3040.000000
501,-160.000000,3040.000000
502,-168.000000,3080.000000
503,-168.000000,3040.000000
504,-168.000000,3040.000000
505,-160.000000,3040.000000
506,-160.000000,3040.000000
507,-168.000000,3080.000000
508,-168.000000,3040.000000
509,-160.000000,3040.000000
510,-160.000000,3040.000000
511,-168.000000,3040.000000
512,-160.000000,3080.000000
513,-160.000000,3080.000000
514,-160.000000,3080.000000
515,-160.000000,3040.000000
516,-168.000000,3080.000000
517,-168.000000,3040.000000
518,-168.000000,3080.000000
519,-168.000000,3080.000000
520,-168.000000,3040.000000
521,-160.000000,3040.000000
522,-160.000000,3040.000000
523,-168.000000,3040.000000
524,-168.000000,3040.000000
525,-168.000000,3040.000000
526,-168.000000,3040.000000
527,-160.000000,3040.000000
528,-160.000000,3040.000000
529,-160.000000,3040.000000
530,-168.000000,3040.000000
531,-168.000000,3080.000000
532,-168.000000,3080.000000
533,-168.000000,3040.000000
534,-168.000000,3080.000000
535,-168.000000,3040.000000
536,-168.000000,3040.000000
537,-160.000000,3040.000000
538,-160.000000,3080.000000
539,-168.000000,3080.000000
540,-168.000000,3040.000000
541,-168.000000,3040.000000
542,-160.000000,3040.000000
543,-160.000000,3040.000000
544,-168.000000,3040.000000
545,-168.000000,3040.000000
546,-168.000000,3040.000000
547,-160.000000,3040.000000
548,-168.000000,3040.000000
549,-160.000000,3040.000000
550,-168.000000,3040.000000
551,-168.000000,3080.000000
552,-160.000000,3080.000000
553,-168.000000,3080.000000
554,-160.000000,3040.000000
555,-160.000000,3080.000000
556,-160.000000,3040.000000
557,-168.000000,3040.000000
558,-168.000000,3040.000000
559,-160.000000,3040.000000
560,-160.000000,3040.000000
561,-160.000000,3040.000000
562,-160.000000,3040.000000
563,-168.000000,3040.000000
564,-168.000000,3080.000000
565,-160.000000,3040.000000
566,-168.000000,3080.000000
567,-168.000000,3040.000000
568,-160.000000,3040.000000
569,-168.000000,3040.000000
570,-160.000000,3040.000000
571,-168.000000,3040.000000
572,-168.000000,3040.000000
573,-168.000000,3040.000000
574,-168.000000,3080.000000
575,-160.000000,3040.000000
576,-168.000000,3040.000000
577,-168.000000,3040.000000
578,-160.000000,3040.000000
579,-168.000000,3040.000000
580,-160.000000,3040.000000
581,-160.000000,3080.000000
582,-168.000000,3080.000000
583,-160.000000,3080.000000
584,-160.000000,3040.000000
585,-168.000000,3080.000000
586,-168.000000,3080.000000
587,-168.000000,3040.000000
588,-168.000000,3080.000000
589,-168.000000,3040.000000
590,-160.000000,3040.000000
591,-168.000000,3080.000000
592,-168.000000,3040.000000
593,-168.000000,3080.000000
594,-168.000000,3040.000000
595,-168.000000,3040.000000
596,-168.000000,3040.000000
597,-168.000000,3040.000000
598,-168.000000,3040.000000
599,-168.000000,3080.000000
600,-168.000000,3040.000000
601,-168.000000,3040.000000
602,-160.000000,3040.000000
603,-168.000000,3080.000000
604,-160.000000,3040.000000
605,-168.000000,3040.000000
606,-168.000000,3080.000000
607,-160.000000,3040.000000
608,-168.000000,3040.000000
609,-168.000000,3080.000000
610,-160.000000,3040.000000
611,-160.000000,3080.000000
612,-160.000000,3040.000000
613,-168.000000,3040.000000
614,-168.000000,3080.000000
615,-168.000000,3080.000000
616,-160.000000,3040.000000
617,-168.000000,3040.000000
618,-160.000000,3040.000000
619,-168.000000,3040.000000
620,-168.000000,3080.000000
621,-160.000000,3040.000000
622,-168.000000,3080.000000
623,-168.000000,3040.000000
624,-160.000000,3040.000000
625,-160.000000,3040.000000
626,-120.000000,3040.000000
627,-88.000000,3040.000000
628,-48.000000,3040.000000
629,-24.000000,3040.000000
630,16.000000,3040.000000
631,40.000000,3040.000000
632,56.000000,3040.000000
633,72.000000,3040.000000
634,88.000000,3040.000000
635,96.000000,3040.000000
636,112.000000,3080.000000
637,112.000000,3040.000000
638,96.000000,3040.000000
639,72.000000,3080.000000
640,56.000000,3080.000000
641,32.000000,3040.000000
642,16.000000,3040.000000
643,0.000000,3080.000000
644,-8.000000,3040.000000
645,-24.000000,3080.000000
646,-40.000000,3040.000000
647,-48.000000,3080.000000
648,-56.000000,3080.000000
649,-64.000000,3040.000000
650,-72.000000,3040.000000
651,-88.000000,3040.000000
652,-88.000000,3040.000000
653,-96.000000,3040.000000
654,-104.000000,3040.000000
655,-104.000000,3080.000000
656,-112.000000,3040.000000
657,-112.000000,3080.000000
658,-120.000000,3040.000000
659,-128.000000,3040.000000
660,-128.000000,3040.000000
661,-128.000000,3040.000000
662,-136.000000,3040.000000
663,-136.000000,3040.000000
664,-136.000000,3040.000000
665,-136.000000,3040.000000
666,-144.000000,3040.000000
667,-144.000000,3040.000000
668,-144.000000,3040.000000
669,-152.000000,3040.000000
670,-136.000000,3040.000000
671,-144.000000,3040.000000
672,-152.000000,3040.000000
673,-152.000000,3040.000000
674,-152.000000,3080.000000
675,-160.000000,3080.000000
676,-152.000000,3080.000000
677,-152.000000,3080.000000
678,-152.000000,3080.000000
679,-152.000000,3080.000000
680,-160.000000,3080.000000
681,-160.000000,3080.000000
682,-160.000000,3080.000000
683,-160.000000,3040.000000
684,-160.000000,3040.000000
685,-160.000000,3080.000000
686,-160.000000,3040.000000
687,-160.000000,3040.000000
688,-160.000000,3040.000000
689,-168.000000,3040.000000
690,-160.000000,3080.000000
691,-160.000000,3040.000000
692,-160.000000,3080.000000
693,-168.000000,3080.000000
694,-160.000000,3040.000000
695,-160.000000,3080.000000
696,-160.000000,3080.000000
697,-168.000000,3040.000000
698,-168.000000,3040.000000
699,-160.000000,3040.000000
700,-160.000000,3040.000000
701,-168.000000,3040.000000
702,-160.000000,3040.000000
703,-168.000000,3040.000000
704,-160.000000,3040.000000
705,-160.000000,3040.000000
706,-160.000000,3080.000000
707,-160.000000,3040.000000
708,-168.000000,3040.000000
709,-160.000000,3040.000000
710,-168.000000,3080.000000
711,-160.000000,3080.000000
712,-168.000000,3080.000000
713,-160.000000,3040.000000
714,-168.000000,3040.000000
715,-168.000000,3040.000000
716,-160.000000,3040.000000
